{"frames": {

"baseball_ball_loop2_glow":
{
	"frame": {"x":230,"y":544,"w":66,"h":66},
	"rotated": false,
	"trimmed": false,
	"spriteSourceSize": {"x":0,"y":0,"w":66,"h":66},
	"sourceSize": {"w":66,"h":66}
},
"baseball_ball_loop3_glow":
{
	"frame": {"x":159,"y":547,"w":66,"h":66},
	"rotated": false,
	"trimmed": false,
	"spriteSourceSize": {"x":0,"y":0,"w":66,"h":66},
	"sourceSize": {"w":66,"h":66}
},
"baseball_ball_loop4_glow":
{
	"frame": {"x":159,"y":475,"w":69,"h":70},
	"rotated": false,
	"trimmed": false,
	"spriteSourceSize": {"x":0,"y":0,"w":69,"h":70},
	"sourceSize": {"w":69,"h":70}
},
"loop2_fx/baseball_loop2_fx_00":
{
	"frame": {"x":271,"y":703,"w":50,"h":83},
	"rotated": false,
	"trimmed": true,
	"spriteSourceSize": {"x":25,"y":18,"w":50,"h":83},
	"sourceSize": {"w":77,"h":128}
},
"loop2_fx/baseball_loop2_fx_01":
{
	"frame": {"x":110,"y":550,"w":47,"h":85},
	"rotated": false,
	"trimmed": true,
	"spriteSourceSize": {"x":28,"y":18,"w":47,"h":85},
	"sourceSize": {"w":77,"h":128}
},
"loop2_fx/baseball_loop2_fx_02":
{
	"frame": {"x":972,"y":716,"w":50,"h":88},
	"rotated": false,
	"trimmed": true,
	"spriteSourceSize": {"x":25,"y":17,"w":50,"h":88},
	"sourceSize": {"w":77,"h":128}
},
"loop2_fx/baseball_loop2_fx_03":
{
	"frame": {"x":812,"y":787,"w":52,"h":91},
	"rotated": false,
	"trimmed": true,
	"spriteSourceSize": {"x":23,"y":16,"w":52,"h":91},
	"sourceSize": {"w":77,"h":128}
},
"loop2_fx/baseball_loop2_fx_04":
{
	"frame": {"x":952,"y":900,"w":50,"h":85},
	"rotated": false,
	"trimmed": true,
	"spriteSourceSize": {"x":25,"y":17,"w":50,"h":85},
	"sourceSize": {"w":77,"h":128}
},
"loop2_fx/baseball_loop2_fx_05":
{
	"frame": {"x":740,"y":793,"w":52,"h":88},
	"rotated": false,
	"trimmed": true,
	"spriteSourceSize": {"x":22,"y":16,"w":52,"h":88},
	"sourceSize": {"w":77,"h":128}
},
"loop2_fx/baseball_loop2_fx_06":
{
	"frame": {"x":838,"y":693,"w":56,"h":92},
	"rotated": false,
	"trimmed": true,
	"spriteSourceSize": {"x":19,"y":14,"w":56,"h":92},
	"sourceSize": {"w":77,"h":128}
},
"loop2_fx/baseball_loop2_fx_07":
{
	"frame": {"x":866,"y":812,"w":51,"h":85},
	"rotated": false,
	"trimmed": true,
	"spriteSourceSize": {"x":24,"y":17,"w":51,"h":85},
	"sourceSize": {"w":77,"h":128}
},
"loop2_fx/baseball_loop2_fx_08":
{
	"frame": {"x":2,"y":809,"w":54,"h":89},
	"rotated": false,
	"trimmed": true,
	"spriteSourceSize": {"x":21,"y":16,"w":54,"h":89},
	"sourceSize": {"w":77,"h":128}
},
"loop2_fx/baseball_loop2_fx_09":
{
	"frame": {"x":896,"y":718,"w":56,"h":92},
	"rotated": false,
	"trimmed": true,
	"spriteSourceSize": {"x":19,"y":15,"w":56,"h":92},
	"sourceSize": {"w":77,"h":128}
},
"loop2_fx/baseball_loop2_fx_10":
{
	"frame": {"x":111,"y":806,"w":45,"h":82},
	"rotated": false,
	"trimmed": true,
	"spriteSourceSize": {"x":30,"y":19,"w":45,"h":82},
	"sourceSize": {"w":77,"h":128}
},
"loop2_fx/baseball_loop2_fx_11":
{
	"frame": {"x":111,"y":637,"w":46,"h":86},
	"rotated": false,
	"trimmed": true,
	"spriteSourceSize": {"x":29,"y":18,"w":46,"h":86},
	"sourceSize": {"w":77,"h":128}
},
"loop2_fx/baseball_loop2_fx_12":
{
	"frame": {"x":111,"y":900,"w":49,"h":90},
	"rotated": false,
	"trimmed": true,
	"spriteSourceSize": {"x":26,"y":17,"w":49,"h":90},
	"sourceSize": {"w":77,"h":128}
},
"loop2_fx/baseball_loop2_fx_13":
{
	"frame": {"x":2,"y":703,"w":51,"h":93},
	"rotated": false,
	"trimmed": true,
	"spriteSourceSize": {"x":24,"y":16,"w":51,"h":93},
	"sourceSize": {"w":77,"h":128}
},
"loop2_fx/baseball_loop2_fx_14":
{
	"frame": {"x":215,"y":899,"w":49,"h":87},
	"rotated": false,
	"trimmed": true,
	"spriteSourceSize": {"x":26,"y":18,"w":49,"h":87},
	"sourceSize": {"w":77,"h":128}
},
"loop2_fx/baseball_loop2_fx_15":
{
	"frame": {"x":972,"y":624,"w":50,"h":90},
	"rotated": false,
	"trimmed": true,
	"spriteSourceSize": {"x":25,"y":17,"w":50,"h":90},
	"sourceSize": {"w":77,"h":128}
},
"loop2_fx/baseball_loop2_fx_16":
{
	"frame": {"x":2,"y":900,"w":52,"h":95},
	"rotated": false,
	"trimmed": true,
	"spriteSourceSize": {"x":23,"y":16,"w":52,"h":95},
	"sourceSize": {"w":77,"h":128}
},
"loop2_fx/baseball_loop2_fx_17":
{
	"frame": {"x":162,"y":900,"w":51,"h":88},
	"rotated": false,
	"trimmed": true,
	"spriteSourceSize": {"x":24,"y":17,"w":51,"h":88},
	"sourceSize": {"w":77,"h":128}
},
"loop2_fx/baseball_loop2_fx_18":
{
	"frame": {"x":55,"y":703,"w":54,"h":91},
	"rotated": false,
	"trimmed": true,
	"spriteSourceSize": {"x":21,"y":16,"w":54,"h":91},
	"sourceSize": {"w":77,"h":128}
},
"loop2_fx/baseball_loop2_fx_19":
{
	"frame": {"x":409,"y":507,"w":57,"h":95},
	"rotated": false,
	"trimmed": true,
	"spriteSourceSize": {"x":18,"y":15,"w":57,"h":95},
	"sourceSize": {"w":77,"h":128}
},
"loop2_fx/baseball_loop2_fx_20":
{
	"frame": {"x":586,"y":799,"w":45,"h":80},
	"rotated": false,
	"trimmed": true,
	"spriteSourceSize": {"x":30,"y":20,"w":45,"h":80},
	"sourceSize": {"w":77,"h":128}
},
"loop2_fx/baseball_loop2_fx_21":
{
	"frame": {"x":314,"y":809,"w":45,"h":82},
	"rotated": false,
	"trimmed": true,
	"spriteSourceSize": {"x":30,"y":19,"w":45,"h":82},
	"sourceSize": {"w":77,"h":128}
},
"loop2_fx/baseball_loop2_fx_22":
{
	"frame": {"x":265,"y":809,"w":47,"h":85},
	"rotated": false,
	"trimmed": true,
	"spriteSourceSize": {"x":28,"y":18,"w":47,"h":85},
	"sourceSize": {"w":77,"h":128}
},
"loop2_fx/baseball_loop2_fx_23":
{
	"frame": {"x":214,"y":809,"w":49,"h":88},
	"rotated": false,
	"trimmed": true,
	"spriteSourceSize": {"x":26,"y":17,"w":49,"h":88},
	"sourceSize": {"w":77,"h":128}
},
"loop2_fx/baseball_loop2_fx_24":
{
	"frame": {"x":58,"y":796,"w":51,"h":91},
	"rotated": false,
	"trimmed": true,
	"spriteSourceSize": {"x":24,"y":16,"w":51,"h":91},
	"sourceSize": {"w":77,"h":128}
},
"loop2_fx/baseball_loop2_fx_25":
{
	"frame": {"x":794,"y":880,"w":51,"h":85},
	"rotated": false,
	"trimmed": true,
	"spriteSourceSize": {"x":24,"y":17,"w":51,"h":85},
	"sourceSize": {"w":77,"h":128}
},
"loop2_fx/baseball_loop2_fx_26":
{
	"frame": {"x":159,"y":782,"w":53,"h":88},
	"rotated": false,
	"trimmed": true,
	"spriteSourceSize": {"x":21,"y":16,"w":53,"h":88},
	"sourceSize": {"w":77,"h":128}
},
"loop2_fx/baseball_loop2_fx_27":
{
	"frame": {"x":954,"y":806,"w":56,"h":92},
	"rotated": false,
	"trimmed": true,
	"spriteSourceSize": {"x":19,"y":14,"w":56,"h":92},
	"sourceSize": {"w":77,"h":128}
},
"loop2_fx/baseball_loop2_fx_28":
{
	"frame": {"x":899,"y":899,"w":51,"h":85},
	"rotated": false,
	"trimmed": true,
	"spriteSourceSize": {"x":24,"y":17,"w":51,"h":85},
	"sourceSize": {"w":77,"h":128}
},
"loop2_fx/baseball_loop2_fx_29":
{
	"frame": {"x":215,"y":696,"w":54,"h":88},
	"rotated": false,
	"trimmed": true,
	"spriteSourceSize": {"x":21,"y":16,"w":54,"h":88},
	"sourceSize": {"w":77,"h":128}
},
"loop2_fx/baseball_loop2_fx_30":
{
	"frame": {"x":682,"y":738,"w":56,"h":91},
	"rotated": false,
	"trimmed": true,
	"spriteSourceSize": {"x":19,"y":15,"w":56,"h":91},
	"sourceSize": {"w":77,"h":128}
},
"loop2_fx/baseball_loop2_fx_31":
{
	"frame": {"x":111,"y":725,"w":46,"h":79},
	"rotated": false,
	"trimmed": true,
	"spriteSourceSize": {"x":29,"y":19,"w":46,"h":79},
	"sourceSize": {"w":77,"h":128}
},
"loop2_fx/baseball_loop2_fx_32":
{
	"frame": {"x":361,"y":772,"w":47,"h":81},
	"rotated": false,
	"trimmed": true,
	"spriteSourceSize": {"x":28,"y":19,"w":47,"h":81},
	"sourceSize": {"w":77,"h":128}
},
"loop2_fx/baseball_loop2_fx_33":
{
	"frame": {"x":266,"y":896,"w":48,"h":84},
	"rotated": false,
	"trimmed": true,
	"spriteSourceSize": {"x":27,"y":18,"w":48,"h":84},
	"sourceSize": {"w":77,"h":128}
},
"loop2_fx/baseball_loop2_fx_34":
{
	"frame": {"x":847,"y":900,"w":50,"h":87},
	"rotated": false,
	"trimmed": true,
	"spriteSourceSize": {"x":25,"y":17,"w":50,"h":87},
	"sourceSize": {"w":77,"h":128}
},
"loop2_fx/baseball_loop2_fx_35":
{
	"frame": {"x":58,"y":889,"w":51,"h":90},
	"rotated": false,
	"trimmed": true,
	"spriteSourceSize": {"x":24,"y":16,"w":51,"h":90},
	"sourceSize": {"w":77,"h":128}
},
"loop2_fx/baseball_loop2_fx_36":
{
	"frame": {"x":2,"y":615,"w":52,"h":86},
	"rotated": false,
	"trimmed": true,
	"spriteSourceSize": {"x":22,"y":16,"w":52,"h":86},
	"sourceSize": {"w":77,"h":128}
},
"loop2_fx/baseball_loop2_fx_37":
{
	"frame": {"x":159,"y":615,"w":54,"h":89},
	"rotated": false,
	"trimmed": true,
	"spriteSourceSize": {"x":20,"y":15,"w":54,"h":89},
	"sourceSize": {"w":77,"h":128}
},
"loop2_fx/baseball_loop2_fx_38":
{
	"frame": {"x":754,"y":699,"w":56,"h":92},
	"rotated": false,
	"trimmed": true,
	"spriteSourceSize": {"x":19,"y":14,"w":56,"h":92},
	"sourceSize": {"w":77,"h":128}
},
"loop2_fx/baseball_loop2_fx_39":
{
	"frame": {"x":56,"y":615,"w":52,"h":86},
	"rotated": false,
	"trimmed": true,
	"spriteSourceSize": {"x":23,"y":16,"w":52,"h":86},
	"sourceSize": {"w":77,"h":128}
},
"loop2_fx/baseball_loop2_fx_40":
{
	"frame": {"x":967,"y":352,"w":55,"h":89},
	"rotated": false,
	"trimmed": true,
	"spriteSourceSize": {"x":20,"y":15,"w":55,"h":89},
	"sourceSize": {"w":77,"h":128}
},
"loop2_fx/baseball_loop2_fx_41":
{
	"frame": {"x":913,"y":624,"w":57,"h":92},
	"rotated": false,
	"trimmed": true,
	"spriteSourceSize": {"x":18,"y":14,"w":57,"h":92},
	"sourceSize": {"w":77,"h":128}
},
"loop2_fx/baseball_loop2_fx_42":
{
	"frame": {"x":431,"y":361,"w":38,"h":71},
	"rotated": false,
	"trimmed": true,
	"spriteSourceSize": {"x":37,"y":22,"w":38,"h":71},
	"sourceSize": {"w":77,"h":128}
},
"loop2_fx/baseball_loop2_fx_43":
{
	"frame": {"x":431,"y":434,"w":38,"h":71},
	"rotated": false,
	"trimmed": true,
	"spriteSourceSize": {"x":37,"y":22,"w":38,"h":71},
	"sourceSize": {"w":77,"h":128}
},
"loop3_fx/Baseball_loop3_fx_00":
{
	"frame": {"x":187,"y":198,"w":83,"h":95},
	"rotated": false,
	"trimmed": true,
	"spriteSourceSize": {"x":23,"y":5,"w":83,"h":95},
	"sourceSize": {"w":110,"h":121}
},
"loop3_fx/Baseball_loop3_fx_01":
{
	"frame": {"x":611,"y":712,"w":69,"h":85},
	"rotated": false,
	"trimmed": true,
	"spriteSourceSize": {"x":37,"y":7,"w":69,"h":85},
	"sourceSize": {"w":110,"h":121}
},
"loop3_fx/Baseball_loop3_fx_02":
{
	"frame": {"x":545,"y":469,"w":72,"h":87},
	"rotated": false,
	"trimmed": true,
	"spriteSourceSize": {"x":34,"y":7,"w":72,"h":87},
	"sourceSize": {"w":110,"h":121}
},
"loop3_fx/Baseball_loop3_fx_03":
{
	"frame": {"x":551,"y":283,"w":75,"h":90},
	"rotated": false,
	"trimmed": true,
	"spriteSourceSize": {"x":31,"y":6,"w":75,"h":90},
	"sourceSize": {"w":110,"h":121}
},
"loop3_fx/Baseball_loop3_fx_04":
{
	"frame": {"x":766,"y":613,"w":70,"h":84},
	"rotated": false,
	"trimmed": true,
	"spriteSourceSize": {"x":36,"y":6,"w":70,"h":84},
	"sourceSize": {"w":110,"h":121}
},
"loop3_fx/Baseball_loop3_fx_05":
{
	"frame": {"x":628,"y":359,"w":75,"h":87},
	"rotated": false,
	"trimmed": true,
	"spriteSourceSize": {"x":31,"y":6,"w":75,"h":87},
	"sourceSize": {"w":110,"h":121}
},
"loop3_fx/Baseball_loop3_fx_06":
{
	"frame": {"x":179,"y":295,"w":80,"h":90},
	"rotated": false,
	"trimmed": true,
	"spriteSourceSize": {"x":26,"y":6,"w":80,"h":90},
	"sourceSize": {"w":110,"h":121}
},
"loop3_fx/Baseball_loop3_fx_07":
{
	"frame": {"x":767,"y":526,"w":71,"h":85},
	"rotated": false,
	"trimmed": true,
	"spriteSourceSize": {"x":35,"y":6,"w":71,"h":85},
	"sourceSize": {"w":110,"h":121}
},
"loop3_fx/Baseball_loop3_fx_08":
{
	"frame": {"x":261,"y":368,"w":74,"h":87},
	"rotated": false,
	"trimmed": true,
	"spriteSourceSize": {"x":32,"y":6,"w":74,"h":87},
	"sourceSize": {"w":110,"h":121}
},
"loop3_fx/Baseball_loop3_fx_09":
{
	"frame": {"x":846,"y":180,"w":78,"h":90},
	"rotated": false,
	"trimmed": true,
	"spriteSourceSize": {"x":28,"y":6,"w":78,"h":90},
	"sourceSize": {"w":110,"h":121}
},
"loop3_fx/Baseball_loop3_fx_10":
{
	"frame": {"x":359,"y":688,"w":62,"h":82},
	"rotated": false,
	"trimmed": true,
	"spriteSourceSize": {"x":44,"y":7,"w":62,"h":82},
	"sourceSize": {"w":110,"h":121}
},
"loop3_fx/Baseball_loop3_fx_11":
{
	"frame": {"x":453,"y":641,"w":65,"h":85},
	"rotated": false,
	"trimmed": true,
	"spriteSourceSize": {"x":41,"y":7,"w":65,"h":85},
	"sourceSize": {"w":110,"h":121}
},
"loop3_fx/Baseball_loop3_fx_12":
{
	"frame": {"x":612,"y":622,"w":69,"h":88},
	"rotated": false,
	"trimmed": true,
	"spriteSourceSize": {"x":37,"y":7,"w":69,"h":88},
	"sourceSize": {"w":110,"h":121}
},
"loop3_fx/Baseball_loop3_fx_13":
{
	"frame": {"x":545,"y":375,"w":72,"h":92},
	"rotated": false,
	"trimmed": true,
	"spriteSourceSize": {"x":34,"y":6,"w":72,"h":92},
	"sourceSize": {"w":110,"h":121}
},
"loop3_fx/Baseball_loop3_fx_14":
{
	"frame": {"x":245,"y":457,"w":69,"h":85},
	"rotated": false,
	"trimmed": true,
	"spriteSourceSize": {"x":37,"y":7,"w":69,"h":85},
	"sourceSize": {"w":110,"h":121}
},
"loop3_fx/Baseball_loop3_fx_15":
{
	"frame": {"x":619,"y":448,"w":72,"h":89},
	"rotated": false,
	"trimmed": true,
	"spriteSourceSize": {"x":34,"y":6,"w":72,"h":89},
	"sourceSize": {"w":110,"h":121}
},
"loop3_fx/Baseball_loop3_fx_16":
{
	"frame": {"x":705,"y":387,"w":74,"h":92},
	"rotated": false,
	"trimmed": true,
	"spriteSourceSize": {"x":32,"y":6,"w":74,"h":92},
	"sourceSize": {"w":110,"h":121}
},
"loop3_fx/Baseball_loop3_fx_17":
{
	"frame": {"x":169,"y":387,"w":74,"h":86},
	"rotated": false,
	"trimmed": true,
	"spriteSourceSize": {"x":33,"y":6,"w":74,"h":86},
	"sourceSize": {"w":110,"h":121}
},
"loop3_fx/Baseball_loop3_fx_18":
{
	"frame": {"x":676,"y":181,"w":78,"h":90},
	"rotated": false,
	"trimmed": true,
	"spriteSourceSize": {"x":28,"y":5,"w":78,"h":90},
	"sourceSize": {"w":110,"h":121}
},
"loop3_fx/Baseball_loop3_fx_19":
{
	"frame": {"x":767,"y":2,"w":82,"h":93},
	"rotated": false,
	"trimmed": true,
	"spriteSourceSize": {"x":24,"y":5,"w":82,"h":93},
	"sourceSize": {"w":110,"h":121}
},
"loop3_fx/Baseball_loop3_fx_20":
{
	"frame": {"x":520,"y":727,"w":64,"h":80},
	"rotated": false,
	"trimmed": true,
	"spriteSourceSize": {"x":42,"y":7,"w":64,"h":80},
	"sourceSize": {"w":110,"h":121}
},
"loop3_fx/Baseball_loop3_fx_21":
{
	"frame": {"x":227,"y":612,"w":65,"h":82},
	"rotated": false,
	"trimmed": true,
	"spriteSourceSize": {"x":41,"y":7,"w":65,"h":82},
	"sourceSize": {"w":110,"h":121}
},
"loop3_fx/Baseball_loop3_fx_22":
{
	"frame": {"x":540,"y":639,"w":69,"h":86},
	"rotated": false,
	"trimmed": true,
	"spriteSourceSize": {"x":37,"y":6,"w":69,"h":86},
	"sourceSize": {"w":110,"h":121}
},
"loop3_fx/Baseball_loop3_fx_23":
{
	"frame": {"x":471,"y":470,"w":72,"h":85},
	"rotated": false,
	"trimmed": true,
	"spriteSourceSize": {"x":34,"y":7,"w":72,"h":85},
	"sourceSize": {"w":110,"h":121}
},
"loop3_fx/Baseball_loop3_fx_24":
{
	"frame": {"x":83,"y":462,"w":74,"h":86},
	"rotated": false,
	"trimmed": true,
	"spriteSourceSize": {"x":31,"y":6,"w":74,"h":86},
	"sourceSize": {"w":110,"h":121}
},
"loop3_fx/Baseball_loop3_fx_25":
{
	"frame": {"x":840,"y":612,"w":71,"h":79},
	"rotated": false,
	"trimmed": true,
	"spriteSourceSize": {"x":34,"y":6,"w":71,"h":79},
	"sourceSize": {"w":110,"h":121}
},
"loop3_fx/Baseball_loop3_fx_26":
{
	"frame": {"x":857,"y":440,"w":74,"h":80},
	"rotated": false,
	"trimmed": true,
	"spriteSourceSize": {"x":30,"y":6,"w":74,"h":80},
	"sourceSize": {"w":110,"h":121}
},
"loop3_fx/Baseball_loop3_fx_27":
{
	"frame": {"x":851,"y":96,"w":79,"h":82},
	"rotated": false,
	"trimmed": true,
	"spriteSourceSize": {"x":26,"y":6,"w":79,"h":82},
	"sourceSize": {"w":110,"h":121}
},
"loop3_fx/Baseball_loop3_fx_28":
{
	"frame": {"x":540,"y":558,"w":70,"h":79},
	"rotated": false,
	"trimmed": true,
	"spriteSourceSize": {"x":35,"y":6,"w":70,"h":79},
	"sourceSize": {"w":110,"h":121}
},
"loop3_fx/Baseball_loop3_fx_29":
{
	"frame": {"x":932,"y":541,"w":73,"h":81},
	"rotated": false,
	"trimmed": true,
	"spriteSourceSize": {"x":32,"y":6,"w":73,"h":81},
	"sourceSize": {"w":110,"h":121}
},
"loop3_fx/Baseball_loop3_fx_30":
{
	"frame": {"x":658,"y":273,"w":77,"h":84},
	"rotated": false,
	"trimmed": true,
	"spriteSourceSize": {"x":28,"y":6,"w":77,"h":84},
	"sourceSize": {"w":110,"h":121}
},
"loop3_fx/Baseball_loop3_fx_31":
{
	"frame": {"x":423,"y":728,"w":61,"h":76},
	"rotated": false,
	"trimmed": true,
	"spriteSourceSize": {"x":44,"y":7,"w":61,"h":76},
	"sourceSize": {"w":110,"h":121}
},
"loop3_fx/Baseball_loop3_fx_32":
{
	"frame": {"x":294,"y":622,"w":63,"h":79},
	"rotated": false,
	"trimmed": true,
	"spriteSourceSize": {"x":42,"y":7,"w":63,"h":79},
	"sourceSize": {"w":110,"h":121}
},
"loop3_fx/Baseball_loop3_fx_33":
{
	"frame": {"x":316,"y":539,"w":67,"h":81},
	"rotated": false,
	"trimmed": true,
	"spriteSourceSize": {"x":39,"y":7,"w":67,"h":81},
	"sourceSize": {"w":110,"h":121}
},
"loop3_fx/Baseball_loop3_fx_34":
{
	"frame": {"x":337,"y":453,"w":70,"h":84},
	"rotated": false,
	"trimmed": true,
	"spriteSourceSize": {"x":36,"y":7,"w":70,"h":84},
	"sourceSize": {"w":110,"h":121}
},
"loop3_fx/Baseball_loop3_fx_35":
{
	"frame": {"x":857,"y":522,"w":73,"h":88},
	"rotated": false,
	"trimmed": true,
	"spriteSourceSize": {"x":33,"y":6,"w":73,"h":88},
	"sourceSize": {"w":110,"h":121}
},
"loop3_fx/Baseball_loop3_fx_36":
{
	"frame": {"x":926,"y":266,"w":76,"h":84},
	"rotated": false,
	"trimmed": true,
	"spriteSourceSize": {"x":30,"y":6,"w":76,"h":84},
	"sourceSize": {"w":110,"h":121}
},
"loop3_fx/Baseball_loop3_fx_37":
{
	"frame": {"x":578,"y":193,"w":78,"h":88},
	"rotated": false,
	"trimmed": true,
	"spriteSourceSize": {"x":27,"y":6,"w":78,"h":88},
	"sourceSize": {"w":110,"h":121}
},
"loop3_fx/Baseball_loop3_fx_38":
{
	"frame": {"x":94,"y":287,"w":83,"h":91},
	"rotated": false,
	"trimmed": true,
	"spriteSourceSize": {"x":23,"y":6,"w":83,"h":91},
	"sourceSize": {"w":110,"h":121}
},
"loop3_fx/Baseball_loop3_fx_39":
{
	"frame": {"x":814,"y":351,"w":75,"h":86},
	"rotated": false,
	"trimmed": true,
	"spriteSourceSize": {"x":32,"y":6,"w":75,"h":86},
	"sourceSize": {"w":110,"h":121}
},
"loop3_fx/Baseball_loop3_fx_40":
{
	"frame": {"x":932,"y":2,"w":79,"h":89},
	"rotated": false,
	"trimmed": true,
	"spriteSourceSize": {"x":28,"y":6,"w":79,"h":89},
	"sourceSize": {"w":110,"h":121}
},
"loop3_fx/Baseball_loop3_fx_41":
{
	"frame": {"x":682,"y":86,"w":82,"h":93},
	"rotated": false,
	"trimmed": true,
	"spriteSourceSize": {"x":25,"y":5,"w":82,"h":93},
	"sourceSize": {"w":110,"h":121}
},
"loop3_fx/Baseball_loop3_fx_42":
{
	"frame": {"x":159,"y":706,"w":54,"h":74},
	"rotated": false,
	"trimmed": true,
	"spriteSourceSize": {"x":53,"y":8,"w":54,"h":74},
	"sourceSize": {"w":110,"h":121}
},
"loop3_fx/Baseball_loop3_fx_43":
{
	"frame": {"x":468,"y":557,"w":70,"h":82},
	"rotated": false,
	"trimmed": true,
	"spriteSourceSize": {"x":36,"y":7,"w":70,"h":82},
	"sourceSize": {"w":110,"h":121}
},
"loop4_fx/Baseball_loop2_fx_00":
{
	"frame": {"x":304,"y":185,"w":84,"h":95},
	"rotated": false,
	"trimmed": true,
	"spriteSourceSize": {"x":32,"y":5,"w":84,"h":95},
	"sourceSize": {"w":119,"h":121}
},
"loop4_fx/Baseball_loop2_fx_01":
{
	"frame": {"x":836,"y":272,"w":76,"h":77},
	"rotated": false,
	"trimmed": true,
	"spriteSourceSize": {"x":39,"y":7,"w":76,"h":77},
	"sourceSize": {"w":119,"h":121}
},
"loop4_fx/Baseball_loop2_fx_02":
{
	"frame": {"x":87,"y":380,"w":80,"h":80},
	"rotated": false,
	"trimmed": true,
	"spriteSourceSize": {"x":36,"y":6,"w":80,"h":80},
	"sourceSize": {"w":119,"h":121}
},
"loop4_fx/Baseball_loop2_fx_03":
{
	"frame": {"x":682,"y":2,"w":83,"h":82},
	"rotated": false,
	"trimmed": true,
	"spriteSourceSize": {"x":33,"y":6,"w":83,"h":82},
	"sourceSize": {"w":119,"h":121}
},
"loop4_fx/Baseball_loop2_fx_04":
{
	"frame": {"x":407,"y":184,"w":85,"h":83},
	"rotated": false,
	"trimmed": true,
	"spriteSourceSize": {"x":30,"y":7,"w":85,"h":83},
	"sourceSize": {"w":119,"h":121}
},
"loop4_fx/Baseball_loop2_fx_05":
{
	"frame": {"x":504,"y":2,"w":88,"h":87},
	"rotated": false,
	"trimmed": true,
	"spriteSourceSize": {"x":27,"y":6,"w":88,"h":87},
	"sourceSize": {"w":119,"h":121}
},
"loop4_fx/Baseball_loop2_fx_06":
{
	"frame": {"x":103,"y":100,"w":91,"h":90},
	"rotated": false,
	"trimmed": true,
	"spriteSourceSize": {"x":25,"y":6,"w":91,"h":90},
	"sourceSize": {"w":119,"h":121}
},
"loop4_fx/Baseball_loop2_fx_07":
{
	"frame": {"x":311,"y":94,"w":94,"h":89},
	"rotated": false,
	"trimmed": true,
	"spriteSourceSize": {"x":22,"y":6,"w":94,"h":89},
	"sourceSize": {"w":119,"h":121}
},
"loop4_fx/Baseball_loop2_fx_08":
{
	"frame": {"x":355,"y":361,"w":74,"h":90},
	"rotated": false,
	"trimmed": true,
	"spriteSourceSize": {"x":41,"y":6,"w":74,"h":90},
	"sourceSize": {"w":119,"h":121}
},
"loop4_fx/Baseball_loop2_fx_09":
{
	"frame": {"x":2,"y":456,"w":79,"h":92},
	"rotated": false,
	"trimmed": true,
	"spriteSourceSize": {"x":37,"y":6,"w":79,"h":92},
	"sourceSize": {"w":119,"h":121}
},
"loop4_fx/Baseball_loop2_fx_10":
{
	"frame": {"x":471,"y":375,"w":72,"h":93},
	"rotated": false,
	"trimmed": true,
	"spriteSourceSize": {"x":44,"y":7,"w":72,"h":93},
	"sourceSize": {"w":119,"h":121}
},
"loop4_fx/Baseball_loop2_fx_11":
{
	"frame": {"x":474,"y":278,"w":75,"h":95},
	"rotated": false,
	"trimmed": true,
	"spriteSourceSize": {"x":41,"y":7,"w":75,"h":95},
	"sourceSize": {"w":119,"h":121}
},
"loop4_fx/Baseball_loop2_fx_12":
{
	"frame": {"x":766,"y":97,"w":78,"h":97},
	"rotated": false,
	"trimmed": true,
	"spriteSourceSize": {"x":38,"y":7,"w":78,"h":97},
	"sourceSize": {"w":119,"h":121}
},
"loop4_fx/Baseball_loop2_fx_13":
{
	"frame": {"x":851,"y":2,"w":79,"h":92},
	"rotated": false,
	"trimmed": true,
	"spriteSourceSize": {"x":37,"y":6,"w":79,"h":92},
	"sourceSize": {"w":119,"h":121}
},
"loop4_fx/Baseball_loop2_fx_14":
{
	"frame": {"x":2,"y":363,"w":83,"h":91},
	"rotated": false,
	"trimmed": true,
	"spriteSourceSize": {"x":33,"y":7,"w":83,"h":91},
	"sourceSize": {"w":119,"h":121}
},
"loop4_fx/Baseball_loop2_fx_15":
{
	"frame": {"x":594,"y":2,"w":86,"h":94},
	"rotated": false,
	"trimmed": true,
	"spriteSourceSize": {"x":29,"y":7,"w":86,"h":94},
	"sourceSize": {"w":119,"h":121}
},
"loop4_fx/Baseball_loop2_fx_16":
{
	"frame": {"x":211,"y":99,"w":91,"h":97},
	"rotated": false,
	"trimmed": true,
	"spriteSourceSize": {"x":25,"y":6,"w":91,"h":97},
	"sourceSize": {"w":119,"h":121}
},
"loop4_fx/Baseball_loop2_fx_17":
{
	"frame": {"x":2,"y":184,"w":91,"h":86},
	"rotated": false,
	"trimmed": true,
	"spriteSourceSize": {"x":25,"y":6,"w":91,"h":86},
	"sourceSize": {"w":119,"h":121}
},
"loop4_fx/Baseball_loop2_fx_18":
{
	"frame": {"x":311,"y":2,"w":95,"h":90},
	"rotated": false,
	"trimmed": true,
	"spriteSourceSize": {"x":21,"y":5,"w":95,"h":90},
	"sourceSize": {"w":119,"h":121}
},
"loop4_fx/Baseball_loop2_fx_19":
{
	"frame": {"x":2,"y":89,"w":99,"h":93},
	"rotated": false,
	"trimmed": true,
	"spriteSourceSize": {"x":17,"y":5,"w":99,"h":93},
	"sourceSize": {"w":119,"h":121}
},
"loop4_fx/Baseball_loop2_fx_20":
{
	"frame": {"x":2,"y":2,"w":103,"h":85},
	"rotated": false,
	"trimmed": true,
	"spriteSourceSize": {"x":13,"y":7,"w":103,"h":85},
	"sourceSize": {"w":119,"h":121}
},
"loop4_fx/Baseball_loop2_fx_21":
{
	"frame": {"x":385,"y":604,"w":66,"h":82},
	"rotated": false,
	"trimmed": true,
	"spriteSourceSize": {"x":50,"y":7,"w":66,"h":82},
	"sourceSize": {"w":119,"h":121}
},
"loop4_fx/Baseball_loop2_fx_22":
{
	"frame": {"x":683,"y":650,"w":69,"h":86},
	"rotated": false,
	"trimmed": true,
	"spriteSourceSize": {"x":46,"y":6,"w":69,"h":86},
	"sourceSize": {"w":119,"h":121}
},
"loop4_fx/Baseball_loop2_fx_23":
{
	"frame": {"x":693,"y":481,"w":72,"h":85},
	"rotated": false,
	"trimmed": true,
	"spriteSourceSize": {"x":43,"y":7,"w":72,"h":85},
	"sourceSize": {"w":119,"h":121}
},
"loop4_fx/Baseball_loop2_fx_24":
{
	"frame": {"x":781,"y":439,"w":74,"h":85},
	"rotated": false,
	"trimmed": true,
	"spriteSourceSize": {"x":41,"y":6,"w":74,"h":85},
	"sourceSize": {"w":119,"h":121}
},
"loop4_fx/Baseball_loop2_fx_25":
{
	"frame": {"x":926,"y":183,"w":77,"h":81},
	"rotated": false,
	"trimmed": true,
	"spriteSourceSize": {"x":37,"y":6,"w":77,"h":81},
	"sourceSize": {"w":119,"h":121}
},
"loop4_fx/Baseball_loop2_fx_26":
{
	"frame": {"x":272,"y":282,"w":81,"h":84},
	"rotated": false,
	"trimmed": true,
	"spriteSourceSize": {"x":33,"y":6,"w":81,"h":84},
	"sourceSize": {"w":119,"h":121}
},
"loop4_fx/Baseball_loop2_fx_27":
{
	"frame": {"x":407,"y":96,"w":86,"h":86},
	"rotated": false,
	"trimmed": true,
	"spriteSourceSize": {"x":29,"y":6,"w":86,"h":86},
	"sourceSize": {"w":119,"h":121}
},
"loop4_fx/Baseball_loop2_fx_28":
{
	"frame": {"x":2,"y":272,"w":90,"h":89},
	"rotated": false,
	"trimmed": true,
	"spriteSourceSize": {"x":25,"y":6,"w":90,"h":89},
	"sourceSize": {"w":119,"h":121}
},
"loop4_fx/Baseball_loop2_fx_29":
{
	"frame": {"x":408,"y":2,"w":94,"h":92},
	"rotated": false,
	"trimmed": true,
	"spriteSourceSize": {"x":21,"y":6,"w":94,"h":92},
	"sourceSize": {"w":119,"h":121}
},
"loop4_fx/Baseball_loop2_fx_30":
{
	"frame": {"x":211,"y":2,"w":98,"h":95},
	"rotated": false,
	"trimmed": true,
	"spriteSourceSize": {"x":17,"y":6,"w":98,"h":95},
	"sourceSize": {"w":119,"h":121}
},
"loop4_fx/Baseball_loop2_fx_31":
{
	"frame": {"x":107,"y":2,"w":102,"h":96},
	"rotated": false,
	"trimmed": true,
	"spriteSourceSize": {"x":13,"y":7,"w":102,"h":96},
	"sourceSize": {"w":119,"h":121}
},
"loop4_fx/Baseball_loop2_fx_32":
{
	"frame": {"x":390,"y":269,"w":82,"h":90},
	"rotated": false,
	"trimmed": true,
	"spriteSourceSize": {"x":33,"y":7,"w":82,"h":90},
	"sourceSize": {"w":119,"h":121}
},
"loop4_fx/Baseball_loop2_fx_33":
{
	"frame": {"x":504,"y":91,"w":86,"h":92},
	"rotated": false,
	"trimmed": true,
	"spriteSourceSize": {"x":29,"y":7,"w":86,"h":92},
	"sourceSize": {"w":119,"h":121}
},
"loop4_fx/Baseball_loop2_fx_34":
{
	"frame": {"x":95,"y":192,"w":90,"h":93},
	"rotated": false,
	"trimmed": true,
	"spriteSourceSize": {"x":25,"y":7,"w":90,"h":93},
	"sourceSize": {"w":119,"h":121}
},
"loop4_fx/Baseball_loop2_fx_35":
{
	"frame": {"x":933,"y":443,"w":73,"h":96},
	"rotated": false,
	"trimmed": true,
	"spriteSourceSize": {"x":42,"y":6,"w":73,"h":96},
	"sourceSize": {"w":119,"h":121}
},
"loop4_fx/Baseball_loop2_fx_36":
{
	"frame": {"x":737,"y":287,"w":75,"h":98},
	"rotated": false,
	"trimmed": true,
	"spriteSourceSize": {"x":40,"y":6,"w":75,"h":98},
	"sourceSize": {"w":119,"h":121}
},
"loop4_fx/Baseball_loop2_fx_37":
{
	"frame": {"x":932,"y":93,"w":79,"h":88},
	"rotated": false,
	"trimmed": true,
	"spriteSourceSize": {"x":36,"y":6,"w":79,"h":88},
	"sourceSize": {"w":119,"h":121}
},
"loop4_fx/Baseball_loop2_fx_38":
{
	"frame": {"x":494,"y":185,"w":82,"h":91},
	"rotated": false,
	"trimmed": true,
	"spriteSourceSize": {"x":34,"y":6,"w":82,"h":91},
	"sourceSize": {"w":119,"h":121}
},
"loop4_fx/Baseball_loop2_fx_39":
{
	"frame": {"x":891,"y":352,"w":74,"h":86},
	"rotated": false,
	"trimmed": true,
	"spriteSourceSize": {"x":41,"y":6,"w":74,"h":86},
	"sourceSize": {"w":119,"h":121}
},
"loop4_fx/Baseball_loop2_fx_40":
{
	"frame": {"x":756,"y":196,"w":78,"h":89},
	"rotated": false,
	"trimmed": true,
	"spriteSourceSize": {"x":37,"y":6,"w":78,"h":89},
	"sourceSize": {"w":119,"h":121}
},
"loop4_fx/Baseball_loop2_fx_41":
{
	"frame": {"x":592,"y":98,"w":82,"h":93},
	"rotated": false,
	"trimmed": true,
	"spriteSourceSize": {"x":34,"y":5,"w":82,"h":93},
	"sourceSize": {"w":119,"h":121}
},
"loop4_fx/Baseball_loop2_fx_42":
{
	"frame": {"x":693,"y":568,"w":71,"h":80},
	"rotated": false,
	"trimmed": true,
	"spriteSourceSize": {"x":45,"y":8,"w":71,"h":80},
	"sourceSize": {"w":119,"h":121}
},
"loop4_fx/Baseball_loop2_fx_43":
{
	"frame": {"x":619,"y":539,"w":72,"h":81},
	"rotated": false,
	"trimmed": true,
	"spriteSourceSize": {"x":42,"y":8,"w":72,"h":81},
	"sourceSize": {"w":119,"h":121}
}},
"animations": {
	"loop2_fx/baseball_loop2_fx": ["loop2_fx/baseball_loop2_fx_00","loop2_fx/baseball_loop2_fx_01","loop2_fx/baseball_loop2_fx_02","loop2_fx/baseball_loop2_fx_03","loop2_fx/baseball_loop2_fx_04","loop2_fx/baseball_loop2_fx_05","loop2_fx/baseball_loop2_fx_06","loop2_fx/baseball_loop2_fx_07","loop2_fx/baseball_loop2_fx_08","loop2_fx/baseball_loop2_fx_09","loop2_fx/baseball_loop2_fx_10","loop2_fx/baseball_loop2_fx_11","loop2_fx/baseball_loop2_fx_12","loop2_fx/baseball_loop2_fx_13","loop2_fx/baseball_loop2_fx_14","loop2_fx/baseball_loop2_fx_15","loop2_fx/baseball_loop2_fx_16","loop2_fx/baseball_loop2_fx_17","loop2_fx/baseball_loop2_fx_18","loop2_fx/baseball_loop2_fx_19","loop2_fx/baseball_loop2_fx_20","loop2_fx/baseball_loop2_fx_21","loop2_fx/baseball_loop2_fx_22","loop2_fx/baseball_loop2_fx_23","loop2_fx/baseball_loop2_fx_24","loop2_fx/baseball_loop2_fx_25","loop2_fx/baseball_loop2_fx_26","loop2_fx/baseball_loop2_fx_27","loop2_fx/baseball_loop2_fx_28","loop2_fx/baseball_loop2_fx_29","loop2_fx/baseball_loop2_fx_30","loop2_fx/baseball_loop2_fx_31","loop2_fx/baseball_loop2_fx_32","loop2_fx/baseball_loop2_fx_33","loop2_fx/baseball_loop2_fx_34","loop2_fx/baseball_loop2_fx_35","loop2_fx/baseball_loop2_fx_36","loop2_fx/baseball_loop2_fx_37","loop2_fx/baseball_loop2_fx_38","loop2_fx/baseball_loop2_fx_39","loop2_fx/baseball_loop2_fx_40","loop2_fx/baseball_loop2_fx_41","loop2_fx/baseball_loop2_fx_42","loop2_fx/baseball_loop2_fx_43"],
	"loop3_fx/Baseball_loop3_fx": ["loop3_fx/Baseball_loop3_fx_00","loop3_fx/Baseball_loop3_fx_01","loop3_fx/Baseball_loop3_fx_02","loop3_fx/Baseball_loop3_fx_03","loop3_fx/Baseball_loop3_fx_04","loop3_fx/Baseball_loop3_fx_05","loop3_fx/Baseball_loop3_fx_06","loop3_fx/Baseball_loop3_fx_07","loop3_fx/Baseball_loop3_fx_08","loop3_fx/Baseball_loop3_fx_09","loop3_fx/Baseball_loop3_fx_10","loop3_fx/Baseball_loop3_fx_11","loop3_fx/Baseball_loop3_fx_12","loop3_fx/Baseball_loop3_fx_13","loop3_fx/Baseball_loop3_fx_14","loop3_fx/Baseball_loop3_fx_15","loop3_fx/Baseball_loop3_fx_16","loop3_fx/Baseball_loop3_fx_17","loop3_fx/Baseball_loop3_fx_18","loop3_fx/Baseball_loop3_fx_19","loop3_fx/Baseball_loop3_fx_20","loop3_fx/Baseball_loop3_fx_21","loop3_fx/Baseball_loop3_fx_22","loop3_fx/Baseball_loop3_fx_23","loop3_fx/Baseball_loop3_fx_24","loop3_fx/Baseball_loop3_fx_25","loop3_fx/Baseball_loop3_fx_26","loop3_fx/Baseball_loop3_fx_27","loop3_fx/Baseball_loop3_fx_28","loop3_fx/Baseball_loop3_fx_29","loop3_fx/Baseball_loop3_fx_30","loop3_fx/Baseball_loop3_fx_31","loop3_fx/Baseball_loop3_fx_32","loop3_fx/Baseball_loop3_fx_33","loop3_fx/Baseball_loop3_fx_34","loop3_fx/Baseball_loop3_fx_35","loop3_fx/Baseball_loop3_fx_36","loop3_fx/Baseball_loop3_fx_37","loop3_fx/Baseball_loop3_fx_38","loop3_fx/Baseball_loop3_fx_39","loop3_fx/Baseball_loop3_fx_40","loop3_fx/Baseball_loop3_fx_41","loop3_fx/Baseball_loop3_fx_42","loop3_fx/Baseball_loop3_fx_43"],
	"loop4_fx/Baseball_loop2_fx": ["loop4_fx/Baseball_loop2_fx_00","loop4_fx/Baseball_loop2_fx_01","loop4_fx/Baseball_loop2_fx_02","loop4_fx/Baseball_loop2_fx_03","loop4_fx/Baseball_loop2_fx_04","loop4_fx/Baseball_loop2_fx_05","loop4_fx/Baseball_loop2_fx_06","loop4_fx/Baseball_loop2_fx_07","loop4_fx/Baseball_loop2_fx_08","loop4_fx/Baseball_loop2_fx_09","loop4_fx/Baseball_loop2_fx_10","loop4_fx/Baseball_loop2_fx_11","loop4_fx/Baseball_loop2_fx_12","loop4_fx/Baseball_loop2_fx_13","loop4_fx/Baseball_loop2_fx_14","loop4_fx/Baseball_loop2_fx_15","loop4_fx/Baseball_loop2_fx_16","loop4_fx/Baseball_loop2_fx_17","loop4_fx/Baseball_loop2_fx_18","loop4_fx/Baseball_loop2_fx_19","loop4_fx/Baseball_loop2_fx_20","loop4_fx/Baseball_loop2_fx_21","loop4_fx/Baseball_loop2_fx_22","loop4_fx/Baseball_loop2_fx_23","loop4_fx/Baseball_loop2_fx_24","loop4_fx/Baseball_loop2_fx_25","loop4_fx/Baseball_loop2_fx_26","loop4_fx/Baseball_loop2_fx_27","loop4_fx/Baseball_loop2_fx_28","loop4_fx/Baseball_loop2_fx_29","loop4_fx/Baseball_loop2_fx_30","loop4_fx/Baseball_loop2_fx_31","loop4_fx/Baseball_loop2_fx_32","loop4_fx/Baseball_loop2_fx_33","loop4_fx/Baseball_loop2_fx_34","loop4_fx/Baseball_loop2_fx_35","loop4_fx/Baseball_loop2_fx_36","loop4_fx/Baseball_loop2_fx_37","loop4_fx/Baseball_loop2_fx_38","loop4_fx/Baseball_loop2_fx_39","loop4_fx/Baseball_loop2_fx_40","loop4_fx/Baseball_loop2_fx_41","loop4_fx/Baseball_loop2_fx_42","loop4_fx/Baseball_loop2_fx_43"]
},
"meta": {
	"app": "https://www.codeandweb.com/texturepacker",
	"version": "1.1",
	"image": "homerun_ballAnims0.png",
	"format": "RGBA8888",
	"size": {"w":1024,"h":1024},
	"scale": "0.5",
	"smartupdate": "$TexturePacker:SmartUpdate:0589d1a9c53bbde3aea36c4c04422634:309962976dd5e00e0244b736fa65f65f:c3fee79fd2c285a77681d9c351e23343$"
}
}
