{
    "howtoplaydefenderrules": [
        {
            "title": "Bem-vindo ao ",
            "title2": "Defensor!",
            "text": "Defender é um jogo interativo rápido onde você simplesmente tem que escolher quando e qual multiplicador de valor sacar antes do primeiro gol.",
            "img" : "assets/images/HTPDEFENDER_Assets/HTP_1.png"
        },
        {
            "title": "Como jogar",
            "text": "Escolha a sua aposta antes do jogo começar e clique em 'sacar' antes do gol. Se você fizer isso, você ganhará um prêmio de \"aposta x múltiplo\" no momento do saque.",
            "img" : "assets/images/HTPDEFENDER_Assets/HTP_2.png"
        },
        {
            "title": "Levantar para depositar",
            "text": "O valor que você ganha depende do multiplicador no momento do saque. Se você apostar MZN.100 e sacar em um múltiplo de 2,46, o retorno do seu jogo será de MZN 246,00",
            "img" : "assets/images/HTPDEFENDER_Assets/HTP_3_Betyetu.png"
        },
        {
            "title": "Como o jogo é decidido",
            "text": "O resultado de qualquer jogo é determinado pelo nosso Gerador de Números Aleatórios exclusivo e não determinado por nenhum outro fator.",
            "img" : "assets/images/HTPDEFENDER_Assets/HTP_4.png"
        },
        {
            "title": "Evitando o Gol!",
            "text": "Quao nervoso tu estas? Desconfie de sacar antes que o golo seja marcado. Se você não tiver sacado antes do golo, perderá sua aposta no jogo.",
            "img" : "assets/images/HTPDEFENDER_Assets/HTP_5.png"
        },
        {
            "title": "Saque Automático",
            "text": "Você pode escolher um valor de saque automaticamente em vez de manualmente. Desde que o valor do saque seja de um multiplicador menor do que quando o objetivo for atingido, seus ganhos serão descontados.",
            "img" : "assets/images/HTPDEFENDER_Assets/HTP_6_Betyetu.png"
        },
        {
            "title": "Reprodução automática",
            "text": "Se você quiser jogar vários jogos consecutivos automaticamente, poderá fazê-lo no modo de reprodução automática. Você pode escolher a aposta, o saque múltiplo e definir limites de ganho/perda.",
            "img" : "assets/images/HTPDEFENDER_Assets/HTP_7_Betyetu.png"
        },
        {
            "title": "Jogo interativo",
            "text": "Jogue junto com os outros. Todos os nossos jogadores online jogarão o mesmo jogo ao mesmo tempo com os resultados exibidos para uma experiência de jogo totalmente interativa.",
            "img" : "assets/images/HTPDEFENDER_Assets/HTP_8_Betyetu.png"
        },
        {
            "title": "Bate-papo da comunidade",
            "text": "Você também pode se comunicar com amigos e colegas jogadores e discutir estratégia ou sorte ao longo de cada jogo através do nosso chat.",
            "img" : "assets/images/HTPDEFENDER_Assets/HTP_9.png"
        },
        {
            "title": "Jogadores/Equipes Favoritos",
            "text": "Diferentes parcerias de abertura aparecerão para cada partida se você colocar mais fé em certas aberturas para pontuar alto!",
            "img" : "assets/images/HTPDEFENDER_Assets/HTP_10_Betyetu.png"
        },
        {
            "title": "Iniciar",
            "text": "Isso é tudo do nosso guia rápido de como jogar. Para detalhes completos, verifique nossa seção de regras nas configurações. Alternativamente, clique em fechar abaixo para começar e ir direto para a ação!",
            "img" : "assets/images/HTPDEFENDER_Assets/HTP_11.png"
        }
    ],

    "defenderTerms": [
        {
            "heading": "1. Introdução",
            "text": [
                "DEFENDER é um jogo de risco multijogador com dinheiro real, onde um jogador tem a capacidade de escolher em que ponto gostaria de levanter ou extrair um múltiplo de sua aposta designada contra um multiplicador que pode ser ‘perdido’ a qualquer momento.",
                "Os jogos começam e o multiplicador começa em 1,00 e sobe em incrementos até 2 ‘duas’ casas decimais (ou seja, 1,01 em diante).",
                "À medida que o multiplicador aumenta, os jogadores têm a oportunidade de retirar em qualquer  o valor múltiplo até o momento em que o número gerado aleatoriamente seja alcançado (e para o propósito deste jogo, sendo que ele é baseado em um tema de parceria de abertura de críquete, na hora em que o 'primeiro postigo' é tomado).",
                "O valor do saque será valor da participação multiplicada pelo valor do multiplicador.",
                "Por exemplo: Se um jogador apostar 2MTN e o multiplicador for 5,40, o jogador receberá 5,40 x o valor da aposta, portanto, 2MZN x 5,40 = retorno de 10,80MZN.",
                "Nosso gerador de números aleatórios certificado decidirá qual será o ponto de valor múltiplo do postigo (isso será considerado encerramento do jogo) quando o jogo começar e os jogadores tentarão sacar antes que isso ocorra.",
                "Caso os jogadores não tenham sacado antes de chegar ao número gerado aleatoriamente, eles terão perdido a oportunidade de sacar e a aposta será considerada perdedora."
            ]
        },

        {
            "heading": "2. Regras do Jogo",
            "text": [
                "Antes do jogo começar, um jogador tem 5 segundos para fazer sua aposta. Após o início do jogo, o multiplicador pode começar a subir e ficar cada vez mais alto a partir de uma posição de 1,00",
                "Um jogador pode clicar em \"Levantar\" a qualquer momento para bloquear o multiplicador atual, e seus retornos serão suas apostas vezes o valor do multiplicador no momento do saque.",
                "Quanto mais tempo um jogador permanecer no jogo, maior será a recompensa que obterá. Observe, no entanto, que o valor pode ser retirado a qualquer momento. Se eles não conseguirem sacar antes do crash, eles perderão toda a sua aposta.",
                "O multiplicador é exibido em um formato gráfico e o menor resultado possível para o gráfico é 1,00 com o maior resultado possível do gráfico sendo 200,00. A chance do wicket cair será maior quanto maior o número do multiplicador."
            ]
        },
        {
            "heading": "3. Retorno ao jogador percentual.",
            "text": [
                "Nosso gerador de números aleatórios tem uma lista completa de todos os possíveis multiplicadores e gerará aleatoriamente um desses multiplicadores, representando uma margem de 2,5% ao longo de um número finito de milhões de jogos.",
                "Isso significa que a porcentagem de retorno ao jogador ao longo desse número de jogos será de 97.5%"
            ]
        },
        {
            "heading": "4. Desconexões",
            "text": [
                "4.1.1. Todas as suas apostas inseridas serão contadas e totalmente executadas pelo sistema, mesmo se você se desconectar após inserir a aposta. Por favor, sempre insira o saque automático, especialmente se você estiver jogando o jogo com uma conexão nadaboa. Apostas iniciadas não podem ser reembolsadas, independentemente de estar presente ou ausente durante a aposta.",
                "4.1.2. O caro apostador reconhece que qualquer aposta iniciada no DEFENDER não pode ser reembolsada pela empresa ou seus parceiros terceirizados. Você é o único responsável pelo resultado de cada aposta feita em sua conta.",
                "4.2.1. O DEFENDER não aceitará qualquer responsabilidade por quaisquer danos ou perdas que sejam considerados ou alegadamente decorrentes ou relacionados com o Website ou o seu conteúdo, incluindo, sem limitação, atrasos ou interrupções na operação ou transmissão, perda ou corrupção de dados, comunicação ou falha de linha, uso indevido do site ou de seu conteúdo por qualquer pessoa ou quaisquer erros ou omissões no conteúdo.",
                "4.3.1. Em caso de mau funcionamento do sistema do cassino, todas as apostas serão anuladas.",
                "4.4.1. No caso de um jogo ser iniciado, mas abortado devido a uma falha do sistema, o DEFENDER reembolsará o valor apostado no jogo ao apostador creditando-o em sua conta ou, se uma conta não existir mais, pagara o apostador em uma forma aprovada; e se tiver um crédito acumulado no momento em que o Jogo falhou"
            ]
        },
        {
            "heading": "5. Jogo Automatizado",
            "text": [
                "5.1 Em vez de escolher quando sacar quando o jogo estiver em jogo, o usuário pode automatizar o valor de saque para um ou mais jogos. Neste caso, o jogador terá automaticamente sua aposta sacada no valor do multiplicador designado escolhido.",
                "5.2 Se um jogador optou por jogar automaticamente um número de jogos, a aposta será deduzida da sua conta e a aposta aposta no mesmo múltiplo até que i) O número de jogos automatizados tenha decorrido ii) O jogador decida cancelar a aposta automatização iii) A conta dos jogadores não tem fundos suficientes.",
                "5.3 O apostador tem as opções de aumentar, diminuir, repetir ou parar uma aposta a cada perda ou vitória."
            ]
        },
        {
            "heading": "7. Aposta mínima",
            "text": [
                "7.1 A aposta mínima que pode ser feita em um único jogo DEFENDER é de 1 MZN"
            ]
        },
        {
            "heading": "8. Retornos Mínimo / Máximo",
            "text": [
                "8.1 O Retorno mínimo que um jogador receberá de uma aposta apostada é de  1MZN. Esteja ciente de que, no caso de uma aposta não ser divisível até pelo menos 1 centavo (1MZN), os retornos serão arredondados para o centavo mais próximo. Por exemplo, se um jogador apostar uma aposta de 1MZN e sacar para um multiplicador de 2,57, os retornos serão arredondados para 2,57MZN, pois os saldos do site e da conta não facilitam nenhum incremento de 3 pontos decimais.",
                "8.2 Os retornos máximos que um jogador pode desfrutar durante qualquer jogo no DEFENDER é de  1.000.000,00MZN. Caso o cálculo da aposta x multiplicador seja superior a este valor, apenas 1.000.000,00MZN serão creditados na conta do jogador.",
                "8.3 Os retornos máximos que um jogador pode desfrutar durante qualquer dia do calendário no DEFENDER é de 1.000.000MZN No caso de os ganhos excederem esse valor ao longo de um calendário, o DEFENDER reserva-se o direito de recuperar os fundos da conta dos jogadores que excederem este valor",
                "8.4 O multiplicador máximo que o número aleatório pode gerar para o DEFENDER é 150,00. Portanto, um jogador não pode ganhar mais de 150x sua aposta para qualquer aposta ou rodada."
            ]
        },
        {
            "heading": "9. Regras de bate-papo",
            "text": [
                "Como parte de seu uso do site e como parte do aspecto multijogador da comunidade do DEFENDER, você receberá um recurso de bate-papo, que é moderado por nós e sujeito a controles. Reservamo-nos o direito de revisar o bate-papo e manter um registro de todas as declarações feitas em tal instalação. Seu uso do chat deve ser para fins recreativos e de socialização e está sujeito às seguintes regras.",
                "Não deve fazer declarações sexualmente explícitas ou grosseiramente ofensivas, incluindo expressões de intolerância, racismo, ódio ou palavrões.",
                "Não deve fazer declarações que sejam abusivas, difamatórias, assediantes ou insultantes ao site ou ao DEFENDER.",
                "Não deve fazer declarações que anunciem, promovam ou de outra forma se relacionem com quaisquer outras entidades online.",
                "Não deve fazer declarações sobre o DEFENDER, o Site ou qualquer outro site da Internet conectado ao DEFENDER que sejam falsos e/ou maliciosos e/ou prejudiciais ao DEFENDER.",
                "Não deve fazer declarações sobre o DEFENDER, o Site ou qualquer outro site da Internet conectado ao DEFENDER que sejam falsos e/ou maliciosos e/ou prejudiciais ao DEFENDER.",
                "Não deve conspirar através das salas de bate-papo ou bate-papo separado. Quaisquer bate-papos suspeitos serão relatados à autoridade reguladora ou policial relevante.",
                "No caso de violar qualquer uma das disposições acima relacionadas ao recurso de bate-papo, o DEFENDER terá o direito de remover a sala de bate-papo ou encerrar imediatamente sua conta. Após tal rescisão, o DEFENDER reembolsará a você quaisquer fundos que possam estar em sua Conta além de qualquer valor que possa ser devido a nós naquele momento (se houver)."
            ]
        },
        {
            "heading": "10. Termos Adicionais",
            "text": [
                "Ao jogar o jogo, reconhece que é totalmente responsável por todas as apostas que fizer através da função de aposta automática no DEFENDER. A empresa e seus parceiros terceirizados não podem ser responsabilizados por quaisquer perdas financeiras que ocorram durante sua sessão de aposta automática. é o único responsável por todos os resultados de todas as apostas feitas em sua conta, independentemente se você, o sistema de apostas automáticas ou outra pessoa fez as apostas em sua conta.",
                "Reconhece que é responsável por todas as perdas que possam ocorrer quando se esquecer de desligar a função de aposta automática. Certifique-se de desligá-lo se desejar parar de apostar no DEFENDER",
                "Reconhece que é responsável por todos os resultados e perdas que podem ocorrer quando você insere sua aposta automática de uma maneira diferente da pretendida. A empresa e seus parceiros terceirizados não podem ser responsabilizados por quaisquer perdas que possam ocorrer devido à sua falha em entrar na aposta pretendida; não há opção de reembolso para uma aposta inserida incorretamente. Por favor, revise suas configurações antes de começar a apostar automaticamente.",
                "No caso de ser encontrado algum conluio ou multi-contabilidade, a DEFENDER reserva-se o direito de encerrar as contas associadas com efeito imediato e recuperar os fundos ganhos.",
                "Não permitimos nenhum script de apostas automatizadas de terceiros no site. Qualquer uso de scripts ou bots automatizados de apostas de terceiros é uma violação dos termos. Se encontrarmos você em violação destes termos, nos reservamos o direito de reter quaisquer ganhos que possam ter sido acumulados e fecharemos sua conta com efeito imediato."
            ]
        }
    ],

    "headings": {
        "howToPlay": "Como jogar",
        "termsAndConditions": "termos e Condições"
    }
}