{"frames": {

"argentina_flag":
{
	"frame": {"x":570,"y":335,"w":60,"h":60},
	"rotated": false,
	"trimmed": false,
	"spriteSourceSize": {"x":0,"y":0,"w":60,"h":60},
	"sourceSize": {"w":60,"h":60}
},
"arsenalLogo":
{
	"frame": {"x":131,"y":463,"w":52,"h":60},
	"rotated": false,
	"trimmed": true,
	"spriteSourceSize": {"x":4,"y":0,"w":52,"h":60},
	"sourceSize": {"w":60,"h":60}
},
"astonvillaLogo":
{
	"frame": {"x":972,"y":3,"w":46,"h":60},
	"rotated": false,
	"trimmed": true,
	"spriteSourceSize": {"x":7,"y":0,"w":46,"h":60},
	"sourceSize": {"w":60,"h":60}
},
"australia_flag":
{
	"frame": {"x":570,"y":399,"w":60,"h":60},
	"rotated": false,
	"trimmed": false,
	"spriteSourceSize": {"x":0,"y":0,"w":60,"h":60},
	"sourceSize": {"w":60,"h":60}
},
"Avatar_mask":
{
	"frame": {"x":131,"y":727,"w":55,"h":55},
	"rotated": false,
	"trimmed": false,
	"spriteSourceSize": {"x":0,"y":0,"w":55,"h":55},
	"sourceSize": {"w":55,"h":55}
},
"belgium_flag":
{
	"frame": {"x":816,"y":135,"w":60,"h":60},
	"rotated": false,
	"trimmed": false,
	"spriteSourceSize": {"x":0,"y":0,"w":60,"h":60},
	"sourceSize": {"w":60,"h":60}
},
"betPlacementbg":
{
	"frame": {"x":570,"y":3,"w":244,"h":32},
	"rotated": false,
	"trimmed": false,
	"spriteSourceSize": {"x":0,"y":0,"w":244,"h":32},
	"sourceSize": {"w":244,"h":32}
},
"Big_Multiplier_line":
{
	"frame": {"x":783,"y":131,"w":17,"h":2},
	"rotated": false,
	"trimmed": false,
	"spriteSourceSize": {"x":0,"y":0,"w":17,"h":2},
	"sourceSize": {"w":17,"h":2}
},
"brazil_flag":
{
	"frame": {"x":880,"y":135,"w":60,"h":60},
	"rotated": false,
	"trimmed": false,
	"spriteSourceSize": {"x":0,"y":0,"w":60,"h":60},
	"sourceSize": {"w":60,"h":60}
},
"brentfordLogo":
{
	"frame": {"x":944,"y":151,"w":60,"h":60},
	"rotated": false,
	"trimmed": false,
	"spriteSourceSize": {"x":0,"y":0,"w":60,"h":60},
	"sourceSize": {"w":60,"h":60}
},
"brighton&Hove_AlbionLogo":
{
	"frame": {"x":816,"y":199,"w":60,"h":60},
	"rotated": false,
	"trimmed": false,
	"spriteSourceSize": {"x":0,"y":0,"w":60,"h":60},
	"sourceSize": {"w":60,"h":60}
},
"burnleyLogo":
{
	"frame": {"x":127,"y":591,"w":54,"h":60},
	"rotated": false,
	"trimmed": true,
	"spriteSourceSize": {"x":3,"y":0,"w":54,"h":60},
	"sourceSize": {"w":60,"h":60}
},
"cameroon_flag":
{
	"frame": {"x":880,"y":199,"w":60,"h":60},
	"rotated": false,
	"trimmed": false,
	"spriteSourceSize": {"x":0,"y":0,"w":60,"h":60},
	"sourceSize": {"w":60,"h":60}
},
"canada_flag":
{
	"frame": {"x":944,"y":215,"w":60,"h":60},
	"rotated": false,
	"trimmed": false,
	"spriteSourceSize": {"x":0,"y":0,"w":60,"h":60},
	"sourceSize": {"w":60,"h":60}
},
"cashoutline":
{
	"frame": {"x":1015,"y":67,"w":5,"h":400},
	"rotated": false,
	"trimmed": false,
	"spriteSourceSize": {"x":0,"y":0,"w":5,"h":400},
	"sourceSize": {"w":5,"h":400}
},
"chelseaLogo":
{
	"frame": {"x":816,"y":263,"w":60,"h":60},
	"rotated": false,
	"trimmed": false,
	"spriteSourceSize": {"x":0,"y":0,"w":60,"h":60},
	"sourceSize": {"w":60,"h":60}
},
"costarica_flag":
{
	"frame": {"x":880,"y":263,"w":60,"h":60},
	"rotated": false,
	"trimmed": false,
	"spriteSourceSize": {"x":0,"y":0,"w":60,"h":60},
	"sourceSize": {"w":60,"h":60}
},
"countryIcons":
{
	"frame": {"x":944,"y":279,"w":60,"h":60},
	"rotated": false,
	"trimmed": false,
	"spriteSourceSize": {"x":0,"y":0,"w":60,"h":60},
	"sourceSize": {"w":60,"h":60}
},
"croatia_flag":
{
	"frame": {"x":816,"y":327,"w":60,"h":60},
	"rotated": false,
	"trimmed": false,
	"spriteSourceSize": {"x":0,"y":0,"w":60,"h":60},
	"sourceSize": {"w":60,"h":60}
},
"crystalpalaceLogo":
{
	"frame": {"x":634,"y":335,"w":50,"h":60},
	"rotated": false,
	"trimmed": true,
	"spriteSourceSize": {"x":5,"y":0,"w":50,"h":60},
	"sourceSize": {"w":60,"h":60}
},
"denmark_flag":
{
	"frame": {"x":880,"y":327,"w":60,"h":60},
	"rotated": false,
	"trimmed": false,
	"spriteSourceSize": {"x":0,"y":0,"w":60,"h":60},
	"sourceSize": {"w":60,"h":60}
},
"ecuador_flag":
{
	"frame": {"x":944,"y":343,"w":60,"h":60},
	"rotated": false,
	"trimmed": false,
	"spriteSourceSize": {"x":0,"y":0,"w":60,"h":60},
	"sourceSize": {"w":60,"h":60}
},
"england_flag":
{
	"frame": {"x":816,"y":391,"w":60,"h":60},
	"rotated": false,
	"trimmed": false,
	"spriteSourceSize": {"x":0,"y":0,"w":60,"h":60},
	"sourceSize": {"w":60,"h":60}
},
"evertonLogo":
{
	"frame": {"x":880,"y":391,"w":60,"h":60},
	"rotated": false,
	"trimmed": false,
	"spriteSourceSize": {"x":0,"y":0,"w":60,"h":60},
	"sourceSize": {"w":60,"h":60}
},
"exitBtn":
{
	"frame": {"x":783,"y":137,"w":15,"h":24},
	"rotated": false,
	"trimmed": true,
	"spriteSourceSize": {"x":12,"y":9,"w":15,"h":24},
	"sourceSize": {"w":42,"h":42}
},
"f_ball":
{
	"frame": {"x":715,"y":39,"w":82,"h":82},
	"rotated": false,
	"trimmed": false,
	"spriteSourceSize": {"x":0,"y":0,"w":82,"h":82},
	"sourceSize": {"w":82,"h":82}
},
"france_flag":
{
	"frame": {"x":944,"y":407,"w":60,"h":60},
	"rotated": false,
	"trimmed": false,
	"spriteSourceSize": {"x":0,"y":0,"w":60,"h":60},
	"sourceSize": {"w":60,"h":60}
},
"germany_flag":
{
	"frame": {"x":816,"y":455,"w":60,"h":60},
	"rotated": false,
	"trimmed": false,
	"spriteSourceSize": {"x":0,"y":0,"w":60,"h":60},
	"sourceSize": {"w":60,"h":60}
},
"ghana_flag":
{
	"frame": {"x":880,"y":455,"w":60,"h":60},
	"rotated": false,
	"trimmed": false,
	"spriteSourceSize": {"x":0,"y":0,"w":60,"h":60},
	"sourceSize": {"w":60,"h":60}
},
"Gradient_white":
{
	"frame": {"x":689,"y":255,"w":113,"h":424},
	"rotated": false,
	"trimmed": true,
	"spriteSourceSize": {"x":0,"y":11,"w":113,"h":424},
	"sourceSize": {"w":113,"h":435}
},
"howtoplayarrow":
{
	"frame": {"x":714,"y":125,"w":65,"h":126},
	"rotated": false,
	"trimmed": false,
	"spriteSourceSize": {"x":0,"y":0,"w":65,"h":126},
	"sourceSize": {"w":65,"h":126}
},
"iran_flag":
{
	"frame": {"x":944,"y":471,"w":60,"h":60},
	"rotated": false,
	"trimmed": false,
	"spriteSourceSize": {"x":0,"y":0,"w":60,"h":60},
	"sourceSize": {"w":60,"h":60}
},
"japan_flag":
{
	"frame": {"x":806,"y":519,"w":60,"h":60},
	"rotated": false,
	"trimmed": false,
	"spriteSourceSize": {"x":0,"y":0,"w":60,"h":60},
	"sourceSize": {"w":60,"h":60}
},
"korea_flag":
{
	"frame": {"x":870,"y":519,"w":60,"h":60},
	"rotated": false,
	"trimmed": false,
	"spriteSourceSize": {"x":0,"y":0,"w":60,"h":60},
	"sourceSize": {"w":60,"h":60}
},
"leedsutdLogo":
{
	"frame": {"x":127,"y":655,"w":53,"h":60},
	"rotated": false,
	"trimmed": true,
	"spriteSourceSize": {"x":4,"y":0,"w":53,"h":60},
	"sourceSize": {"w":60,"h":60}
},
"leicestercityLogo":
{
	"frame": {"x":934,"y":535,"w":60,"h":60},
	"rotated": false,
	"trimmed": false,
	"spriteSourceSize": {"x":0,"y":0,"w":60,"h":60},
	"sourceSize": {"w":60,"h":60}
},
"liverpoolLogo":
{
	"frame": {"x":806,"y":583,"w":60,"h":60},
	"rotated": false,
	"trimmed": false,
	"spriteSourceSize": {"x":0,"y":0,"w":60,"h":60},
	"sourceSize": {"w":60,"h":60}
},
"manchestercityLogo":
{
	"frame": {"x":870,"y":583,"w":60,"h":60},
	"rotated": false,
	"trimmed": false,
	"spriteSourceSize": {"x":0,"y":0,"w":60,"h":60},
	"sourceSize": {"w":60,"h":60}
},
"manutdLogo":
{
	"frame": {"x":934,"y":599,"w":60,"h":60},
	"rotated": false,
	"trimmed": false,
	"spriteSourceSize": {"x":0,"y":0,"w":60,"h":60},
	"sourceSize": {"w":60,"h":60}
},
"maskImg":
{
	"frame": {"x":801,"y":39,"w":5,"h":79},
	"rotated": false,
	"trimmed": false,
	"spriteSourceSize": {"x":0,"y":0,"w":5,"h":79},
	"sourceSize": {"w":5,"h":79}
},
"matchStartPlayerbg":
{
	"frame": {"x":3,"y":3,"w":563,"h":243},
	"rotated": false,
	"trimmed": false,
	"spriteSourceSize": {"x":0,"y":0,"w":563,"h":243},
	"sourceSize": {"w":563,"h":243}
},
"mexico_flag":
{
	"frame": {"x":806,"y":647,"w":60,"h":60},
	"rotated": false,
	"trimmed": false,
	"spriteSourceSize": {"x":0,"y":0,"w":60,"h":60},
	"sourceSize": {"w":60,"h":60}
},
"morocco_flag":
{
	"frame": {"x":870,"y":647,"w":60,"h":60},
	"rotated": false,
	"trimmed": false,
	"spriteSourceSize": {"x":0,"y":0,"w":60,"h":60},
	"sourceSize": {"w":60,"h":60}
},
"Name_fade_1":
{
	"frame": {"x":816,"y":99,"w":140,"h":32},
	"rotated": false,
	"trimmed": true,
	"spriteSourceSize": {"x":0,"y":0,"w":140,"h":32},
	"sourceSize": {"w":149,"h":32}
},
"Name_fade_2":
{
	"frame": {"x":570,"y":39,"w":141,"h":32},
	"rotated": false,
	"trimmed": true,
	"spriteSourceSize": {"x":8,"y":0,"w":141,"h":32},
	"sourceSize": {"w":149,"h":32}
},
"netherlands_flag":
{
	"frame": {"x":934,"y":663,"w":60,"h":60},
	"rotated": false,
	"trimmed": false,
	"spriteSourceSize": {"x":0,"y":0,"w":60,"h":60},
	"sourceSize": {"w":60,"h":60}
},
"newcastleutdLogo":
{
	"frame": {"x":131,"y":527,"w":60,"h":58},
	"rotated": false,
	"trimmed": true,
	"spriteSourceSize": {"x":0,"y":1,"w":60,"h":58},
	"sourceSize": {"w":60,"h":60}
},
"nextBtnHTP":
{
	"frame": {"x":634,"y":399,"w":50,"h":20},
	"rotated": false,
	"trimmed": false,
	"spriteSourceSize": {"x":0,"y":0,"w":50,"h":20},
	"sourceSize": {"w":50,"h":20}
},
"norwichLogo":
{
	"frame": {"x":67,"y":591,"w":56,"h":60},
	"rotated": false,
	"trimmed": true,
	"spriteSourceSize": {"x":2,"y":0,"w":56,"h":60},
	"sourceSize": {"w":60,"h":60}
},
"playabettitleDefender":
{
	"frame": {"x":818,"y":3,"w":150,"h":92},
	"rotated": false,
	"trimmed": false,
	"spriteSourceSize": {"x":0,"y":0,"w":150,"h":92},
	"sourceSize": {"w":150,"h":92}
},
"Players_container":
{
	"frame": {"x":570,"y":160,"w":116,"h":75},
	"rotated": false,
	"trimmed": true,
	"spriteSourceSize": {"x":0,"y":0,"w":116,"h":75},
	"sourceSize": {"w":370,"h":75}
},
"poland_flag":
{
	"frame": {"x":3,"y":727,"w":60,"h":60},
	"rotated": false,
	"trimmed": false,
	"spriteSourceSize": {"x":0,"y":0,"w":60,"h":60},
	"sourceSize": {"w":60,"h":60}
},
"portugal_flag":
{
	"frame": {"x":3,"y":791,"w":60,"h":60},
	"rotated": false,
	"trimmed": false,
	"spriteSourceSize": {"x":0,"y":0,"w":60,"h":60},
	"sourceSize": {"w":60,"h":60}
},
"qatar_flag":
{
	"frame": {"x":3,"y":855,"w":60,"h":60},
	"rotated": false,
	"trimmed": false,
	"spriteSourceSize": {"x":0,"y":0,"w":60,"h":60},
	"sourceSize": {"w":60,"h":60}
},
"saudiarabia_flag":
{
	"frame": {"x":3,"y":919,"w":60,"h":60},
	"rotated": false,
	"trimmed": false,
	"spriteSourceSize": {"x":0,"y":0,"w":60,"h":60},
	"sourceSize": {"w":60,"h":60}
},
"senegal_flag":
{
	"frame": {"x":3,"y":463,"w":60,"h":60},
	"rotated": false,
	"trimmed": false,
	"spriteSourceSize": {"x":0,"y":0,"w":60,"h":60},
	"sourceSize": {"w":60,"h":60}
},
"serbia_flag":
{
	"frame": {"x":3,"y":527,"w":60,"h":60},
	"rotated": false,
	"trimmed": false,
	"spriteSourceSize": {"x":0,"y":0,"w":60,"h":60},
	"sourceSize": {"w":60,"h":60}
},
"smallball":
{
	"frame": {"x":634,"y":423,"w":29,"h":29},
	"rotated": false,
	"trimmed": false,
	"spriteSourceSize": {"x":0,"y":0,"w":29,"h":29},
	"sourceSize": {"w":29,"h":29}
},
"smallround":
{
	"frame": {"x":801,"y":122,"w":5,"h":5},
	"rotated": false,
	"trimmed": false,
	"spriteSourceSize": {"x":0,"y":0,"w":5,"h":5},
	"sourceSize": {"w":5,"h":5}
},
"southamptonLogo":
{
	"frame": {"x":3,"y":591,"w":60,"h":60},
	"rotated": false,
	"trimmed": false,
	"spriteSourceSize": {"x":0,"y":0,"w":60,"h":60},
	"sourceSize": {"w":60,"h":60}
},
"spain_flag":
{
	"frame": {"x":3,"y":655,"w":60,"h":60},
	"rotated": false,
	"trimmed": false,
	"spriteSourceSize": {"x":0,"y":0,"w":60,"h":60},
	"sourceSize": {"w":60,"h":60}
},
"starbettitleDefender":
{
	"frame": {"x":570,"y":239,"w":115,"h":92},
	"rotated": false,
	"trimmed": true,
	"spriteSourceSize": {"x":17,"y":0,"w":115,"h":92},
	"sourceSize": {"w":150,"h":92}
},
"Starting_container":
{
	"frame": {"x":3,"y":344,"w":563,"h":72},
	"rotated": false,
	"trimmed": false,
	"spriteSourceSize": {"x":0,"y":0,"w":563,"h":72},
	"sourceSize": {"w":563,"h":72}
},
"switzerland_flag":
{
	"frame": {"x":67,"y":727,"w":60,"h":60},
	"rotated": false,
	"trimmed": false,
	"spriteSourceSize": {"x":0,"y":0,"w":60,"h":60},
	"sourceSize": {"w":60,"h":60}
},
"Time_line":
{
	"frame": {"x":3,"y":420,"w":563,"h":2},
	"rotated": false,
	"trimmed": false,
	"spriteSourceSize": {"x":0,"y":0,"w":563,"h":2},
	"sourceSize": {"w":563,"h":2}
},
"titleDefender":
{
	"frame": {"x":570,"y":75,"w":140,"h":81},
	"rotated": false,
	"trimmed": true,
	"spriteSourceSize": {"x":3,"y":7,"w":140,"h":81},
	"sourceSize": {"w":150,"h":92}
},
"topbarbg":
{
	"frame": {"x":3,"y":250,"w":563,"h":90},
	"rotated": false,
	"trimmed": false,
	"spriteSourceSize": {"x":0,"y":0,"w":563,"h":90},
	"sourceSize": {"w":563,"h":90}
},
"tottenhamhotspurLogo":
{
	"frame": {"x":972,"y":87,"w":35,"h":60},
	"rotated": false,
	"trimmed": true,
	"spriteSourceSize": {"x":12,"y":0,"w":35,"h":60},
	"sourceSize": {"w":60,"h":60}
},
"transparentBtn":
{
	"frame": {"x":810,"y":39,"w":3,"h":3},
	"rotated": false,
	"trimmed": true,
	"spriteSourceSize": {"x":0,"y":0,"w":3,"h":3},
	"sourceSize": {"w":72,"h":29}
},
"tunisia_flag":
{
	"frame": {"x":67,"y":791,"w":60,"h":60},
	"rotated": false,
	"trimmed": false,
	"spriteSourceSize": {"x":0,"y":0,"w":60,"h":60},
	"sourceSize": {"w":60,"h":60}
},
"uruguya_flag":
{
	"frame": {"x":67,"y":855,"w":60,"h":60},
	"rotated": false,
	"trimmed": false,
	"spriteSourceSize": {"x":0,"y":0,"w":60,"h":60},
	"sourceSize": {"w":60,"h":60}
},
"usa_flag":
{
	"frame": {"x":67,"y":919,"w":60,"h":60},
	"rotated": false,
	"trimmed": false,
	"spriteSourceSize": {"x":0,"y":0,"w":60,"h":60},
	"sourceSize": {"w":60,"h":60}
},
"Vertical_time divider":
{
	"frame": {"x":810,"y":46,"w":2,"h":435},
	"rotated": false,
	"trimmed": true,
	"spriteSourceSize": {"x":0,"y":6,"w":2,"h":435},
	"sourceSize": {"w":2,"h":441}
},
"wales_flag":
{
	"frame": {"x":67,"y":463,"w":60,"h":60},
	"rotated": false,
	"trimmed": false,
	"spriteSourceSize": {"x":0,"y":0,"w":60,"h":60},
	"sourceSize": {"w":60,"h":60}
},
"watfordLogo":
{
	"frame": {"x":67,"y":527,"w":60,"h":60},
	"rotated": false,
	"trimmed": false,
	"spriteSourceSize": {"x":0,"y":0,"w":60,"h":60},
	"sourceSize": {"w":60,"h":60}
},
"westhamutdLogo":
{
	"frame": {"x":67,"y":655,"w":56,"h":60},
	"rotated": false,
	"trimmed": true,
	"spriteSourceSize": {"x":2,"y":0,"w":56,"h":60},
	"sourceSize": {"w":60,"h":60}
},
"winningMultibg":
{
	"frame": {"x":972,"y":67,"w":39,"h":16},
	"rotated": false,
	"trimmed": false,
	"spriteSourceSize": {"x":0,"y":0,"w":39,"h":16},
	"sourceSize": {"w":39,"h":16}
},
"wolverhamptonLogo":
{
	"frame": {"x":187,"y":463,"w":60,"h":55},
	"rotated": false,
	"trimmed": true,
	"spriteSourceSize": {"x":0,"y":3,"w":60,"h":55},
	"sourceSize": {"w":60,"h":60}
}},
"animations": {
	"Name_fade": ["Name_fade_1","Name_fade_2"]
},
"meta": {
	"app": "https://www.codeandweb.com/texturepacker",
	"version": "1.1",
	"image": "defender_ui.png",
	"format": "RGBA8888",
	"size": {"w":1024,"h":1024},
	"scale": "0.5",
	"smartupdate": "$TexturePacker:SmartUpdate:0a8b7febde795a884ec29c3d0bd8a7ca:3011b31d8295ab65769d9723bd1a47e1:43c443b2c10ce469cebfb23831cc5f88$"
}
}
