<svg width="7" height="4" viewBox="0 0 7 4" fill="none" xmlns="http://www.w3.org/2000/svg">
<path d="M3.22357 3.8861L0.112346 1.00159C-0.0374494 0.862707 -0.0374494 0.637557 0.112346 0.498676L0.537865 0.10416C0.687661 -0.0347205 0.930504 -0.0347205 1.0803 0.104161L3.22289 2.09064C3.38765 2.24339 3.65516 2.24236 3.81851 2.08829L5.91804 0.108434C6.06744 -0.0324565 6.31207 -0.0334087 6.46275 0.106297L6.88765 0.500242C7.03679 0.638509 7.03754 0.862453 6.88934 1.00157L3.81853 3.88439C3.65504 4.03787 3.38808 4.03863 3.22357 3.8861Z" fill="#1A3AA8"/>
</svg>
