{
    "buttonConfig": {
        "manual": "Manual",
        "auto": "Auto",
        "startAutoplay": "Iniciar reprodução automática",
        "bet": "APOSTA",
        "allBet": "Todas as apostas",
        "betHistory": "Historico de apostas",
        "bigWin": "Grande victoria",
        "players": "Jogadoras",
        "cashout": "SAQUE",
        "cashedOut": "SAÍDA",
        "placed": "COLOCADO",
        "betPlacedFor": "  BET PLACED FOR NEXT ROUND",
        "nextRound": " para a próxima rodada"
    },
    "textConfig": {
        "user": "Usuario",
        "multiplier": "Multiplicar",
        "win": "Ganhar",
        "betPlacedSuccessfully": "Aposta feita com sucesso!",
        "cashedOutSuccessfully": "Sacada com sucesso!",
        "cashOutAmount": "Valor do saque",
        "pleaseWait": "Por favor, espere até que o jogo atual termine",
        "waitingForNextRound": "Waiting for next round",

        "gameId": "ID do JOGO",
        "dateTime": "DATA HORA",
        "returns": "DEVOLUÇÕES",
        "cashOutValue": "Valor de saque",
        "team": "Equipe",
        "goalScored": "Gol marcado",
        "exciseTax": "IMPOSTO",
        "stakeAfterTax": "APOSTA DEPOIS DE RETIRADO O IMPOSTO",
        "withholdingTax": "TAXA DE RETENÇÃO",
        "loading": "Loading",
        "pleaseEnter": "Please enter a valid ",
        "stopOnProfitPerc": "stop on profit percent",
        "stopOnLossPerc": "stop on loss percent"
    },
    "inputConfig": {
        "betAmount": "Valor da aposta",
        "autoCashout": "Saque Automático",
        "totalBets": "Apostas Totais",
        "stopOnProfit": "Parar no lucro",
        "stopOnLoss": "Parar na perda"
    },
    "htpScreensImagesPath": [
        "assets/images/HTPDEFENDER_Assets/HTP_SCREENS/in/en/HTP1.jpg",
        "assets/images/HTPDEFENDER_Assets/HTP_SCREENS/in/en/HTP2.jpg",
        "assets/images/HTPDEFENDER_Assets/HTP_SCREENS/in/en/HTP3.jpg",
        "assets/images/HTPDEFENDER_Assets/HTP_SCREENS/in/en/HTP4.jpg",
        "assets/images/HTPDEFENDER_Assets/HTP_SCREENS/in/en/HTP5.jpg",
        "assets/images/HTPDEFENDER_Assets/HTP_SCREENS/in/en/HTP6.jpg"
    ]
}