{
  "howtoplaypsrules": [
    {
      "title": "BENFINDO AO PENALTY SHOOTOUT!",
      "text": "UM JOGO EMOCIONANTE QUE COMBINA HABILIDADE E SORTE. VOCÊ PODE JOGAR MODOS DE JOGO ÚNICO E TORNEIO E GANHAR PRÊMIOS.",
      "img": "assets/images/HTP_Assets/splashTitle.png"
    },
    {
      "title": "COMO CHUTAR",
      "text": " PRESSIONE O ALVO. MOVA-O PARA ONDE DESEJA MIRAR. SOLTE PARA ATIRAR! CUIDADO: COM RESISTÊNCIA CONTRA SUA MIRA, ATIRAR ONDE VOCÊ QUER É MAIS COMPLICADO DO QUE PARECE À PRIMEIRA VISTA.",
      "img": "assets/images/HTP_Assets/HTP_2.png"
    },
    {
      "title": "COMO JOGAR",
      "text": "APRIMORE SUAS HABILIDADES NO JOGO GRÁTIS, TENTE GANHAR PRÊMIOS POR MEIO DE TABELAS DE CLASSIFICAÇÃO E, QUANDO ESTIVER CONFIANTE O SUFICIENTE, EXPERIMENTE O MODO DE JOGO A DINHEIRO PARA TER A CHANCE DE GANHAR GRANDES PRÊMIOS EM DINHEIRO.",
      "img": "assets/images/HTP_Assets/HTP_4.png",
      "freePlayFlag": true
    },
    {
      "title": "NÍVEIS DO GUARDA-REDES",
      "text": "VOCÊ PODE COMPETIR CONTRA 4 GUARDA-REDES DIFERENTES, TODOS COM DIFERENTES NÍVEIS DE HABILIDADE. JOGAR CONTRA EQUIPES EPL E INTERNACIONAIS DE CLASSIFICAÇÃO MAIS BAIXA SIGNIFICARÁ MAIORES CHANCES DE MARCAR.",
      "img": "assets/images/HTP_Assets/HTP_5.png"
    },
    {
      "title": "JOGO GRATIS",
      "text": "O JOGO GRÁTIS OFERECE A CHANCE DE GANHAR ÓTIMOS PRÊMIOS SEM NENHUM CUSTO. JOGO SINGULAR: MARQUE MAIS PÊNALTIS DO QUE QUALQUER OUTRA PESSOA, CHEGUE AO TOPO DA TABELA DE CLASSIFICAÇÃO E GANHE UM DOS GRANDES PRÊMIOS OFERECIDOS. TORNEIO: NAVEGUE DAS OITAVAS DE FINAL DE UM TORNEIO ATÉ A FINAL, MARCANDO O MAIOR NÚMERO DE GOLS POSSÍVEL.",
      "img": "assets/images/HTP_Assets/HTP_6.png",
      "freePlayFlag": true
    },
    {
      "title": "JOGO EM DINHEIRO",
      "text": "SE VOCÊ ESTÁ CONFIANTE DE QUE PODE VENCER O GUARDA-REDES A 12 METROS, EXPERIMENTE NOSSO MODO DE TORNEIO. QUANTO MAIS VOCÊ MARCAR, MAIS VOCÊ GANHA!",
      "img": "assets/images/HTP_Assets/HTP_7.png"
    },
    {
      "title": "JOGO SINGULAR(GRÁTIS)",
      "text": "O JOGO ÚNICO É UMA VERSÃO MAIS CURTA DO JOGO. BASTA MARCAR O MAIOR NÚMERO POSSÍVEL DE PENALIDADES CONSECUTIVAMENTE PARA CHEGAR AO TOPO DA TABELA DE CLASSIFICAÇÃO E GANHAR PRÊMIOS.",
      "img": "assets/images/HTP_Assets/HTP_8_Betyetu.png",
      "freePlayFlag": true
    },
    {
      "title": "JOGO SINGULAR(PAGO)",
      "text": "SELECIONE O SEU NÚMERO DE PENALIDADES (3,4 OU 5). MARQUE TODOS ELES E GANHE ATÉ 15 VEZES A SUA APOSTA. PRÊMIOS DE CONSOLAÇÃO OFERECIDOS NOS JOGOS DE 4 E 5 PÊNALTIS.",
      "img": "assets/images/HTP_Assets/HTP_9.png"
    },
    {
      "title": "TORNEIO(GRÁTIS)",
      "text": "COMECE NOS OITAVOS-DE-FINAL, MARQUE PELO MENOS 4 DE 5 GOLOS PARA PROGREDIR NAS 3 RODADAS ATÉ A FINAL. QUANTO MAIS LONGE VOCÊ FOR, MAIS PENALIDADES VOCÊ TERÁ QUE TOMAR. TERMINE ENTRE OS PRIMEIROS DA TABELA DE CLASSIFICAÇÃO E GANHE PRÊMIOS GRÁTIS!",
      "img": "assets/images/HTP_Assets/HTP_2.png",
      "freePlayFlag": true
    },
    {
      "title": "TORNEIO(PAGO)",
      "text": "A MESMA JOGADA QUE A VERSÃO GRATUITA, MAS DESTA VEZ QUALIFICA-SE ATRAVÉS DAS RODADAS PARA CHEGAR À FINAL E TER A CHANCE DE GANHAR ATÉ 50X SUA APOSTA. DUPLIQUE SEU DINHEIRO COMO PRÊMIO DE CONSOLAÇÃO AO CHEGAR À SEMIFINAL.",
      "img": "assets/images/HTP_Assets/HTP_10.png"
    },
    {
      "title": "PRÉMIO DO JACKPOT",
      "text": "VOCÊ NÃO APENAS ESTARÁ INDO PARA O PANTEÃO DOS DEUSES PONTUADORES DE PÊNALTIS. HÁ TAMBÉM UM PRÊMIO JACKPOT ADICIONAL A SER GANHO SE VOCÊ MARCAR 5 PENALIDADES EM TODAS AS 4 RODADAS DO TORNEIO EM DINHEIRO E JOGO GRÁTIS.",
      "text2": "Not only will you be making your way to the Pantheon of Penalty Scoring Gods. There is also an additional Jackpot prize to be won if you score 5 penalties in all 4 rounds of the tournament in cash play.",
      "img": "assets/images/HTP_Assets/HTP_12.png"
    },
    {
      "title": "INICIA",
      "text": "ISSO É TUDO DO NOSSO GUIA RÁPIDO DE COMO JOGAR. PARA OBTER DETALHES MAIS COMPLETOS, CONSULTE NOSSA SEÇÃO DE PERGUNTAS FREQUENTES. ALTERNATIVAMENTE, ESCOLHA DINHEIRO OU JOGO GRÁTIS NO MENU E APROVEITE TODA A DIVERSÃO E EMOÇÃO DO VIRTUAL PENALTY SHOOTOUT!",
      "text2": "That’s all from our quick how to play guide. For more thorough details check our FAQs section. Enjoy all the fun and excitement of Virtual Penalty Shootout!",
      "img": "assets/images/HTP_Assets/HTP_13.png"
    }
  ],
    "faqpsrules": [
      {
        "title": "O QUE SÃO PÊNALTIS VIRTUAIS?",
        "text": "VIRTUAL PENALTY SHOOTOUT É UM JOGO VIRTUAL QUE COMBINA HABILIDADE E SORTE, É BASEADO EM RESULTADOS GERADOS POR NÚMEROS ALEATÓRIOS. TUDO O QUE É NECESSÁRIO, É MARCAR TANTAS PENALIDADES QUANTO POSSÍVEL. O ELEMENTO DE HABILIDADE: QUANTO MAIS PRÓXIMO VOCÊ MIRAR PARA OS CANTOS DO GOLO, MAIOR A CHANCE DE O PÊNALTI SER ACERTADO. O ELEMENTO SORTE: HÁ UM FATOR GERADOR DE NÚMEROS ALEATÓRIOS EMBUTIDO QUE LEVA EM CONSIDERAÇÃO A POSIÇÃO DO CHUTE E O NÍVEL DE HABILIDADE DO GOLEIRO NA ÁREA DE GOL. OBSERVE QUE O NÍVEL DE HABILIDADE DE UM GOLEIRO É DETERMINADO PELA COR DE SUA CAMISA. OS GOLEIROS DE NÍVEL 1 (NÍVEL SUPERIOR) USARÃO UMA CAMISA AMARELA OU BRANCA, OS GOLEIROS DE NÍVEL 2 USARÃO UMA CAMISA VERMELHA E OS GOLEIROS DE NÍVEL 3 USARÃO UMA CAMISA AZUL."
      },
      {
        "title": "COMO FUNCIONA O JOGO GRÁTIS?",
        "text": "O JOGO LIVRE É EXATAMENTE COMO VOCÊ IMAGINA. É A CHANCE DE GANHAR ÓTIMOS PRÊMIOS SEM NENHUM CUSTO, SEJA NO MODO SINGLE PLAY (ONDE VOCÊ TENTARÁ MARCAR O MAIOR NÚMERO POSSÍVEL DE GOLS, OU NO MODO TORNEIO) ONDE VOCÊ TENTARÁ NAVEGAR PELOS ÚLTIMOS 16 DE UM TORNEIO ATÉ A FINAL, MARCANDO O MAIOR NÚMERO DE GOLS POSSÍVEL AO LONGO DO CAMINHO.",
        "freePlayFlag": true
      },
      {
        "title": "COMO FUNCIONA O JOGO PAGO?",
        "text": "O JOGO PAGO PERMITE QUE VOCÊ FAÇA APOSTAS EM DINHEIRO AO MARCAR UMA QUANTIDADE ESPECÍFICA DE PENALIDADES EM UM ÚNICO JOGO OU AO SE QUALIFICAR PARA A FINAL DE UM TORNEIO, NO MODO TORNEIO. SE VOCÊ FOR BEM-SUCEDIDO, GANHARÁ VÁRIAS VEZES O VALOR APOSTADO, DEPENDENDO DO JOGO ESCOLHIDO. ISSO PODE SER TÃO ALTO QUANTO 200 X SUA APOSTA SE VOCÊ MARCAR TODOS OS 5 PÊNALTIS NA FINAL."
      },
      {
        "title": "COM QUE FREQUÊNCIA POSSO JOGAR?",
        "text": "VOCÊ PODE JOGAR A COMPETIÇÃO DE JOGO ÚNICO E A COMPETIÇÃO DE TORNEIO 1 VEZ, POR SEMANA. ISSO OCORRE DESDE QUE VOCÊ TENHA CUMPRIDO O REQUISITO DE APOSTAS 100EUR."
      },
      {
        "title": "O QUE É O MODO JOGO ÚNICO?",
        "text": "O MODO DE JOGO ÚNICO É UMA VARIAÇÃO MAIS CURTA DO JOGO, ONDE VOCÊ PRECISARÁ MARCAR O MAIOR NÚMERO DE PÊNALTIS POSSÍVEL LEVANDO 3,4 OU 5 PÊNALTIS. NO MODO SINGLE, VOCÊ PODE GANHAR ATÉ 15 VEZES A SUA APOSTA SE CONSEGUIR 5 DE 5 PENALIDADES BEM-SUCEDIDAS. OBSERVE QUE TAMBÉM HÁ PRÊMIOS DE CONSOLAÇÃO SE VOCÊ JOGAR O JOGO DE 4 OU 5 PÊNALTIS."
      },
      {
        "title": "O QUE É O MODO JOGO TORNEIO?",
        "text": "O MODO TORNEIO É UM JOGO MUITO DIVERTIDO, ONDE VOCÊ PODE SE QUALIFICAR EM 3 RODADAS ATÉ A FINAL DO TORNEIO PARA POTENCIALMENTE GANHAR ALGUNS ÓTIMOS PRÊMIOS."
      },
      {
        "title": "QUE  PRÉMIOS PODEM SER GANHOS NO MODO JOGO ÚNICO?",
        "text": " SE VOCÊ JOGAR NO MODO SINGLE PLAYER, PODERÁ GANHAR ATÉ 15X A SUA APOSTA (AO MARCAR TODAS AS 5 PENALIDADES NO JOGO DE 5 PENALIDADES). A LISTA COMPLETA DE PAGAMENTOS É A SEGUINTE: 3 JOGOS DE PÊNALTIS: MARQUE TODOS OS 3 = 6X SUA APOSTA 4 JOGOS DE PÊNALTIS: MARQUE 4 DE 4 = 8X SUA APOSTA PONTUE 3 DE 4 = APOSTAS DEVOLVIDAS. 5 JOGOS DE PÊNALTIS: MARQUE 5 DE 5 = 15X SUA APOSTA MARQUE 4 DE 5 = 2X SUA APOSTA. NO MODO DE JOGO LIVRE. O PAGAMENTO PODE VARIAR, MAS SEMPRE SERÁ DESTACADO PARA ESSE JOGO ESPECÍFICO NA PÁGINA DE JOGO ÚNICO DE JOGO GRÁTIS E COM MAIS DETALHES NO JOGO INDIVIDUAL, JOGO LIVRE, PLACAR DE LÍDERES."
      },
      {
        "title": "COMO FUNCIONA O GERADOR DE NÚMEROS ALEATÓRIOS?",
        "text": "O SUCESSO DO CHUTE (SE O GOLEIRO DEFENDE O CHUTE OU NÃO) É DETERMINADO PELO POSICIONAMENTO DO CHUTE E SE AQUELE SEGMENTO DO GOL É IGUAL A UMA 'DEFESA' BASEADO NO GERADOR DE NÚMEROS ALEATÓRIOS. A ÁREA DE GOLO É DIVIDIDA EM 30 SEGMENTOS E, DEPENDENDO DO NÍVEL DE HABILIDADE DO GOLEIRO, DETERMINARÁ O RESULTADO ALEATÓRIO DO JOGO EM QUESTÃO."
      }
    ],
    "termsAndConditions": {
      "mainTitle": "TERMOS E CONDIÇÕES",
      "title": "1. Termos e Condições",
      "fullTermstitle": "LEIA TODOS OS TERMOS E CONDIÇÕES",
      "newTerms": [
        {
          "heading": "Estes termos e condições (\"Termos e Condições\") serão aplicados:",
          "terms": [
            "1. em conjunto com quaisquer termos e condições específicos de qualquer promoção aplicável. Onde quaisquer termos e condições específicas conflituosos com estes Termos e Condições, aplicam-se os termos específicos da promoção aplicável; e",
            "2. Você será considerado como tendo aceitado estes Termos e Condições e concordado em ser obrigado por eles ao entrar no livre para jogar e pagar para jogar variantes do jogo.",
            "3. Para efeitos destes Termos e Condições, qualquer referência a \"você\", \"participante(s)\" ou \"jogadore(s)\" são para pessoas que entraram no jogo de acordo com os termos estabelecidos nas Cláusulas 4 e 5 (Como Entrar)."
          ]
        },
        {
          "heading": "2. Elegibilidade",
          "terms": [
            "2.1 Este jogo só é aberto para pessoas com 18 anos ou mais, residentes nos territórios permitidos para o operador, exceto para:",
            "2.1.1 funcionários do Promotor e/ou de cada uma de suas empresas associadas.",
            "2.1.2 funcionários de agentes e/ou fornecedores do Promotor e/ou de suas empresas associadas que estejam profissionalmente ligados à Concorrência e/ou à sua administração; ou",
            "2.1.3 membros das famílias ou domicílios imediatos daqueles especificados nas cláusulas 2.1.1 2.1.2 acima.",
            "2.2 Onde os participantes não atenderem aos critérios estabelecidos na cláusula 3.1, sua entrada não será válida, e eles não serão elegíveis para ganhar",
            "2.3 O Promotor pode exigir que os participantes forneçam comprovante de idade, residência e identidade."
          ]
        },
        {
          "heading": "3. Termos e Condições Gerais ",
          "terms": [
            "1. Para entrar em qualquer jogo pago ou gratuito, os clientes serão considerados como tendo aceitado nossos termos e condições gerais, bem como os termos e condições específicos do Pênalti descritos abaixo.",
            "2. As apostas de pênaltis uma vez feitas não podem ser canceladas, alteradas ou reembolsadas.",
            "3. Caso [o Operador] experimente quaisquer problemas técnicos, nós reservamos o direito de cancelar e anular toda e qualquer aposta no Jackpot efetivado e informaremos os Clientes.",
            "4. Nós reservamos o direito de anular qualquer partida de um Jackpot ou do Jackpot em sua totalidade se houver erros óbvios, se houve uma alteração no formato ou se ele acredita que qualquer Aposta foi colocada em violação de seus Termos e Condições.",
            "5. Nós reservamos o direito de pagar aos clientes que ganham um prémio de jackpot significativo [VALOR NOMINAL] por transferência bancária e isso pode levar até 2 semanas para entrar no banco do cliente.",
            "6. Caso um cliente vencedor não forneça todas as informações solicitadas razoáveis no prazo de 30 dias após a solicitação, reservamo-nos o direito de considerar o prêmio perdido.",
            "7. Nós reservamos o direito de anular todos os ganhos se considerar que ocorreu qualquer fraude ou violação destes Termos e Condições.",
            "8. As decisões e decisões [do operador] são definitivas.",
            "9. [Operador] reserva-se o direito de alterar os termos e condições de aplicação para Jackpots a qualquer momento, por qualquer motivo sem aviso prévio."
          ]
        },
        {
          "heading": "4. Como Entrar – Pagar para Jogar",
          "terms": [
            "1. Existem dois modos diferentes ao jogar Penalty Shoot Out pagar para jogar., Modo Jogador Único e Modo torneio.",
            "2. Ambos os modos em pagar para jogar requer uma compra em dinheiro.",
            "3. A Aposta Mínima para jogar qualquer jogo é de EUR6,36",
            "4. A aposta máxima no modo torneio é de EUR6.367 e a aposta máxima no modo de jogo único é de EUR12.734.",
            "5. Para jogar no modo jogo único, o jogador precisa selecionar o número de penalidades que gostaria de apostar (há 3, 4 ou 5 opções de jogo de penalidade, cada uma com diferentes chances de pagamento). Eles então precisarão escolher uma equipe e, em seguida, escolher seu valor de aposta.",
            "6. Para jogar o modo Torneio, o jogador simplesmente precisará escolher com qual time gostaria de jogar e escolher sua estaca e jogar."
          ]
        },
        {
          "heading": "5. Como Entrar – Grátis para Jogar.",
          "terms": [
            "1. Para jogar nossos jogos gratuitos e se qualificar para quaisquer prêmios, você deve primeiro se registrar em [URL do site] (o \"Site\") ou seus aplicativos móveis relacionados (os \"Aplicativos móveis\") e abrir uma conta.",
            "2. Você é obrigado a se registrar para abrir uma conta no Site ou nos Aplicativos Móveis em seu próprio nome.",
            "3. Qualquer participante que for registrado em nome de qualquer outra pessoa será desclassificado.",
            "4. Apenas uma conta é permitida para ser registrada por participante.",
            "5. Existem dois modos diferentes ao jogar penalidades grátis, Modo Jogador Único e Modo torneio.",
            "6. Para jogar em ambos os modos, o jogador precisará escolher sua equipe e, em seguida, clicar em jogar.",
            "7. Se um jogador estiver jogando livremente para jogar pela primeira vez, ele é obrigado a escolher primeiro um nome de usuário. Este nome de usuário será seu nome de usuário fixo para todos os torneios futuros. Por favor, esteja ciente de que qualquer nome de usuário que possa ser considerado ofensivo resultará em um jogador que antecede qualquer potencial ganho de prêmio e também reservamos o direito de proibir o usuário de jogar qualquer futuro jogo grátis.",
            "8. Note que podemos impor limitações quanto a quantas entradas grátis para jogar que um jogador pode desfrutar ao longo de um tempo periódico (por exemplo, uma vez por dia) e podemos impor requisitos de qualificação quanto a se um jogador se qualifica para jogar livre para jogar o jogo em tudo. Consulte o site para obter mais detalhes e quaisquer critérios de qualificação que possam ser aplicados."
          ],
          "freePlayFlag": true
        },
        {
          "heading": "6. Como Jogar – Pague para Jogar.",
          "terms": [
            "1. No modo de jogo único, um jogador escolherá o número de penalidades que gostaria de tomar. As opções para escolher entre 3,4 ou 5.",
            "2. O jogador é obrigado a marcar todos os 3 penaltis na opção de 3 jogos para ganhar um prémio, na opção de 4 penaltis haverá um consolo para marcar 3 penalidades e na opção de 5 penaltis haverá um consolo para marcar 4 penalidades. Consulte a Cláusula 8 Pague para jogar Probabilidades para obter detalhes completos dos prémios que podem ser ganhos.",
            "3. O jogador então terá um alvo que terá que manobrar para determinar a direção de onde o remate será colocado.",
            "4. Uma vez determinada a direção do remate (que é baseada no lugar em que o jogador tira o dedo do alvo no celular/tablet e quando o jogador clica fora do alvo na área de trabalho) o remate ocorre.",
            "5. O sucesso do tiro (se o goleiro salva o tiro) é determinado por onde o tiro está posicionado e se esse segmento do gol é igual a um 'save' baseado no Gerador de Números Aleatórios.",
            "6. No caso de o remate/alvo errar completamente o golo, então o resultado sempre será um penalti perdido.",
            "7. No modo torneio, o jogador começa nas oitavas de final e é obrigado a marcar pelo menos 4 de 5 penalidades em cada rodada para se classificar até a próxima rodada. Quanto mais você se qualificar através das rodadas, maior o múltiplo de sua aposta que você pode ganhar.",
            "8. São 4 rodadas no total no modo torneio cada, compreendendo 5 penalidades. No caso de um jogador marcar todas as 5 penalidades em cada rodada (20 no total) eles também se qualificarão para receber o prêmio do jackpot (veja os detalhes do Prêmio do Jackpot do Torneio abaixo)"
          ]
        },
        {
          "heading": "7. Como Jogar – Grátis para Jogar. ",
          "terms": [
            "1. No modo de jogo único, livre para jogar em vez de escolher o número de penáltis a tomar, o jogador irá direto para o jogo e precisa de tentar marcar o maior número de vezes consecutivas possível. ",
            "2. Assim que um penálti for falhado, o jogo terminará.",
            "3. Quanto maior for a quantidade de penalidades consecutivas marcadas, maior é a probabilidade de subir na tabela e ganhar um dos prémios em dinheiro anunciados",
            "4. A tabela de classificação de um único jogo será executada periodicamente conforme anunciado no jogo. Quando o jogo periódico terminar, os vencedores serão notificados e receberão o prêmio anunciado e a tabela de classificação será redefinida.",
            "5. No caso de jogadores empatarem em um número específico de pênaltis marcados nos modos de jogo único e torneio grátis para jogar, o jogador que marcou esse número de pênaltis primeiro será considerado na posição mais alta na tabela de classificação, quaisquer jogadores subsequentes precisarão bater o número alvo de penalidades já definido.",
            "6. Em modo de torneio livre, o jogador começará nos oitavos-de-final e será necessário a marcar pelo menos 4 das 5 penalidades tomadas em cada ronda para se qualificar para a próxima ronda",
            "7. O torneio livre para jogar também é baseado numa tabela de classificação.  O objetivo é marcar o maior número possível de golos ao longo das 4 jornadas.",
            "8. Ao marcar pelo menos 4 das 5 penalidades em cada ronda que antecede a final, o jogador tem a oportunidade de fazer mais penalidades e a possibilidade de marcar mais e subir na tabela classificativa."
          ],
          "freePlayFlag": true
        },
        {
          "heading": "9. Probabilidades de pagar para jogar ",
          "terms": [
            "1. Os pagamentos pay to play são todos dependentes da aposta e são um múltiplo da aposta apostada (conhecida como 'Odds') As probabilidades para ambos os jogos são as seguintes;",
            "2. Probabilidades de um único jogo. \n 3 Jogo de Pênaltis = 3 Penalties marcados: Odds de 6.00",
            "2.24 Jogo de Pênaltis = \n 2.2.1 3 Penalidades marcadas: Odds de 1.00 (Stake Returned). \n 2.2.2 4 Penalidades marcadas: Odds de 8.00",
            "2.3 5 Jogo de Pênaltis =\n 2.3.1 4 Penalidades marcadas: odds de 2.00. \n 2.3.2 5 Penalidades marcadas: odds de 15:00",
            "3. Chances do jogo do torneio",
            "3.1 Chances garantidas para a qualificação dos quartos de final às semi-finais: 2.00 ",
            "3.2 Chances garantidas para a qualificação das Semi-Finais para a Final: 4.00",
            "3.3 Prémio garantido por marcar 3 golos na Final: 10.00",
            "3.4 Prémio garantido por marcar 4 golos na Final: 50.00",
            "3.5 Prémio por marcar 5 golos na Final: 200.00"
          ]
        },
        {
          "heading": "10. Livre para jogar Prémios/Prémios grátis para jogar",
          "terms": [
            "1. As competições gratuitas acontecem a cada [VALOR É IGUAL A TEMPO PERIÓDICO DESEJADO DE CADA DIA/ SEMANA/MÊS DA COMPETIÇÃO]",
            "2. Existem tabelas de classificação separadas para os Modos de Jogo Único e Torneio cada [VALOR É IGUAL AO TEMPO PERIÓDICO DESEJADO DE CADA COMPETIÇÃO]",
            "3. O prêmio por terminar no topo do quadro de líderes único gratuito para jogar (a menos que anunciado de outra forma) é [VALOR DO PRÊMIO DO PRIMEIRO LUGAR]",
            "4. Os prêmios de consolação por terminar [VALOR É IGUAL À(S) POSIÇÃO(ES) DA PLACA DE LÍDER] na tabela de classificação de jogo único (salvo indicação em contrário) é [VALOR DO(S) PRÊMIO(S) DE CONSOLAÇÃO].",
            "5. O Prémio para terminar no topo da tabela de líderes do torneio livre (salvo publicidade em contrário) é [VALOR DO PRIMEIRO PRÉMIO]",
            "6. Os prêmios de consolação por terminar [VALOR É IGUAL À(S) POSIÇÃO(ES) DA PLACA DE LÍDER] na tabela de classificação do Torneio (salvo indicação em contrário) é [VALOR DO(S) PRÊMIO(S) DE CONSOLAÇÃO].",
            "7. De acordo com a cláusula 7.5 No caso de jogadores empatarem em um número específico de pênaltis marcados nos modos de jogo único e torneio grátis, o jogador que marcou esse número de pênaltis primeiro será considerado na posição mais alta na tabela de classificação, quaisquer jogadores subsequentes precisarão bater o número alvo de penalidades já definido."
          ],
          "freePlayFlag": true
        },
        {
          "heading": "11. Prémio Jackpot do Torneio",
          "terms": [
            "1. Há um prêmio de jackpot adicional para marcar todos os 5 golos em cada uma das 4 rodadas no modo Torneio, tanto para jogar grátis quanto para jogar.",
            "2. No pague para jogar o jackpot é um prêmio separado e não afetará quaisquer ganhos já acumulados como consequência dos valores de pagamento de probabilidades acima.",
            "3. Ambos os jackpots são jackpots agrupados mensais (Mês do Calendário) e, portanto, no caso de vários vencedores em cada um dos dois jackpots, o valor do jackpot será dividido igualmente entre os vencedores.",
            "4. O agrupamento dos prêmios do jackpot será separado para jogar e jogar grátis. Se houvesse vencedores únicos em cada variante em um mês do calendário, ambos os jogadores ganhariam o respectivo prêmio total do Jackpot Pool.",
            "5. O 5. O prêmio total mensal (a menos que anunciado de outra forma) para ganhar o jackpot no Pay to Play é [VALOR É IGUAL A PAGAMENTO PARA JOGAR VALOR DO JACKPOT].",
            "6. O prêmio total mensal (a menos que anunciado de outra forma) para ganhar o jackpot no Free Play é [VALOR É IGUAL A QUANTIA DO JACKPOT DE JOGO GRÁTIS].",
            "7. Para jogar para ganhar, o valor da aposta não reflete o quanto pode ser ganho dentro do jackpot. Este prêmio Jackpot tem o mesmo valor para todos os jogadores de cash games."
          ]
        },
        {
          "heading": "12. Verificação de Vencedores e Participantes do Prémio Jackpot",
          "terms": [
            "1. Os vencedores (conforme determinado de acordo com os termos estabelecidos na Cláusula 10 (Prémio Jackpot do Torneio) serão notificados por e-mail ou número de telefone registado na sua conta no dia em que a ronda relevante estiver concluída, ou no dia útil seguinte (um \"Dia útil\" sendo um dia diferente de um sábado, domingo ou feriado).",
            "2. É da exclusiva responsabilidade de cada jogador garantir que os seus dados de contacto estão atualizados na sua conta.",
            "3. Os vencedores podem ser obrigados a verificar (com provas satisfatórias para o Promotor) os seus: idade., identidade., residência; e qualquer outra informação de verificação solicitada pela Promotora, a contento da Promotora antes de poder receber o seu Prémio.",
            "4. Se qualquer vencedor não for capaz, por qualquer razão: i. para aceitar um Prémio. ii. Verificar as suas informações de registo a contento do Promotor. iii. constatou-se que violou os presentes Termos e Condições; ou iv. não pode ser contactado no prazo de cinco Dias úteis, o Promotor reserva-se o direito de desqualificar esse vencedor (e a sua elegibilidade para receber quaisquer Prémios ao abrigo do Concurso) e atribuir o Prémio aplicável a outro participante, se aplicável.",
            "5. Os vencedores deverão permitir até 30 dias para o pagamento e entrega do Prémio aplicável.",
            "6. A decisão da Promotora é definitiva e juridicamente vinculativa para todos os participantes em relação a todos os aspetos do Concurso, incluindo (sem limitação), a atribuição dos Prémios e não será registada qualquer correspondência.",
            "7. As inscrições que não cumprirem integralmente os presentes Termos e Condições serão desclassificadas e não serão elegíveis para receber um prémio de jackpot."
          ]
        },
        {
          "heading": "13. Publicidade e Informações Pessoais",
          "terms": [
            "1. O Promotor pode usar os dados pessoais de cada vencedor e de cada participante com o propósito de administrar esta Competição.",
            "2. Ao optar por receber ofertas e comunicações, você concorda que o Promotor e cada uma de suas empresas, negócios e parceiros de negócios podem usar os detalhes que você nos dá para entrar em contato com você sobre produtos e serviços que podem ser de seu interesse",
            "3. Você concorda que o Promotor pode usar os detalhes que você nos dá para entrar em contato com você e fornecer marketing direcionado adaptado aos produtos e serviços que podem ser de seu interesse",
            "4. A entrada e participação na Competição constitui permissão para que o Promotor e/ou suas empresas associadas, afiliadas e subsidiárias usem os nomes de usuário, previsões e fotografias de usuários dos participantes para fins de publicação, incluindo, mas não se limitando, a placas de líder e outras exibições dentro do nosso Site jackpot ou aplicativos relacionados.",
            "5. Com o consentimento do vencedor, os detalhes do vencedor serão incluídos em publicidade como o Promotor razoavelmente exige."
          ]
        },
        {
          "heading": "14. Limitação da Responsabilidade",
          "terms": [
            "1. Exceto no caso de morte ou lesão corporal decorrente de sua negligência ou em relação à fraude, e até agora, como é permitido por lei, o Promotor e cada uma de suas empresas e agentes associados excluem a responsabilidade e todas as responsabilidades decorrentes de: i. quaisquer falhas técnicas ou indisponibilidade do Site de Penalidades, Aplicativos Móveis ou outras plataformas relacionadas. ii. erros ou omissões óbvias relacionadas à concessão de Prêmios; iii. qualquer ato ou inadimplência de qualquer fornecedor de terceiros, incluindo erros sem limitação relacionados a acessórios e dados de pontuação.",
            "2. Os termos e condições de qualquer fornecedor terceirizado serão aplicados ao Prêmio, quando aplicável.",
            "3. Se qualquer disposição ou part-provision destes Termos e Condições forem ou se tornar inválidas, ilegais ou inexequíveis, ela será considerada modificada na medida mínima necessária para torná-la válida, legal e exequível. Se tal modificação não for possível, a disposição ou provisão parcial relevantes serão consideradas excluídas. Qualquer modificação ou exclusão de uma disposição ou provisão parcial sob esta cláusula não afetará a validade e a aplicabilidade do resto destes termos e condições.",
            "4. Não permitimos nenhum script de aposta automatizado de terceiros no site. Qualquer uso de scripts ou bots automatizados de apostas de terceiros é uma violação de termos. Se o encontrarmos em violação destes termos, reservamo-nos o direito de reter quaisquer ganhos que possam ter sido acumulados e fecharemos sua conta com efeito imediato.",
            "5. No caso de um mau funcionamento do sistema de jogos, reservamo-nos o direito de anular qualquer/todas as apostas e quando aplicável para recuperar quaisquer ganhos de jogo associados."
          ]
        }
      ]
    },
    "psTips": [
      "Keep an eye out for different keepers, some are better than others.",
      "To take a shot...touch the target, aim where you want to shoot, and then release!",
      "Score at least 4 from 5 penalties to progress through each tournament round.",
      "The closer you aim to the corners, the greater your chance of scoring.",
      "Once you have honed your skills, you can win cash prizes in our cash game mode.",
      "Free to play mode is a great way to practice your penalty kick skills.",
      "In tournaments, the stronger your opposing team, the better the goalkeeper!",
      "Full leaderboard details can be found by clicking on the [CUP ICON] Icon."
    ],
    "freePlayPsTipsIndex": [5, 7],
    "potentialWinInfoText": {
      "title": "CHOOSE YOUR NUMBER OF PENALTIES",
      "3": "Score 3 from 3 = 6x Your Bet",
      "4": "Score 4 from 4 = Win 8x Your Bet",
      "4_1": "Score 3 from 4 = Win 1x Your Bet",
      "5": "Score 5 from 5 = Win 15x Your Bet",
      "5_1": "Score 4 from 5 = Win 2x Your Bet"
    },
    "tournamentPayTable": {
      "0": "FAZER 5 GOLOS NA FINAL",
      "1": "FAZER 4 GOLOS NA FINAL",
      "2": "FAZER 3 GOLOS NA FINAL",
      "3": "QUALIFICAÇÃO DAS SEMI-FINAIS",
      "4": "QUALIFICAÇÃO DOS QUARTOS-DE-FINAIS",
      "curr": ""
    },
    "readFullTerms": "LEIA TODOS OS TERMOS E CONDIÇÕES",
    "howToPlay": "COMO JOGAR",
    "faqsTitle": "PERGUNTAS FREQUENTES"
  }
  