{"frames": {

"cross":
{
	"frame": {"x":3,"y":43,"w":64,"h":64},
	"rotated": false,
	"trimmed": false,
	"spriteSourceSize": {"x":0,"y":0,"w":64,"h":64},
	"sourceSize": {"w":64,"h":64}
},
"nextArrow":
{
	"frame": {"x":71,"y":43,"w":45,"h":45},
	"rotated": false,
	"trimmed": false,
	"spriteSourceSize": {"x":0,"y":0,"w":45,"h":45},
	"sourceSize": {"w":45,"h":45}
},
"prevArrow":
{
	"frame": {"x":71,"y":92,"w":45,"h":45},
	"rotated": false,
	"trimmed": false,
	"spriteSourceSize": {"x":0,"y":0,"w":45,"h":45},
	"sourceSize": {"w":45,"h":45}
},
"roundedRectWhiteBtn":
{
	"frame": {"x":3,"y":3,"w":104,"h":36},
	"rotated": false,
	"trimmed": false,
	"spriteSourceSize": {"x":0,"y":0,"w":104,"h":36},
	"sourceSize": {"w":104,"h":36}
},
"tick":
{
	"frame": {"x":3,"y":111,"w":64,"h":64},
	"rotated": false,
	"trimmed": false,
	"spriteSourceSize": {"x":0,"y":0,"w":64,"h":64},
	"sourceSize": {"w":64,"h":64}
},
"upArrow":
{
	"frame": {"x":71,"y":141,"w":45,"h":22},
	"rotated": false,
	"trimmed": false,
	"spriteSourceSize": {"x":0,"y":0,"w":45,"h":22},
	"sourceSize": {"w":45,"h":22}
}},
"meta": {
	"app": "https://www.codeandweb.com/texturepacker",
	"version": "1.0",
	"image": "commonUI.png",
	"format": "RGBA8888",
	"size": {"w":128,"h":256},
	"scale": "1",
	"smartupdate": "$TexturePacker:SmartUpdate:a9620eb97a9a80919422a84ee04f91c4:d55bcc21f0c7cd9f0fa56d4f85f9763e:92495ba8c18c930e92135cf5c195087a$"
}
}
