{
   "howtoplaypsrules":[
      {
         "title":"Bienvenue aux tirs au but !",
         "text":"Un jeu passionnant alliant habileté et chance. Vous pouvez jouer aux modes Solo et Tournoi afin d’avoir une chance de gagner. ",
         "img":"assets/images/HTP_Assets/splashTitle.png"
      },
      {
         "title":"Comment tirer",
         "text":"Appuyez sur la cible. Déplacez-le là où vous voulez viser. Libérez pour tirer! Attention: Avec une résistance contre votre objectif, tirer où vous voulez est plus délicat qu’il n’y paraît.",
         "img":"assets/images/HTP_Assets/HTP_2.png"
      },
      {
         "title":"Niveaux de gardien de but",
         "text":"Vous pouvez rivaliser avec 4 gardiens de but différents, chacun avec différents niveaux de compétence. Jouer contre des équipes V_EPL et internationales de  rang inférieur peut augmenter vos chances de marquer.",
         "img":"assets/images/HTP_Assets/HTP_5.png"
      },
      {
         "title":"Mode Tournoi",
         "text":"Si vous êtes confiant que vous pouvez battre le gardien de but de 12 verges, essayez notre mode Tournoi. Plus vous marquez, plus vous gagnez !",
         "img":"assets/images/HTP_Assets/HTP_7_drc_fr.png"
      },
      {
         "title":"Jeu unique",
         "text":"Sélectionnez votre nombre de pénalités (3,4 ou 5). Marquez-les tous et courez une chance de gagner jusqu’à 15 fois votre mise. ",
         "img":"assets/images/HTP_Assets/HTP_9.png"
      },
      {
         "title":"prix du tournoi",
         "text":"Le mode Tournoi est similaire au mode solo, mais cette fois, vous devez vous qualifier à travers les tours afin d’atteindre le tour final pour avoir la chance de gagner jusqu’à 200 fois votre mise. Vous avez également une chance de doubler votre argent en atteignant la demi-finale.",
         "img":"assets/images/HTP_Assets/HTP_10_drc_fr.png"
      },
      {
         "title":"Démarrer !",
         "text":"C’est tout de notre guide rapide « comment jouer ». Pour plus d’informations, veuillez consulter la section de notre FAQ. Alternativement, choisissez entre le mode Solo ou Tournoi dans le menu et profitez de tout le plaisir et de l’excitation de la séance de tirs au but virtuelle !",
         "img":"assets/images/HTP_Assets/HTP_13.png"
      }
   ],
   "faqpsrules":[
      {
         "title":"Qu’est-ce que la séance de tirs au but virtuelle?",
         "text":"Tirs au but est un jeu virtuel combinant compétence et chance, il est basé sur des résultats générés par un nombre aléatoire. Tout ce qu’il faut, c’est marquer autant de pénalités que possible. L’élément de compétence : plus vous visez près des coins du but, plus les chances de réussite du penalty sont grandes. L’élément chance : il y a un facteur générateur de nombres aléatoires intégré qui prend en compte la position du tir et le niveau de compétence du gardien de but dans la zone de but. Veuillez noter que le niveau de compétence d’un gardien de but est déterminé par la couleur de son maillot. Les gardiens de but de niveau 1 (niveau supérieur) porteront un maillot jaune ou blanc, les gardiens de but de niveau 2 porteront un maillot rouge et les gardiens de but de niveau 3 porteront un maillot bleu."
      },
      {
         "title":"À quelle fréquence puis-je jouer ?",
         "text":"Vous pouvez jouer au jeu autant de fois que vous le souhaitez dans les modes Solo et Tournoi."
      },
      {
         "title":"Qu’est-ce que le mode de jeu unique ?",
         "text":"Le mode de jeu unique est une variante plus courte du jeu, où vous devrez marquer autant de pénalités que possible en prenant 3, 4 ou 5 pénalités. En mode simple, vous pouvez gagner jusqu’à 15 fois votre mise si vous gérez 5 pénalités sur 5 réussies. Notez qu’il y a aussi des prix de consolation si vous jouez le jeu de pénalité 4 ou 5."
      },
      {
         "title":"Qu’est-ce que le mode tournoi ?",
         "text":"Le mode Tournoi est un jeu très amusant où vous pouvez vous qualifier à travers 3 tours jusqu’à la finale du tournoi afin de potentiellement gagner de superbes prix."
      },
      {
         "title":"Quels prix peuvent être gagnés en mode solo ?",
         "text":"Si vous jouez en mode solo, vous pouvez gagner jusqu’à 15 fois votre mise (en marquant les 5 pénalités dans le jeu à 5 pénalités). La liste complète des paiements est la suivante: \n\n 3 Jeu de pénalité:: \n Marquez tous les 3 = 6x votre mise \n\n 4 Jeu de pénalité: \n Score 4 de 4 = 8x votre mise \n Score 3 de 4 = retourner votre pari \n\n 5 Jeu de pénalité :: \n Score 5 de 5 = 15x votre mise \n Score 4 de 5 = 2x votre mise"
      },
      {
         "title":"Comment fonctionne le GNR?",
         "text":"Le succès du tir (que le gardien sauve le tir ou non) est déterminé par le positionnement du tir et si ce segment du but est égal à un « arrêt » basé sur le générateur de nombres aléatoires. La zone de but est divisée en 30 segments et, en fonction du niveau de compétence du gardien de but, déterminera le résultat aléatoire du jeu en cours.."
      }
   ],
   "termsAndConditions":{
      "title":"TERMES ET CONDITIONS ",
      "newTerms":[
         {
            "heading":"Ceux Terms and Conditions ('TERMES ET CONDITIONS') s'appliquera:",
            "terms":[
               "1. Une fois qu’un pari est placé, il ne peut pas être annulé, modifié ou remboursé.",
               "2. Si 10Bet rencontre des problèmes techniques quels qu’ils soient, 10Bet se réserve le droit d’annuler et d’annuler tous les paris placés sur le tour effectué et en informera les clients.",
               "3. 10Bet se réserve le droit d’annuler tout match dans son intégralité s’il y a des erreurs, s’il y a eu un changement de format ou si 10Bet estime qu’un pari a été placé en violation de ces  Termes et Conditions et / ou des Conditions générales.",
               "4. 10Bet se réserve le droit de payer les clients, qui gagnent une somme d’argent importante, par virement bancaire et cela peut prendre jusqu’à 2 semaines pour se refléter dans le compte bancaire du client.",
               "5. Si un client gagnant ne fournit pas toutes les informations et tous les documents raisonnables demandés dans un délai de 30 jours à compter de la date de la demande, 10Bet se réserve le droit de considérer le gain perdu et le client n’aura aucune réclamation contre 10Bet.",
               "6. 10Bet se réserve le droit d’annuler tout pari gagnant si une fraude ou une violation des présentes Conditions générales et/ou des Conditions générales a eu lieu.",
               "7. 10Bet se réserve le droit de modifier les termes et conditions si nécessaire, pour quelque raison que ce soit et sans préavis. Les modifications seront publiées sur le site Web de 10Bets.",
               "8. Veuillez vous référer aux conditions générales de 10Bets sur le site Web qui doivent être lues et acceptées conjointement avec les conditions générales de la séance de tirs au but virtuelle. Toute violation des Conditions Générales entraînera une violation des présentes Conditions Générales et vice-versa."
            ]
         },
         {
            "heading":"COMMENT JOUER:",
            "terms":[
               "1. Vous avez le choix entre deux options différentes  lorsque vous jouez à la séance de tirs au but virtuelle: Mode Solo ou Mode Tournoi:",
               "2. Les deux options nécessitent un buy-in « en espèces ».",
               "3. La mise minimale requise pour jouer à l’un ou l’autre jeu est de 200 CDF",
               "4. La mise maximale en mode Tournoi est de 90 000 CDF et la mise maximale en mode solo est de 175 000 CDF.",
               "5. Pour jouer en mode solo, le client doit sélectionner le nombre de pénalités qu’il souhaite viser (il existe 3, 4 ou 5 options de jeu de pénalité, chacune avec des cotes de paiement différentes). Il devra ensuite choisir une équipe, puis choisir sa valeur de pari.",
               "6. Pour jouer au mode Tournoi, le client devra simplement choisir avec quelle équipe il souhaite jouer, puis choisir son pari et commencer à jouer..",
               "7. Le but du jeu est d’obtenir autant de tirs au but que possible devant le gardien de but afin de gagner. Ne pas le faire entraînera une perte et une nouvelle ronde commencera par la suite.",
               "8. Une cible jaune apparaîtra sur l’écran que le client devra utiliser pour manœuvrer autour de la zone de but afin de choisir la direction dans laquelle son tir sera placé.",
               "9. Une fois que la direction de prise de vue est confirmée, la prise de vue a lieu. Pour les clients jouant sur leur mobile / tablette, le tir aura lieu une fois  que le client  aura retiré son doigt de la cible jaune. Pour les clients jouant sur leur bureau, le tir aura lieu lorsqu’il / elle cliquera sur la cible jaune.",
               "10. Dans le cas où le tir manque le but, le résultat sera toujours un penalty manqué.",
               "11. En mode Tournoi, le client commence à partir de la dernière seizième (16) phase de la compétition et doit marquer au moins 4 des 5 pénalités à chaque tour afin de se qualifier pour le tour suivant. Plus vous vous qualifiez jusqu’au tour suivant, plus le multiple du pari que vous pouvez gagner est élevé.",
               "12. Il y a 4 tours au total en mode Tournoi comprenant chacun 5 pénalités. "
            ]
         },
         {
            "heading":"ODDS",
            "terms": [""]
         },
         {
            "heading": "Cotes du mode solo: ",
            "terms": [
               "a. 3 Pénalités = 3 Pénalités marquées : Cote de 6,00 ",
               "b. 4 Pénalités = 3 Pénalités marquées : Cote de 1,00 (pari retourné). ",
               "i.4 Pénalités marquées: Cote de 8,00.",
               "c.5 Pénalités = 4 Pénalités marquées : Cote de 2,00. ",
               "i.5 pénalités marquées: Cote de 15:00"
            ],
            "checkAllignment": true
         },
         {
            "heading": "Tournament Mode Odds:",
            "terms":[
               "a. Cotes garanties pour la qualification des quarts de finale aux demi-finales: 2.00  ",
               "b. Cotes garanties pour la qualification des demi-finales à la finale: 4.00 ",
               "c. Cote garantie pour marquer 3 pénalités en finale: 10.00",
               "d. Cote garantie pour marquer 4 pénalités en finale: 50.00",
               "e. Cote garantie pour marquer 5 pénalités en finale: 200.00"
            ]
         }
      ]
   },
   "psTips": [
      "Keep an eye out for different keepers, some are better than others.",
      "To take a shot...touch the target, aim where you want to shoot, and then release!",
      "Score at least 4 from 5 penalties to progress through each tournament round.",
      "The closer you aim to the corners, the greater your chance of scoring.",
      "Once you have honed your skills, you can win cash prizes in our cash game mode.",
      "Free to play mode is a great way to practice your penalty kick skills.",
      "In tournaments, the stronger your opposing team, the better the goalkeeper!",
      "Full leaderboard details can be found by clicking on the [CUP ICON] Icon."
    ],
    "freePlayPsTipsIndex": [5, 7],
    "potentialWinInfoText2": {
      "title": "Choisissez votre nombre de pénalités",
      "3": "Score 3 de 3 - 6x votre mise",
      "4": "Score 4 de 4 - Gagnez 8x votre mise",
      "4_1": "Score 3 de 4 - Gagnez 1x votre mise",
      "5": "Score 5 de 5 – Gagnez 15 x votre mise",
      "5_1": "Score 4 de 5 – Gagnez 2 x votre mise"
    },
    "potentialWinInfoText": {
      "title": "CHOOSE YOUR NUMBER OF PENALTIES",
      "3": "Score 3 from 3 = 6x Your Bet",
      "4": "Score 4 from 4 = Win 8x Your Bet",
      "4_1": "Score 3 from 4 = Win 1x Your Bet",
      "5": "Score 5 from 5 = Win 15x Your Bet",
      "5_1": "Score 4 from 5 = Win 2x Your Bet"
    },
    "tournamentPayTable2": {
      "0": "5 pénalités marquées en finale ",
      "1": "4 pénalités marquées en finale ",
      "2": "3 pénalités marquées en finale ",
      "3": "QUALIFYING FROM THE SF'S",
      "4": "QUALIFYING FROM THE QF'S",
      "curr": "votre mise"
    },
    "tournamentPayTable": {
      "0": "SCORING 5 GOALS IN THE FINAL",
      "1": "SCORING 4 GOALS IN THE FINAL",
      "2": "SCORING 3 GOALS IN THE FINAL",
      "3": "QUALIFYING FROM THE SF'S",
      "4": "QUALIFYING FROM THE QF'S",
      "curr": ""
    }
}