{
    "howtoplaypsrules":[
       {
          "title":"Karibu kwenye Mikwaju ya Penalty ya Mtandaoni!",
          "text":"Mchezo wa kusisimua unaochanganya ujuzi na bahati. Unaweza kucheza Mchezaji Mmoja na aina za Mashindano ili kupata nafasi ya kushinda. ",
          "img":"assets/images/HTP_Assets/splashTitle.png"
       },
       {
          "title":"Jinsi ya Risasi!",
          "text":"Bonyeza chini kwenye lengo. Isogeze hadi pale unapotaka kulenga. Kutolewa kwa risasi! Tahadhari: Kwa upinzani dhidi ya lengo lako, kupiga risasi unapotaka ni ngumu zaidi kuliko inavyoonekana kwanza.",
          "img":"assets/images/HTP_Assets/HTP_2.png"
       },
       {
          "title":"Viwango vya Kipa",
          "text":"Unaweza kushindana dhidi ya walinda lango 4 tofauti, kila mmoja akiwa na viwango tofauti vya ustadi. Kucheza dhidi ya V_EPL ya kiwango cha chini na timu za Kimataifa kunaweza kuongeza nafasi zako za kufunga.",
          "img":"assets/images/HTP_Assets/HTP_5.png"
       },
       {
          "title":"Hali ya mashindano",
          "text":"Ikiwa una uhakika kuwa unaweza kupiga penalty kutoka yadi 12, basi jaribu hali yetu ya Mashindano. Kadiri unavyopata alama, ndivyo unavyoshinda!",
          "img":"assets/images/HTP_Assets/HTP_7_ke_sw.png"
       },
       {
          "title":"Mchezo Mmoja",
          "text":"Chagua nambari yako ya adhabu (3,4 au 5). Zifunge zote na upate nafasi ya kushinda hadi mara 15 dau lako.",
          "img":"assets/images/HTP_Assets/HTP_9_ke_sw.png"
       },
       {
          "title":"Hali ya Mashindano",
          "text":"Hali ya mashindano ni sawa na Hali ya Mchezaji Mmoja hata hivyo wakati huu unahitaji kufuzu kupitia raundi ili kufika raundi ya mwisho ili kupata nafasi ya kushinda hadi mara 200 ya dau lako. Pia unapata nafasi ya kuongeza pesa zako maradufu kwa kufika raundi ya nusu fainali.",
          "img":"assets/images/HTP_Assets/HTP_10_ke_sw.png"
       },
       {
          "title":"Anza!",
          "text":"Hayo yote ni kutoka kwa mwongozo wetu wa haraka wa \"jinsi ya kucheza\". Kwa habari zaidi, tafadhali rejelea sehemu yetu ya Maswali Yanayoulizwa Mara kwa Mara. Vinginevyo, chagua kati ya Modi ya Mchezaji Mmoja au Mashindano kwenye menyu na ufurahie furaha na msisimko wa Mikwaju ya Penati ya Kweli!",
          "img":"assets/images/HTP_Assets/HTP_13.png"
       }
    ],
    "faqpsrules":[
       {
          "title":"Mikwaju ya Penalty ya Mtandaoni ni nini?",
          "text":"Mikwaju ya Penalty ya Mtandaoni ni mchezo pepe unaochanganya ujuzi na bahati, unatokana na matokeo yanayotokana na Nambari Nasibu. Kinachotakiwa, ni kufunga penalty nyingi iwezekanavyo. Kipengele cha ustadi: kadiri unavyolenga karibu na pembe za goli, ndivyo uwezekano wa penalty kufanikiwa zaidi. Kipengele cha bahati: kuna kipengele cha Jenereta cha Nambari kilichojengwa ndani ambacho huchukua nafasi ya shuti na kiwango cha ustadi wa kipa katika eneo la goli kuzingatiwa. Tafadhali kumbuka kuwa kiwango cha ujuzi wa kipa kinatambuliwa na rangi ya jezi yao. Walinda lango wa Daraja la 1 (kiwango cha juu) watavaa jezi ya Njano au Nyeupe, wa Daraja la 2 watavaa jezi nyekundu na wa Daraja la 3 watavaa jezi ya bluu."
       },
       {
          "title":"Je, ninaweza kucheza mara ngapi?",
          "text":"Unaweza kucheza mchezo mara nyingi upendavyo katika njia za Mchezaji Mmoja na Mashindano."
       },
       {
          "title":"Njia ya mchezo mmoja ni nini?",
          "text":"Hali ya mchezo moja ni tofauti fupi zaidi, ambapo utahitaji kupata penalty nyingi iwezekanavyo ukichukua 3, 4 au 5. Katika hali moja unaweza kushinda hadi 15 x dau lako ikiwa utasimamia adhabu 5 kati ya 5 zilizofaulu. Kumbuka kuwa pia kuna zawadi za faraja ikiwa utacheza mchezo wa adhabu 4 au 5."
       },
       {
          "title":"Njia ya mashindano ni nini?",
          "text":"Hali ya Mashindano ni mchezo mzuri wa kufurahisha ambapo unaweza kufuzu kupitia raundi 3 hadi hadi fainali ya mashindano ili uweze kujishindia zawadi bora."
       },
       {
          "title":"Ni zawadi gani zinaweza kushinda katika hali ya Mchezaji Mmoja?",
          "text":"Ikiwa unacheza hali ya Mchezaji Mmoja, basi unaweza kushinda hadi mara 15 dau lako (kwa kufunga penalty zote 5 katika mchezo wa 5). Orodha kamili ya malipo ni kama ifuatavyo. \n\n 3 Penalty game: \n Score all 3 = 6x your bet \n\n 4 Penalty game: \n Score 4 from 4 = 8x your bet \n Score 3 from 4 = return your bet \n\n 5 Penalty game: \n Score 5 from 5 = 15x your bet \n Score 4 from 5 = 2x your bet"
       },
       {
          "title":"Je, RNG inafanya kazi vipi?",
          "text":"Mafanikio ya mkwaju huo (kama kipa anaokoa shuti au la) huamuliwa na upangaji wa shuti na iwapo sehemu hiyo ya goli ni sawa na 'save' inayotokana na Jenereta ya Nambari isiyo ya kawaida. Eneo la lengo limegawanywa katika sehemu 30 na kulingana na kiwango cha ujuzi wa kipa itaamua matokeo ya nasibu ya mchezo uliopo."
       }
    ],
    "termsAndConditions":{
       "title":"MASHARTI NA MASHARTI ",
       "newTerms":[
          {
             "heading":"MASHARTI NA MASHARTI ",
             "terms":[
                "1. Mara dau linapowekwa, haliwezi kughairiwa, kurekebishwa au kurejeshewa pesa.",
                "2. Iwapo 10Bet itakumbana na masuala yoyote ya kiufundi, 10Bet inahifadhi haki ya kughairi na kubatilisha dau zote zilizowekwa kwenye raundi iliyotekelezwa na itawafahamisha wateja ipasavyo.",
                "3. 10Bet inasalia na haki ya kubatilisha mechi yoyote kwa ukamilifu ikiwa kuna hitilafu zozote, ikiwa kumekuwa na mabadiliko ya umbizo au kama 10Bet inaamini kuwa dau lolote limewekwa kinyume na Sheria na Masharti haya na/au Sheria na Masharti kijumla.",
                "4. 10Bet inahifadhi haki ya kulipa wateja, wanaoshinda kiasi kikubwa cha pesa, kupitia uhamisho wa benki na hii inaweza kuchukua hadi wiki 2 kutafakari katika akaunti ya benki ya mteja.",
                "5. Iwapo mteja anayeshinda atashindwa kutoa taarifa na hati zote zinazofaa zilizoombwa ndani ya muda wa siku 30 kuanzia tarehe ya ombi, basi 10Bet inahifadhi haki ya kuzingatia ushindi ulioporwa na mteja hatakuwa na madai yoyote dhidi ya 10Bet.",
                "6. 10Bet inahifadhi haki ya kubatilisha dau lolote linaloshinda iwapo ulaghai wowote au ukiukaji wa Sheria na Masharti haya na/au Sheria na Masharti ya jumla umefanyika.",
                "7. 10Bet inahifadhi haki ya kurekebisha sheria na masharti inapohitajika, kwa sababu yoyote bila taarifa. Mabadiliko yatachapishwa kwenye tovuti ya 10Bets.",
                "8. Tafadhali rejelea Sheria na Masharti ya Jumla ya 10Bets kwenye tovuti ambayo ni lazima yasomwe na kukubalika kwa pamoja na Sheria na Masharti ya Mikwaju ya Penalty ya Mtandaoni. Ukiukaji wowote wa Sheria na Masharti ya jumla utamaanisha ukiukaji wa Sheria na Masharti yaliyopo na kinyume chake."
             ]
          },
          {
             "heading":"JINSI YA KUCHEZA:",
             "terms":[
                "1. Kuna chaguo mbili tofauti za kuchagua unapocheza Mikwaju ya Penalty ya Mtandaoni: Hali ya Mchezaji Mmojaau Njia ya Mashindano",
                "2. Chaguo zote mbili zinahitaji ununuzi wa \"fedha\".",
                "3. Kiwango cha chini cha dau kinachohitajika ili kucheza mchezo wowote ni KES 10",
                "4. Kiwango cha juu cha dau katika Hali ya Mashindano ni KES 5,000 na dau la Juu zaidi katika Hali ya Mchezaji Mmoja ni KES 10,000.",
                "5. Ili kucheza Hali ya Mchezaji Mmoja, mteja anahitaji kuchagua idadi ya adhabu ambazo angependa kupiga (kuna chaguzi 3, 4 au 5 za mchezo wa adhabu, kila moja ikiwa na uwezekano tofauti wa malipo). Kisha atahitaji kuchagua timu na kisha kuchagua thamani yake ya kamari.",
                "6. Ili kucheza Hali ya Mashindano, mteja atahitaji tu kuchagua ni timu gani angependa kucheza nayo na kisha kuchagua dau lake na kuanza kucheza.",
                "7. Lengo la mchezo ni kupata mikwaju mingi ya penalty kumpita kipa iwezekanavyo ili kushinda. Kukosa kufanya hivyo kutasababisha hasara na duru mpya itaanza baada ya hapo.",
                "8. Lengo la njano litaonekana kwenye skrini ambayo mteja lazima atumie kuendesha kuzunguka eneo la lengo ili kuchagua mwelekeo ambapo risasi yake itawekwa.",
                "9. Mara tu mwelekeo wa risasi umethibitishwa risasi hufanyika. Kwa wateja wanaocheza kwenye simu/computer zao kibao risasi itafanyika mara mteja atakapoondoa kidole chake kwenye shabaha ya manjano. Kwa wateja wanaocheza kwenye eneo-kazi lao, picha itafanyika atakapobofya lengo la njano. ",
                "10. Endapo shuti litakosa bao basi matokeo yatakuwa ni penalty iliyokosa siku zote.",
                "11. Katika Hali ya Mashindano mteja huanza kutoka awamu ya kumi na sita (16) ya mwisho ya shindano na anatakiwa kufunga angalau penalty 4 kati ya 5 katika kila raundi ili afuzu kwa awamu inayofuata. Kadiri unavyofuzu hadi raundi inayofuata, ndivyo unavyoweza kushinda zaidi msururu wa dau.",
                "12. Kuna raundi 4 kwa jumla katika Njia ya Mashindano kila moja ikijumuisha penalty 5. "
             ]
          },
          {
            "heading": "Odds",
            "terms": [
               "The odds for both games are as follows:"
            ]
         },
         {
            "heading":"Single Player Mode Odds: ",
            "terms":[
               "a. 3 Penalty Game = 3 Penalties scored :Odds of 6.00",
               "b. 4 Penalty Game = 3 Penalties scored :Odds of 1.00 (bet returned).",
               "i.4 Penalties scored :Odds of 8.00.",
               "c. 5 Penalty Game = 4 Penalties scored :Odds of 2.00.",
               "i. 5 Penalties scored : Odds of 15:00"
               
            ],
            "checkAllignment": true
         },
         {
            "heading": "Tournament Game Mode Odds:",
            "terms": [
               "a. Guaranteed Odds for qualifying through from the Quarter Finals to the Semi Finals: 2.00",
               "b. Guaranteed Odds for qualifying through from the Semi Finals to the Final:4.00",
               "c. Guaranteed Odds for scoring 3 penalties in the final:10.00",
               "d. Guaranteed Odds for scoring 4 penalties in the final:50.00",
               "e. Guaranteed Odds for scoring 5 penalties in the final:200.00",
               "Ushindi Unaowezekana Chini ya WHT"
            ]
         }
       ]
    },
    "psTips": [
      "Keep an eye out for different keepers, some are better than others.",
      "To take a shot...touch the target, aim where you want to shoot, and then release!",
      "Score at least 4 from 5 penalties to progress through each tournament round.",
      "The closer you aim to the corners, the greater your chance of scoring.",
      "Once you have honed your skills, you can win cash prizes in our cash game mode.",
      "Free to play mode is a great way to practice your penalty kick skills.",
      "In tournaments, the stronger your opposing team, the better the goalkeeper!",
      "Full leaderboard details can be found by clicking on the [CUP ICON] Icon."
    ],
    "freePlayPsTipsIndex": [5, 7],
    "potentialWinInfoText2": {
      "title": "Chagua idadi yako ya adhabu",
      "3": "Score 3 from 3 - 6x Your Bet",
      "4": "Score 4 from 4 - Win 8x Your Bet",
      "4_1": "Score 3 from 4 - Win 1x Your Bet",
      "5": "Score 5 from 5 - Win 15x Your Bet",
      "5_1": "Score 4 from 5 - Win 2x Your Bet"
    },
    "potentialWinInfoText": {
      "title": "CHOOSE YOUR NUMBER OF PENALTIES",
      "3": "Score 3 from 3 = 6x Your Bet",
      "4": "Score 4 from 4 = Win 8x Your Bet",
      "4_1": "Score 3 from 4 = Win 1x Your Bet",
      "5": "Score 5 from 5 = Win 15x Your Bet",
      "5_1": "Score 4 from 5 = Win 2x Your Bet"
    },
    "tournamentPayTable2": {
      "0": "Penaty 5 zilizopigwa katika fainali",
      "1": "Penaty 4 zilizopigwa katika fainali",
      "2": "Penaty 3 zilizopigwa katika fainali",
      "3": "QUALIFYING FROM THE SF'S",
      "4": "QUALIFYING FROM THE QF'S",
      "curr": "dau lako"
    },
    "tournamentPayTable": {
      "0": "SCORING 5 GOALS IN THE FINAL",
      "1": "SCORING 4 GOALS IN THE FINAL",
      "2": "SCORING 3 GOALS IN THE FINAL",
      "3": "QUALIFYING FROM THE SF'S",
      "4": "QUALIFYING FROM THE QF'S",
      "curr": ""
    }
 }