{
  "howtoplaypsrules": [
    {
      "title": "Welcome to Virtual Penalty Shootout!",
      "text": "An exciting game combining skill and luck. You can play single game and tournament modes and win prizes. ",
      "img": "assets/images/HTP_Assets/splashTitle.png"
    },
    {
      "title": "How to Shoot",
      "text": "Press down on the target. \n Move it to where you want to aim. \n Release to shoot! \n Careful: With resistance against your aim, shooting where you want to is trickier than it first seems.",
      "img": "assets/images/HTP_Assets/HTP_2.png"
    },
    {
      "title": "Goalkeeper Levels",
      "text": "You can compete against 4 different goalkeepers all with differing levels of skill. Playing against lower ranking EPL and International teams will mean greater chances of scoring.",
      "img": "assets/images/HTP_Assets/HTP_5.png"
    },
    {
      "title": "Tournament Mode",
      "text": "If you're confident that you can beat the goalkeeper from 12 yards, then try our tournament mode. The more you score, the more you win!",
      "img": "assets/images/HTP_Assets/HTP_7_zm_en.png"
    },
    {
      "title": "Single Game",
      "text": "Select your number of penalties (3,4 or 5). Score them all and stand a chance to win up to 15 times your bet.",
      "img": "assets/images/HTP_Assets/HTP_9.png"
    },
    {
      "title": "Tournament Prizes",
      "text": "Tournament mode is similar to Single player mode however this time you need to qualify through the rounds in order to get to the final round for the chance to win up to 200 times your bet. You also stand a chance to double your money by getting through to the semi-final round",
      "img": "assets/images/HTP_Assets/HTP_10.png"
    },
    {
      "title": "Get Started",
      "text": "That’s all from our quick “how to play” guide. For more information, please refer to our FAQ’s section. Alternatively, choose between Single Player or Tournament mode in the menu and enjoy all the fun and excitement of Virtual Penalty Shootout!",
      "img": "assets/images/HTP_Assets/HTP_13.png"
    }
  ],
  "faqpsrules": [
    {
      "title": "What is Virtual Penalty Shootout?",
      "text": "Virtual Penalty Shootout is a virtual game combining skill and luck, it is based on Random Number generated results. All that is required, is to score as many penalties as possible. The skill element: the closer you aim towards the corners of the goal, the greater the chance of the penalty being successful. The luck element: there is an inbuilt Random Number Generator factor which takes the position of the shot and the skill level of the goalkeeper in the goal area into consideration. Please note that the skill level of a goalkeeper is determined by the color of their jersey. Tier 1 (top level) Goalkeepers will wear either a Yellow or a White jersey, Tier 2 Goalkeepers will wear a red jersey and Tier 3 Goalkeepers will wear a blue jersey."
    },
    {
      "title": "How often can I play?",
      "text": "You can play the game as many times as you like both in Single Player and Tournament modes."
    },
    {
      "title": "What is single game mode?",
      "text": "Single game mode is a shorter variation of the game, where you will need to score as many penalties as possible taking 3 ,4 or 5 penalties. In single mode you can win up to 15 x your bet if you manage 5 out of 5 successful penalties. Note that there are also consolation prizes if you play the 4 or 5 penalty game."
    },
    {
      "title": "What is Tournament Mode?",
      "text": "Tournament Mode is a great fun game where you can qualify through 3 rounds all the way up to the final of the tournament in order to potentially win some great prizes."
    },
    {
      "title": "What Prizes can be won in single game mode?",
      "text": "If you play Single Player mode, then you can win up to 15x your bet (by scoring all 5 penalties in the 5-penalty game). The full payout list is as follows: \n\n 3 Penalty game: Score all 3 = 6x your bet \n\n 4 Penalty game: \n Score 4 from 4 = 8x your bet \n Score 3 from 4 = return your bet \n\n 5 Penalty game: \n Score 5 from 5 = 15x your bet \n Score 4 from 5 = 2x your bet"
    },
    {
      "title": "How does RNG work?",
      "text": "The success of the shot (whether the goalkeeper saves the shot or not) is determined by the positioning of the shot and whether that segment of the goal is equal to a 'save' based on the Random Number Generator. The goal area is split into 30 segments and depending on the skill level of the goalkeeper will determine the random outcome of the game at hand."
    }
  ],
  "termsAndConditions": {
    "title": "TERMS and CONDITIONS",
    "newTerms": [
      {
        "heading": "These Terms and Conditions ('Terms and Conditions') will apply:",
        "terms": [
          "1. Once a bet is placed, it cannot be cancelled, amended, or refunded.",
          "2. Should we experience any technical issues whatsoever, we reserve the right to cancel and void all bets placed on the effected round and shall inform the customers accordingly.",
          "3. We reserve the right to void any match in its entirety if there are any errors, if there has been a change to the format or if we believe that any bet has been placed in contravention of these Terms and Conditions and /or the general Terms and Conditions.",
          "4. We reserve the right to pay customers, who win a significant amount of money, via bank transfer and this may take up to 2 weeks to reflect into the customer's bank account.",
          "5. Should a winning customer fail to provide all reasonable requested information and documents within a period of 30 days from the date of request, then we reserve the right to consider the win forfeited and the customer will have no claim against us whatsoever.",
          "6. We reserve the right to void any winning bet if any fraud or breach of these Terms and Conditions and/or the general Terms and Conditions have taken place.",
          "7. We reserve the right to amend the terms and conditions when required, for any reason without notice. The changes will be published on our website.",
          "8. Please refer to our General Terms and Conditions on the website which must be read and accepted in conjunction with the Terms and Conditions for Virtual Penalty Shootout. Any breach of the general Terms and Conditions will mean a breach of the present Terms and Conditions and vice-versa."
        ]
      },
      {
        "heading": "How to Play",
        "terms": [
          "1. There are two different options to choose from when playing Virtual Penalty Shootout: Single Player Mode or Tournament Mode:",
          "2. Both options require a “cash” buy in.",
          "3. The Minimum bet required in order to play Single Player Mode is ZMW 2 and the Minimum bet required to play Tournament Mode is ZMW 2  ",
          "4. The Maximum bet in Tournament Mode is ZMW 800 and the Maximum bet in Single Player Mode is ZMW 1 500",
          "5. To play Single Player Mode, the customer needs to select the number of penalties he/she would like to shoot for (there are 3, 4 or 5 penalty game options, each with different payout odds). He/she will then need to choose a team and then choose his/her bet value.",
          "6. To play Tournament Mode, the customer will simply need to choose which team he/she would like to play with and thereafter choose his/her bet and start playing.",
          "7. The object of the game is to get as many penalty kicks past the goalkeeper as possible in order to win. Failure to do so will result in a loss and a new round will commence thereafter.",
          "8. A yellow target will appear on the screen which the customer must use to maneuver around the goal area in order to choose the direction in which his/her shot will be placed.",
          "9. Once the shot direction is confirmed the shot takes place. For customers playing on their mobile/tablet the shot will take place once the customer takes his/her finger off the yellow target. For customers playing on their desktop, the shot will take place when he/she clicks off the yellow target.",
          "10. In the event of the shot missing the goal then the outcome will always be a missed penalty.",
          "11. In Tournament Mode the customer starts from the last sixteenth (16) phase of the competition and is required to score at least 4 of 5 penalties in each round in order to qualify for the next round. The more you qualify through to the next round, the greater the multiple of the bet you can win.",
          "12. There are 4 rounds in total in Tournament Mode each comprising of 5 penalties. "
        ]
      },
      {
        "heading": "Odds",
        "terms": ["The odds for both games are as follows:"]
      },
      {
        "heading": "Single Player Mode Odds: ",
        "terms": [
          "a. 3 Penalty Game = 3 Penalties scored :Odds of 6.00",
          "b. 4 Penalty Game = 3 Penalties scored :Odds of 1.00 (bet returned).",
          "i.4 Penalties scored :Odds of 8.00.",
          "c. 5 Penalty Game = 4 Penalties scored :Odds of 2.00.",
          "i. 5 Penalties scored : Odds of 15:00"
        ],
        "checkAllignment": true
      },
      {
        "heading": "Tournament Game Mode Odds:",
        "terms": [
          "a. Guaranteed Odds for qualifying through from the Quarter Finals to the Semi Finals: 2.00",
          "b. Guaranteed Odds for qualifying through from the Semi Finals to the Final:4.00",
          "c. Guaranteed Odds for scoring 3 penalties in the final:10.00",
          "d. Guaranteed Odds for scoring 4 penalties in the final:50.00",
          "e. Guaranteed Odds for scoring 5 penalties in the final:200.00",
          "Possible winnings subject to WHT"
        ]
      }
    ]
  },

  "psTips": [
    "Keep an eye out for different keepers, some are better than others.",
    "To take a shot...touch the target, aim where you want to shoot, and then release!",
    "Score at least 4 from 5 penalties to progress through each tournament round.",
    "The closer you aim to the corners, the greater your chance of scoring.",
    "Once you have honed your skills, you can win cash prizes in our cash game mode.",
    "Free to play mode is a great way to practice your penalty kick skills.",
    "In tournaments, the stronger your opposing team, the better the goalkeeper!",
    "Full leaderboard details can be found by clicking on the [CUP ICON] Icon."
  ],
  "freePlayPsTipsIndex": [5, 7],
  "potentialWinInfoText": {
    "title": "CHOOSE YOUR NUMBER OF PENALTIES",
    "3": "Score 3 from 3 = 6x Your Bet",
    "4": "Score 4 from 4 = Win 8x Your Bet",
    "4_1": "Score 3 from 4 = Win 1x Your Bet",
    "5": "Score 5 from 5 = Win 15x Your Bet",
    "5_1": "Score 4 from 5 = Win 2x Your Bet"
  },
  "tournamentPayTable": {
    "0": "SCORING 5 GOALS IN THE FINAL",
    "1": "SCORING 4 GOALS IN THE FINAL",
    "2": "SCORING 3 GOALS IN THE FINAL",
    "3": "QUALIFYING FROM THE SF'S",
    "4": "QUALIFYING FROM THE QF'S",
    "curr": ""
  }
}
