{"frames": {

"crossIcon":
{
	"frame": {"x":607,"y":494,"w":54,"h":54},
	"rotated": false,
	"trimmed": true,
	"spriteSourceSize": {"x":13,"y":13,"w":54,"h":54},
	"sourceSize": {"w":80,"h":80}
},
"dialogue box_close":
{
	"frame": {"x":3,"y":1237,"w":600,"h":211},
	"rotated": false,
	"trimmed": false,
	"spriteSourceSize": {"x":0,"y":0,"w":600,"h":211},
	"sourceSize": {"w":600,"h":211}
},
"dialogue box_won":
{
	"frame": {"x":3,"y":366,"w":600,"h":548},
	"rotated": false,
	"trimmed": false,
	"spriteSourceSize": {"x":0,"y":0,"w":600,"h":548},
	"sourceSize": {"w":600,"h":548}
},
"dialogue_box_cash":
{
	"frame": {"x":3,"y":918,"w":600,"h":315},
	"rotated": false,
	"trimmed": false,
	"spriteSourceSize": {"x":0,"y":0,"w":600,"h":315},
	"sourceSize": {"w":600,"h":315}
},
"football":
{
	"frame": {"x":746,"y":255,"w":250,"h":252},
	"rotated": false,
	"trimmed": true,
	"spriteSourceSize": {"x":0,"y":1,"w":250,"h":252},
	"sourceSize": {"w":250,"h":253}
},
"footballshadow":
{
	"frame": {"x":665,"y":530,"w":332,"h":45},
	"rotated": false,
	"trimmed": false,
	"spriteSourceSize": {"x":0,"y":0,"w":332,"h":45},
	"sourceSize": {"w":332,"h":45}
},
"generalTitle":
{
	"frame": {"x":647,"y":579,"w":320,"h":148},
	"rotated": false,
	"trimmed": false,
	"spriteSourceSize": {"x":0,"y":0,"w":320,"h":148},
	"sourceSize": {"w":320,"h":148}
},
"goalIndicator_goal":
{
	"frame": {"x":689,"y":422,"w":36,"h":36},
	"rotated": false,
	"trimmed": false,
	"spriteSourceSize": {"x":0,"y":0,"w":36,"h":36},
	"sourceSize": {"w":36,"h":36}
},
"goalIndicator_miss":
{
	"frame": {"x":607,"y":552,"w":36,"h":36},
	"rotated": false,
	"trimmed": false,
	"spriteSourceSize": {"x":0,"y":0,"w":36,"h":36},
	"sourceSize": {"w":36,"h":36}
},
"goalIndicator_off":
{
	"frame": {"x":607,"y":592,"w":36,"h":36},
	"rotated": false,
	"trimmed": false,
	"spriteSourceSize": {"x":0,"y":0,"w":36,"h":36},
	"sourceSize": {"w":36,"h":36}
},
"goalIndicator_panel":
{
	"frame": {"x":746,"y":3,"w":264,"h":96},
	"rotated": false,
	"trimmed": false,
	"spriteSourceSize": {"x":0,"y":0,"w":264,"h":96},
	"sourceSize": {"w":264,"h":96}
},
"info":
{
	"frame": {"x":678,"y":462,"w":64,"h":64},
	"rotated": false,
	"trimmed": false,
	"spriteSourceSize": {"x":0,"y":0,"w":64,"h":64},
	"sourceSize": {"w":64,"h":64}
},
"leaderBoardIcon":
{
	"frame": {"x":689,"y":366,"w":52,"h":52},
	"rotated": false,
	"trimmed": false,
	"spriteSourceSize": {"x":0,"y":0,"w":52,"h":52},
	"sourceSize": {"w":52,"h":52}
},
"penaltyNo":
{
	"frame": {"x":607,"y":450,"w":67,"h":40},
	"rotated": false,
	"trimmed": false,
	"spriteSourceSize": {"x":0,"y":0,"w":67,"h":40},
	"sourceSize": {"w":67,"h":40}
},
"playabetTitle":
{
	"frame": {"x":746,"y":103,"w":253,"h":148},
	"rotated": false,
	"trimmed": true,
	"spriteSourceSize": {"x":33,"y":0,"w":253,"h":148},
	"sourceSize": {"w":320,"h":148}
},
"resultPopup_goal":
{
	"frame": {"x":3,"y":1452,"w":458,"h":280},
	"rotated": false,
	"trimmed": true,
	"spriteSourceSize": {"x":1,"y":1,"w":458,"h":280},
	"sourceSize": {"w":460,"h":282}
},
"roundedRectBottom":
{
	"frame": {"x":465,"y":1607,"w":500,"h":12},
	"rotated": false,
	"trimmed": false,
	"spriteSourceSize": {"x":0,"y":0,"w":500,"h":12},
	"sourceSize": {"w":500,"h":12}
},
"roundedRectBtn":
{
	"frame": {"x":465,"y":1452,"w":540,"h":104},
	"rotated": false,
	"trimmed": false,
	"spriteSourceSize": {"x":0,"y":0,"w":540,"h":104},
	"sourceSize": {"w":540,"h":104}
},
"roundedRectMediumBtn":
{
	"frame": {"x":607,"y":992,"w":200,"h":63},
	"rotated": false,
	"trimmed": false,
	"spriteSourceSize": {"x":0,"y":0,"w":200,"h":63},
	"sourceSize": {"w":200,"h":63}
},
"roundedRectMediumLongBtn":
{
	"frame": {"x":607,"y":868,"w":286,"h":120},
	"rotated": false,
	"trimmed": false,
	"spriteSourceSize": {"x":0,"y":0,"w":286,"h":120},
	"sourceSize": {"w":286,"h":120}
},
"roundedRectMiddle":
{
	"frame": {"x":465,"y":1560,"w":500,"h":43},
	"rotated": false,
	"trimmed": false,
	"spriteSourceSize": {"x":0,"y":0,"w":500,"h":43},
	"sourceSize": {"w":500,"h":43}
},
"roundedRectSmallBtn":
{
	"frame": {"x":607,"y":731,"w":300,"h":133},
	"rotated": false,
	"trimmed": false,
	"spriteSourceSize": {"x":0,"y":0,"w":300,"h":133},
	"sourceSize": {"w":300,"h":133}
},
"roundedRectTop":
{
	"frame": {"x":465,"y":1623,"w":500,"h":12},
	"rotated": false,
	"trimmed": false,
	"spriteSourceSize": {"x":0,"y":0,"w":500,"h":12},
	"sourceSize": {"w":500,"h":12}
},
"smallbtnbg":
{
	"frame": {"x":607,"y":366,"w":78,"h":80},
	"rotated": false,
	"trimmed": false,
	"spriteSourceSize": {"x":0,"y":0,"w":78,"h":80},
	"sourceSize": {"w":78,"h":80}
},
"starbetTitle":
{
	"frame": {"x":811,"y":992,"w":187,"h":106},
	"rotated": false,
	"trimmed": true,
	"spriteSourceSize": {"x":65,"y":19,"w":187,"h":106},
	"sourceSize": {"w":320,"h":148}
},
"taxDisplayBG":
{
	"frame": {"x":3,"y":3,"w":739,"h":359},
	"rotated": false,
	"trimmed": true,
	"spriteSourceSize": {"x":0,"y":0,"w":739,"h":359},
	"sourceSize": {"w":740,"h":360}
},
"UIPanel":
{
	"frame": {"x":465,"y":1639,"w":444,"h":96},
	"rotated": false,
	"trimmed": false,
	"spriteSourceSize": {"x":0,"y":0,"w":444,"h":96},
	"sourceSize": {"w":444,"h":96}
}},
"meta": {
	"app": "https://www.codeandweb.com/texturepacker",
	"version": "1.0",
	"image": "pso_ui.png",
	"format": "RGBA8888",
	"size": {"w":1024,"h":2048},
	"scale": "1",
	"smartupdate": "$TexturePacker:SmartUpdate:9b9573d0051750b976dc25252e35e658:ed24f7ac1be9c7050b43a5bbca2b2105:623205eb55522eae79795e7d793f762a$"
}
}
