{"frames": {

"argentina_flag":
{
	"frame": {"x":1361,"y":646,"w":120,"h":120},
	"rotated": false,
	"trimmed": false,
	"spriteSourceSize": {"x":0,"y":0,"w":120,"h":120},
	"sourceSize": {"w":120,"h":120}
},
"arsenalLogo":
{
	"frame": {"x":1597,"y":1541,"w":102,"h":120},
	"rotated": false,
	"trimmed": true,
	"spriteSourceSize": {"x":9,"y":0,"w":102,"h":120},
	"sourceSize": {"w":120,"h":120}
},
"astonvillaLogo":
{
	"frame": {"x":1703,"y":1551,"w":88,"h":120},
	"rotated": false,
	"trimmed": true,
	"spriteSourceSize": {"x":16,"y":0,"w":88,"h":120},
	"sourceSize": {"w":120,"h":120}
},
"australia_flag":
{
	"frame": {"x":1485,"y":646,"w":120,"h":120},
	"rotated": false,
	"trimmed": false,
	"spriteSourceSize": {"x":0,"y":0,"w":120,"h":120},
	"sourceSize": {"w":120,"h":120}
},
"Avatar_mask":
{
	"frame": {"x":1609,"y":1427,"w":110,"h":110},
	"rotated": false,
	"trimmed": false,
	"spriteSourceSize": {"x":0,"y":0,"w":110,"h":110},
	"sourceSize": {"w":110,"h":110}
},
"belgium_flag":
{
	"frame": {"x":1361,"y":770,"w":120,"h":120},
	"rotated": false,
	"trimmed": false,
	"spriteSourceSize": {"x":0,"y":0,"w":120,"h":120},
	"sourceSize": {"w":120,"h":120}
},
"betPlacementbg":
{
	"frame": {"x":1132,"y":3,"w":487,"h":64},
	"rotated": false,
	"trimmed": false,
	"spriteSourceSize": {"x":0,"y":0,"w":487,"h":64},
	"sourceSize": {"w":487,"h":64}
},
"Big_Multiplier_line":
{
	"frame": {"x":1583,"y":71,"w":33,"h":3},
	"rotated": false,
	"trimmed": false,
	"spriteSourceSize": {"x":0,"y":0,"w":33,"h":3},
	"sourceSize": {"w":33,"h":3}
},
"brazil_flag":
{
	"frame": {"x":1485,"y":770,"w":120,"h":120},
	"rotated": false,
	"trimmed": false,
	"spriteSourceSize": {"x":0,"y":0,"w":120,"h":120},
	"sourceSize": {"w":120,"h":120}
},
"brentfordLogo":
{
	"frame": {"x":1361,"y":894,"w":120,"h":120},
	"rotated": false,
	"trimmed": false,
	"spriteSourceSize": {"x":0,"y":0,"w":120,"h":120},
	"sourceSize": {"w":120,"h":120}
},
"brighton&Hove_AlbionLogo":
{
	"frame": {"x":1485,"y":894,"w":120,"h":120},
	"rotated": false,
	"trimmed": false,
	"spriteSourceSize": {"x":0,"y":0,"w":120,"h":120},
	"sourceSize": {"w":120,"h":120}
},
"burnleyLogo":
{
	"frame": {"x":1723,"y":1427,"w":104,"h":120},
	"rotated": false,
	"trimmed": true,
	"spriteSourceSize": {"x":8,"y":0,"w":104,"h":120},
	"sourceSize": {"w":120,"h":120}
},
"cameroon_flag":
{
	"frame": {"x":1616,"y":187,"w":120,"h":120},
	"rotated": false,
	"trimmed": false,
	"spriteSourceSize": {"x":0,"y":0,"w":120,"h":120},
	"sourceSize": {"w":120,"h":120}
},
"canada_flag":
{
	"frame": {"x":1740,"y":187,"w":120,"h":120},
	"rotated": false,
	"trimmed": false,
	"spriteSourceSize": {"x":0,"y":0,"w":120,"h":120},
	"sourceSize": {"w":120,"h":120}
},
"cashoutline":
{
	"frame": {"x":2040,"y":127,"w":5,"h":148},
	"rotated": false,
	"trimmed": true,
	"spriteSourceSize": {"x":2,"y":0,"w":5,"h":148},
	"sourceSize": {"w":9,"h":148}
},
"chelseaLogo":
{
	"frame": {"x":1864,"y":251,"w":120,"h":120},
	"rotated": false,
	"trimmed": false,
	"spriteSourceSize": {"x":0,"y":0,"w":120,"h":120},
	"sourceSize": {"w":120,"h":120}
},
"costarica_flag":
{
	"frame": {"x":1616,"y":311,"w":120,"h":120},
	"rotated": false,
	"trimmed": false,
	"spriteSourceSize": {"x":0,"y":0,"w":120,"h":120},
	"sourceSize": {"w":120,"h":120}
},
"countryIcons":
{
	"frame": {"x":1740,"y":311,"w":120,"h":120},
	"rotated": false,
	"trimmed": false,
	"spriteSourceSize": {"x":0,"y":0,"w":120,"h":120},
	"sourceSize": {"w":120,"h":120}
},
"croatia_flag":
{
	"frame": {"x":1864,"y":375,"w":120,"h":120},
	"rotated": false,
	"trimmed": false,
	"spriteSourceSize": {"x":0,"y":0,"w":120,"h":120},
	"sourceSize": {"w":120,"h":120}
},
"crystalpalaceLogo":
{
	"frame": {"x":1937,"y":1532,"w":98,"h":120},
	"rotated": false,
	"trimmed": true,
	"spriteSourceSize": {"x":11,"y":0,"w":98,"h":120},
	"sourceSize": {"w":120,"h":120}
},
"denmark_flag":
{
	"frame": {"x":1616,"y":435,"w":120,"h":120},
	"rotated": false,
	"trimmed": false,
	"spriteSourceSize": {"x":0,"y":0,"w":120,"h":120},
	"sourceSize": {"w":120,"h":120}
},
"ecuador_flag":
{
	"frame": {"x":1740,"y":435,"w":120,"h":120},
	"rotated": false,
	"trimmed": false,
	"spriteSourceSize": {"x":0,"y":0,"w":120,"h":120},
	"sourceSize": {"w":120,"h":120}
},
"england_flag":
{
	"frame": {"x":1864,"y":499,"w":120,"h":120},
	"rotated": false,
	"trimmed": false,
	"spriteSourceSize": {"x":0,"y":0,"w":120,"h":120},
	"sourceSize": {"w":120,"h":120}
},
"evertonLogo":
{
	"frame": {"x":1616,"y":559,"w":120,"h":120},
	"rotated": false,
	"trimmed": false,
	"spriteSourceSize": {"x":0,"y":0,"w":120,"h":120},
	"sourceSize": {"w":120,"h":120}
},
"exitBtn":
{
	"frame": {"x":1795,"y":1612,"w":84,"h":84},
	"rotated": false,
	"trimmed": false,
	"spriteSourceSize": {"x":0,"y":0,"w":84,"h":84},
	"sourceSize": {"w":84,"h":84}
},
"f_ball":
{
	"frame": {"x":1416,"y":71,"w":163,"h":162},
	"rotated": false,
	"trimmed": true,
	"spriteSourceSize": {"x":0,"y":1,"w":163,"h":162},
	"sourceSize": {"w":163,"h":163}
},
"france_flag":
{
	"frame": {"x":1740,"y":559,"w":120,"h":120},
	"rotated": false,
	"trimmed": false,
	"spriteSourceSize": {"x":0,"y":0,"w":120,"h":120},
	"sourceSize": {"w":120,"h":120}
},
"germany_flag":
{
	"frame": {"x":1864,"y":623,"w":120,"h":120},
	"rotated": false,
	"trimmed": false,
	"spriteSourceSize": {"x":0,"y":0,"w":120,"h":120},
	"sourceSize": {"w":120,"h":120}
},
"ghana_flag":
{
	"frame": {"x":1616,"y":683,"w":120,"h":120},
	"rotated": false,
	"trimmed": false,
	"spriteSourceSize": {"x":0,"y":0,"w":120,"h":120},
	"sourceSize": {"w":120,"h":120}
},
"Gradient_white":
{
	"frame": {"x":1132,"y":553,"w":225,"h":870},
	"rotated": false,
	"trimmed": false,
	"spriteSourceSize": {"x":0,"y":0,"w":225,"h":870},
	"sourceSize": {"w":225,"h":870}
},
"howtoplayarrow":
{
	"frame": {"x":1413,"y":237,"w":130,"h":251},
	"rotated": false,
	"trimmed": false,
	"spriteSourceSize": {"x":0,"y":0,"w":130,"h":251},
	"sourceSize": {"w":130,"h":251}
},
"iran_flag":
{
	"frame": {"x":1740,"y":683,"w":120,"h":120},
	"rotated": false,
	"trimmed": false,
	"spriteSourceSize": {"x":0,"y":0,"w":120,"h":120},
	"sourceSize": {"w":120,"h":120}
},
"japan_flag":
{
	"frame": {"x":1864,"y":747,"w":120,"h":120},
	"rotated": false,
	"trimmed": false,
	"spriteSourceSize": {"x":0,"y":0,"w":120,"h":120},
	"sourceSize": {"w":120,"h":120}
},
"korea_flag":
{
	"frame": {"x":1616,"y":807,"w":120,"h":120},
	"rotated": false,
	"trimmed": false,
	"spriteSourceSize": {"x":0,"y":0,"w":120,"h":120},
	"sourceSize": {"w":120,"h":120}
},
"leedsutdLogo":
{
	"frame": {"x":1831,"y":1488,"w":102,"h":120},
	"rotated": false,
	"trimmed": true,
	"spriteSourceSize": {"x":10,"y":0,"w":102,"h":120},
	"sourceSize": {"w":120,"h":120}
},
"leicestercityLogo":
{
	"frame": {"x":1740,"y":807,"w":120,"h":120},
	"rotated": false,
	"trimmed": false,
	"spriteSourceSize": {"x":0,"y":0,"w":120,"h":120},
	"sourceSize": {"w":120,"h":120}
},
"liverpoolLogo":
{
	"frame": {"x":1864,"y":871,"w":120,"h":120},
	"rotated": false,
	"trimmed": false,
	"spriteSourceSize": {"x":0,"y":0,"w":120,"h":120},
	"sourceSize": {"w":120,"h":120}
},
"manchestercityLogo":
{
	"frame": {"x":1616,"y":931,"w":120,"h":120},
	"rotated": false,
	"trimmed": false,
	"spriteSourceSize": {"x":0,"y":0,"w":120,"h":120},
	"sourceSize": {"w":120,"h":120}
},
"manutdLogo":
{
	"frame": {"x":1926,"y":3,"w":116,"h":120},
	"rotated": false,
	"trimmed": true,
	"spriteSourceSize": {"x":2,"y":0,"w":116,"h":120},
	"sourceSize": {"w":120,"h":120}
},
"maskImg":
{
	"frame": {"x":1583,"y":78,"w":9,"h":157},
	"rotated": false,
	"trimmed": false,
	"spriteSourceSize": {"x":0,"y":0,"w":9,"h":157},
	"sourceSize": {"w":9,"h":157}
},
"matchStartPlayerbg":
{
	"frame": {"x":3,"y":3,"w":1125,"h":485},
	"rotated": false,
	"trimmed": false,
	"spriteSourceSize": {"x":0,"y":0,"w":1125,"h":485},
	"sourceSize": {"w":1125,"h":485}
},
"mexico_flag":
{
	"frame": {"x":1740,"y":931,"w":120,"h":120},
	"rotated": false,
	"trimmed": false,
	"spriteSourceSize": {"x":0,"y":0,"w":120,"h":120},
	"sourceSize": {"w":120,"h":120}
},
"morocco_flag":
{
	"frame": {"x":1864,"y":995,"w":120,"h":120},
	"rotated": false,
	"trimmed": false,
	"spriteSourceSize": {"x":0,"y":0,"w":120,"h":120},
	"sourceSize": {"w":120,"h":120}
},
"Name_fade_1":
{
	"frame": {"x":1132,"y":138,"w":279,"h":63},
	"rotated": false,
	"trimmed": true,
	"spriteSourceSize": {"x":0,"y":0,"w":279,"h":63},
	"sourceSize": {"w":297,"h":63}
},
"Name_fade_2":
{
	"frame": {"x":1132,"y":71,"w":280,"h":63},
	"rotated": false,
	"trimmed": true,
	"spriteSourceSize": {"x":17,"y":0,"w":280,"h":63},
	"sourceSize": {"w":297,"h":63}
},
"netherlands_flag":
{
	"frame": {"x":1361,"y":1018,"w":120,"h":120},
	"rotated": false,
	"trimmed": false,
	"spriteSourceSize": {"x":0,"y":0,"w":120,"h":120},
	"sourceSize": {"w":120,"h":120}
},
"newcastleutdLogo":
{
	"frame": {"x":1361,"y":1390,"w":120,"h":114},
	"rotated": false,
	"trimmed": true,
	"spriteSourceSize": {"x":0,"y":3,"w":120,"h":114},
	"sourceSize": {"w":120,"h":120}
},
"nextBtnHTP":
{
	"frame": {"x":1937,"y":1488,"w":100,"h":40},
	"rotated": false,
	"trimmed": false,
	"spriteSourceSize": {"x":0,"y":0,"w":100,"h":40},
	"sourceSize": {"w":100,"h":40}
},
"norwichLogo":
{
	"frame": {"x":1485,"y":1501,"w":108,"h":120},
	"rotated": false,
	"trimmed": true,
	"spriteSourceSize": {"x":6,"y":0,"w":108,"h":120},
	"sourceSize": {"w":120,"h":120}
},
"playabettitleDefender":
{
	"frame": {"x":1623,"y":3,"w":299,"h":180},
	"rotated": false,
	"trimmed": true,
	"spriteSourceSize": {"x":0,"y":1,"w":299,"h":180},
	"sourceSize": {"w":299,"h":183}
},
"Players_container":
{
	"frame": {"x":1374,"y":492,"w":231,"h":150},
	"rotated": false,
	"trimmed": true,
	"spriteSourceSize": {"x":1,"y":0,"w":231,"h":150},
	"sourceSize": {"w":740,"h":150}
},
"poland_flag":
{
	"frame": {"x":1485,"y":1018,"w":120,"h":120},
	"rotated": false,
	"trimmed": false,
	"spriteSourceSize": {"x":0,"y":0,"w":120,"h":120},
	"sourceSize": {"w":120,"h":120}
},
"portugal_flag":
{
	"frame": {"x":1609,"y":1055,"w":120,"h":120},
	"rotated": false,
	"trimmed": false,
	"spriteSourceSize": {"x":0,"y":0,"w":120,"h":120},
	"sourceSize": {"w":120,"h":120}
},
"qatar_flag":
{
	"frame": {"x":1733,"y":1055,"w":120,"h":120},
	"rotated": false,
	"trimmed": false,
	"spriteSourceSize": {"x":0,"y":0,"w":120,"h":120},
	"sourceSize": {"w":120,"h":120}
},
"saudiarabia_flag":
{
	"frame": {"x":1857,"y":1119,"w":120,"h":120},
	"rotated": false,
	"trimmed": false,
	"spriteSourceSize": {"x":0,"y":0,"w":120,"h":120},
	"sourceSize": {"w":120,"h":120}
},
"senegal_flag":
{
	"frame": {"x":1361,"y":1142,"w":120,"h":120},
	"rotated": false,
	"trimmed": false,
	"spriteSourceSize": {"x":0,"y":0,"w":120,"h":120},
	"sourceSize": {"w":120,"h":120}
},
"serbia_flag":
{
	"frame": {"x":1485,"y":1142,"w":120,"h":120},
	"rotated": false,
	"trimmed": false,
	"spriteSourceSize": {"x":0,"y":0,"w":120,"h":120},
	"sourceSize": {"w":120,"h":120}
},
"smallball":
{
	"frame": {"x":1547,"y":239,"w":58,"h":58},
	"rotated": false,
	"trimmed": false,
	"spriteSourceSize": {"x":0,"y":0,"w":58,"h":58},
	"sourceSize": {"w":58,"h":58}
},
"smallround":
{
	"frame": {"x":1596,"y":78,"w":9,"h":9},
	"rotated": false,
	"trimmed": false,
	"spriteSourceSize": {"x":0,"y":0,"w":9,"h":9},
	"sourceSize": {"w":9,"h":9}
},
"southamptonLogo":
{
	"frame": {"x":1609,"y":1179,"w":120,"h":120},
	"rotated": false,
	"trimmed": false,
	"spriteSourceSize": {"x":0,"y":0,"w":120,"h":120},
	"sourceSize": {"w":120,"h":120}
},
"spain_flag":
{
	"frame": {"x":1733,"y":1179,"w":120,"h":120},
	"rotated": false,
	"trimmed": false,
	"spriteSourceSize": {"x":0,"y":0,"w":120,"h":120},
	"sourceSize": {"w":120,"h":120}
},
"starbettitleDefender":
{
	"frame": {"x":1132,"y":366,"w":238,"h":183},
	"rotated": false,
	"trimmed": true,
	"spriteSourceSize": {"x":30,"y":0,"w":238,"h":183},
	"sourceSize": {"w":299,"h":183}
},
"Starting_container":
{
	"frame": {"x":3,"y":676,"w":1125,"h":144},
	"rotated": false,
	"trimmed": false,
	"spriteSourceSize": {"x":0,"y":0,"w":1125,"h":144},
	"sourceSize": {"w":1125,"h":144}
},
"switzerland_flag":
{
	"frame": {"x":1857,"y":1243,"w":120,"h":120},
	"rotated": false,
	"trimmed": false,
	"spriteSourceSize": {"x":0,"y":0,"w":120,"h":120},
	"sourceSize": {"w":120,"h":120}
},
"Time_line":
{
	"frame": {"x":3,"y":824,"w":1125,"h":3},
	"rotated": false,
	"trimmed": false,
	"spriteSourceSize": {"x":0,"y":0,"w":1125,"h":3},
	"sourceSize": {"w":1125,"h":3}
},
"titleDefender":
{
	"frame": {"x":1132,"y":205,"w":277,"h":157},
	"rotated": false,
	"trimmed": true,
	"spriteSourceSize": {"x":6,"y":16,"w":277,"h":157},
	"sourceSize": {"w":299,"h":183}
},
"topbarbg":
{
	"frame": {"x":3,"y":492,"w":1125,"h":180},
	"rotated": false,
	"trimmed": false,
	"spriteSourceSize": {"x":0,"y":0,"w":1125,"h":180},
	"sourceSize": {"w":1125,"h":180}
},
"tottenhamhotspurLogo":
{
	"frame": {"x":1965,"y":1656,"w":67,"h":120},
	"rotated": false,
	"trimmed": true,
	"spriteSourceSize": {"x":26,"y":0,"w":67,"h":120},
	"sourceSize": {"w":120,"h":120}
},
"transparentBtn":
{
	"frame": {"x":1616,"y":78,"w":3,"h":3},
	"rotated": false,
	"trimmed": true,
	"spriteSourceSize": {"x":0,"y":0,"w":3,"h":3},
	"sourceSize": {"w":143,"h":57}
},
"tunisia_flag":
{
	"frame": {"x":1361,"y":1266,"w":120,"h":120},
	"rotated": false,
	"trimmed": false,
	"spriteSourceSize": {"x":0,"y":0,"w":120,"h":120},
	"sourceSize": {"w":120,"h":120}
},
"uruguya_flag":
{
	"frame": {"x":1485,"y":1266,"w":120,"h":120},
	"rotated": false,
	"trimmed": false,
	"spriteSourceSize": {"x":0,"y":0,"w":120,"h":120},
	"sourceSize": {"w":120,"h":120}
},
"usa_flag":
{
	"frame": {"x":1609,"y":1303,"w":120,"h":120},
	"rotated": false,
	"trimmed": false,
	"spriteSourceSize": {"x":0,"y":0,"w":120,"h":120},
	"sourceSize": {"w":120,"h":120}
},
"Vertical_time divider":
{
	"frame": {"x":1609,"y":78,"w":3,"h":878},
	"rotated": false,
	"trimmed": true,
	"spriteSourceSize": {"x":0,"y":4,"w":3,"h":878},
	"sourceSize": {"w":3,"h":882}
},
"wales_flag":
{
	"frame": {"x":1733,"y":1303,"w":120,"h":120},
	"rotated": false,
	"trimmed": false,
	"spriteSourceSize": {"x":0,"y":0,"w":120,"h":120},
	"sourceSize": {"w":120,"h":120}
},
"watfordLogo":
{
	"frame": {"x":1857,"y":1367,"w":120,"h":117},
	"rotated": false,
	"trimmed": true,
	"spriteSourceSize": {"x":0,"y":1,"w":120,"h":117},
	"sourceSize": {"w":120,"h":120}
},
"westhamutdLogo":
{
	"frame": {"x":1926,"y":127,"w":110,"h":120},
	"rotated": false,
	"trimmed": true,
	"spriteSourceSize": {"x":5,"y":0,"w":110,"h":120},
	"sourceSize": {"w":120,"h":120}
},
"winningMultibg":
{
	"frame": {"x":1883,"y":1656,"w":78,"h":32},
	"rotated": false,
	"trimmed": false,
	"spriteSourceSize": {"x":0,"y":0,"w":78,"h":32},
	"sourceSize": {"w":78,"h":32}
},
"wolverhamptonLogo":
{
	"frame": {"x":1485,"y":1390,"w":120,"h":107},
	"rotated": false,
	"trimmed": true,
	"spriteSourceSize": {"x":0,"y":7,"w":120,"h":107},
	"sourceSize": {"w":120,"h":120}
}},
"animations": {
	"Name_fade": ["Name_fade_1","Name_fade_2"]
},
"meta": {
	"app": "https://www.codeandweb.com/texturepacker",
	"version": "1.0",
	"image": "defender_ui.png",
	"format": "RGBA8888",
	"size": {"w":2048,"h":2048},
	"scale": "1",
	"smartupdate": "$TexturePacker:SmartUpdate:0cd87142395fdce538c3cbc5bf28a2d3:888c44afdce256230d29fd784757d218:43c443b2c10ce469cebfb23831cc5f88$"
}
}
