{"frames": {

"football_loop2fx_00":
{
	"frame": {"x":1846,"y":1233,"w":154,"h":256},
	"rotated": false,
	"trimmed": false,
	"spriteSourceSize": {"x":0,"y":0,"w":154,"h":256},
	"sourceSize": {"w":154,"h":256}
},
"football_loop2fx_01":
{
	"frame": {"x":1795,"y":1739,"w":154,"h":256},
	"rotated": false,
	"trimmed": false,
	"spriteSourceSize": {"x":0,"y":0,"w":154,"h":256},
	"sourceSize": {"w":154,"h":256}
},
"football_loop2fx_02":
{
	"frame": {"x":3,"y":1971,"w":154,"h":256},
	"rotated": false,
	"trimmed": false,
	"spriteSourceSize": {"x":0,"y":0,"w":154,"h":256},
	"sourceSize": {"w":154,"h":256}
},
"football_loop2fx_03":
{
	"frame": {"x":161,"y":1971,"w":154,"h":256},
	"rotated": false,
	"trimmed": false,
	"spriteSourceSize": {"x":0,"y":0,"w":154,"h":256},
	"sourceSize": {"w":154,"h":256}
},
"football_loop2fx_04":
{
	"frame": {"x":319,"y":1971,"w":154,"h":256},
	"rotated": false,
	"trimmed": false,
	"spriteSourceSize": {"x":0,"y":0,"w":154,"h":256},
	"sourceSize": {"w":154,"h":256}
},
"football_loop2fx_05":
{
	"frame": {"x":477,"y":1971,"w":154,"h":256},
	"rotated": false,
	"trimmed": false,
	"spriteSourceSize": {"x":0,"y":0,"w":154,"h":256},
	"sourceSize": {"w":154,"h":256}
},
"football_loop2fx_06":
{
	"frame": {"x":635,"y":1971,"w":154,"h":256},
	"rotated": false,
	"trimmed": false,
	"spriteSourceSize": {"x":0,"y":0,"w":154,"h":256},
	"sourceSize": {"w":154,"h":256}
},
"football_loop2fx_07":
{
	"frame": {"x":793,"y":1971,"w":154,"h":256},
	"rotated": false,
	"trimmed": false,
	"spriteSourceSize": {"x":0,"y":0,"w":154,"h":256},
	"sourceSize": {"w":154,"h":256}
},
"football_loop2fx_08":
{
	"frame": {"x":951,"y":1971,"w":154,"h":256},
	"rotated": false,
	"trimmed": false,
	"spriteSourceSize": {"x":0,"y":0,"w":154,"h":256},
	"sourceSize": {"w":154,"h":256}
},
"football_loop2fx_09":
{
	"frame": {"x":1109,"y":1971,"w":154,"h":256},
	"rotated": false,
	"trimmed": false,
	"spriteSourceSize": {"x":0,"y":0,"w":154,"h":256},
	"sourceSize": {"w":154,"h":256}
},
"football_loop2fx_10":
{
	"frame": {"x":1267,"y":1971,"w":154,"h":256},
	"rotated": false,
	"trimmed": false,
	"spriteSourceSize": {"x":0,"y":0,"w":154,"h":256},
	"sourceSize": {"w":154,"h":256}
},
"football_loop2fx_11":
{
	"frame": {"x":1425,"y":1971,"w":154,"h":256},
	"rotated": false,
	"trimmed": false,
	"spriteSourceSize": {"x":0,"y":0,"w":154,"h":256},
	"sourceSize": {"w":154,"h":256}
},
"football_loop2fx_12":
{
	"frame": {"x":1583,"y":1971,"w":154,"h":256},
	"rotated": false,
	"trimmed": false,
	"spriteSourceSize": {"x":0,"y":0,"w":154,"h":256},
	"sourceSize": {"w":154,"h":256}
},
"football_loop2fx_13":
{
	"frame": {"x":1741,"y":1999,"w":154,"h":256},
	"rotated": false,
	"trimmed": false,
	"spriteSourceSize": {"x":0,"y":0,"w":154,"h":256},
	"sourceSize": {"w":154,"h":256}
},
"football_loop2fx_14":
{
	"frame": {"x":3,"y":2285,"w":154,"h":256},
	"rotated": false,
	"trimmed": false,
	"spriteSourceSize": {"x":0,"y":0,"w":154,"h":256},
	"sourceSize": {"w":154,"h":256}
},
"football_loop2fx_15":
{
	"frame": {"x":3,"y":2545,"w":154,"h":256},
	"rotated": false,
	"trimmed": false,
	"spriteSourceSize": {"x":0,"y":0,"w":154,"h":256},
	"sourceSize": {"w":154,"h":256}
},
"football_loop2fx_16":
{
	"frame": {"x":3,"y":2805,"w":154,"h":256},
	"rotated": false,
	"trimmed": false,
	"spriteSourceSize": {"x":0,"y":0,"w":154,"h":256},
	"sourceSize": {"w":154,"h":256}
},
"football_loop2fx_17":
{
	"frame": {"x":3,"y":3065,"w":154,"h":256},
	"rotated": false,
	"trimmed": false,
	"spriteSourceSize": {"x":0,"y":0,"w":154,"h":256},
	"sourceSize": {"w":154,"h":256}
},
"football_loop2fx_18":
{
	"frame": {"x":3,"y":3325,"w":154,"h":256},
	"rotated": false,
	"trimmed": false,
	"spriteSourceSize": {"x":0,"y":0,"w":154,"h":256},
	"sourceSize": {"w":154,"h":256}
},
"football_loop2fx_19":
{
	"frame": {"x":3,"y":3585,"w":154,"h":256},
	"rotated": false,
	"trimmed": false,
	"spriteSourceSize": {"x":0,"y":0,"w":154,"h":256},
	"sourceSize": {"w":154,"h":256}
},
"football_loop2fx_20":
{
	"frame": {"x":161,"y":2231,"w":154,"h":256},
	"rotated": false,
	"trimmed": false,
	"spriteSourceSize": {"x":0,"y":0,"w":154,"h":256},
	"sourceSize": {"w":154,"h":256}
},
"football_loop2fx_21":
{
	"frame": {"x":319,"y":2231,"w":154,"h":256},
	"rotated": false,
	"trimmed": false,
	"spriteSourceSize": {"x":0,"y":0,"w":154,"h":256},
	"sourceSize": {"w":154,"h":256}
},
"football_loop3_fx_00":
{
	"frame": {"x":726,"y":1233,"w":220,"h":242},
	"rotated": false,
	"trimmed": false,
	"spriteSourceSize": {"x":0,"y":0,"w":220,"h":242},
	"sourceSize": {"w":220,"h":242}
},
"football_loop3_fx_01":
{
	"frame": {"x":950,"y":1233,"w":220,"h":242},
	"rotated": false,
	"trimmed": false,
	"spriteSourceSize": {"x":0,"y":0,"w":220,"h":242},
	"sourceSize": {"w":220,"h":242}
},
"football_loop3_fx_02":
{
	"frame": {"x":1174,"y":1233,"w":220,"h":242},
	"rotated": false,
	"trimmed": false,
	"spriteSourceSize": {"x":0,"y":0,"w":220,"h":242},
	"sourceSize": {"w":220,"h":242}
},
"football_loop3_fx_03":
{
	"frame": {"x":1398,"y":1233,"w":220,"h":242},
	"rotated": false,
	"trimmed": false,
	"spriteSourceSize": {"x":0,"y":0,"w":220,"h":242},
	"sourceSize": {"w":220,"h":242}
},
"football_loop3_fx_04":
{
	"frame": {"x":1622,"y":1233,"w":220,"h":242},
	"rotated": false,
	"trimmed": false,
	"spriteSourceSize": {"x":0,"y":0,"w":220,"h":242},
	"sourceSize": {"w":220,"h":242}
},
"football_loop3_fx_05":
{
	"frame": {"x":3,"y":1479,"w":220,"h":242},
	"rotated": false,
	"trimmed": false,
	"spriteSourceSize": {"x":0,"y":0,"w":220,"h":242},
	"sourceSize": {"w":220,"h":242}
},
"football_loop3_fx_06":
{
	"frame": {"x":227,"y":1479,"w":220,"h":242},
	"rotated": false,
	"trimmed": false,
	"spriteSourceSize": {"x":0,"y":0,"w":220,"h":242},
	"sourceSize": {"w":220,"h":242}
},
"football_loop3_fx_07":
{
	"frame": {"x":451,"y":1479,"w":220,"h":242},
	"rotated": false,
	"trimmed": false,
	"spriteSourceSize": {"x":0,"y":0,"w":220,"h":242},
	"sourceSize": {"w":220,"h":242}
},
"football_loop3_fx_08":
{
	"frame": {"x":675,"y":1479,"w":220,"h":242},
	"rotated": false,
	"trimmed": false,
	"spriteSourceSize": {"x":0,"y":0,"w":220,"h":242},
	"sourceSize": {"w":220,"h":242}
},
"football_loop3_fx_09":
{
	"frame": {"x":899,"y":1479,"w":220,"h":242},
	"rotated": false,
	"trimmed": false,
	"spriteSourceSize": {"x":0,"y":0,"w":220,"h":242},
	"sourceSize": {"w":220,"h":242}
},
"football_loop3_fx_10":
{
	"frame": {"x":1123,"y":1479,"w":220,"h":242},
	"rotated": false,
	"trimmed": false,
	"spriteSourceSize": {"x":0,"y":0,"w":220,"h":242},
	"sourceSize": {"w":220,"h":242}
},
"football_loop3_fx_11":
{
	"frame": {"x":1347,"y":1479,"w":220,"h":242},
	"rotated": false,
	"trimmed": false,
	"spriteSourceSize": {"x":0,"y":0,"w":220,"h":242},
	"sourceSize": {"w":220,"h":242}
},
"football_loop3_fx_12":
{
	"frame": {"x":1571,"y":1479,"w":220,"h":242},
	"rotated": false,
	"trimmed": false,
	"spriteSourceSize": {"x":0,"y":0,"w":220,"h":242},
	"sourceSize": {"w":220,"h":242}
},
"football_loop3_fx_13":
{
	"frame": {"x":1795,"y":1493,"w":220,"h":242},
	"rotated": false,
	"trimmed": false,
	"spriteSourceSize": {"x":0,"y":0,"w":220,"h":242},
	"sourceSize": {"w":220,"h":242}
},
"football_loop3_fx_14":
{
	"frame": {"x":3,"y":1725,"w":220,"h":242},
	"rotated": false,
	"trimmed": false,
	"spriteSourceSize": {"x":0,"y":0,"w":220,"h":242},
	"sourceSize": {"w":220,"h":242}
},
"football_loop3_fx_15":
{
	"frame": {"x":227,"y":1725,"w":220,"h":242},
	"rotated": false,
	"trimmed": false,
	"spriteSourceSize": {"x":0,"y":0,"w":220,"h":242},
	"sourceSize": {"w":220,"h":242}
},
"football_loop3_fx_16":
{
	"frame": {"x":451,"y":1725,"w":220,"h":242},
	"rotated": false,
	"trimmed": false,
	"spriteSourceSize": {"x":0,"y":0,"w":220,"h":242},
	"sourceSize": {"w":220,"h":242}
},
"football_loop3_fx_17":
{
	"frame": {"x":675,"y":1725,"w":220,"h":242},
	"rotated": false,
	"trimmed": false,
	"spriteSourceSize": {"x":0,"y":0,"w":220,"h":242},
	"sourceSize": {"w":220,"h":242}
},
"football_loop3_fx_18":
{
	"frame": {"x":899,"y":1725,"w":220,"h":242},
	"rotated": false,
	"trimmed": false,
	"spriteSourceSize": {"x":0,"y":0,"w":220,"h":242},
	"sourceSize": {"w":220,"h":242}
},
"football_loop3_fx_19":
{
	"frame": {"x":1123,"y":1725,"w":220,"h":242},
	"rotated": false,
	"trimmed": false,
	"spriteSourceSize": {"x":0,"y":0,"w":220,"h":242},
	"sourceSize": {"w":220,"h":242}
},
"football_loop3_fx_20":
{
	"frame": {"x":1347,"y":1725,"w":220,"h":242},
	"rotated": false,
	"trimmed": false,
	"spriteSourceSize": {"x":0,"y":0,"w":220,"h":242},
	"sourceSize": {"w":220,"h":242}
},
"football_loop3_fx_21":
{
	"frame": {"x":1571,"y":1725,"w":220,"h":242},
	"rotated": false,
	"trimmed": false,
	"spriteSourceSize": {"x":0,"y":0,"w":220,"h":242},
	"sourceSize": {"w":220,"h":242}
},
"football_loop4_fx_00":
{
	"frame": {"x":3,"y":3,"w":237,"h":242},
	"rotated": false,
	"trimmed": false,
	"spriteSourceSize": {"x":0,"y":0,"w":237,"h":242},
	"sourceSize": {"w":237,"h":242}
},
"football_loop4_fx_01":
{
	"frame": {"x":244,"y":3,"w":237,"h":242},
	"rotated": false,
	"trimmed": false,
	"spriteSourceSize": {"x":0,"y":0,"w":237,"h":242},
	"sourceSize": {"w":237,"h":242}
},
"football_loop4_fx_02":
{
	"frame": {"x":485,"y":3,"w":237,"h":242},
	"rotated": false,
	"trimmed": false,
	"spriteSourceSize": {"x":0,"y":0,"w":237,"h":242},
	"sourceSize": {"w":237,"h":242}
},
"football_loop4_fx_03":
{
	"frame": {"x":726,"y":3,"w":237,"h":242},
	"rotated": false,
	"trimmed": false,
	"spriteSourceSize": {"x":0,"y":0,"w":237,"h":242},
	"sourceSize": {"w":237,"h":242}
},
"football_loop4_fx_04":
{
	"frame": {"x":967,"y":3,"w":237,"h":242},
	"rotated": false,
	"trimmed": false,
	"spriteSourceSize": {"x":0,"y":0,"w":237,"h":242},
	"sourceSize": {"w":237,"h":242}
},
"football_loop4_fx_05":
{
	"frame": {"x":1208,"y":3,"w":237,"h":242},
	"rotated": false,
	"trimmed": false,
	"spriteSourceSize": {"x":0,"y":0,"w":237,"h":242},
	"sourceSize": {"w":237,"h":242}
},
"football_loop4_fx_06":
{
	"frame": {"x":1449,"y":3,"w":237,"h":242},
	"rotated": false,
	"trimmed": false,
	"spriteSourceSize": {"x":0,"y":0,"w":237,"h":242},
	"sourceSize": {"w":237,"h":242}
},
"football_loop4_fx_07":
{
	"frame": {"x":1690,"y":3,"w":237,"h":242},
	"rotated": false,
	"trimmed": false,
	"spriteSourceSize": {"x":0,"y":0,"w":237,"h":242},
	"sourceSize": {"w":237,"h":242}
},
"football_loop4_fx_08":
{
	"frame": {"x":3,"y":249,"w":237,"h":242},
	"rotated": false,
	"trimmed": false,
	"spriteSourceSize": {"x":0,"y":0,"w":237,"h":242},
	"sourceSize": {"w":237,"h":242}
},
"football_loop4_fx_09":
{
	"frame": {"x":244,"y":249,"w":237,"h":242},
	"rotated": false,
	"trimmed": false,
	"spriteSourceSize": {"x":0,"y":0,"w":237,"h":242},
	"sourceSize": {"w":237,"h":242}
},
"football_loop4_fx_10":
{
	"frame": {"x":485,"y":249,"w":237,"h":242},
	"rotated": false,
	"trimmed": false,
	"spriteSourceSize": {"x":0,"y":0,"w":237,"h":242},
	"sourceSize": {"w":237,"h":242}
},
"football_loop4_fx_11":
{
	"frame": {"x":726,"y":249,"w":237,"h":242},
	"rotated": false,
	"trimmed": false,
	"spriteSourceSize": {"x":0,"y":0,"w":237,"h":242},
	"sourceSize": {"w":237,"h":242}
},
"football_loop4_fx_12":
{
	"frame": {"x":967,"y":249,"w":237,"h":242},
	"rotated": false,
	"trimmed": false,
	"spriteSourceSize": {"x":0,"y":0,"w":237,"h":242},
	"sourceSize": {"w":237,"h":242}
},
"football_loop4_fx_13":
{
	"frame": {"x":1208,"y":249,"w":237,"h":242},
	"rotated": false,
	"trimmed": false,
	"spriteSourceSize": {"x":0,"y":0,"w":237,"h":242},
	"sourceSize": {"w":237,"h":242}
},
"football_loop4_fx_14":
{
	"frame": {"x":1449,"y":249,"w":237,"h":242},
	"rotated": false,
	"trimmed": false,
	"spriteSourceSize": {"x":0,"y":0,"w":237,"h":242},
	"sourceSize": {"w":237,"h":242}
},
"football_loop4_fx_15":
{
	"frame": {"x":1690,"y":249,"w":237,"h":242},
	"rotated": false,
	"trimmed": false,
	"spriteSourceSize": {"x":0,"y":0,"w":237,"h":242},
	"sourceSize": {"w":237,"h":242}
},
"football_loop4_fx_16":
{
	"frame": {"x":3,"y":495,"w":237,"h":242},
	"rotated": false,
	"trimmed": false,
	"spriteSourceSize": {"x":0,"y":0,"w":237,"h":242},
	"sourceSize": {"w":237,"h":242}
},
"football_loop4_fx_17":
{
	"frame": {"x":244,"y":495,"w":237,"h":242},
	"rotated": false,
	"trimmed": false,
	"spriteSourceSize": {"x":0,"y":0,"w":237,"h":242},
	"sourceSize": {"w":237,"h":242}
},
"football_loop4_fx_18":
{
	"frame": {"x":485,"y":495,"w":237,"h":242},
	"rotated": false,
	"trimmed": false,
	"spriteSourceSize": {"x":0,"y":0,"w":237,"h":242},
	"sourceSize": {"w":237,"h":242}
},
"football_loop4_fx_19":
{
	"frame": {"x":726,"y":495,"w":237,"h":242},
	"rotated": false,
	"trimmed": false,
	"spriteSourceSize": {"x":0,"y":0,"w":237,"h":242},
	"sourceSize": {"w":237,"h":242}
},
"football_loop4_fx_20":
{
	"frame": {"x":967,"y":495,"w":237,"h":242},
	"rotated": false,
	"trimmed": false,
	"spriteSourceSize": {"x":0,"y":0,"w":237,"h":242},
	"sourceSize": {"w":237,"h":242}
},
"football_loop4_fx_21":
{
	"frame": {"x":1208,"y":495,"w":237,"h":242},
	"rotated": false,
	"trimmed": false,
	"spriteSourceSize": {"x":0,"y":0,"w":237,"h":242},
	"sourceSize": {"w":237,"h":242}
},
"football_loop4_fx_22":
{
	"frame": {"x":1449,"y":495,"w":237,"h":242},
	"rotated": false,
	"trimmed": false,
	"spriteSourceSize": {"x":0,"y":0,"w":237,"h":242},
	"sourceSize": {"w":237,"h":242}
},
"football_loop4_fx_23":
{
	"frame": {"x":1690,"y":495,"w":237,"h":242},
	"rotated": false,
	"trimmed": false,
	"spriteSourceSize": {"x":0,"y":0,"w":237,"h":242},
	"sourceSize": {"w":237,"h":242}
},
"football_loop4_fx_24":
{
	"frame": {"x":3,"y":741,"w":237,"h":242},
	"rotated": false,
	"trimmed": false,
	"spriteSourceSize": {"x":0,"y":0,"w":237,"h":242},
	"sourceSize": {"w":237,"h":242}
},
"football_loop4_fx_25":
{
	"frame": {"x":244,"y":741,"w":237,"h":242},
	"rotated": false,
	"trimmed": false,
	"spriteSourceSize": {"x":0,"y":0,"w":237,"h":242},
	"sourceSize": {"w":237,"h":242}
},
"football_loop4_fx_26":
{
	"frame": {"x":485,"y":741,"w":237,"h":242},
	"rotated": false,
	"trimmed": false,
	"spriteSourceSize": {"x":0,"y":0,"w":237,"h":242},
	"sourceSize": {"w":237,"h":242}
},
"football_loop4_fx_27":
{
	"frame": {"x":726,"y":741,"w":237,"h":242},
	"rotated": false,
	"trimmed": false,
	"spriteSourceSize": {"x":0,"y":0,"w":237,"h":242},
	"sourceSize": {"w":237,"h":242}
},
"football_loop4_fx_28":
{
	"frame": {"x":967,"y":741,"w":237,"h":242},
	"rotated": false,
	"trimmed": false,
	"spriteSourceSize": {"x":0,"y":0,"w":237,"h":242},
	"sourceSize": {"w":237,"h":242}
},
"football_loop4_fx_29":
{
	"frame": {"x":1208,"y":741,"w":237,"h":242},
	"rotated": false,
	"trimmed": false,
	"spriteSourceSize": {"x":0,"y":0,"w":237,"h":242},
	"sourceSize": {"w":237,"h":242}
},
"football_loop4_fx_30":
{
	"frame": {"x":1449,"y":741,"w":237,"h":242},
	"rotated": false,
	"trimmed": false,
	"spriteSourceSize": {"x":0,"y":0,"w":237,"h":242},
	"sourceSize": {"w":237,"h":242}
},
"football_loop4_fx_31":
{
	"frame": {"x":1690,"y":741,"w":237,"h":242},
	"rotated": false,
	"trimmed": false,
	"spriteSourceSize": {"x":0,"y":0,"w":237,"h":242},
	"sourceSize": {"w":237,"h":242}
},
"football_loop4_fx_32":
{
	"frame": {"x":3,"y":987,"w":237,"h":242},
	"rotated": false,
	"trimmed": false,
	"spriteSourceSize": {"x":0,"y":0,"w":237,"h":242},
	"sourceSize": {"w":237,"h":242}
},
"football_loop4_fx_33":
{
	"frame": {"x":244,"y":987,"w":237,"h":242},
	"rotated": false,
	"trimmed": false,
	"spriteSourceSize": {"x":0,"y":0,"w":237,"h":242},
	"sourceSize": {"w":237,"h":242}
},
"football_loop4_fx_34":
{
	"frame": {"x":485,"y":987,"w":237,"h":242},
	"rotated": false,
	"trimmed": false,
	"spriteSourceSize": {"x":0,"y":0,"w":237,"h":242},
	"sourceSize": {"w":237,"h":242}
},
"football_loop4_fx_35":
{
	"frame": {"x":726,"y":987,"w":237,"h":242},
	"rotated": false,
	"trimmed": false,
	"spriteSourceSize": {"x":0,"y":0,"w":237,"h":242},
	"sourceSize": {"w":237,"h":242}
},
"football_loop4_fx_36":
{
	"frame": {"x":967,"y":987,"w":237,"h":242},
	"rotated": false,
	"trimmed": false,
	"spriteSourceSize": {"x":0,"y":0,"w":237,"h":242},
	"sourceSize": {"w":237,"h":242}
},
"football_loop4_fx_37":
{
	"frame": {"x":1208,"y":987,"w":237,"h":242},
	"rotated": false,
	"trimmed": false,
	"spriteSourceSize": {"x":0,"y":0,"w":237,"h":242},
	"sourceSize": {"w":237,"h":242}
},
"football_loop4_fx_38":
{
	"frame": {"x":1449,"y":987,"w":237,"h":242},
	"rotated": false,
	"trimmed": false,
	"spriteSourceSize": {"x":0,"y":0,"w":237,"h":242},
	"sourceSize": {"w":237,"h":242}
},
"football_loop4_fx_39":
{
	"frame": {"x":1690,"y":987,"w":237,"h":242},
	"rotated": false,
	"trimmed": false,
	"spriteSourceSize": {"x":0,"y":0,"w":237,"h":242},
	"sourceSize": {"w":237,"h":242}
},
"football_loop4_fx_40":
{
	"frame": {"x":3,"y":1233,"w":237,"h":242},
	"rotated": false,
	"trimmed": false,
	"spriteSourceSize": {"x":0,"y":0,"w":237,"h":242},
	"sourceSize": {"w":237,"h":242}
},
"football_loop4_fx_41":
{
	"frame": {"x":244,"y":1233,"w":237,"h":242},
	"rotated": false,
	"trimmed": false,
	"spriteSourceSize": {"x":0,"y":0,"w":237,"h":242},
	"sourceSize": {"w":237,"h":242}
},
"football_loop4_fx_42":
{
	"frame": {"x":485,"y":1233,"w":237,"h":242},
	"rotated": false,
	"trimmed": false,
	"spriteSourceSize": {"x":0,"y":0,"w":237,"h":242},
	"sourceSize": {"w":237,"h":242}
},
"glow_loop2_00":
{
	"frame": {"x":1899,"y":2143,"w":138,"h":138},
	"rotated": false,
	"trimmed": false,
	"spriteSourceSize": {"x":0,"y":0,"w":138,"h":138},
	"sourceSize": {"w":138,"h":138}
},
"glow_loop3_00":
{
	"frame": {"x":3,"y":3845,"w":138,"h":138},
	"rotated": false,
	"trimmed": false,
	"spriteSourceSize": {"x":0,"y":0,"w":138,"h":138},
	"sourceSize": {"w":138,"h":138}
},
"glow_loop4_00":
{
	"frame": {"x":1899,"y":1999,"w":138,"h":140},
	"rotated": false,
	"trimmed": false,
	"spriteSourceSize": {"x":0,"y":0,"w":138,"h":140},
	"sourceSize": {"w":138,"h":140}
}},
"animations": {
	"football_loop2fx": ["football_loop2fx_00","football_loop2fx_01","football_loop2fx_02","football_loop2fx_03","football_loop2fx_04","football_loop2fx_05","football_loop2fx_06","football_loop2fx_07","football_loop2fx_08","football_loop2fx_09","football_loop2fx_10","football_loop2fx_11","football_loop2fx_12","football_loop2fx_13","football_loop2fx_14","football_loop2fx_15","football_loop2fx_16","football_loop2fx_17","football_loop2fx_18","football_loop2fx_19","football_loop2fx_20","football_loop2fx_21"],
	"football_loop3_fx": ["football_loop3_fx_00","football_loop3_fx_01","football_loop3_fx_02","football_loop3_fx_03","football_loop3_fx_04","football_loop3_fx_05","football_loop3_fx_06","football_loop3_fx_07","football_loop3_fx_08","football_loop3_fx_09","football_loop3_fx_10","football_loop3_fx_11","football_loop3_fx_12","football_loop3_fx_13","football_loop3_fx_14","football_loop3_fx_15","football_loop3_fx_16","football_loop3_fx_17","football_loop3_fx_18","football_loop3_fx_19","football_loop3_fx_20","football_loop3_fx_21"],
	"football_loop4_fx": ["football_loop4_fx_00","football_loop4_fx_01","football_loop4_fx_02","football_loop4_fx_03","football_loop4_fx_04","football_loop4_fx_05","football_loop4_fx_06","football_loop4_fx_07","football_loop4_fx_08","football_loop4_fx_09","football_loop4_fx_10","football_loop4_fx_11","football_loop4_fx_12","football_loop4_fx_13","football_loop4_fx_14","football_loop4_fx_15","football_loop4_fx_16","football_loop4_fx_17","football_loop4_fx_18","football_loop4_fx_19","football_loop4_fx_20","football_loop4_fx_21","football_loop4_fx_22","football_loop4_fx_23","football_loop4_fx_24","football_loop4_fx_25","football_loop4_fx_26","football_loop4_fx_27","football_loop4_fx_28","football_loop4_fx_29","football_loop4_fx_30","football_loop4_fx_31","football_loop4_fx_32","football_loop4_fx_33","football_loop4_fx_34","football_loop4_fx_35","football_loop4_fx_36","football_loop4_fx_37","football_loop4_fx_38","football_loop4_fx_39","football_loop4_fx_40","football_loop4_fx_41","football_loop4_fx_42"]
},
"meta": {
	"app": "https://www.codeandweb.com/texturepacker",
	"version": "1.0",
	"image": "defender_ballAnims.png",
	"format": "RGBA8888",
	"size": {"w":2048,"h":4096},
	"scale": "1",
	"smartupdate": "$TexturePacker:SmartUpdate:47d85fb93940ca24c2740b5ddea8e9dc:5f323a1fb2ccdb9bd15500af3a2ef452:2cd83570e59301f246cc4be16a297f21$"
}
}
