{"tourneyMatches":[{"selectedTeam":"Germany","opponentTeam":"Brazil","matchId":200001},{"selectedTeam":"Germany","opponentTeam":"France","matchId":200002},{"selectedTeam":"Germany","opponentTeam":"Belgium","matchId":200003},{"selectedTeam":"Germany","opponentTeam":"Spain","matchId":200004},{"selectedTeam":"Germany","opponentTeam":"England","matchId":200005},{"selectedTeam":"Germany","opponentTeam":"Argentina","matchId":200006},{"selectedTeam":"Germany","opponentTeam":"Netherlands","matchId":200007},{"selectedTeam":"Germany","opponentTeam":"Denmark","matchId":200008},{"selectedTeam":"Germany","opponentTeam":"Croatia","matchId":200009},{"selectedTeam":"Germany","opponentTeam":"Switzerland","matchId":200010},{"selectedTeam":"Germany","opponentTeam":"Uruguay","matchId":200011},{"selectedTeam":"Germany","opponentTeam":"Portugal","matchId":200012},{"selectedTeam":"Germany","opponentTeam":"Poland","matchId":200013},{"selectedTeam":"Germany","opponentTeam":"Mexico","matchId":200014},{"selectedTeam":"Germany","opponentTeam":"Serbia","matchId":200015},{"selectedTeam":"Germany","opponentTeam":"Qatar","matchId":200016},{"selectedTeam":"Germany","opponentTeam":"Iran","matchId":200017},{"selectedTeam":"Germany","opponentTeam":"South Korea","matchId":200018},{"selectedTeam":"Germany","opponentTeam":"Japan","matchId":200019},{"selectedTeam":"Germany","opponentTeam":"Saudi Arabia","matchId":200020},{"selectedTeam":"Germany","opponentTeam":"Ecuador","matchId":200021},{"selectedTeam":"Germany","opponentTeam":"Canada","matchId":200022},{"selectedTeam":"Germany","opponentTeam":"Ghana","matchId":200023},{"selectedTeam":"Germany","opponentTeam":"Senegal","matchId":200024},{"selectedTeam":"Germany","opponentTeam":"Tunisia","matchId":200025},{"selectedTeam":"Germany","opponentTeam":"Morocco","matchId":200026},{"selectedTeam":"Germany","opponentTeam":"Cameroon","matchId":200027},{"selectedTeam":"Germany","opponentTeam":"USA","matchId":200028},{"selectedTeam":"Germany","opponentTeam":"Wales","matchId":200029},{"selectedTeam":"Germany","opponentTeam":"Australia","matchId":200030},{"selectedTeam":"Germany","opponentTeam":"Costa Rica","matchId":200031},{"selectedTeam":"Brazil","opponentTeam":"Germany","matchId":200032},{"selectedTeam":"Brazil","opponentTeam":"France","matchId":200033},{"selectedTeam":"Brazil","opponentTeam":"Belgium","matchId":200034},{"selectedTeam":"Brazil","opponentTeam":"Spain","matchId":200035},{"selectedTeam":"Brazil","opponentTeam":"England","matchId":200036},{"selectedTeam":"Brazil","opponentTeam":"Argentina","matchId":200037},{"selectedTeam":"Brazil","opponentTeam":"Netherlands","matchId":200038},{"selectedTeam":"Brazil","opponentTeam":"Denmark","matchId":200039},{"selectedTeam":"Brazil","opponentTeam":"Croatia","matchId":200040},{"selectedTeam":"Brazil","opponentTeam":"Switzerland","matchId":200041},{"selectedTeam":"Brazil","opponentTeam":"Uruguay","matchId":200042},{"selectedTeam":"Brazil","opponentTeam":"Portugal","matchId":200043},{"selectedTeam":"Brazil","opponentTeam":"Poland","matchId":200044},{"selectedTeam":"Brazil","opponentTeam":"Mexico","matchId":200045},{"selectedTeam":"Brazil","opponentTeam":"Serbia","matchId":200046},{"selectedTeam":"Brazil","opponentTeam":"Qatar","matchId":200047},{"selectedTeam":"Brazil","opponentTeam":"Iran","matchId":200048},{"selectedTeam":"Brazil","opponentTeam":"South Korea","matchId":200049},{"selectedTeam":"Brazil","opponentTeam":"Japan","matchId":200050},{"selectedTeam":"Brazil","opponentTeam":"Saudi Arabia","matchId":200051},{"selectedTeam":"Brazil","opponentTeam":"Ecuador","matchId":200052},{"selectedTeam":"Brazil","opponentTeam":"Canada","matchId":200053},{"selectedTeam":"Brazil","opponentTeam":"Ghana","matchId":200054},{"selectedTeam":"Brazil","opponentTeam":"Senegal","matchId":200055},{"selectedTeam":"Brazil","opponentTeam":"Tunisia","matchId":200056},{"selectedTeam":"Brazil","opponentTeam":"Morocco","matchId":200057},{"selectedTeam":"Brazil","opponentTeam":"Cameroon","matchId":200058},{"selectedTeam":"Brazil","opponentTeam":"USA","matchId":200059},{"selectedTeam":"Brazil","opponentTeam":"Wales","matchId":200060},{"selectedTeam":"Brazil","opponentTeam":"Australia","matchId":200061},{"selectedTeam":"Brazil","opponentTeam":"Costa Rica","matchId":200062},{"selectedTeam":"France","opponentTeam":"Germany","matchId":200063},{"selectedTeam":"France","opponentTeam":"Brazil","matchId":200064},{"selectedTeam":"France","opponentTeam":"Belgium","matchId":200065},{"selectedTeam":"France","opponentTeam":"Spain","matchId":200066},{"selectedTeam":"France","opponentTeam":"England","matchId":200067},{"selectedTeam":"France","opponentTeam":"Argentina","matchId":200068},{"selectedTeam":"France","opponentTeam":"Netherlands","matchId":200069},{"selectedTeam":"France","opponentTeam":"Denmark","matchId":200070},{"selectedTeam":"France","opponentTeam":"Croatia","matchId":200071},{"selectedTeam":"France","opponentTeam":"Switzerland","matchId":200072},{"selectedTeam":"France","opponentTeam":"Uruguay","matchId":200073},{"selectedTeam":"France","opponentTeam":"Portugal","matchId":200074},{"selectedTeam":"France","opponentTeam":"Poland","matchId":200075},{"selectedTeam":"France","opponentTeam":"Mexico","matchId":200076},{"selectedTeam":"France","opponentTeam":"Serbia","matchId":200077},{"selectedTeam":"France","opponentTeam":"Qatar","matchId":200078},{"selectedTeam":"France","opponentTeam":"Iran","matchId":200079},{"selectedTeam":"France","opponentTeam":"South Korea","matchId":200080},{"selectedTeam":"France","opponentTeam":"Japan","matchId":200081},{"selectedTeam":"France","opponentTeam":"Saudi Arabia","matchId":200082},{"selectedTeam":"France","opponentTeam":"Ecuador","matchId":200083},{"selectedTeam":"France","opponentTeam":"Canada","matchId":200084},{"selectedTeam":"France","opponentTeam":"Ghana","matchId":200085},{"selectedTeam":"France","opponentTeam":"Senegal","matchId":200086},{"selectedTeam":"France","opponentTeam":"Tunisia","matchId":200087},{"selectedTeam":"France","opponentTeam":"Morocco","matchId":200088},{"selectedTeam":"France","opponentTeam":"Cameroon","matchId":200089},{"selectedTeam":"France","opponentTeam":"USA","matchId":200090},{"selectedTeam":"France","opponentTeam":"Wales","matchId":200091},{"selectedTeam":"France","opponentTeam":"Australia","matchId":200092},{"selectedTeam":"France","opponentTeam":"Costa Rica","matchId":200093},{"selectedTeam":"Belgium","opponentTeam":"Germany","matchId":200094},{"selectedTeam":"Belgium","opponentTeam":"Brazil","matchId":200095},{"selectedTeam":"Belgium","opponentTeam":"France","matchId":200096},{"selectedTeam":"Belgium","opponentTeam":"Spain","matchId":200097},{"selectedTeam":"Belgium","opponentTeam":"England","matchId":200098},{"selectedTeam":"Belgium","opponentTeam":"Argentina","matchId":200099},{"selectedTeam":"Belgium","opponentTeam":"Netherlands","matchId":200100},{"selectedTeam":"Belgium","opponentTeam":"Denmark","matchId":200101},{"selectedTeam":"Belgium","opponentTeam":"Croatia","matchId":200102},{"selectedTeam":"Belgium","opponentTeam":"Switzerland","matchId":200103},{"selectedTeam":"Belgium","opponentTeam":"Uruguay","matchId":200104},{"selectedTeam":"Belgium","opponentTeam":"Portugal","matchId":200105},{"selectedTeam":"Belgium","opponentTeam":"Poland","matchId":200106},{"selectedTeam":"Belgium","opponentTeam":"Mexico","matchId":200107},{"selectedTeam":"Belgium","opponentTeam":"Serbia","matchId":200108},{"selectedTeam":"Belgium","opponentTeam":"Qatar","matchId":200109},{"selectedTeam":"Belgium","opponentTeam":"Iran","matchId":200110},{"selectedTeam":"Belgium","opponentTeam":"South Korea","matchId":200111},{"selectedTeam":"Belgium","opponentTeam":"Japan","matchId":200112},{"selectedTeam":"Belgium","opponentTeam":"Saudi Arabia","matchId":200113},{"selectedTeam":"Belgium","opponentTeam":"Ecuador","matchId":200114},{"selectedTeam":"Belgium","opponentTeam":"Canada","matchId":200115},{"selectedTeam":"Belgium","opponentTeam":"Ghana","matchId":200116},{"selectedTeam":"Belgium","opponentTeam":"Senegal","matchId":200117},{"selectedTeam":"Belgium","opponentTeam":"Tunisia","matchId":200118},{"selectedTeam":"Belgium","opponentTeam":"Morocco","matchId":200119},{"selectedTeam":"Belgium","opponentTeam":"Cameroon","matchId":200120},{"selectedTeam":"Belgium","opponentTeam":"USA","matchId":200121},{"selectedTeam":"Belgium","opponentTeam":"Wales","matchId":200122},{"selectedTeam":"Belgium","opponentTeam":"Australia","matchId":200123},{"selectedTeam":"Belgium","opponentTeam":"Costa Rica","matchId":200124},{"selectedTeam":"Spain","opponentTeam":"Germany","matchId":200125},{"selectedTeam":"Spain","opponentTeam":"Brazil","matchId":200126},{"selectedTeam":"Spain","opponentTeam":"France","matchId":200127},{"selectedTeam":"Spain","opponentTeam":"Belgium","matchId":200128},{"selectedTeam":"Spain","opponentTeam":"England","matchId":200129},{"selectedTeam":"Spain","opponentTeam":"Argentina","matchId":200130},{"selectedTeam":"Spain","opponentTeam":"Netherlands","matchId":200131},{"selectedTeam":"Spain","opponentTeam":"Denmark","matchId":200132},{"selectedTeam":"Spain","opponentTeam":"Croatia","matchId":200133},{"selectedTeam":"Spain","opponentTeam":"Switzerland","matchId":200134},{"selectedTeam":"Spain","opponentTeam":"Uruguay","matchId":200135},{"selectedTeam":"Spain","opponentTeam":"Portugal","matchId":200136},{"selectedTeam":"Spain","opponentTeam":"Poland","matchId":200137},{"selectedTeam":"Spain","opponentTeam":"Mexico","matchId":200138},{"selectedTeam":"Spain","opponentTeam":"Serbia","matchId":200139},{"selectedTeam":"Spain","opponentTeam":"Qatar","matchId":200140},{"selectedTeam":"Spain","opponentTeam":"Iran","matchId":200141},{"selectedTeam":"Spain","opponentTeam":"South Korea","matchId":200142},{"selectedTeam":"Spain","opponentTeam":"Japan","matchId":200143},{"selectedTeam":"Spain","opponentTeam":"Saudi Arabia","matchId":200144},{"selectedTeam":"Spain","opponentTeam":"Ecuador","matchId":200145},{"selectedTeam":"Spain","opponentTeam":"Canada","matchId":200146},{"selectedTeam":"Spain","opponentTeam":"Ghana","matchId":200147},{"selectedTeam":"Spain","opponentTeam":"Senegal","matchId":200148},{"selectedTeam":"Spain","opponentTeam":"Tunisia","matchId":200149},{"selectedTeam":"Spain","opponentTeam":"Morocco","matchId":200150},{"selectedTeam":"Spain","opponentTeam":"Cameroon","matchId":200151},{"selectedTeam":"Spain","opponentTeam":"USA","matchId":200152},{"selectedTeam":"Spain","opponentTeam":"Wales","matchId":200153},{"selectedTeam":"Spain","opponentTeam":"Australia","matchId":200154},{"selectedTeam":"Spain","opponentTeam":"Costa Rica","matchId":200155},{"selectedTeam":"England","opponentTeam":"Germany","matchId":200156},{"selectedTeam":"England","opponentTeam":"Brazil","matchId":200157},{"selectedTeam":"England","opponentTeam":"France","matchId":200158},{"selectedTeam":"England","opponentTeam":"Belgium","matchId":200159},{"selectedTeam":"England","opponentTeam":"Spain","matchId":200160},{"selectedTeam":"England","opponentTeam":"Argentina","matchId":200161},{"selectedTeam":"England","opponentTeam":"Netherlands","matchId":200162},{"selectedTeam":"England","opponentTeam":"Denmark","matchId":200163},{"selectedTeam":"England","opponentTeam":"Croatia","matchId":200164},{"selectedTeam":"England","opponentTeam":"Switzerland","matchId":200165},{"selectedTeam":"England","opponentTeam":"Uruguay","matchId":200166},{"selectedTeam":"England","opponentTeam":"Portugal","matchId":200167},{"selectedTeam":"England","opponentTeam":"Poland","matchId":200168},{"selectedTeam":"England","opponentTeam":"Mexico","matchId":200169},{"selectedTeam":"England","opponentTeam":"Serbia","matchId":200170},{"selectedTeam":"England","opponentTeam":"Qatar","matchId":200171},{"selectedTeam":"England","opponentTeam":"Iran","matchId":200172},{"selectedTeam":"England","opponentTeam":"South Korea","matchId":200173},{"selectedTeam":"England","opponentTeam":"Japan","matchId":200174},{"selectedTeam":"England","opponentTeam":"Saudi Arabia","matchId":200175},{"selectedTeam":"England","opponentTeam":"Ecuador","matchId":200176},{"selectedTeam":"England","opponentTeam":"Canada","matchId":200177},{"selectedTeam":"England","opponentTeam":"Ghana","matchId":200178},{"selectedTeam":"England","opponentTeam":"Senegal","matchId":200179},{"selectedTeam":"England","opponentTeam":"Tunisia","matchId":200180},{"selectedTeam":"England","opponentTeam":"Morocco","matchId":200181},{"selectedTeam":"England","opponentTeam":"Cameroon","matchId":200182},{"selectedTeam":"England","opponentTeam":"USA","matchId":200183},{"selectedTeam":"England","opponentTeam":"Wales","matchId":200184},{"selectedTeam":"England","opponentTeam":"Australia","matchId":200185},{"selectedTeam":"England","opponentTeam":"Costa Rica","matchId":200186},{"selectedTeam":"Argentina","opponentTeam":"Germany","matchId":200187},{"selectedTeam":"Argentina","opponentTeam":"Brazil","matchId":200188},{"selectedTeam":"Argentina","opponentTeam":"France","matchId":200189},{"selectedTeam":"Argentina","opponentTeam":"Belgium","matchId":200190},{"selectedTeam":"Argentina","opponentTeam":"Spain","matchId":200191},{"selectedTeam":"Argentina","opponentTeam":"England","matchId":200192},{"selectedTeam":"Argentina","opponentTeam":"Netherlands","matchId":200193},{"selectedTeam":"Argentina","opponentTeam":"Denmark","matchId":200194},{"selectedTeam":"Argentina","opponentTeam":"Croatia","matchId":200195},{"selectedTeam":"Argentina","opponentTeam":"Switzerland","matchId":200196},{"selectedTeam":"Argentina","opponentTeam":"Uruguay","matchId":200197},{"selectedTeam":"Argentina","opponentTeam":"Portugal","matchId":200198},{"selectedTeam":"Argentina","opponentTeam":"Poland","matchId":200199},{"selectedTeam":"Argentina","opponentTeam":"Mexico","matchId":200200},{"selectedTeam":"Argentina","opponentTeam":"Serbia","matchId":200201},{"selectedTeam":"Argentina","opponentTeam":"Qatar","matchId":200202},{"selectedTeam":"Argentina","opponentTeam":"Iran","matchId":200203},{"selectedTeam":"Argentina","opponentTeam":"South Korea","matchId":200204},{"selectedTeam":"Argentina","opponentTeam":"Japan","matchId":200205},{"selectedTeam":"Argentina","opponentTeam":"Saudi Arabia","matchId":200206},{"selectedTeam":"Argentina","opponentTeam":"Ecuador","matchId":200207},{"selectedTeam":"Argentina","opponentTeam":"Canada","matchId":200208},{"selectedTeam":"Argentina","opponentTeam":"Ghana","matchId":200209},{"selectedTeam":"Argentina","opponentTeam":"Senegal","matchId":200210},{"selectedTeam":"Argentina","opponentTeam":"Tunisia","matchId":200211},{"selectedTeam":"Argentina","opponentTeam":"Morocco","matchId":200212},{"selectedTeam":"Argentina","opponentTeam":"Cameroon","matchId":200213},{"selectedTeam":"Argentina","opponentTeam":"USA","matchId":200214},{"selectedTeam":"Argentina","opponentTeam":"Wales","matchId":200215},{"selectedTeam":"Argentina","opponentTeam":"Australia","matchId":200216},{"selectedTeam":"Argentina","opponentTeam":"Costa Rica","matchId":200217},{"selectedTeam":"Netherlands","opponentTeam":"Germany","matchId":200218},{"selectedTeam":"Netherlands","opponentTeam":"Brazil","matchId":200219},{"selectedTeam":"Netherlands","opponentTeam":"France","matchId":200220},{"selectedTeam":"Netherlands","opponentTeam":"Belgium","matchId":200221},{"selectedTeam":"Netherlands","opponentTeam":"Spain","matchId":200222},{"selectedTeam":"Netherlands","opponentTeam":"England","matchId":200223},{"selectedTeam":"Netherlands","opponentTeam":"Argentina","matchId":200224},{"selectedTeam":"Netherlands","opponentTeam":"Denmark","matchId":200225},{"selectedTeam":"Netherlands","opponentTeam":"Croatia","matchId":200226},{"selectedTeam":"Netherlands","opponentTeam":"Switzerland","matchId":200227},{"selectedTeam":"Netherlands","opponentTeam":"Uruguay","matchId":200228},{"selectedTeam":"Netherlands","opponentTeam":"Portugal","matchId":200229},{"selectedTeam":"Netherlands","opponentTeam":"Poland","matchId":200230},{"selectedTeam":"Netherlands","opponentTeam":"Mexico","matchId":200231},{"selectedTeam":"Netherlands","opponentTeam":"Serbia","matchId":200232},{"selectedTeam":"Netherlands","opponentTeam":"Qatar","matchId":200233},{"selectedTeam":"Netherlands","opponentTeam":"Iran","matchId":200234},{"selectedTeam":"Netherlands","opponentTeam":"South Korea","matchId":200235},{"selectedTeam":"Netherlands","opponentTeam":"Japan","matchId":200236},{"selectedTeam":"Netherlands","opponentTeam":"Saudi Arabia","matchId":200237},{"selectedTeam":"Netherlands","opponentTeam":"Ecuador","matchId":200238},{"selectedTeam":"Netherlands","opponentTeam":"Canada","matchId":200239},{"selectedTeam":"Netherlands","opponentTeam":"Ghana","matchId":200240},{"selectedTeam":"Netherlands","opponentTeam":"Senegal","matchId":200241},{"selectedTeam":"Netherlands","opponentTeam":"Tunisia","matchId":200242},{"selectedTeam":"Netherlands","opponentTeam":"Morocco","matchId":200243},{"selectedTeam":"Netherlands","opponentTeam":"Cameroon","matchId":200244},{"selectedTeam":"Netherlands","opponentTeam":"USA","matchId":200245},{"selectedTeam":"Netherlands","opponentTeam":"Wales","matchId":200246},{"selectedTeam":"Netherlands","opponentTeam":"Australia","matchId":200247},{"selectedTeam":"Netherlands","opponentTeam":"Costa Rica","matchId":200248},{"selectedTeam":"Denmark","opponentTeam":"Germany","matchId":200249},{"selectedTeam":"Denmark","opponentTeam":"Brazil","matchId":200250},{"selectedTeam":"Denmark","opponentTeam":"France","matchId":200251},{"selectedTeam":"Denmark","opponentTeam":"Belgium","matchId":200252},{"selectedTeam":"Denmark","opponentTeam":"Spain","matchId":200253},{"selectedTeam":"Denmark","opponentTeam":"England","matchId":200254},{"selectedTeam":"Denmark","opponentTeam":"Argentina","matchId":200255},{"selectedTeam":"Denmark","opponentTeam":"Netherlands","matchId":200256},{"selectedTeam":"Denmark","opponentTeam":"Croatia","matchId":200257},{"selectedTeam":"Denmark","opponentTeam":"Switzerland","matchId":200258},{"selectedTeam":"Denmark","opponentTeam":"Uruguay","matchId":200259},{"selectedTeam":"Denmark","opponentTeam":"Portugal","matchId":200260},{"selectedTeam":"Denmark","opponentTeam":"Poland","matchId":200261},{"selectedTeam":"Denmark","opponentTeam":"Mexico","matchId":200262},{"selectedTeam":"Denmark","opponentTeam":"Serbia","matchId":200263},{"selectedTeam":"Denmark","opponentTeam":"Qatar","matchId":200264},{"selectedTeam":"Denmark","opponentTeam":"Iran","matchId":200265},{"selectedTeam":"Denmark","opponentTeam":"South Korea","matchId":200266},{"selectedTeam":"Denmark","opponentTeam":"Japan","matchId":200267},{"selectedTeam":"Denmark","opponentTeam":"Saudi Arabia","matchId":200268},{"selectedTeam":"Denmark","opponentTeam":"Ecuador","matchId":200269},{"selectedTeam":"Denmark","opponentTeam":"Canada","matchId":200270},{"selectedTeam":"Denmark","opponentTeam":"Ghana","matchId":200271},{"selectedTeam":"Denmark","opponentTeam":"Senegal","matchId":200272},{"selectedTeam":"Denmark","opponentTeam":"Tunisia","matchId":200273},{"selectedTeam":"Denmark","opponentTeam":"Morocco","matchId":200274},{"selectedTeam":"Denmark","opponentTeam":"Cameroon","matchId":200275},{"selectedTeam":"Denmark","opponentTeam":"USA","matchId":200276},{"selectedTeam":"Denmark","opponentTeam":"Wales","matchId":200277},{"selectedTeam":"Denmark","opponentTeam":"Australia","matchId":200278},{"selectedTeam":"Denmark","opponentTeam":"Costa Rica","matchId":200279},{"selectedTeam":"Croatia","opponentTeam":"Germany","matchId":200280},{"selectedTeam":"Croatia","opponentTeam":"Brazil","matchId":200281},{"selectedTeam":"Croatia","opponentTeam":"France","matchId":200282},{"selectedTeam":"Croatia","opponentTeam":"Belgium","matchId":200283},{"selectedTeam":"Croatia","opponentTeam":"Spain","matchId":200284},{"selectedTeam":"Croatia","opponentTeam":"England","matchId":200285},{"selectedTeam":"Croatia","opponentTeam":"Argentina","matchId":200286},{"selectedTeam":"Croatia","opponentTeam":"Netherlands","matchId":200287},{"selectedTeam":"Croatia","opponentTeam":"Denmark","matchId":200288},{"selectedTeam":"Croatia","opponentTeam":"Switzerland","matchId":200289},{"selectedTeam":"Croatia","opponentTeam":"Uruguay","matchId":200290},{"selectedTeam":"Croatia","opponentTeam":"Portugal","matchId":200291},{"selectedTeam":"Croatia","opponentTeam":"Poland","matchId":200292},{"selectedTeam":"Croatia","opponentTeam":"Mexico","matchId":200293},{"selectedTeam":"Croatia","opponentTeam":"Serbia","matchId":200294},{"selectedTeam":"Croatia","opponentTeam":"Qatar","matchId":200295},{"selectedTeam":"Croatia","opponentTeam":"Iran","matchId":200296},{"selectedTeam":"Croatia","opponentTeam":"South Korea","matchId":200297},{"selectedTeam":"Croatia","opponentTeam":"Japan","matchId":200298},{"selectedTeam":"Croatia","opponentTeam":"Saudi Arabia","matchId":200299},{"selectedTeam":"Croatia","opponentTeam":"Ecuador","matchId":200300},{"selectedTeam":"Croatia","opponentTeam":"Canada","matchId":200301},{"selectedTeam":"Croatia","opponentTeam":"Ghana","matchId":200302},{"selectedTeam":"Croatia","opponentTeam":"Senegal","matchId":200303},{"selectedTeam":"Croatia","opponentTeam":"Tunisia","matchId":200304},{"selectedTeam":"Croatia","opponentTeam":"Morocco","matchId":200305},{"selectedTeam":"Croatia","opponentTeam":"Cameroon","matchId":200306},{"selectedTeam":"Croatia","opponentTeam":"USA","matchId":200307},{"selectedTeam":"Croatia","opponentTeam":"Wales","matchId":200308},{"selectedTeam":"Croatia","opponentTeam":"Australia","matchId":200309},{"selectedTeam":"Croatia","opponentTeam":"Costa Rica","matchId":200310},{"selectedTeam":"Switzerland","opponentTeam":"Germany","matchId":200311},{"selectedTeam":"Switzerland","opponentTeam":"Brazil","matchId":200312},{"selectedTeam":"Switzerland","opponentTeam":"France","matchId":200313},{"selectedTeam":"Switzerland","opponentTeam":"Belgium","matchId":200314},{"selectedTeam":"Switzerland","opponentTeam":"Spain","matchId":200315},{"selectedTeam":"Switzerland","opponentTeam":"England","matchId":200316},{"selectedTeam":"Switzerland","opponentTeam":"Argentina","matchId":200317},{"selectedTeam":"Switzerland","opponentTeam":"Netherlands","matchId":200318},{"selectedTeam":"Switzerland","opponentTeam":"Denmark","matchId":200319},{"selectedTeam":"Switzerland","opponentTeam":"Croatia","matchId":200320},{"selectedTeam":"Switzerland","opponentTeam":"Uruguay","matchId":200321},{"selectedTeam":"Switzerland","opponentTeam":"Portugal","matchId":200322},{"selectedTeam":"Switzerland","opponentTeam":"Poland","matchId":200323},{"selectedTeam":"Switzerland","opponentTeam":"Mexico","matchId":200324},{"selectedTeam":"Switzerland","opponentTeam":"Serbia","matchId":200325},{"selectedTeam":"Switzerland","opponentTeam":"Qatar","matchId":200326},{"selectedTeam":"Switzerland","opponentTeam":"Iran","matchId":200327},{"selectedTeam":"Switzerland","opponentTeam":"South Korea","matchId":200328},{"selectedTeam":"Switzerland","opponentTeam":"Japan","matchId":200329},{"selectedTeam":"Switzerland","opponentTeam":"Saudi Arabia","matchId":200330},{"selectedTeam":"Switzerland","opponentTeam":"Ecuador","matchId":200331},{"selectedTeam":"Switzerland","opponentTeam":"Canada","matchId":200332},{"selectedTeam":"Switzerland","opponentTeam":"Ghana","matchId":200333},{"selectedTeam":"Switzerland","opponentTeam":"Senegal","matchId":200334},{"selectedTeam":"Switzerland","opponentTeam":"Tunisia","matchId":200335},{"selectedTeam":"Switzerland","opponentTeam":"Morocco","matchId":200336},{"selectedTeam":"Switzerland","opponentTeam":"Cameroon","matchId":200337},{"selectedTeam":"Switzerland","opponentTeam":"USA","matchId":200338},{"selectedTeam":"Switzerland","opponentTeam":"Wales","matchId":200339},{"selectedTeam":"Switzerland","opponentTeam":"Australia","matchId":200340},{"selectedTeam":"Switzerland","opponentTeam":"Costa Rica","matchId":200341},{"selectedTeam":"Uruguay","opponentTeam":"Germany","matchId":200342},{"selectedTeam":"Uruguay","opponentTeam":"Brazil","matchId":200343},{"selectedTeam":"Uruguay","opponentTeam":"France","matchId":200344},{"selectedTeam":"Uruguay","opponentTeam":"Belgium","matchId":200345},{"selectedTeam":"Uruguay","opponentTeam":"Spain","matchId":200346},{"selectedTeam":"Uruguay","opponentTeam":"England","matchId":200347},{"selectedTeam":"Uruguay","opponentTeam":"Argentina","matchId":200348},{"selectedTeam":"Uruguay","opponentTeam":"Netherlands","matchId":200349},{"selectedTeam":"Uruguay","opponentTeam":"Denmark","matchId":200350},{"selectedTeam":"Uruguay","opponentTeam":"Croatia","matchId":200351},{"selectedTeam":"Uruguay","opponentTeam":"Switzerland","matchId":200352},{"selectedTeam":"Uruguay","opponentTeam":"Portugal","matchId":200353},{"selectedTeam":"Uruguay","opponentTeam":"Poland","matchId":200354},{"selectedTeam":"Uruguay","opponentTeam":"Mexico","matchId":200355},{"selectedTeam":"Uruguay","opponentTeam":"Serbia","matchId":200356},{"selectedTeam":"Uruguay","opponentTeam":"Qatar","matchId":200357},{"selectedTeam":"Uruguay","opponentTeam":"Iran","matchId":200358},{"selectedTeam":"Uruguay","opponentTeam":"South Korea","matchId":200359},{"selectedTeam":"Uruguay","opponentTeam":"Japan","matchId":200360},{"selectedTeam":"Uruguay","opponentTeam":"Saudi Arabia","matchId":200361},{"selectedTeam":"Uruguay","opponentTeam":"Ecuador","matchId":200362},{"selectedTeam":"Uruguay","opponentTeam":"Canada","matchId":200363},{"selectedTeam":"Uruguay","opponentTeam":"Ghana","matchId":200364},{"selectedTeam":"Uruguay","opponentTeam":"Senegal","matchId":200365},{"selectedTeam":"Uruguay","opponentTeam":"Tunisia","matchId":200366},{"selectedTeam":"Uruguay","opponentTeam":"Morocco","matchId":200367},{"selectedTeam":"Uruguay","opponentTeam":"Cameroon","matchId":200368},{"selectedTeam":"Uruguay","opponentTeam":"USA","matchId":200369},{"selectedTeam":"Uruguay","opponentTeam":"Wales","matchId":200370},{"selectedTeam":"Uruguay","opponentTeam":"Australia","matchId":200371},{"selectedTeam":"Uruguay","opponentTeam":"Costa Rica","matchId":200372},{"selectedTeam":"Portugal","opponentTeam":"Germany","matchId":200373},{"selectedTeam":"Portugal","opponentTeam":"Brazil","matchId":200374},{"selectedTeam":"Portugal","opponentTeam":"France","matchId":200375},{"selectedTeam":"Portugal","opponentTeam":"Belgium","matchId":200376},{"selectedTeam":"Portugal","opponentTeam":"Spain","matchId":200377},{"selectedTeam":"Portugal","opponentTeam":"England","matchId":200378},{"selectedTeam":"Portugal","opponentTeam":"Argentina","matchId":200379},{"selectedTeam":"Portugal","opponentTeam":"Netherlands","matchId":200380},{"selectedTeam":"Portugal","opponentTeam":"Denmark","matchId":200381},{"selectedTeam":"Portugal","opponentTeam":"Croatia","matchId":200382},{"selectedTeam":"Portugal","opponentTeam":"Switzerland","matchId":200383},{"selectedTeam":"Portugal","opponentTeam":"Uruguay","matchId":200384},{"selectedTeam":"Portugal","opponentTeam":"Poland","matchId":200385},{"selectedTeam":"Portugal","opponentTeam":"Mexico","matchId":200386},{"selectedTeam":"Portugal","opponentTeam":"Serbia","matchId":200387},{"selectedTeam":"Portugal","opponentTeam":"Qatar","matchId":200388},{"selectedTeam":"Portugal","opponentTeam":"Iran","matchId":200389},{"selectedTeam":"Portugal","opponentTeam":"South Korea","matchId":200390},{"selectedTeam":"Portugal","opponentTeam":"Japan","matchId":200391},{"selectedTeam":"Portugal","opponentTeam":"Saudi Arabia","matchId":200392},{"selectedTeam":"Portugal","opponentTeam":"Ecuador","matchId":200393},{"selectedTeam":"Portugal","opponentTeam":"Canada","matchId":200394},{"selectedTeam":"Portugal","opponentTeam":"Ghana","matchId":200395},{"selectedTeam":"Portugal","opponentTeam":"Senegal","matchId":200396},{"selectedTeam":"Portugal","opponentTeam":"Tunisia","matchId":200397},{"selectedTeam":"Portugal","opponentTeam":"Morocco","matchId":200398},{"selectedTeam":"Portugal","opponentTeam":"Cameroon","matchId":200399},{"selectedTeam":"Portugal","opponentTeam":"USA","matchId":200400},{"selectedTeam":"Portugal","opponentTeam":"Wales","matchId":200401},{"selectedTeam":"Portugal","opponentTeam":"Australia","matchId":200402},{"selectedTeam":"Portugal","opponentTeam":"Costa Rica","matchId":200403},{"selectedTeam":"Poland","opponentTeam":"Germany","matchId":200404},{"selectedTeam":"Poland","opponentTeam":"Brazil","matchId":200405},{"selectedTeam":"Poland","opponentTeam":"France","matchId":200406},{"selectedTeam":"Poland","opponentTeam":"Belgium","matchId":200407},{"selectedTeam":"Poland","opponentTeam":"Spain","matchId":200408},{"selectedTeam":"Poland","opponentTeam":"England","matchId":200409},{"selectedTeam":"Poland","opponentTeam":"Argentina","matchId":200410},{"selectedTeam":"Poland","opponentTeam":"Netherlands","matchId":200411},{"selectedTeam":"Poland","opponentTeam":"Denmark","matchId":200412},{"selectedTeam":"Poland","opponentTeam":"Croatia","matchId":200413},{"selectedTeam":"Poland","opponentTeam":"Switzerland","matchId":200414},{"selectedTeam":"Poland","opponentTeam":"Uruguay","matchId":200415},{"selectedTeam":"Poland","opponentTeam":"Portugal","matchId":200416},{"selectedTeam":"Poland","opponentTeam":"Mexico","matchId":200417},{"selectedTeam":"Poland","opponentTeam":"Serbia","matchId":200418},{"selectedTeam":"Poland","opponentTeam":"Qatar","matchId":200419},{"selectedTeam":"Poland","opponentTeam":"Iran","matchId":200420},{"selectedTeam":"Poland","opponentTeam":"South Korea","matchId":200421},{"selectedTeam":"Poland","opponentTeam":"Japan","matchId":200422},{"selectedTeam":"Poland","opponentTeam":"Saudi Arabia","matchId":200423},{"selectedTeam":"Poland","opponentTeam":"Ecuador","matchId":200424},{"selectedTeam":"Poland","opponentTeam":"Canada","matchId":200425},{"selectedTeam":"Poland","opponentTeam":"Ghana","matchId":200426},{"selectedTeam":"Poland","opponentTeam":"Senegal","matchId":200427},{"selectedTeam":"Poland","opponentTeam":"Tunisia","matchId":200428},{"selectedTeam":"Poland","opponentTeam":"Morocco","matchId":200429},{"selectedTeam":"Poland","opponentTeam":"Cameroon","matchId":200430},{"selectedTeam":"Poland","opponentTeam":"USA","matchId":200431},{"selectedTeam":"Poland","opponentTeam":"Wales","matchId":200432},{"selectedTeam":"Poland","opponentTeam":"Australia","matchId":200433},{"selectedTeam":"Poland","opponentTeam":"Costa Rica","matchId":200434},{"selectedTeam":"Mexico","opponentTeam":"Germany","matchId":200435},{"selectedTeam":"Mexico","opponentTeam":"Brazil","matchId":200436},{"selectedTeam":"Mexico","opponentTeam":"France","matchId":200437},{"selectedTeam":"Mexico","opponentTeam":"Belgium","matchId":200438},{"selectedTeam":"Mexico","opponentTeam":"Spain","matchId":200439},{"selectedTeam":"Mexico","opponentTeam":"England","matchId":200440},{"selectedTeam":"Mexico","opponentTeam":"Argentina","matchId":200441},{"selectedTeam":"Mexico","opponentTeam":"Netherlands","matchId":200442},{"selectedTeam":"Mexico","opponentTeam":"Denmark","matchId":200443},{"selectedTeam":"Mexico","opponentTeam":"Croatia","matchId":200444},{"selectedTeam":"Mexico","opponentTeam":"Switzerland","matchId":200445},{"selectedTeam":"Mexico","opponentTeam":"Uruguay","matchId":200446},{"selectedTeam":"Mexico","opponentTeam":"Portugal","matchId":200447},{"selectedTeam":"Mexico","opponentTeam":"Poland","matchId":200448},{"selectedTeam":"Mexico","opponentTeam":"Serbia","matchId":200449},{"selectedTeam":"Mexico","opponentTeam":"Qatar","matchId":200450},{"selectedTeam":"Mexico","opponentTeam":"Iran","matchId":200451},{"selectedTeam":"Mexico","opponentTeam":"South Korea","matchId":200452},{"selectedTeam":"Mexico","opponentTeam":"Japan","matchId":200453},{"selectedTeam":"Mexico","opponentTeam":"Saudi Arabia","matchId":200454},{"selectedTeam":"Mexico","opponentTeam":"Ecuador","matchId":200455},{"selectedTeam":"Mexico","opponentTeam":"Canada","matchId":200456},{"selectedTeam":"Mexico","opponentTeam":"Ghana","matchId":200457},{"selectedTeam":"Mexico","opponentTeam":"Senegal","matchId":200458},{"selectedTeam":"Mexico","opponentTeam":"Tunisia","matchId":200459},{"selectedTeam":"Mexico","opponentTeam":"Morocco","matchId":200460},{"selectedTeam":"Mexico","opponentTeam":"Cameroon","matchId":200461},{"selectedTeam":"Mexico","opponentTeam":"USA","matchId":200462},{"selectedTeam":"Mexico","opponentTeam":"Wales","matchId":200463},{"selectedTeam":"Mexico","opponentTeam":"Australia","matchId":200464},{"selectedTeam":"Mexico","opponentTeam":"Costa Rica","matchId":200465},{"selectedTeam":"Serbia","opponentTeam":"Germany","matchId":200466},{"selectedTeam":"Serbia","opponentTeam":"Brazil","matchId":200467},{"selectedTeam":"Serbia","opponentTeam":"France","matchId":200468},{"selectedTeam":"Serbia","opponentTeam":"Belgium","matchId":200469},{"selectedTeam":"Serbia","opponentTeam":"Spain","matchId":200470},{"selectedTeam":"Serbia","opponentTeam":"England","matchId":200471},{"selectedTeam":"Serbia","opponentTeam":"Argentina","matchId":200472},{"selectedTeam":"Serbia","opponentTeam":"Netherlands","matchId":200473},{"selectedTeam":"Serbia","opponentTeam":"Denmark","matchId":200474},{"selectedTeam":"Serbia","opponentTeam":"Croatia","matchId":200475},{"selectedTeam":"Serbia","opponentTeam":"Switzerland","matchId":200476},{"selectedTeam":"Serbia","opponentTeam":"Uruguay","matchId":200477},{"selectedTeam":"Serbia","opponentTeam":"Portugal","matchId":200478},{"selectedTeam":"Serbia","opponentTeam":"Poland","matchId":200479},{"selectedTeam":"Serbia","opponentTeam":"Mexico","matchId":200480},{"selectedTeam":"Serbia","opponentTeam":"Qatar","matchId":200481},{"selectedTeam":"Serbia","opponentTeam":"Iran","matchId":200482},{"selectedTeam":"Serbia","opponentTeam":"South Korea","matchId":200483},{"selectedTeam":"Serbia","opponentTeam":"Japan","matchId":200484},{"selectedTeam":"Serbia","opponentTeam":"Saudi Arabia","matchId":200485},{"selectedTeam":"Serbia","opponentTeam":"Ecuador","matchId":200486},{"selectedTeam":"Serbia","opponentTeam":"Canada","matchId":200487},{"selectedTeam":"Serbia","opponentTeam":"Ghana","matchId":200488},{"selectedTeam":"Serbia","opponentTeam":"Senegal","matchId":200489},{"selectedTeam":"Serbia","opponentTeam":"Tunisia","matchId":200490},{"selectedTeam":"Serbia","opponentTeam":"Morocco","matchId":200491},{"selectedTeam":"Serbia","opponentTeam":"Cameroon","matchId":200492},{"selectedTeam":"Serbia","opponentTeam":"USA","matchId":200493},{"selectedTeam":"Serbia","opponentTeam":"Wales","matchId":200494},{"selectedTeam":"Serbia","opponentTeam":"Australia","matchId":200495},{"selectedTeam":"Serbia","opponentTeam":"Costa Rica","matchId":200496},{"selectedTeam":"Qatar","opponentTeam":"Germany","matchId":200497},{"selectedTeam":"Qatar","opponentTeam":"Brazil","matchId":200498},{"selectedTeam":"Qatar","opponentTeam":"France","matchId":200499},{"selectedTeam":"Qatar","opponentTeam":"Belgium","matchId":200500},{"selectedTeam":"Qatar","opponentTeam":"Spain","matchId":200501},{"selectedTeam":"Qatar","opponentTeam":"England","matchId":200502},{"selectedTeam":"Qatar","opponentTeam":"Argentina","matchId":200503},{"selectedTeam":"Qatar","opponentTeam":"Netherlands","matchId":200504},{"selectedTeam":"Qatar","opponentTeam":"Denmark","matchId":200505},{"selectedTeam":"Qatar","opponentTeam":"Croatia","matchId":200506},{"selectedTeam":"Qatar","opponentTeam":"Switzerland","matchId":200507},{"selectedTeam":"Qatar","opponentTeam":"Uruguay","matchId":200508},{"selectedTeam":"Qatar","opponentTeam":"Portugal","matchId":200509},{"selectedTeam":"Qatar","opponentTeam":"Poland","matchId":200510},{"selectedTeam":"Qatar","opponentTeam":"Mexico","matchId":200511},{"selectedTeam":"Qatar","opponentTeam":"Serbia","matchId":200512},{"selectedTeam":"Qatar","opponentTeam":"Iran","matchId":200513},{"selectedTeam":"Qatar","opponentTeam":"South Korea","matchId":200514},{"selectedTeam":"Qatar","opponentTeam":"Japan","matchId":200515},{"selectedTeam":"Qatar","opponentTeam":"Saudi Arabia","matchId":200516},{"selectedTeam":"Qatar","opponentTeam":"Ecuador","matchId":200517},{"selectedTeam":"Qatar","opponentTeam":"Canada","matchId":200518},{"selectedTeam":"Qatar","opponentTeam":"Ghana","matchId":200519},{"selectedTeam":"Qatar","opponentTeam":"Senegal","matchId":200520},{"selectedTeam":"Qatar","opponentTeam":"Tunisia","matchId":200521},{"selectedTeam":"Qatar","opponentTeam":"Morocco","matchId":200522},{"selectedTeam":"Qatar","opponentTeam":"Cameroon","matchId":200523},{"selectedTeam":"Qatar","opponentTeam":"USA","matchId":200524},{"selectedTeam":"Qatar","opponentTeam":"Wales","matchId":200525},{"selectedTeam":"Qatar","opponentTeam":"Australia","matchId":200526},{"selectedTeam":"Qatar","opponentTeam":"Costa Rica","matchId":200527},{"selectedTeam":"Iran","opponentTeam":"Germany","matchId":200528},{"selectedTeam":"Iran","opponentTeam":"Brazil","matchId":200529},{"selectedTeam":"Iran","opponentTeam":"France","matchId":200530},{"selectedTeam":"Iran","opponentTeam":"Belgium","matchId":200531},{"selectedTeam":"Iran","opponentTeam":"Spain","matchId":200532},{"selectedTeam":"Iran","opponentTeam":"England","matchId":200533},{"selectedTeam":"Iran","opponentTeam":"Argentina","matchId":200534},{"selectedTeam":"Iran","opponentTeam":"Netherlands","matchId":200535},{"selectedTeam":"Iran","opponentTeam":"Denmark","matchId":200536},{"selectedTeam":"Iran","opponentTeam":"Croatia","matchId":200537},{"selectedTeam":"Iran","opponentTeam":"Switzerland","matchId":200538},{"selectedTeam":"Iran","opponentTeam":"Uruguay","matchId":200539},{"selectedTeam":"Iran","opponentTeam":"Portugal","matchId":200540},{"selectedTeam":"Iran","opponentTeam":"Poland","matchId":200541},{"selectedTeam":"Iran","opponentTeam":"Mexico","matchId":200542},{"selectedTeam":"Iran","opponentTeam":"Serbia","matchId":200543},{"selectedTeam":"Iran","opponentTeam":"Qatar","matchId":200544},{"selectedTeam":"Iran","opponentTeam":"South Korea","matchId":200545},{"selectedTeam":"Iran","opponentTeam":"Japan","matchId":200546},{"selectedTeam":"Iran","opponentTeam":"Saudi Arabia","matchId":200547},{"selectedTeam":"Iran","opponentTeam":"Ecuador","matchId":200548},{"selectedTeam":"Iran","opponentTeam":"Canada","matchId":200549},{"selectedTeam":"Iran","opponentTeam":"Ghana","matchId":200550},{"selectedTeam":"Iran","opponentTeam":"Senegal","matchId":200551},{"selectedTeam":"Iran","opponentTeam":"Tunisia","matchId":200552},{"selectedTeam":"Iran","opponentTeam":"Morocco","matchId":200553},{"selectedTeam":"Iran","opponentTeam":"Cameroon","matchId":200554},{"selectedTeam":"Iran","opponentTeam":"USA","matchId":200555},{"selectedTeam":"Iran","opponentTeam":"Wales","matchId":200556},{"selectedTeam":"Iran","opponentTeam":"Australia","matchId":200557},{"selectedTeam":"Iran","opponentTeam":"Costa Rica","matchId":200558},{"selectedTeam":"South Korea","opponentTeam":"Germany","matchId":200559},{"selectedTeam":"South Korea","opponentTeam":"Brazil","matchId":200560},{"selectedTeam":"South Korea","opponentTeam":"France","matchId":200561},{"selectedTeam":"South Korea","opponentTeam":"Belgium","matchId":200562},{"selectedTeam":"South Korea","opponentTeam":"Spain","matchId":200563},{"selectedTeam":"South Korea","opponentTeam":"England","matchId":200564},{"selectedTeam":"South Korea","opponentTeam":"Argentina","matchId":200565},{"selectedTeam":"South Korea","opponentTeam":"Netherlands","matchId":200566},{"selectedTeam":"South Korea","opponentTeam":"Denmark","matchId":200567},{"selectedTeam":"South Korea","opponentTeam":"Croatia","matchId":200568},{"selectedTeam":"South Korea","opponentTeam":"Switzerland","matchId":200569},{"selectedTeam":"South Korea","opponentTeam":"Uruguay","matchId":200570},{"selectedTeam":"South Korea","opponentTeam":"Portugal","matchId":200571},{"selectedTeam":"South Korea","opponentTeam":"Poland","matchId":200572},{"selectedTeam":"South Korea","opponentTeam":"Mexico","matchId":200573},{"selectedTeam":"South Korea","opponentTeam":"Serbia","matchId":200574},{"selectedTeam":"South Korea","opponentTeam":"Qatar","matchId":200575},{"selectedTeam":"South Korea","opponentTeam":"Iran","matchId":200576},{"selectedTeam":"South Korea","opponentTeam":"Japan","matchId":200577},{"selectedTeam":"South Korea","opponentTeam":"Saudi Arabia","matchId":200578},{"selectedTeam":"South Korea","opponentTeam":"Ecuador","matchId":200579},{"selectedTeam":"South Korea","opponentTeam":"Canada","matchId":200580},{"selectedTeam":"South Korea","opponentTeam":"Ghana","matchId":200581},{"selectedTeam":"South Korea","opponentTeam":"Senegal","matchId":200582},{"selectedTeam":"South Korea","opponentTeam":"Tunisia","matchId":200583},{"selectedTeam":"South Korea","opponentTeam":"Morocco","matchId":200584},{"selectedTeam":"South Korea","opponentTeam":"Cameroon","matchId":200585},{"selectedTeam":"South Korea","opponentTeam":"USA","matchId":200586},{"selectedTeam":"South Korea","opponentTeam":"Wales","matchId":200587},{"selectedTeam":"South Korea","opponentTeam":"Australia","matchId":200588},{"selectedTeam":"South Korea","opponentTeam":"Costa Rica","matchId":200589},{"selectedTeam":"Japan","opponentTeam":"Germany","matchId":200590},{"selectedTeam":"Japan","opponentTeam":"Brazil","matchId":200591},{"selectedTeam":"Japan","opponentTeam":"France","matchId":200592},{"selectedTeam":"Japan","opponentTeam":"Belgium","matchId":200593},{"selectedTeam":"Japan","opponentTeam":"Spain","matchId":200594},{"selectedTeam":"Japan","opponentTeam":"England","matchId":200595},{"selectedTeam":"Japan","opponentTeam":"Argentina","matchId":200596},{"selectedTeam":"Japan","opponentTeam":"Netherlands","matchId":200597},{"selectedTeam":"Japan","opponentTeam":"Denmark","matchId":200598},{"selectedTeam":"Japan","opponentTeam":"Croatia","matchId":200599},{"selectedTeam":"Japan","opponentTeam":"Switzerland","matchId":200600},{"selectedTeam":"Japan","opponentTeam":"Uruguay","matchId":200601},{"selectedTeam":"Japan","opponentTeam":"Portugal","matchId":200602},{"selectedTeam":"Japan","opponentTeam":"Poland","matchId":200603},{"selectedTeam":"Japan","opponentTeam":"Mexico","matchId":200604},{"selectedTeam":"Japan","opponentTeam":"Serbia","matchId":200605},{"selectedTeam":"Japan","opponentTeam":"Qatar","matchId":200606},{"selectedTeam":"Japan","opponentTeam":"Iran","matchId":200607},{"selectedTeam":"Japan","opponentTeam":"South Korea","matchId":200608},{"selectedTeam":"Japan","opponentTeam":"Saudi Arabia","matchId":200609},{"selectedTeam":"Japan","opponentTeam":"Ecuador","matchId":200610},{"selectedTeam":"Japan","opponentTeam":"Canada","matchId":200611},{"selectedTeam":"Japan","opponentTeam":"Ghana","matchId":200612},{"selectedTeam":"Japan","opponentTeam":"Senegal","matchId":200613},{"selectedTeam":"Japan","opponentTeam":"Tunisia","matchId":200614},{"selectedTeam":"Japan","opponentTeam":"Morocco","matchId":200615},{"selectedTeam":"Japan","opponentTeam":"Cameroon","matchId":200616},{"selectedTeam":"Japan","opponentTeam":"USA","matchId":200617},{"selectedTeam":"Japan","opponentTeam":"Wales","matchId":200618},{"selectedTeam":"Japan","opponentTeam":"Australia","matchId":200619},{"selectedTeam":"Japan","opponentTeam":"Costa Rica","matchId":200620},{"selectedTeam":"Saudi Arabia","opponentTeam":"Germany","matchId":200621},{"selectedTeam":"Saudi Arabia","opponentTeam":"Brazil","matchId":200622},{"selectedTeam":"Saudi Arabia","opponentTeam":"France","matchId":200623},{"selectedTeam":"Saudi Arabia","opponentTeam":"Belgium","matchId":200624},{"selectedTeam":"Saudi Arabia","opponentTeam":"Spain","matchId":200625},{"selectedTeam":"Saudi Arabia","opponentTeam":"England","matchId":200626},{"selectedTeam":"Saudi Arabia","opponentTeam":"Argentina","matchId":200627},{"selectedTeam":"Saudi Arabia","opponentTeam":"Netherlands","matchId":200628},{"selectedTeam":"Saudi Arabia","opponentTeam":"Denmark","matchId":200629},{"selectedTeam":"Saudi Arabia","opponentTeam":"Croatia","matchId":200630},{"selectedTeam":"Saudi Arabia","opponentTeam":"Switzerland","matchId":200631},{"selectedTeam":"Saudi Arabia","opponentTeam":"Uruguay","matchId":200632},{"selectedTeam":"Saudi Arabia","opponentTeam":"Portugal","matchId":200633},{"selectedTeam":"Saudi Arabia","opponentTeam":"Poland","matchId":200634},{"selectedTeam":"Saudi Arabia","opponentTeam":"Mexico","matchId":200635},{"selectedTeam":"Saudi Arabia","opponentTeam":"Serbia","matchId":200636},{"selectedTeam":"Saudi Arabia","opponentTeam":"Qatar","matchId":200637},{"selectedTeam":"Saudi Arabia","opponentTeam":"Iran","matchId":200638},{"selectedTeam":"Saudi Arabia","opponentTeam":"South Korea","matchId":200639},{"selectedTeam":"Saudi Arabia","opponentTeam":"Japan","matchId":200640},{"selectedTeam":"Saudi Arabia","opponentTeam":"Ecuador","matchId":200641},{"selectedTeam":"Saudi Arabia","opponentTeam":"Canada","matchId":200642},{"selectedTeam":"Saudi Arabia","opponentTeam":"Ghana","matchId":200643},{"selectedTeam":"Saudi Arabia","opponentTeam":"Senegal","matchId":200644},{"selectedTeam":"Saudi Arabia","opponentTeam":"Tunisia","matchId":200645},{"selectedTeam":"Saudi Arabia","opponentTeam":"Morocco","matchId":200646},{"selectedTeam":"Saudi Arabia","opponentTeam":"Cameroon","matchId":200647},{"selectedTeam":"Saudi Arabia","opponentTeam":"USA","matchId":200648},{"selectedTeam":"Saudi Arabia","opponentTeam":"Wales","matchId":200649},{"selectedTeam":"Saudi Arabia","opponentTeam":"Australia","matchId":200650},{"selectedTeam":"Saudi Arabia","opponentTeam":"Costa Rica","matchId":200651},{"selectedTeam":"Ecuador","opponentTeam":"Germany","matchId":200652},{"selectedTeam":"Ecuador","opponentTeam":"Brazil","matchId":200653},{"selectedTeam":"Ecuador","opponentTeam":"France","matchId":200654},{"selectedTeam":"Ecuador","opponentTeam":"Belgium","matchId":200655},{"selectedTeam":"Ecuador","opponentTeam":"Spain","matchId":200656},{"selectedTeam":"Ecuador","opponentTeam":"England","matchId":200657},{"selectedTeam":"Ecuador","opponentTeam":"Argentina","matchId":200658},{"selectedTeam":"Ecuador","opponentTeam":"Netherlands","matchId":200659},{"selectedTeam":"Ecuador","opponentTeam":"Denmark","matchId":200660},{"selectedTeam":"Ecuador","opponentTeam":"Croatia","matchId":200661},{"selectedTeam":"Ecuador","opponentTeam":"Switzerland","matchId":200662},{"selectedTeam":"Ecuador","opponentTeam":"Uruguay","matchId":200663},{"selectedTeam":"Ecuador","opponentTeam":"Portugal","matchId":200664},{"selectedTeam":"Ecuador","opponentTeam":"Poland","matchId":200665},{"selectedTeam":"Ecuador","opponentTeam":"Mexico","matchId":200666},{"selectedTeam":"Ecuador","opponentTeam":"Serbia","matchId":200667},{"selectedTeam":"Ecuador","opponentTeam":"Qatar","matchId":200668},{"selectedTeam":"Ecuador","opponentTeam":"Iran","matchId":200669},{"selectedTeam":"Ecuador","opponentTeam":"South Korea","matchId":200670},{"selectedTeam":"Ecuador","opponentTeam":"Japan","matchId":200671},{"selectedTeam":"Ecuador","opponentTeam":"Saudi Arabia","matchId":200672},{"selectedTeam":"Ecuador","opponentTeam":"Canada","matchId":200673},{"selectedTeam":"Ecuador","opponentTeam":"Ghana","matchId":200674},{"selectedTeam":"Ecuador","opponentTeam":"Senegal","matchId":200675},{"selectedTeam":"Ecuador","opponentTeam":"Tunisia","matchId":200676},{"selectedTeam":"Ecuador","opponentTeam":"Morocco","matchId":200677},{"selectedTeam":"Ecuador","opponentTeam":"Cameroon","matchId":200678},{"selectedTeam":"Ecuador","opponentTeam":"USA","matchId":200679},{"selectedTeam":"Ecuador","opponentTeam":"Wales","matchId":200680},{"selectedTeam":"Ecuador","opponentTeam":"Australia","matchId":200681},{"selectedTeam":"Ecuador","opponentTeam":"Costa Rica","matchId":200682},{"selectedTeam":"Canada","opponentTeam":"Germany","matchId":200683},{"selectedTeam":"Canada","opponentTeam":"Brazil","matchId":200684},{"selectedTeam":"Canada","opponentTeam":"France","matchId":200685},{"selectedTeam":"Canada","opponentTeam":"Belgium","matchId":200686},{"selectedTeam":"Canada","opponentTeam":"Spain","matchId":200687},{"selectedTeam":"Canada","opponentTeam":"England","matchId":200688},{"selectedTeam":"Canada","opponentTeam":"Argentina","matchId":200689},{"selectedTeam":"Canada","opponentTeam":"Netherlands","matchId":200690},{"selectedTeam":"Canada","opponentTeam":"Denmark","matchId":200691},{"selectedTeam":"Canada","opponentTeam":"Croatia","matchId":200692},{"selectedTeam":"Canada","opponentTeam":"Switzerland","matchId":200693},{"selectedTeam":"Canada","opponentTeam":"Uruguay","matchId":200694},{"selectedTeam":"Canada","opponentTeam":"Portugal","matchId":200695},{"selectedTeam":"Canada","opponentTeam":"Poland","matchId":200696},{"selectedTeam":"Canada","opponentTeam":"Mexico","matchId":200697},{"selectedTeam":"Canada","opponentTeam":"Serbia","matchId":200698},{"selectedTeam":"Canada","opponentTeam":"Qatar","matchId":200699},{"selectedTeam":"Canada","opponentTeam":"Iran","matchId":200700},{"selectedTeam":"Canada","opponentTeam":"South Korea","matchId":200701},{"selectedTeam":"Canada","opponentTeam":"Japan","matchId":200702},{"selectedTeam":"Canada","opponentTeam":"Saudi Arabia","matchId":200703},{"selectedTeam":"Canada","opponentTeam":"Ecuador","matchId":200704},{"selectedTeam":"Canada","opponentTeam":"Ghana","matchId":200705},{"selectedTeam":"Canada","opponentTeam":"Senegal","matchId":200706},{"selectedTeam":"Canada","opponentTeam":"Tunisia","matchId":200707},{"selectedTeam":"Canada","opponentTeam":"Morocco","matchId":200708},{"selectedTeam":"Canada","opponentTeam":"Cameroon","matchId":200709},{"selectedTeam":"Canada","opponentTeam":"USA","matchId":200710},{"selectedTeam":"Canada","opponentTeam":"Wales","matchId":200711},{"selectedTeam":"Canada","opponentTeam":"Australia","matchId":200712},{"selectedTeam":"Canada","opponentTeam":"Costa Rica","matchId":200713},{"selectedTeam":"Ghana","opponentTeam":"Germany","matchId":200714},{"selectedTeam":"Ghana","opponentTeam":"Brazil","matchId":200715},{"selectedTeam":"Ghana","opponentTeam":"France","matchId":200716},{"selectedTeam":"Ghana","opponentTeam":"Belgium","matchId":200717},{"selectedTeam":"Ghana","opponentTeam":"Spain","matchId":200718},{"selectedTeam":"Ghana","opponentTeam":"England","matchId":200719},{"selectedTeam":"Ghana","opponentTeam":"Argentina","matchId":200720},{"selectedTeam":"Ghana","opponentTeam":"Netherlands","matchId":200721},{"selectedTeam":"Ghana","opponentTeam":"Denmark","matchId":200722},{"selectedTeam":"Ghana","opponentTeam":"Croatia","matchId":200723},{"selectedTeam":"Ghana","opponentTeam":"Switzerland","matchId":200724},{"selectedTeam":"Ghana","opponentTeam":"Uruguay","matchId":200725},{"selectedTeam":"Ghana","opponentTeam":"Portugal","matchId":200726},{"selectedTeam":"Ghana","opponentTeam":"Poland","matchId":200727},{"selectedTeam":"Ghana","opponentTeam":"Mexico","matchId":200728},{"selectedTeam":"Ghana","opponentTeam":"Serbia","matchId":200729},{"selectedTeam":"Ghana","opponentTeam":"Qatar","matchId":200730},{"selectedTeam":"Ghana","opponentTeam":"Iran","matchId":200731},{"selectedTeam":"Ghana","opponentTeam":"South Korea","matchId":200732},{"selectedTeam":"Ghana","opponentTeam":"Japan","matchId":200733},{"selectedTeam":"Ghana","opponentTeam":"Saudi Arabia","matchId":200734},{"selectedTeam":"Ghana","opponentTeam":"Ecuador","matchId":200735},{"selectedTeam":"Ghana","opponentTeam":"Canada","matchId":200736},{"selectedTeam":"Ghana","opponentTeam":"Senegal","matchId":200737},{"selectedTeam":"Ghana","opponentTeam":"Tunisia","matchId":200738},{"selectedTeam":"Ghana","opponentTeam":"Morocco","matchId":200739},{"selectedTeam":"Ghana","opponentTeam":"Cameroon","matchId":200740},{"selectedTeam":"Ghana","opponentTeam":"USA","matchId":200741},{"selectedTeam":"Ghana","opponentTeam":"Wales","matchId":200742},{"selectedTeam":"Ghana","opponentTeam":"Australia","matchId":200743},{"selectedTeam":"Ghana","opponentTeam":"Costa Rica","matchId":200744},{"selectedTeam":"Senegal","opponentTeam":"Germany","matchId":200745},{"selectedTeam":"Senegal","opponentTeam":"Brazil","matchId":200746},{"selectedTeam":"Senegal","opponentTeam":"France","matchId":200747},{"selectedTeam":"Senegal","opponentTeam":"Belgium","matchId":200748},{"selectedTeam":"Senegal","opponentTeam":"Spain","matchId":200749},{"selectedTeam":"Senegal","opponentTeam":"England","matchId":200750},{"selectedTeam":"Senegal","opponentTeam":"Argentina","matchId":200751},{"selectedTeam":"Senegal","opponentTeam":"Netherlands","matchId":200752},{"selectedTeam":"Senegal","opponentTeam":"Denmark","matchId":200753},{"selectedTeam":"Senegal","opponentTeam":"Croatia","matchId":200754},{"selectedTeam":"Senegal","opponentTeam":"Switzerland","matchId":200755},{"selectedTeam":"Senegal","opponentTeam":"Uruguay","matchId":200756},{"selectedTeam":"Senegal","opponentTeam":"Portugal","matchId":200757},{"selectedTeam":"Senegal","opponentTeam":"Poland","matchId":200758},{"selectedTeam":"Senegal","opponentTeam":"Mexico","matchId":200759},{"selectedTeam":"Senegal","opponentTeam":"Serbia","matchId":200760},{"selectedTeam":"Senegal","opponentTeam":"Qatar","matchId":200761},{"selectedTeam":"Senegal","opponentTeam":"Iran","matchId":200762},{"selectedTeam":"Senegal","opponentTeam":"South Korea","matchId":200763},{"selectedTeam":"Senegal","opponentTeam":"Japan","matchId":200764},{"selectedTeam":"Senegal","opponentTeam":"Saudi Arabia","matchId":200765},{"selectedTeam":"Senegal","opponentTeam":"Ecuador","matchId":200766},{"selectedTeam":"Senegal","opponentTeam":"Canada","matchId":200767},{"selectedTeam":"Senegal","opponentTeam":"Ghana","matchId":200768},{"selectedTeam":"Senegal","opponentTeam":"Tunisia","matchId":200769},{"selectedTeam":"Senegal","opponentTeam":"Morocco","matchId":200770},{"selectedTeam":"Senegal","opponentTeam":"Cameroon","matchId":200771},{"selectedTeam":"Senegal","opponentTeam":"USA","matchId":200772},{"selectedTeam":"Senegal","opponentTeam":"Wales","matchId":200773},{"selectedTeam":"Senegal","opponentTeam":"Australia","matchId":200774},{"selectedTeam":"Senegal","opponentTeam":"Costa Rica","matchId":200775},{"selectedTeam":"Tunisia","opponentTeam":"Germany","matchId":200776},{"selectedTeam":"Tunisia","opponentTeam":"Brazil","matchId":200777},{"selectedTeam":"Tunisia","opponentTeam":"France","matchId":200778},{"selectedTeam":"Tunisia","opponentTeam":"Belgium","matchId":200779},{"selectedTeam":"Tunisia","opponentTeam":"Spain","matchId":200780},{"selectedTeam":"Tunisia","opponentTeam":"England","matchId":200781},{"selectedTeam":"Tunisia","opponentTeam":"Argentina","matchId":200782},{"selectedTeam":"Tunisia","opponentTeam":"Netherlands","matchId":200783},{"selectedTeam":"Tunisia","opponentTeam":"Denmark","matchId":200784},{"selectedTeam":"Tunisia","opponentTeam":"Croatia","matchId":200785},{"selectedTeam":"Tunisia","opponentTeam":"Switzerland","matchId":200786},{"selectedTeam":"Tunisia","opponentTeam":"Uruguay","matchId":200787},{"selectedTeam":"Tunisia","opponentTeam":"Portugal","matchId":200788},{"selectedTeam":"Tunisia","opponentTeam":"Poland","matchId":200789},{"selectedTeam":"Tunisia","opponentTeam":"Mexico","matchId":200790},{"selectedTeam":"Tunisia","opponentTeam":"Serbia","matchId":200791},{"selectedTeam":"Tunisia","opponentTeam":"Qatar","matchId":200792},{"selectedTeam":"Tunisia","opponentTeam":"Iran","matchId":200793},{"selectedTeam":"Tunisia","opponentTeam":"South Korea","matchId":200794},{"selectedTeam":"Tunisia","opponentTeam":"Japan","matchId":200795},{"selectedTeam":"Tunisia","opponentTeam":"Saudi Arabia","matchId":200796},{"selectedTeam":"Tunisia","opponentTeam":"Ecuador","matchId":200797},{"selectedTeam":"Tunisia","opponentTeam":"Canada","matchId":200798},{"selectedTeam":"Tunisia","opponentTeam":"Ghana","matchId":200799},{"selectedTeam":"Tunisia","opponentTeam":"Senegal","matchId":200800},{"selectedTeam":"Tunisia","opponentTeam":"Morocco","matchId":200801},{"selectedTeam":"Tunisia","opponentTeam":"Cameroon","matchId":200802},{"selectedTeam":"Tunisia","opponentTeam":"USA","matchId":200803},{"selectedTeam":"Tunisia","opponentTeam":"Wales","matchId":200804},{"selectedTeam":"Tunisia","opponentTeam":"Australia","matchId":200805},{"selectedTeam":"Tunisia","opponentTeam":"Costa Rica","matchId":200806},{"selectedTeam":"Morocco","opponentTeam":"Germany","matchId":200807},{"selectedTeam":"Morocco","opponentTeam":"Brazil","matchId":200808},{"selectedTeam":"Morocco","opponentTeam":"France","matchId":200809},{"selectedTeam":"Morocco","opponentTeam":"Belgium","matchId":200810},{"selectedTeam":"Morocco","opponentTeam":"Spain","matchId":200811},{"selectedTeam":"Morocco","opponentTeam":"England","matchId":200812},{"selectedTeam":"Morocco","opponentTeam":"Argentina","matchId":200813},{"selectedTeam":"Morocco","opponentTeam":"Netherlands","matchId":200814},{"selectedTeam":"Morocco","opponentTeam":"Denmark","matchId":200815},{"selectedTeam":"Morocco","opponentTeam":"Croatia","matchId":200816},{"selectedTeam":"Morocco","opponentTeam":"Switzerland","matchId":200817},{"selectedTeam":"Morocco","opponentTeam":"Uruguay","matchId":200818},{"selectedTeam":"Morocco","opponentTeam":"Portugal","matchId":200819},{"selectedTeam":"Morocco","opponentTeam":"Poland","matchId":200820},{"selectedTeam":"Morocco","opponentTeam":"Mexico","matchId":200821},{"selectedTeam":"Morocco","opponentTeam":"Serbia","matchId":200822},{"selectedTeam":"Morocco","opponentTeam":"Qatar","matchId":200823},{"selectedTeam":"Morocco","opponentTeam":"Iran","matchId":200824},{"selectedTeam":"Morocco","opponentTeam":"South Korea","matchId":200825},{"selectedTeam":"Morocco","opponentTeam":"Japan","matchId":200826},{"selectedTeam":"Morocco","opponentTeam":"Saudi Arabia","matchId":200827},{"selectedTeam":"Morocco","opponentTeam":"Ecuador","matchId":200828},{"selectedTeam":"Morocco","opponentTeam":"Canada","matchId":200829},{"selectedTeam":"Morocco","opponentTeam":"Ghana","matchId":200830},{"selectedTeam":"Morocco","opponentTeam":"Senegal","matchId":200831},{"selectedTeam":"Morocco","opponentTeam":"Tunisia","matchId":200832},{"selectedTeam":"Morocco","opponentTeam":"Cameroon","matchId":200833},{"selectedTeam":"Morocco","opponentTeam":"USA","matchId":200834},{"selectedTeam":"Morocco","opponentTeam":"Wales","matchId":200835},{"selectedTeam":"Morocco","opponentTeam":"Australia","matchId":200836},{"selectedTeam":"Morocco","opponentTeam":"Costa Rica","matchId":200837},{"selectedTeam":"Cameroon","opponentTeam":"Germany","matchId":200838},{"selectedTeam":"Cameroon","opponentTeam":"Brazil","matchId":200839},{"selectedTeam":"Cameroon","opponentTeam":"France","matchId":200840},{"selectedTeam":"Cameroon","opponentTeam":"Belgium","matchId":200841},{"selectedTeam":"Cameroon","opponentTeam":"Spain","matchId":200842},{"selectedTeam":"Cameroon","opponentTeam":"England","matchId":200843},{"selectedTeam":"Cameroon","opponentTeam":"Argentina","matchId":200844},{"selectedTeam":"Cameroon","opponentTeam":"Netherlands","matchId":200845},{"selectedTeam":"Cameroon","opponentTeam":"Denmark","matchId":200846},{"selectedTeam":"Cameroon","opponentTeam":"Croatia","matchId":200847},{"selectedTeam":"Cameroon","opponentTeam":"Switzerland","matchId":200848},{"selectedTeam":"Cameroon","opponentTeam":"Uruguay","matchId":200849},{"selectedTeam":"Cameroon","opponentTeam":"Portugal","matchId":200850},{"selectedTeam":"Cameroon","opponentTeam":"Poland","matchId":200851},{"selectedTeam":"Cameroon","opponentTeam":"Mexico","matchId":200852},{"selectedTeam":"Cameroon","opponentTeam":"Serbia","matchId":200853},{"selectedTeam":"Cameroon","opponentTeam":"Qatar","matchId":200854},{"selectedTeam":"Cameroon","opponentTeam":"Iran","matchId":200855},{"selectedTeam":"Cameroon","opponentTeam":"South Korea","matchId":200856},{"selectedTeam":"Cameroon","opponentTeam":"Japan","matchId":200857},{"selectedTeam":"Cameroon","opponentTeam":"Saudi Arabia","matchId":200858},{"selectedTeam":"Cameroon","opponentTeam":"Ecuador","matchId":200859},{"selectedTeam":"Cameroon","opponentTeam":"Canada","matchId":200860},{"selectedTeam":"Cameroon","opponentTeam":"Ghana","matchId":200861},{"selectedTeam":"Cameroon","opponentTeam":"Senegal","matchId":200862},{"selectedTeam":"Cameroon","opponentTeam":"Tunisia","matchId":200863},{"selectedTeam":"Cameroon","opponentTeam":"Morocco","matchId":200864},{"selectedTeam":"Cameroon","opponentTeam":"USA","matchId":200865},{"selectedTeam":"Cameroon","opponentTeam":"Wales","matchId":200866},{"selectedTeam":"Cameroon","opponentTeam":"Australia","matchId":200867},{"selectedTeam":"Cameroon","opponentTeam":"Costa Rica","matchId":200868},{"selectedTeam":"USA","opponentTeam":"Germany","matchId":200869},{"selectedTeam":"USA","opponentTeam":"Brazil","matchId":200870},{"selectedTeam":"USA","opponentTeam":"France","matchId":200871},{"selectedTeam":"USA","opponentTeam":"Belgium","matchId":200872},{"selectedTeam":"USA","opponentTeam":"Spain","matchId":200873},{"selectedTeam":"USA","opponentTeam":"England","matchId":200874},{"selectedTeam":"USA","opponentTeam":"Argentina","matchId":200875},{"selectedTeam":"USA","opponentTeam":"Netherlands","matchId":200876},{"selectedTeam":"USA","opponentTeam":"Denmark","matchId":200877},{"selectedTeam":"USA","opponentTeam":"Croatia","matchId":200878},{"selectedTeam":"USA","opponentTeam":"Switzerland","matchId":200879},{"selectedTeam":"USA","opponentTeam":"Uruguay","matchId":200880},{"selectedTeam":"USA","opponentTeam":"Portugal","matchId":200881},{"selectedTeam":"USA","opponentTeam":"Poland","matchId":200882},{"selectedTeam":"USA","opponentTeam":"Mexico","matchId":200883},{"selectedTeam":"USA","opponentTeam":"Serbia","matchId":200884},{"selectedTeam":"USA","opponentTeam":"Qatar","matchId":200885},{"selectedTeam":"USA","opponentTeam":"Iran","matchId":200886},{"selectedTeam":"USA","opponentTeam":"South Korea","matchId":200887},{"selectedTeam":"USA","opponentTeam":"Japan","matchId":200888},{"selectedTeam":"USA","opponentTeam":"Saudi Arabia","matchId":200889},{"selectedTeam":"USA","opponentTeam":"Ecuador","matchId":200890},{"selectedTeam":"USA","opponentTeam":"Canada","matchId":200891},{"selectedTeam":"USA","opponentTeam":"Ghana","matchId":200892},{"selectedTeam":"USA","opponentTeam":"Senegal","matchId":200893},{"selectedTeam":"USA","opponentTeam":"Tunisia","matchId":200894},{"selectedTeam":"USA","opponentTeam":"Morocco","matchId":200895},{"selectedTeam":"USA","opponentTeam":"Cameroon","matchId":200896},{"selectedTeam":"USA","opponentTeam":"Wales","matchId":200897},{"selectedTeam":"USA","opponentTeam":"Australia","matchId":200898},{"selectedTeam":"USA","opponentTeam":"Costa Rica","matchId":200899},{"selectedTeam":"Wales","opponentTeam":"Germany","matchId":200900},{"selectedTeam":"Wales","opponentTeam":"Brazil","matchId":200901},{"selectedTeam":"Wales","opponentTeam":"France","matchId":200902},{"selectedTeam":"Wales","opponentTeam":"Belgium","matchId":200903},{"selectedTeam":"Wales","opponentTeam":"Spain","matchId":200904},{"selectedTeam":"Wales","opponentTeam":"England","matchId":200905},{"selectedTeam":"Wales","opponentTeam":"Argentina","matchId":200906},{"selectedTeam":"Wales","opponentTeam":"Netherlands","matchId":200907},{"selectedTeam":"Wales","opponentTeam":"Denmark","matchId":200908},{"selectedTeam":"Wales","opponentTeam":"Croatia","matchId":200909},{"selectedTeam":"Wales","opponentTeam":"Switzerland","matchId":200910},{"selectedTeam":"Wales","opponentTeam":"Uruguay","matchId":200911},{"selectedTeam":"Wales","opponentTeam":"Portugal","matchId":200912},{"selectedTeam":"Wales","opponentTeam":"Poland","matchId":200913},{"selectedTeam":"Wales","opponentTeam":"Mexico","matchId":200914},{"selectedTeam":"Wales","opponentTeam":"Serbia","matchId":200915},{"selectedTeam":"Wales","opponentTeam":"Qatar","matchId":200916},{"selectedTeam":"Wales","opponentTeam":"Iran","matchId":200917},{"selectedTeam":"Wales","opponentTeam":"South Korea","matchId":200918},{"selectedTeam":"Wales","opponentTeam":"Japan","matchId":200919},{"selectedTeam":"Wales","opponentTeam":"Saudi Arabia","matchId":200920},{"selectedTeam":"Wales","opponentTeam":"Ecuador","matchId":200921},{"selectedTeam":"Wales","opponentTeam":"Canada","matchId":200922},{"selectedTeam":"Wales","opponentTeam":"Ghana","matchId":200923},{"selectedTeam":"Wales","opponentTeam":"Senegal","matchId":200924},{"selectedTeam":"Wales","opponentTeam":"Tunisia","matchId":200925},{"selectedTeam":"Wales","opponentTeam":"Morocco","matchId":200926},{"selectedTeam":"Wales","opponentTeam":"Cameroon","matchId":200927},{"selectedTeam":"Wales","opponentTeam":"USA","matchId":200928},{"selectedTeam":"Wales","opponentTeam":"Australia","matchId":200929},{"selectedTeam":"Wales","opponentTeam":"Costa Rica","matchId":200930},{"selectedTeam":"Australia","opponentTeam":"Germany","matchId":200931},{"selectedTeam":"Australia","opponentTeam":"Brazil","matchId":200932},{"selectedTeam":"Australia","opponentTeam":"France","matchId":200933},{"selectedTeam":"Australia","opponentTeam":"Belgium","matchId":200934},{"selectedTeam":"Australia","opponentTeam":"Spain","matchId":200935},{"selectedTeam":"Australia","opponentTeam":"England","matchId":200936},{"selectedTeam":"Australia","opponentTeam":"Argentina","matchId":200937},{"selectedTeam":"Australia","opponentTeam":"Netherlands","matchId":200938},{"selectedTeam":"Australia","opponentTeam":"Denmark","matchId":200939},{"selectedTeam":"Australia","opponentTeam":"Croatia","matchId":200940},{"selectedTeam":"Australia","opponentTeam":"Switzerland","matchId":200941},{"selectedTeam":"Australia","opponentTeam":"Uruguay","matchId":200942},{"selectedTeam":"Australia","opponentTeam":"Portugal","matchId":200943},{"selectedTeam":"Australia","opponentTeam":"Poland","matchId":200944},{"selectedTeam":"Australia","opponentTeam":"Mexico","matchId":200945},{"selectedTeam":"Australia","opponentTeam":"Serbia","matchId":200946},{"selectedTeam":"Australia","opponentTeam":"Qatar","matchId":200947},{"selectedTeam":"Australia","opponentTeam":"Iran","matchId":200948},{"selectedTeam":"Australia","opponentTeam":"South Korea","matchId":200949},{"selectedTeam":"Australia","opponentTeam":"Japan","matchId":200950},{"selectedTeam":"Australia","opponentTeam":"Saudi Arabia","matchId":200951},{"selectedTeam":"Australia","opponentTeam":"Ecuador","matchId":200952},{"selectedTeam":"Australia","opponentTeam":"Canada","matchId":200953},{"selectedTeam":"Australia","opponentTeam":"Ghana","matchId":200954},{"selectedTeam":"Australia","opponentTeam":"Senegal","matchId":200955},{"selectedTeam":"Australia","opponentTeam":"Tunisia","matchId":200956},{"selectedTeam":"Australia","opponentTeam":"Morocco","matchId":200957},{"selectedTeam":"Australia","opponentTeam":"Cameroon","matchId":200958},{"selectedTeam":"Australia","opponentTeam":"USA","matchId":200959},{"selectedTeam":"Australia","opponentTeam":"Wales","matchId":200960},{"selectedTeam":"Australia","opponentTeam":"Costa Rica","matchId":200961},{"selectedTeam":"Costa Rica","opponentTeam":"Germany","matchId":200962},{"selectedTeam":"Costa Rica","opponentTeam":"Brazil","matchId":200963},{"selectedTeam":"Costa Rica","opponentTeam":"France","matchId":200964},{"selectedTeam":"Costa Rica","opponentTeam":"Belgium","matchId":200965},{"selectedTeam":"Costa Rica","opponentTeam":"Spain","matchId":200966},{"selectedTeam":"Costa Rica","opponentTeam":"England","matchId":200967},{"selectedTeam":"Costa Rica","opponentTeam":"Argentina","matchId":200968},{"selectedTeam":"Costa Rica","opponentTeam":"Netherlands","matchId":200969},{"selectedTeam":"Costa Rica","opponentTeam":"Denmark","matchId":200970},{"selectedTeam":"Costa Rica","opponentTeam":"Croatia","matchId":200971},{"selectedTeam":"Costa Rica","opponentTeam":"Switzerland","matchId":200972},{"selectedTeam":"Costa Rica","opponentTeam":"Uruguay","matchId":200973},{"selectedTeam":"Costa Rica","opponentTeam":"Portugal","matchId":200974},{"selectedTeam":"Costa Rica","opponentTeam":"Poland","matchId":200975},{"selectedTeam":"Costa Rica","opponentTeam":"Mexico","matchId":200976},{"selectedTeam":"Costa Rica","opponentTeam":"Serbia","matchId":200977},{"selectedTeam":"Costa Rica","opponentTeam":"Qatar","matchId":200978},{"selectedTeam":"Costa Rica","opponentTeam":"Iran","matchId":200979},{"selectedTeam":"Costa Rica","opponentTeam":"South Korea","matchId":200980},{"selectedTeam":"Costa Rica","opponentTeam":"Japan","matchId":200981},{"selectedTeam":"Costa Rica","opponentTeam":"Saudi Arabia","matchId":200982},{"selectedTeam":"Costa Rica","opponentTeam":"Ecuador","matchId":200983},{"selectedTeam":"Costa Rica","opponentTeam":"Canada","matchId":200984},{"selectedTeam":"Costa Rica","opponentTeam":"Ghana","matchId":200985},{"selectedTeam":"Costa Rica","opponentTeam":"Senegal","matchId":200986},{"selectedTeam":"Costa Rica","opponentTeam":"Tunisia","matchId":200987},{"selectedTeam":"Costa Rica","opponentTeam":"Morocco","matchId":200988},{"selectedTeam":"Costa Rica","opponentTeam":"Cameroon","matchId":200989},{"selectedTeam":"Costa Rica","opponentTeam":"USA","matchId":200990},{"selectedTeam":"Costa Rica","opponentTeam":"Wales","matchId":200991},{"selectedTeam":"Costa Rica","opponentTeam":"Australia","matchId":200992}]}



