{"frames": {

"CTTlogo":
{
	"frame": {"x":3,"y":3,"w":1000,"h":188},
	"rotated": false,
	"trimmed": false,
	"spriteSourceSize": {"x":0,"y":0,"w":1000,"h":188},
	"sourceSize": {"w":1000,"h":188}
},
"splashImage_VCTT":
{
	"frame": {"x":3,"y":195,"w":400,"h":262},
	"rotated": false,
	"trimmed": false,
	"spriteSourceSize": {"x":0,"y":0,"w":400,"h":262},
	"sourceSize": {"w":400,"h":262}
},
"title_CTT":
{
	"frame": {"x":407,"y":195,"w":400,"h":93},
	"rotated": false,
	"trimmed": false,
	"spriteSourceSize": {"x":0,"y":0,"w":400,"h":93},
	"sourceSize": {"w":400,"h":93}
},
"title_VCTT":
{
	"frame": {"x":407,"y":292,"w":400,"h":93},
	"rotated": false,
	"trimmed": false,
	"spriteSourceSize": {"x":0,"y":0,"w":400,"h":93},
	"sourceSize": {"w":400,"h":93}
}},
"meta": {
	"app": "https://www.codeandweb.com/texturepacker",
	"version": "1.0",
	"image": "ctt_preloaderAssets.png",
	"format": "RGBA8888",
	"size": {"w":1024,"h":512},
	"scale": "1",
	"smartupdate": "$TexturePacker:SmartUpdate:9a132443ee2021449d480a6d48996e2c:54fcc0a900c8d3dc604113559703eced:6c2d1052a13ac61d0681b7e3a72aace4$"
}
}
