{
  "gameConfig" : {
    "gameVersion" : "0.50",
    "leftHandedBatsmen22" : ["S Raina", "R Jadeja", "Sam Curran", "Axar Patel", "S Dhawan", "Arshdeep Singh", "Chris Gayle", "N Pooran", "Eoin Morgan", "K Yadav", "T Boult", "Q de Cock", "I Kishan", "Ben Stokes", "R Tewatia", "Anuj Rawat", "D Miller", "D Padikkal", "W Sundar", "D Warner", "A Sharma"],
    "leftHandedBatsmen" : [],
    "assetMapping" : {
      "T20-WorldCup" : "t20wc",
      "IPL" : "ipl",
      "Indian Premier League" : "ipl",
      "DEFAULT" : "t20wc"
    },
    "defaultFirstTeam" : "KKR",
    "defaultSecondTeam" : "CSK",

    "teamNameMapping" : {
      "England" : "ENG",
      "India" : "IND",
      "Australia" : "AUS",
      "South Africa" : "SA",
      "New Zealand" : "NZ",
      "Pakistan" : "PAK",
      "Sri Lanka" : "SL",
      "Bangladesh" : "BAN",
      "West Indies" : "WI",
      "Ireland" : "IRE",
      "Scotland" : "SCO",
      "Afganistan" : "AFG",
      "Afghanistan" : "AFG",
      "Netharlands" : "NED",
      "Netherlands" : "NED",
      "Namibia" : "NAM",
      "Oman" : "OMN",
      "Papua New Guinea" : "PNG"
    },
    "defaultTeamSkinBatsman" : {
      "KKR" : "GenericPlayer1",
      "RCB" : "GenericPlayer2",
      "CSK" : "GenericPlayer1",
      "PBKS" : "GenericPlayer1",
      "GT" : "GenericPlayer1",
      "LSG" : "GenericPlayer1",
      "RR" : "GenericPlayer2",
      "DC" : "GenericPlayer1",
      "MI" : "GenericPlayer1",
      "SRH" : "GenericPlayer2",
      "IND" : "GenericPlayer1",
      "ENG" : "Jos Buttler",
      "SA" : "D Miller",
      "AUS" : "M Stoinis",
      "NZ" : "T Seifert",
      "PAK" : "M Hafeez",
      "SL" : "A Fernando",
      "BAN" : "Liton Das",
      "WI" : "L Simmons",
      "IRE" : "Andrew Balbirnie",
      "SCO" : "Calum Macleod",
      "AFG" : "Usman Ghani",
      "NED" : "Antonius Staal",
      "NAM" : "Craig Williams",
      "OMN" : "Aqib Ilyas",
      "PNG" : "Assad Vala"
    },
    "defaultTeamSkinBowler" : {
      "KKR" : "GenericPlayer1",
      "RCB" : "GenericPlayer1",
      "CSK" : "GenericPlayer1",
      "PBKS" : "GenericPlayer1",
      "RR" : "GenericPlayer1",
      "DC" : "GenericPlayer1",
      "MI" : "GenericPlayer1",
      "SRH" : "GenericPlayer1",
      "GT" : "GenericPlayer1",
      "LSG" : "GenericPlayer1",
      "IND" : "B Kumar",
      "ENG" : "Mark Wood",
      "AUS" : "M Starc",
      "SA" : "A Nortje",
      "NZ" : "T Southee",
      "PAK" : "Hasan Ali",
      "SL" : "M Theekshana",
      "BAN" : "Shoriful Islam",
      "WI" : "F Allen",
      "IRE" : "Mark Adair",
      "SCO" : "Safyaan Sharif",
      "AFG" : "S Ashraf",
      "NED" : "Vivian Kingma",
      "NAM" : "Stephan Baard",
      "OMN" : "Sufyan Mehmood",
      "PNG" : "Nosaina Pokana"
    }
  }
}
