{"frames": {

"homerun_bg":
{
	"frame": {"x":2,"y":2,"w":1080,"h":1458},
	"rotated": false,
	"trimmed": false,
	"spriteSourceSize": {"x":0,"y":0,"w":1080,"h":1458},
	"sourceSize": {"w":1080,"h":1458}
}},
"meta": {
	"app": "https://www.codeandweb.com/texturepacker",
	"version": "1.1",
	"image": "homerun_gamebg.jpg",
	"format": "RGB888",
	"size": {"w":2048,"h":2048},
	"scale": "1",
	"smartupdate": "$TexturePacker:SmartUpdate:50b3b488a4d2b5844fcde7409eb62ccb:2f8029f51068e0a1a5a61356bf83be14:1869482f3ce5309e185b33d46e508cc7$"
}
}
