{
  "howtoplaypsrules": [
    {
      "title": "Welcome to Virtual Penalty Shootout!",
      "text": "An exciting game combining skill and luck. You can play single game and tournament modes and win prizes. ",
      "img": "assets/images/HTP_Assets/splashTitle.png"
    },
    {
      "title": "How to Shoot",
      "text": "Press down on the target. \n Move it to where you want to aim. \n Release to shoot! \n Careful: With resistance against your aim, shooting where you want to is trickier than it first seems.",
      "img": "assets/images/HTP_Assets/HTP_2.png"
    },
    {
      "title": "Shooting Advanced",
      "text": "The closer that you aim your shot \n into corners, the greater the \n likelihood of the penalty being \n successfully scored.",
      "img": "assets/images/HTP_Assets/HTP_3.png"
    },
    {
      "title": "How to Play",
      "text": "Hone your skills in free play, try to win prizes via leaderboards and when you are confident enough, try cash play mode for the chance to win big cash prizes.",
      "img": "assets/images/HTP_Assets/HTP_4.png",
      "freePlayFlag": true
    },
    {
      "title": "Goalkeeper Levels",
      "text": "You can compete against 4 different goalkeepers all with differing levels of skill. Playing against lower ranking EPL and International teams will mean greater chances of scoring.",
      "img": "assets/images/HTP_Assets/HTP_5.png"
    },
    {
      "title": "Free Play",
      "text": "Free play offers the chance to win some great prizes at no cost at all. Single Game: Score more penalties than anyone else, top the leaderboard and win one of the great prizes offered. Tournament: Navigate your way from the last 16 of a tournament through to the final scoring as many goals as possible.",
      "img": "assets/images/HTP_Assets/HTP_6.png",
      "freePlayFlag": true
    },
    {
      "title": "Cash Play",
      "text": "If you're confident that you can beat the goalkeeper from 12 yards, then try our tournament mode. The more you score, the more you win!",
      "img": "assets/images/HTP_Assets/HTP_7_ke_en.png"
    },
    {
      "title": "Single Game (Free)",
      "text": "Single game is a shorter version of the game. Simply score as many penalties as possible consecutively to top the leaderboard and win prizes.",
      "img": "assets/images/HTP_Assets/HTP_8.png",
      "freePlayFlag": true
    },
    {
      "title": "Single Game (Cash)",
      "text": "Select your number of penalties (3,4 or 5). Score them all and win up to 15 times your bet. Consolation prizes offered in the 4 and 5 penalties games.",
      "img": "assets/images/HTP_Assets/HTP_9.png"
    },
    {
      "title": "Tournament (Free)",
      "text": "Start at the last 16, score at least 4 from 5 goals to progress through the 3 rounds to the final. The further you go, the more penalties you’ll get to take. Finish among the top of the leaderboard and win free prizes!",
      "img": "assets/images/HTP_Assets/HTP_10.png",
      "freePlayFlag": true
    },
    {
      "title": "Tournament (Cash)",
      "text": "The same play as the free version but this time qualify through the rounds to get to the final for the chance to win up to 15x your bet. Double your money as a consolation prize by getting through to the semi-final.",
      "img": "assets/images/HTP_Assets/HTP_10.png"
    },
    {
      "title": "Jackpot Prize",
      "text": "Not only will you be making your way to the Pantheon of Penalty Scoring Gods. There is also an additional Jackpot prize to be won if you score 5 penalties in all 4 rounds of the tournament in cash and free play.",
      "text2": "Not only will you be making your way to the Pantheon of Penalty Scoring Gods. There is also an additional Jackpot prize to be won if you score 5 penalties in all 4 rounds of the tournament in cash play.",
      "img": "assets/images/HTP_Assets/HTP_12.png"
    },
    {
      "title": "Get Started",
      "text": "That’s all from our quick how to play guide. For more thorough details check our FAQs section. Alternatively choose Cash or Free play in the menu and enjoy all the fun and excitement of Virtual Penalty Shootout!",
      "text2": "That’s all from our quick how to play guide. For more thorough details check our FAQs section. Enjoy all the fun and excitement of Virtual Penalty Shootout!",
      "img": "assets/images/HTP_Assets/HTP_13.png"
    }
  ],
  "faqpsrules": [
    {
      "title": "What is Virtual Penalty Shootout?",
      "text": "Virtual Penalty Shootout is a game combining skill and luck where you can win prizes both playing for cash and for free by topping the free to play leaderboards. All that is required is to score as many penalties as possible. The skill element is that the close you aim towards the corners of the goal, the greater the likelihood of the penalty being successful. The luck element is that there is an inbuilt Randon Success Generator factor which factors, where the shot is positioned, and the skill level of the goalkeeper in goal."
    },
    {
      "title": "How does free to play work?",
      "text": "Free play is exactly as you would think. Its the chance to win some great prizes at no cost at all, either in single play mode (where you will attempt to score as many goals as possible, or tournament mode) where you will try to navigate you way from the last 16 of a tournament all the way to the final, scoring as many goals as possible along the way.",
      "freePlayFlag": true
    },
    {
      "title": "How does Cash Play work?",
      "text": "Cash Play allows you to place cash bets on scoring a specific amount of penalties in single play or by qualifying your way through to the final of a tournament, in tournament mode. If you are successful, then you will win multiple times of the amount wagered depending on what game you have chosen. This can be as high as 100 x your bet if you score all 5 penalties in the final."
    },
    {
      "title": "What is single game mode?",
      "text": "Single game mode is a shorter variation of the game, where you will need to score as many penalties as possible in free play to top the leaderboard, or to choose whether to attempt 3 ,4 or 5 penalties. In cash play where you can win up to 50 x your bet if you manage 5 out of 5 successful penalties. Note that there are also consolation prizes if you play the 4 or 5 penalty game.",
      "text2": "Single game mode is a shorter variation of the game, where you can win up to 50 x your bet if you manage 5 out of 5 successful penalties. Note that there are also consolation prizes if you play the 4 or 5 penalty game."
    },
    {
      "title": "What is Tournament Mode?",
      "text": "Tournament Mode is a great fun game where you can qualify through 3 rounds all the way up  to the final of the tournament in order to potentially win some great prizes."
    },
    {
      "title": "How often can I play?",
      "text": "You can play the cash game as many times as you like. For free to play you can play a maximum of 3 times per day both in single game and tournament modes."
    },
    {
      "title": "What Prizes can be won in single game mode?",
      "text": "In you play cash single game mode then you can win up to 25 x your bet (by scoring all 5 penalties In the 5 penalty game). The full payout list is as follows. 3 Penalty Game. Score all 3 = 5 x your bet. 4 Penalty Game Score 4 from 4 = 10 x your bet, Score 3 from 4 = Double your bet. 5 Penalty Game Score 5 from 5 = 25 x your bet. Score 4 from 5 = 4 x your bet. In free play mode, the payout can vary but will always be highlighted for that specific game on the free play single game page and in more depth on the single player, free play, leaderboard.",
      "text2": "In you play cash single game mode then you can win up to 25 x your bet (by scoring all 5 penalties In the 5 penalty game). The full payout list is as follows. 3 Penalty Game. Score all 3 = 5 x your bet. 4 Penalty Game Score 4 from 4 = 10 x your bet, Score 3 from 4 = Double your bet. 5 Penalty Game Score 5 from 5 = 25 x your bet. Score 4 from 5 = 4 x your bet."
    },
    {
      "title": "How often do free to play games take place?",
      "text": "Each free to play leaderboard (tournament and single play modes) take place for a whole calendar week. Whoever tops the leaderboard at the end of that calendar week (UTC) will be deemed the winner(s).",
      "freePlayFlag": true
    },
    {
      "title": "When will I get my prize?",
      "text": "Free to play prizes will be awarded by 6pm the day after the leaderboard competition has ended.",
      "freePlayFlag": true
    },
    {
      "title": "What happens if the leaderboard is tied?",
      "text": "In the event of the leaderboard being tied. The person who has managed to score the highest amount first will be deemed the winner. Therefore, if someone has already scored 9 penalties in single game mode, you will need to score 10 penalties in order to top the leaderboard."
    },
    {
      "title": "How does RNG work?",
      "text": "A random number generator (RNG) is an algorithm that produces random numbers. In games, these random numbers are used to determine random events, like your chance at landing a critical hit or in this case, of scoring a penalty. The goal is broken up into a number of segments and every time that a shot is taken, the random number generator will decide which of the segments of the goal will result in a save and which will result in a penalty scored. There is logic included which means that the better your aim into the corners of goals, the greater the likelihood of taking a successful penalty kick."
    },
    {
      "title": "How to win the jackpot in Tournament Mode?",
      "text": "Tournament mode comprises 4 round of penalties (Last 16, Quarter Finals, Semi Final and Final). In order to qualify through to the next round of the tournament you are required to score at least 4 penalties each round. In order to win the jackpot you will need to score all 20 Penalties that are taken, that is to say all 5 penalties from all 4 rounds. If all penalties are scored then you will qualify for the jackpot prize both in terms of cash play and free play. Please note that in the event of more than one player scoring all 20 penalties in free play in the same competition week, then the jackpot prize will be shared equally among those players who have achieved the feat.",
      "text2": "Tournament mode comprises 4 round of penalties (Last 16, Quarter Finals, Semi Final and Final). In order to qualify through to the next round of the tournament you are required to score at least 4 penalties each round. In order to win the jackpot you will need to score all 20 Penalties that are taken, that is to say all 5 penalties from all 4 rounds. If all penalties are scored then you will qualify for the jackpot prize."
    },
    {
      "title": "TERMS and CONDITIONS",
      "terms": [
        "We reserve the right to change or discontinue this free play leaderboard promotion at any time, for any reason whatsoever without notice to the players.",
        "This will not impact any players playing cash play games.",
        "The Leaderboard is restricted to one account per customer.",
        "To ensure that the promotion is limited to one per customer, we only permit one customer to participate from each household address, IP Address, email address, telephone number, payment account number (e.g. debit or credit card), and shared computer, e.g. public library or workplace.",
        "We reserve the right to exclude any entrant from this game and from use of our website, and to withhold any winnings from entrants, if we believe that such entrant has breached these terms and conditions, has tried to enter by using more than one username or is otherwise engaging in any fraudulent, suspicious or illegal activity (including participation that would be in breach of the law in the entrant’s local jurisdiction), whether or not the entrant would, or might have won any prize but for such activity."
      ],
      "terms2": [
        "This will not impact any players playing cash play games.",
        "The Leaderboard is restricted to one account per customer.",
        "To ensure that the promotion is limited to one per customer, we only permit one customer to participate from each household address, IP Address, email address, telephone number, payment account number (e.g. debit or credit card), and shared computer, e.g. public library or workplace.",
        "We reserve the right to exclude any entrant from this game and from use of our website, and to withhold any winnings from entrants, if we believe that such entrant has breached these terms and conditions, has tried to enter by using more than one username or is otherwise engaging in any fraudulent, suspicious or illegal activity (including participation that would be in breach of the law in the entrant’s local jurisdiction), whether or not the entrant would, or might have won any prize but for such activity."
      ]
    }
  ],
  "termsAndConditions": {
    "title": "TERMS and CONDITIONS",
    "newTerms": [
      {
        "heading": "These terms and conditions ('Terms and Conditions') will apply:",
        "terms": [
          "1.in conjunction with any specific terms and conditions of any applicable promotion. Where any specific terms and conditions conflict with these Terms and Conditions, the specific terms of the applicable promotion shall apply; and",
          "2. You will be deemed to have accepted these Terms and Conditions and agreed to be bound by them when entering either the free to play and pay to play variants of the game.",
          "3. For the purposes of these Terms and Conditions, any reference to 'you', 'entrant(s)' or 'player(s)' are to persons who have entered the game in accordance with the terms set out at Clauses 4 and 5 (How to Enter)."
        ],
        "terms2": [
          "1.in conjunction with any specific terms and conditions of any applicable promotion. Where any specific terms and conditions conflict with these Terms and Conditions, the specific terms of the applicable promotion shall apply; and",
          "2. You will be deemed to have accepted these Terms and Conditions and agreed to be bound by them when entering the game.",
          "3. For the purposes of these Terms and Conditions, any reference to 'you', 'entrant(s)' or 'player(s)' are to persons who have entered the game in accordance with the terms set out at Clauses 4 and 5 (How to Enter)."
        ]
      },
      {
        "heading": "Eligibility",
        "terms": [
          "1. This game is only open to persons aged 18 years or over resident in [the permissible territories for the operator], except for:",
          "1.1 employees of the Promoter and/or each of their associated companies.",
          "1.2 employees of agents and/or suppliers of the Promoter and/or its associated companies who are professionally connected with the Competition and/or its administration; or",
          "1.3 members of the immediate families or households of those specified in clauses 2.1.1 2.1.2 above.",
          "2. Where entrants do not meet the criteria set out in clause 3.1, their entry will not be valid, and they will not be eligible to win.",
          "3. The Promoter may require entrants to provide proof of age, residence, and identity."
        ]
      },
      {
        "heading": "General Terms and Conditions ",
        "terms": [
          "1. In order to enter any paid or free-to-play games customers will be deemed to have accepted our general terms and conditions as well as the Virtual Penalty Shootout specific terms and conditions outlined below.",
          "2. Virtual Penalty Shootout bets once placed cannot be cancelled, amended, or refunded.",
          "3. Should [Operator] experience any technical issues whatsoever, we reserve the right to cancel and void any and all bets on the effected Jackpot and shall inform Customers.",
          "4. We reserve the right to void any match of a Jackpot or the Jackpot in its entirety if there are obvious errors, if there has been a change to the format or if it believes that any Bet has been placed in contravention of its Terms and Conditions.",
          "5. We reserve the right to pay customers who win a significant jackpot prize [NOMINAL VALUE] by bank transfer and this may take up to 2 weeks to remit into the customer's bank.",
          "6. Should a winning customer not provide all reasonable requested information within 30 days of the request then we reserve the right to consider the prize forfeited.",
          "7. We reserve the right to void all winnings if it considers that any fraud or breach of these Terms and Conditions occurred.",
          "8. [Operator] decisions and rulings are final.",
          "9. [Operator] reserves the right to amend the terms and condition application to Jackpots at any time, for any reason without notice."
        ],
        "terms2": [
          "1. Virtual Penalty Shootout bets once placed cannot be cancelled, amended, or refunded.",
          "2. Should [Operator] experience any technical issues whatsoever, we reserve the right to cancel and void any and all bets on the effected Jackpot and shall inform Customers.",
          "3. We reserve the right to void any match of a Jackpot or the Jackpot in its entirety if there are obvious errors, if there has been a change to the format or if it believes that any Bet has been placed in contravention of its Terms and Conditions.",
          "4. We reserve the right to pay customers who win a significant jackpot prize [NOMINAL VALUE] by bank transfer and this may take up to 2 weeks to remit into the customer's bank.",
          "5. Should a winning customer not provide all reasonable requested information within 30 days of the request then we reserve the right to consider the prize forfeited.",
          "6. We reserve the right to void all winnings if it considers that any fraud or breach of these Terms and Conditions occurred.",
          "7. [Operator] decisions and rulings are final.",
          "8. [Operator] reserves the right to amend the terms and condition application to Jackpots at any time, for any reason without notice."
        ]
      },
      {
        "heading": "How to Enter - Pay to Play",
        "terms": [
          "1. There are two different modes when playing Penalty Shoot Out pay to play., Single Player Mode and Tournament Mode.",
          "2. Both Modes in pay to play requires a cash buy in.",
          "3. The Minimum bet in order to play either game is NGN0.10",
          "4. The Maximum bet in tournament mode is NGN100 and the maximum bet in single game mode is NGN200.",
          "5. To play single game mode, the player needs to select the number of penalties they would like to bet (there are 3, 4 or 5 penalty game options, each with different pay out odds). They will then need to choose a team and then choose their bet value.",
          "6. To play Tournament mode, the player will simply need to choose which team that they would like to play with and choose their bet and play."
        ]
      },
      {
        "heading": "How to Enter - Free to Play",
        "terms": [
          "1. In order to play our free to play games and qualify for any prizes, you must first register at [Website URL] (the 'Website') or its related mobile apps (the 'Mobile Apps') and open an account.",
          "2. You are required to register to open an account on the Website or the Mobile Apps in your own name.",
          "3. Any entrant found to be registered in the name of any other person will be disqualified.",
          "4. Only one account is permitted to be registered per entrant.",
          "5. There are two different modes when playing Penalty Shoot Out free to play, Single Player Mode and Tournament Mode.",
          "6. To play either mode, a player will need to choose their team and then click on play.",
          "7. If a player is playing free to play for a first time, they are required to firstly choose a username. This username will be their fixed username for all future tournaments. Please be aware that any username that may be deemed offensive will result in a player foregoing any potential prize win and we also reserve the right to ban the user from playing any future free to play games.",
          "8. Note that we may impose limitations as to how many free to play entries that a player can enjoy over a periodic time (e.g. once daily) and we may impose qualifying requirements as to if a player qualifies to play free to play the game at all. See website for further details and any qualifying criteria that may apply."
        ],
        "freePlayFlag": true
      },
      {
        "heading": "How to Play - Pay to Play.",
        "terms": [
          "1. In single game mode a player will choose the number of penalties that they would like to take. The options to choose from being 3,4 or 5.",
          "2. The player is required to score all 3 penalties in the 3-game option in order to win a prize, in the 4-penalty option there will be a consolation for scoring 3 penalties and in the 5-penalty option there will be a consolation for scoring 4 penalties. See Clause 8 Pay to Play Odds for full details of prizes that can be won.",
          "3. The player then will then have a target which they will have to manoeuvre to determine the direction of where the shot will be placed.",
          "4. Once the shot direction is determined (which is based upon the place that the player takes their finger off the target on mobile/tablet and when the player clicks off the target on desktop) the shot takes place.",
          "5. The success of the shot (whether the goalkeeper saves the shot) is determined by where the shot is positioned and whether that segment of the goal is equal to a 'save' based upon the Random Number Generator.",
          "6. In the event of the shot/target missing the goal completely then the outcome will always be a missed penalty.",
          "7. In tournament mode the player begins in round of 16 and is required to score at least 4 of 5 penalties in each round in order to qualify through to the next round. The more you qualify through the rounds, the greater the multiple of your bet that you can win",
          "8. There are 4 rounds in total in tournament mode each comprising 5 penalties. In the event of a player scoring all 5 penalties in each round (20 in total) they shall also qualify to receive the jackpot prize (see Tournament Jackpot Prize details below)"
        ]
      },
      {
        "heading": "How to Play - Free to Play",
        "terms": [
          "1. In single game mode free to play rather than choosing the number of penalties to take, the player will instead go straight to the game and needs to try to score as many consecutive as possible.",
          "2. As soon as a penalty is missed, the game will be over",
          "3. The higher the amount of consecutive penalties scored, the greater the likelihood of climbing the leaderboard and winning one of the advertised cash prizes.",
          "4. The single game leaderboard will run periodically as advertised within the game. When the periodic game ends the winners will be notified and receive the advertised prized and the leaderboard shall be reset",
          "5. In the event of players tying on a specific number of penalties scored in both the single game and tournament free to play modes, the player that has scored that number of penalties first will be deemed to be in the higher position on the leaderboard, any subsequent players will need to beat the target number of penalties already set.",
          "6. In free to play tournament mode, the player will start in the round of 16 and will be required to score at least 4 of the 5 penalties taken in each round in order to qualify through to the next round.",
          "7. The free to play tournament is also based upon a leaderboard.  The goal being to score as many goals as possible over the course of the 4 rounds.",
          "8. By scoring at least 4 of the 5 penalties in each round leading up to the final, the player has the opportunity to take more penalties and the possibility to score more and to climb the leaderboard"
        ],
        "freePlayFlag": true
      },
      {
        "heading": "Pay to Play Odds",
        "terms": [
          "1. Pay to play pay-outs are all dependent upon bet and are a multiple of the bet wagered (known as 'Odds') The odds for both games are as follows;",
          "2. Single Game Odds: 3 Penalty Game = 3 Penalties scored: Odds of 6.00 \n 4 Penalty Game = 3 Penalties scored: Odds of 1.00 (bet Returned).\n 4 Penalties scored: Odds of 8.00",
          "4 Penalty Game =\n 3 Penalties scored: Odds of 1.00 (bet Returned). 4 Penalties scored: Odds of 8.00",
          "5 Penalty Game =\n 4 Penalties scored: Odds of 2.00.\n 5 Penalties scored: Odds of 15:00",
          "3. Tournament Game Odds Guaranteed Odds for qualifying through from Quarter Finals to Semi Finals: 2.00 Guaranteed Odds for qualifying through from Semi Finals to Final: 4.00 Guaranteed Prize for scoring 3 goals in the Final: 10.00 Guaranteed Prize for scoring 4 goals in the Final: 50.00 Prize for scoring 5 goals in the Final: 200.00"
        ]
      },
      {
        "heading": "Free to play Prizes",
        "terms": [
          "1. Free to play competitions take place every [VALUE EQUALS DESIRED PERIODIC TIME OF EACH COMPETITION DAY/WEEK/MONTH]",
          "2. There are separate leaderboards for Single Game and Tournament Modes each [VALUE EQUALS DESIRED PERIODIC TIME OF EACH COMPETITION]",
          "3. The Prize for finishing top of the free to play single leader board (unless otherwise advertised) is [VALUE OF FIRST PLACE PRIZE]",
          "4. The consolation prizes for finishing [VALUE EQUALS LEADERBOARD POSITION(S)] in the single game leaderboard (unless otherwise stated) is [VALUE OF CONSOLATION PRIZE(S)].",
          "5. The Prize for finishing top of the free to play tournament leader board (unless otherwise advertised) is [VALUE OF FIRST PLACE PRIZE]",
          "6. The consolation prizes for finishing [VALUE EQUALS LEADERBOARD POSITION(S)] in the Tournament leaderboard (unless otherwise stated) is [VALUE OF CONSOLATION PRIZE(S)].",
          "7. As per clause 7.5 In the event of players tying on a specific number of penalties scored in both the single game and tournament free to play modes, the player that has scored that number of penalties first will be deemed to be in the higher position on the leaderboard, any subsequent players will need to beat the target number of penalties already set."
        ],
        "freePlayFlag": true
      },
      {
        "heading": "Tournament Jackpot Prize",
        "terms": [
          "1. There is an additional jackpot prizes for scoring all 5 goals in each of the 4 rounds in Tournament mode both for free to play and pay to play",
          "2. In pay to play the jackpot is a separate prize and will not affect any winnings already accrued as a consequence of the odds pay out amounts above",
          "3. Both jackpots are monthly (Calendar Month) pooled jackpots and so in the event of multiple winners in each of the two jackpots then the jackpot amount will be shared equally amongst winners",
          "4. The pooling of jackpot prizes will be separate for pay to play and free to play. If there were to be single winners in each variant in a calendar month, both players would win the respective Jackpot Pool Prize in full.",
          "5. The Monthly Prize Pool (unless otherwise advertised) for winning the jackpot in Pay to Play is [VALUE EQUALS PAY TO PLAY JACKPOT AMOUNT].",
          "6. The Monthly Prize Pool (unless otherwise advertised) for winning the jackpot in Free Play is [VALUE EQUALS FREE PLAY JACKPOT AMOUNT].",
          "7. For Pay to Play the bet amount has no reflection on how much can be won within the jackpot pool. This Jackpot prize is the same value for all cash game players."
        ],
        "terms2": [
          "1. There is an additional jackpot prizes for scoring all 5 goals in each of the 4 rounds in Tournament mode",
          "2. In pay to play the jackpot is a separate prize and will not affect any winnings already accrued as a consequence of the odds pay out amounts above",
          "3. Both jackpots are monthly (Calendar Month) pooled jackpots and so in the event of multiple winners in each of the two jackpots then the jackpot amount will be shared equally amongst winners",
          "4. The Monthly Prize Pool (unless otherwise advertised) for winning the jackpot in Pay to Play is [VALUE EQUALS PAY TO PLAY JACKPOT AMOUNT].",
          "5. For Pay to Play the bet amount has no reflection on how much can be won within the jackpot pool. This Jackpot prize is the same value for all cash game players."
        ]
      },
      {
        "heading": "Random Number Generator",
        "terms": [
          "1. Both tournament and single game modes are based upon Random Number Generated (RNG) results to determine which of the segments of the goal the goalkeeper is able to cover",
          "2. For the purpose of the randomly generated resulted aspect of the game, the goal area is split into 30 segments. Then, depending on the skill level of the goalkeeper",
          "3. The level of a goalkeepers ability is clear from the goalkeepers jersey that they are wearing. Tier 1 (top level) Goalkeepers will wear either Yellow or White jerseys, Tier 2 Goalkeepers will wear red jerseys and Tier 3 goalkeepers will wear blue jerseys.",
          "4. If your playing against a goalkeeper with a red or blue jersey then you have an even great chance of winning.",
          "5. The collective margin for the single game pay to play penalty game (before accounting for the additional prize of the jackpot) is 16.96%",
          "6. The Margin for the tournament pay to play game (before accounting for the additional prize of the jackpot) is 13.1%"
        ]
      },
      {
        "heading": "Jackpot Prize Winners and Entrants Verification",
        "terms": [
          "1.Winners (as determined in accordance with the terms set out in Clause 10 (Tournament Jackpot Prize) will be notified by email or telephone number registered on their account on the day on which the relevant round is completed, or on the following Business Day (a 'Business Day' being a day other than a Saturday, Sunday or public holiday).",
          "2. It is each player's sole responsibility to ensure that their contact details are up to date on their account.",
          "3. Winners may be required to verify (with evidence satisfactory to the Promoter) their: i. age ii. identity iii.residence; and iv. any other verification information requested by the Promoter, to the satisfaction of the Promoter before they are eligible to receive their Prize",
          "4. If any winner is not able, for whatever reason: i. to accept a Prize. ii. verify their registration information to the satisfaction of the Promoter. iii. has been found to have breached these Terms and Conditions; or iv. cannot be contacted within five Business Days, the Promoter reserves the right to disqualify that winner (and their eligibility to receive any Prizes under the Competition) and award the applicable Prize to another participant, if applicable.",
          "5. Winners should allow up to thirty days for payment and delivery of the applicable Prize.",
          "6. The Promoter's decision is final and legally binding on all entrants in relation to all aspects of the Competition including (without limitation), allocation of the Prizes and no correspondence will be entered into.",
          "7. Entries that do not comply in full with these Terms and Conditions will be disqualified and will not be eligible to receive a jackpot prize."
        ]
      },
      {
        "heading": "Publicity and Personal Information",
        "terms": [
          "1. The Promoter may use each winner's and each entrant's personal details for the purpose of administering this Competition.",
          "2. By opting in to receive offers and communications you agree that the Promoter and each of their group companies, businesses and business partners may use the details you give us to contact you about products and services that may be of interest to you",
          "3. You agree that the Promoter may use the details you give us to contact you and provide targeted marketing tailored to the products and services that may be of interest to you",
          "4. Entry and participation in the Competition constitutes permission for the Promoter and/or its associated, affiliated, and subsidiary companies to use the usernames, predictions and user photographs of participants for publishing purposes, including but not limited to, leader boards and other display within our Jackpot Website or related applications.",
          "5. With the winner's consent, the winner's details will be included in such publicity as the Promotor reasonably requires"
        ]
      },
      {
        "heading": "Limitation of Liability",
        "terms": [
          "1. Except in the case of death or personal injury arising from its negligence or in respect of fraud, and so far, as is permitted by law, the Promoter and each of its associated companies and agents exclude responsibility and all liabilities arising from\n i.any technical failures or unavailability of the Virtual Penalty Shootout Website, Mobile Apps or other related platforms.\n ii. obvious errors or omissions relating to the awarding of Prizes; or\n iii.any act or default of any third-party supplier including without limitation errors relating to fixtures and scoring data.",
          "2. The terms and conditions of any third-party supplier will apply to the Prize where applicable.",
          "3. If any provision or part-provision of these Terms and Conditions are or becomes invalid, illegal, or unenforceable, it shall be deemed modified to the minimum extent necessary to make it valid, legal and enforceable. If such modification is not possible, the relevant provision or part-provision shall be deemed deleted. Any modification to or deletion of a provision or part-provision under this clause shall not affect the validity and enforceability of the rest of these terms and conditions",
          "4. We do not allow any third-party automated betting scripts on the website. Any usage of third-party automated betting scripts or bots is a breach of terms. If we find you in breach of these terms, we reserve the right to withhold any winnings that may have been accrued and will close your account with immediate effect.",
          "5. In the event of a games system malfunction, we reserve the right to void any/all bets and where applicable to recover any associated game winnings."
        ]
      }
    ]
  },
  "psTips": [
    "Keep an eye out for different keepers, some are better than others.",
    "To take a shot...touch the target, aim where you want to shoot, and then release!",
    "Score at least 4 from 5 penalties to progress through each tournament round.",
    "The closer you aim to the corners, the greater your chance of scoring.",
    "Once you have honed your skills, you can win cash prizes in our cash game mode.",
    "Free to play mode is a great way to practice your penalty kick skills.",
    "In tournaments, the stronger your opposing team, the better the goalkeeper!",
    "Full leaderboard details can be found by clicking on the [CUP ICON] Icon."
  ],
  "freePlayPsTipsIndex": [5, 7],
  "potentialWinInfoText": {
    "title": "CHOOSE YOUR NUMBER OF PENALTIES",
    "3": "Score 3 from 3 = 6x Your Bet",
    "4": "Score 4 from 4 = Win 8x Your Bet",
    "4_1": "Score 3 from 4 = Win 1x Your Bet",
    "5": "Score 5 from 5 = Win 15x Your Bet",
    "5_1": "Score 4 from 5 = Win 2x Your Bet"
  },
  "tournamentPayTable": {
    "0": "SCORING 5 GOALS IN THE FINAL",
    "1": "SCORING 4 GOALS IN THE FINAL",
    "2": "SCORING 3 GOALS IN THE FINAL",
    "3": "QUALIFYING FROM THE SF'S",
    "4": "QUALIFYING FROM THE QF'S",
    "curr": ""
  },
  "howToPlay": "HOW TO PLAY"
}
