{"frames": {

"backbtn_down":
{
	"frame": {"x":1447,"y":385,"w":32,"h":32},
	"rotated": false,
	"trimmed": false,
	"spriteSourceSize": {"x":0,"y":0,"w":32,"h":32},
	"sourceSize": {"w":32,"h":32}
},
"backbtn_up":
{
	"frame": {"x":1483,"y":385,"w":32,"h":32},
	"rotated": false,
	"trimmed": false,
	"spriteSourceSize": {"x":0,"y":0,"w":32,"h":32},
	"sourceSize": {"w":32,"h":32}
},
"ballIcon":
{
	"frame": {"x":643,"y":313,"w":18,"h":18},
	"rotated": false,
	"trimmed": false,
	"spriteSourceSize": {"x":0,"y":0,"w":18,"h":18},
	"sourceSize": {"w":18,"h":18}
},
"batIcon":
{
	"frame": {"x":696,"y":133,"w":18,"h":18},
	"rotated": false,
	"trimmed": false,
	"spriteSourceSize": {"x":0,"y":0,"w":18,"h":18},
	"sourceSize": {"w":18,"h":18}
},
"betCloseBtn_up":
{
	"frame": {"x":1968,"y":236,"w":48,"h":48},
	"rotated": false,
	"trimmed": false,
	"spriteSourceSize": {"x":0,"y":0,"w":48,"h":48},
	"sourceSize": {"w":48,"h":48}
},
"betInputbg":
{
	"frame": {"x":3,"y":3,"w":938,"h":126},
	"rotated": false,
	"trimmed": false,
	"spriteSourceSize": {"x":0,"y":0,"w":938,"h":126},
	"sourceSize": {"w":938,"h":126}
},
"betnextBtn_inactive":
{
	"frame": {"x":1459,"y":337,"w":38,"h":44},
	"rotated": false,
	"trimmed": false,
	"spriteSourceSize": {"x":0,"y":0,"w":38,"h":44},
	"sourceSize": {"w":38,"h":44}
},
"betnextBtn_up":
{
	"frame": {"x":1501,"y":337,"w":38,"h":44},
	"rotated": false,
	"trimmed": false,
	"spriteSourceSize": {"x":0,"y":0,"w":38,"h":44},
	"sourceSize": {"w":38,"h":44}
},
"betprevBtn_inactive":
{
	"frame": {"x":1543,"y":337,"w":38,"h":44},
	"rotated": false,
	"trimmed": false,
	"spriteSourceSize": {"x":0,"y":0,"w":38,"h":44},
	"sourceSize": {"w":38,"h":44}
},
"betprevBtn_up":
{
	"frame": {"x":1310,"y":443,"w":38,"h":44},
	"rotated": false,
	"trimmed": false,
	"spriteSourceSize": {"x":0,"y":0,"w":38,"h":44},
	"sourceSize": {"w":38,"h":44}
},
"bg0":
{
	"frame": {"x":1206,"y":449,"w":100,"h":40},
	"rotated": false,
	"trimmed": false,
	"spriteSourceSize": {"x":0,"y":0,"w":100,"h":40},
	"sourceSize": {"w":100,"h":40}
},
"bg4":
{
	"frame": {"x":1864,"y":251,"w":100,"h":40},
	"rotated": false,
	"trimmed": false,
	"spriteSourceSize": {"x":0,"y":0,"w":100,"h":40},
	"sourceSize": {"w":100,"h":40}
},
"bg6":
{
	"frame": {"x":1853,"y":369,"w":100,"h":40},
	"rotated": false,
	"trimmed": false,
	"spriteSourceSize": {"x":0,"y":0,"w":100,"h":40},
	"sourceSize": {"w":100,"h":40}
},
"bgW":
{
	"frame": {"x":1355,"y":337,"w":100,"h":40},
	"rotated": false,
	"trimmed": false,
	"spriteSourceSize": {"x":0,"y":0,"w":100,"h":40},
	"sourceSize": {"w":100,"h":40}
},
"bigSizeSmallButton_up":
{
	"frame": {"x":1393,"y":259,"w":192,"h":74},
	"rotated": false,
	"trimmed": false,
	"spriteSourceSize": {"x":0,"y":0,"w":192,"h":74},
	"sourceSize": {"w":192,"h":74}
},
"circleBtnBG":
{
	"frame": {"x":1970,"y":288,"w":48,"h":48},
	"rotated": false,
	"trimmed": false,
	"spriteSourceSize": {"x":0,"y":0,"w":48,"h":48},
	"sourceSize": {"w":48,"h":48}
},
"compbottom":
{
	"frame": {"x":1853,"y":295,"w":113,"h":70},
	"rotated": false,
	"trimmed": false,
	"spriteSourceSize": {"x":0,"y":0,"w":113,"h":70},
	"sourceSize": {"w":113,"h":70}
},
"dotcompimage":
{
	"frame": {"x":1968,"y":3,"w":60,"h":55},
	"rotated": false,
	"trimmed": false,
	"spriteSourceSize": {"x":0,"y":0,"w":60,"h":55},
	"sourceSize": {"w":60,"h":55}
},
"fourcompimage":
{
	"frame": {"x":1317,"y":271,"w":60,"h":55},
	"rotated": false,
	"trimmed": false,
	"spriteSourceSize": {"x":0,"y":0,"w":60,"h":55},
	"sourceSize": {"w":60,"h":55}
},
"greenbox":
{
	"frame": {"x":1355,"y":381,"w":42,"h":42},
	"rotated": false,
	"trimmed": false,
	"spriteSourceSize": {"x":0,"y":0,"w":42,"h":42},
	"sourceSize": {"w":42,"h":42}
},
"historyicon":
{
	"frame": {"x":1589,"y":259,"w":128,"h":128},
	"rotated": false,
	"trimmed": false,
	"spriteSourceSize": {"x":0,"y":0,"w":128,"h":128},
	"sourceSize": {"w":128,"h":128}
},
"homeicon":
{
	"frame": {"x":1721,"y":259,"w":128,"h":128},
	"rotated": false,
	"trimmed": false,
	"spriteSourceSize": {"x":0,"y":0,"w":128,"h":128},
	"sourceSize": {"w":128,"h":128}
},
"longBtn":
{
	"frame": {"x":663,"y":449,"w":250,"h":45},
	"rotated": false,
	"trimmed": false,
	"spriteSourceSize": {"x":0,"y":0,"w":250,"h":45},
	"sourceSize": {"w":250,"h":45}
},
"longRoundedRect":
{
	"frame": {"x":669,"y":271,"w":644,"h":64},
	"rotated": false,
	"trimmed": false,
	"spriteSourceSize": {"x":0,"y":0,"w":644,"h":64},
	"sourceSize": {"w":644,"h":64}
},
"losstick":
{
	"frame": {"x":669,"y":133,"w":23,"h":23},
	"rotated": false,
	"trimmed": false,
	"spriteSourceSize": {"x":0,"y":0,"w":23,"h":23},
	"sourceSize": {"w":23,"h":23}
},
"menuselectedbg":
{
	"frame": {"x":1669,"y":117,"w":170,"h":44},
	"rotated": false,
	"trimmed": false,
	"spriteSourceSize": {"x":0,"y":0,"w":170,"h":44},
	"sourceSize": {"w":170,"h":44}
},
"menuselectedbgbig":
{
	"frame": {"x":917,"y":449,"w":170,"h":44},
	"rotated": false,
	"trimmed": false,
	"spriteSourceSize": {"x":0,"y":0,"w":170,"h":44},
	"sourceSize": {"w":170,"h":44}
},
"menuselectedbgsmall":
{
	"frame": {"x":1970,"y":340,"w":55,"h":44},
	"rotated": false,
	"trimmed": false,
	"spriteSourceSize": {"x":0,"y":0,"w":55,"h":44},
	"sourceSize": {"w":55,"h":44}
},
"mySelectionBaseBG":
{
	"frame": {"x":669,"y":165,"w":718,"h":56},
	"rotated": false,
	"trimmed": false,
	"spriteSourceSize": {"x":0,"y":0,"w":718,"h":56},
	"sourceSize": {"w":718,"h":56}
},
"overSelectionBG":
{
	"frame": {"x":1669,"y":3,"w":295,"h":110},
	"rotated": false,
	"trimmed": false,
	"spriteSourceSize": {"x":0,"y":0,"w":295,"h":110},
	"sourceSize": {"w":295,"h":110}
},
"overSelectionBox":
{
	"frame": {"x":1954,"y":180,"w":52,"h":52},
	"rotated": false,
	"trimmed": false,
	"spriteSourceSize": {"x":0,"y":0,"w":52,"h":52},
	"sourceSize": {"w":52,"h":52}
},
"redbox":
{
	"frame": {"x":1401,"y":381,"w":42,"h":42},
	"rotated": false,
	"trimmed": false,
	"spriteSourceSize": {"x":0,"y":0,"w":42,"h":42},
	"sourceSize": {"w":42,"h":42}
},
"roundedOutlineBox":
{
	"frame": {"x":3,"y":423,"w":656,"h":83},
	"rotated": false,
	"trimmed": false,
	"spriteSourceSize": {"x":0,"y":0,"w":656,"h":83},
	"sourceSize": {"w":656,"h":83}
},
"roundedRectBottom":
{
	"frame": {"x":945,"y":3,"w":720,"h":77},
	"rotated": false,
	"trimmed": false,
	"spriteSourceSize": {"x":0,"y":0,"w":720,"h":77},
	"sourceSize": {"w":720,"h":77}
},
"roundedRectBtn":
{
	"frame": {"x":1393,"y":165,"w":467,"h":90},
	"rotated": false,
	"trimmed": false,
	"spriteSourceSize": {"x":0,"y":0,"w":467,"h":90},
	"sourceSize": {"w":467,"h":90}
},
"roundedRectImg":
{
	"frame": {"x":3,"y":133,"w":662,"h":176},
	"rotated": false,
	"trimmed": false,
	"spriteSourceSize": {"x":0,"y":0,"w":662,"h":176},
	"sourceSize": {"w":662,"h":176}
},
"roundedRectMiddle":
{
	"frame": {"x":669,"y":225,"w":720,"h":42},
	"rotated": false,
	"trimmed": false,
	"spriteSourceSize": {"x":0,"y":0,"w":720,"h":42},
	"sourceSize": {"w":720,"h":42}
},
"roundedRectTop":
{
	"frame": {"x":945,"y":84,"w":720,"h":77},
	"rotated": false,
	"trimmed": false,
	"spriteSourceSize": {"x":0,"y":0,"w":720,"h":77},
	"sourceSize": {"w":720,"h":77}
},
"score_whitedot":
{
	"frame": {"x":1303,"y":339,"w":48,"h":48},
	"rotated": false,
	"trimmed": false,
	"spriteSourceSize": {"x":0,"y":0,"w":48,"h":48},
	"sourceSize": {"w":48,"h":48}
},
"shortBtn":
{
	"frame": {"x":1091,"y":449,"w":111,"h":45},
	"rotated": false,
	"trimmed": false,
	"spriteSourceSize": {"x":0,"y":0,"w":111,"h":45},
	"sourceSize": {"w":111,"h":45}
},
"sixcompimage":
{
	"frame": {"x":1968,"y":62,"w":60,"h":55},
	"rotated": false,
	"trimmed": false,
	"spriteSourceSize": {"x":0,"y":0,"w":60,"h":55},
	"sourceSize": {"w":60,"h":55}
},
"smallArrowLeft":
{
	"frame": {"x":1310,"y":491,"w":20,"h":18},
	"rotated": false,
	"trimmed": false,
	"spriteSourceSize": {"x":0,"y":0,"w":20,"h":18},
	"sourceSize": {"w":20,"h":18}
},
"smallArrowRight":
{
	"frame": {"x":1334,"y":491,"w":20,"h":18},
	"rotated": false,
	"trimmed": false,
	"spriteSourceSize": {"x":0,"y":0,"w":20,"h":18},
	"sourceSize": {"w":20,"h":18}
},
"smallCircle":
{
	"frame": {"x":1303,"y":391,"w":48,"h":48},
	"rotated": false,
	"trimmed": false,
	"spriteSourceSize": {"x":0,"y":0,"w":48,"h":48},
	"sourceSize": {"w":48,"h":48}
},
"smallCircle_selection":
{
	"frame": {"x":1519,"y":385,"w":32,"h":32},
	"rotated": false,
	"trimmed": false,
	"spriteSourceSize": {"x":0,"y":0,"w":32,"h":32},
	"sourceSize": {"w":32,"h":32}
},
"statusbg":
{
	"frame": {"x":1843,"y":117,"w":112,"h":40},
	"rotated": false,
	"trimmed": false,
	"spriteSourceSize": {"x":0,"y":0,"w":112,"h":40},
	"sourceSize": {"w":112,"h":40}
},
"successIcon":
{
	"frame": {"x":1864,"y":161,"w":86,"h":86},
	"rotated": false,
	"trimmed": false,
	"spriteSourceSize": {"x":0,"y":0,"w":86,"h":86},
	"sourceSize": {"w":86,"h":86}
},
"verylongBtn_over":
{
	"frame": {"x":3,"y":313,"w":636,"h":106},
	"rotated": false,
	"trimmed": false,
	"spriteSourceSize": {"x":0,"y":0,"w":636,"h":106},
	"sourceSize": {"w":636,"h":106}
},
"verylongBtn_up":
{
	"frame": {"x":663,"y":339,"w":636,"h":106},
	"rotated": false,
	"trimmed": false,
	"spriteSourceSize": {"x":0,"y":0,"w":636,"h":106},
	"sourceSize": {"w":636,"h":106}
},
"wicketcompimage":
{
	"frame": {"x":1959,"y":121,"w":60,"h":55},
	"rotated": false,
	"trimmed": false,
	"spriteSourceSize": {"x":0,"y":0,"w":60,"h":55},
	"sourceSize": {"w":60,"h":55}
},
"wintick":
{
	"frame": {"x":1555,"y":385,"w":23,"h":23},
	"rotated": false,
	"trimmed": false,
	"spriteSourceSize": {"x":0,"y":0,"w":23,"h":23},
	"sourceSize": {"w":23,"h":23}
}},
"animations": {
	"bg": ["bg0","bg4","bg6"]
},
"meta": {
	"app": "https://www.codeandweb.com/texturepacker",
	"version": "1.0",
	"image": "ctt_common_ui.png",
	"format": "RGBA8888",
	"size": {"w":2048,"h":512},
	"scale": "1",
	"smartupdate": "$TexturePacker:SmartUpdate:d6054e69db7a49ef21330fb139adc05a:b413feed5e78d1f542c3cc588c031d7f:b6189f53386ab0166e72a08cf79c9f58$"
}
}
