{"frames": {

"cross":
{
	"frame": {"x":76,"y":3,"w":43,"h":43},
	"rotated": false,
	"trimmed": false,
	"spriteSourceSize": {"x":0,"y":0,"w":43,"h":43},
	"sourceSize": {"w":43,"h":43}
},
"nextArrow":
{
	"frame": {"x":3,"y":78,"w":30,"h":30},
	"rotated": false,
	"trimmed": false,
	"spriteSourceSize": {"x":0,"y":0,"w":30,"h":30},
	"sourceSize": {"w":30,"h":30}
},
"prevArrow":
{
	"frame": {"x":37,"y":78,"w":30,"h":30},
	"rotated": false,
	"trimmed": false,
	"spriteSourceSize": {"x":0,"y":0,"w":30,"h":30},
	"sourceSize": {"w":30,"h":30}
},
"roundedRectWhiteBtn":
{
	"frame": {"x":3,"y":3,"w":69,"h":24},
	"rotated": false,
	"trimmed": false,
	"spriteSourceSize": {"x":0,"y":0,"w":69,"h":24},
	"sourceSize": {"w":69,"h":24}
},
"tick":
{
	"frame": {"x":3,"y":31,"w":43,"h":43},
	"rotated": false,
	"trimmed": false,
	"spriteSourceSize": {"x":0,"y":0,"w":43,"h":43},
	"sourceSize": {"w":43,"h":43}
},
"upArrow":
{
	"frame": {"x":50,"y":50,"w":30,"h":15},
	"rotated": false,
	"trimmed": false,
	"spriteSourceSize": {"x":0,"y":0,"w":30,"h":15},
	"sourceSize": {"w":30,"h":15}
}},
"meta": {
	"app": "https://www.codeandweb.com/texturepacker",
	"version": "1.0",
	"image": "commonUI.png",
	"format": "RGBA8888",
	"size": {"w":128,"h":128},
	"scale": "0.667",
	"smartupdate": "$TexturePacker:SmartUpdate:fe176d4f066382572843689b5e390458:90246a0c7d0d87367b8d38c195becc83:92495ba8c18c930e92135cf5c195087a$"
}
}
