<?xml version="1.0"?>
<font>
  <info face="arialbmp" size="16" bold="0" italic="0" charset="" unicode="1" stretchH="100" smooth="1" aa="1" padding="2,2,2,2" spacing="2,2" outline="0"/>
  <common lineHeight="16" base="13" scaleW="1080" scaleH="256" pages="1" packed="0" alphaChnl="1" redChnl="0" greenChnl="0" blueChnl="0"/>
  <pages>
    <page id="0" file="arialbmp_0.png" />
  </pages>
  <chars count="127">
    <char id="32" x="587" y="22" width="7" height="20" xoffset="-3" yoffset="-2" xadvance="4" page="0" chnl="15" />
    <char id="33" x="560" y="22" width="7" height="20" xoffset="-2" yoffset="-2" xadvance="3" page="0" chnl="15" />
    <char id="34" x="401" y="22" width="9" height="20" xoffset="-2" yoffset="-2" xadvance="5" page="0" chnl="15" />
    <char id="35" x="482" y="0" width="13" height="20" xoffset="-3" yoffset="-2" xadvance="7" page="0" chnl="15" />
    <char id="36" x="1050" y="0" width="11" height="20" xoffset="-2" yoffset="-2" xadvance="7" page="0" chnl="15" />
    <char id="37" x="139" y="0" width="16" height="20" xoffset="-2" yoffset="-2" xadvance="12" page="0" chnl="15" />
    <char id="38" x="512" y="0" width="13" height="20" xoffset="-2" yoffset="-2" xadvance="9" page="0" chnl="15" />
    <char id="39" x="623" y="22" width="6" height="20" xoffset="-2" yoffset="-2" xadvance="2" page="0" chnl="15" />
    <char id="40" x="500" y="22" width="8" height="20" xoffset="-2" yoffset="-2" xadvance="4" page="0" chnl="15" />
    <char id="41" x="510" y="22" width="8" height="20" xoffset="-2" yoffset="-2" xadvance="4" page="0" chnl="15" />
    <char id="42" x="412" y="22" width="9" height="20" xoffset="-2" yoffset="-2" xadvance="5" page="0" chnl="15" />
    <char id="43" x="954" y="0" width="12" height="20" xoffset="-2" yoffset="-2" xadvance="8" page="0" chnl="15" />
    <char id="44" x="639" y="22" width="6" height="20" xoffset="-1" yoffset="-2" xadvance="4" page="0" chnl="15" />
    <char id="45" x="520" y="22" width="8" height="20" xoffset="-2" yoffset="-2" xadvance="4" page="0" chnl="15" />
    <char id="46" x="631" y="22" width="6" height="20" xoffset="-1" yoffset="-2" xadvance="4" page="0" chnl="15" />
    <char id="47" x="377" y="22" width="10" height="20" xoffset="-3" yoffset="-2" xadvance="4" page="0" chnl="15" />
    <char id="48" x="65" y="22" width="11" height="20" xoffset="-2" yoffset="-2" xadvance="7" page="0" chnl="15" />
    <char id="49" x="489" y="22" width="9" height="20" xoffset="-1" yoffset="-2" xadvance="7" page="0" chnl="15" />
    <char id="50" x="78" y="22" width="11" height="20" xoffset="-2" yoffset="-2" xadvance="7" page="0" chnl="15" />
    <char id="51" x="91" y="22" width="11" height="20" xoffset="-2" yoffset="-2" xadvance="7" page="0" chnl="15" />
    <char id="52" x="898" y="0" width="12" height="20" xoffset="-3" yoffset="-2" xadvance="7" page="0" chnl="15" />
    <char id="53" x="104" y="22" width="11" height="20" xoffset="-2" yoffset="-2" xadvance="7" page="0" chnl="15" />
    <char id="54" x="260" y="22" width="11" height="20" xoffset="-2" yoffset="-2" xadvance="7" page="0" chnl="15" />
    <char id="55" x="117" y="22" width="11" height="20" xoffset="-2" yoffset="-2" xadvance="7" page="0" chnl="15" />
    <char id="56" x="130" y="22" width="11" height="20" xoffset="-2" yoffset="-2" xadvance="7" page="0" chnl="15" />
    <char id="57" x="143" y="22" width="11" height="20" xoffset="-2" yoffset="-2" xadvance="7" page="0" chnl="15" />
    <char id="58" x="655" y="22" width="6" height="20" xoffset="-1" yoffset="-2" xadvance="4" page="0" chnl="15" />
    <char id="59" x="647" y="22" width="6" height="20" xoffset="-1" yoffset="-2" xadvance="4" page="0" chnl="15" />
    <char id="60" x="856" y="0" width="12" height="20" xoffset="-2" yoffset="-2" xadvance="8" page="0" chnl="15" />
    <char id="61" x="1010" y="0" width="12" height="20" xoffset="-2" yoffset="-2" xadvance="8" page="0" chnl="15" />
    <char id="62" x="842" y="0" width="12" height="20" xoffset="-2" yoffset="-2" xadvance="8" page="0" chnl="15" />
    <char id="63" x="1063" y="0" width="11" height="20" xoffset="-2" yoffset="-2" xadvance="7" page="0" chnl="15" />
    <char id="64" x="83" y="0" width="17" height="20" xoffset="-2" yoffset="-2" xadvance="13" page="0" chnl="15" />
    <char id="65" x="191" y="0" width="15" height="20" xoffset="-3" yoffset="-2" xadvance="9" page="0" chnl="15" />
    <char id="66" x="812" y="0" width="13" height="20" xoffset="-2" yoffset="-2" xadvance="9" page="0" chnl="15" />
    <char id="67" x="827" y="0" width="13" height="20" xoffset="-2" yoffset="-2" xadvance="9" page="0" chnl="15" />
    <char id="68" x="437" y="0" width="13" height="20" xoffset="-2" yoffset="-2" xadvance="9" page="0" chnl="15" />
    <char id="69" x="452" y="0" width="13" height="20" xoffset="-2" yoffset="-2" xadvance="9" page="0" chnl="15" />
    <char id="70" x="884" y="0" width="12" height="20" xoffset="-2" yoffset="-2" xadvance="8" page="0" chnl="15" />
    <char id="71" x="373" y="0" width="14" height="20" xoffset="-2" yoffset="-2" xadvance="10" page="0" chnl="15" />
    <char id="72" x="467" y="0" width="13" height="20" xoffset="-2" yoffset="-2" xadvance="9" page="0" chnl="15" />
    <char id="73" x="614" y="22" width="7" height="20" xoffset="-2" yoffset="-2" xadvance="3" page="0" chnl="15" />
    <char id="74" x="338" y="22" width="11" height="20" xoffset="-3" yoffset="-2" xadvance="6" page="0" chnl="15" />
    <char id="75" x="497" y="0" width="13" height="20" xoffset="-2" yoffset="-2" xadvance="9" page="0" chnl="15" />
    <char id="76" x="325" y="22" width="11" height="20" xoffset="-2" yoffset="-2" xadvance="7" page="0" chnl="15" />
    <char id="77" x="259" y="0" width="15" height="20" xoffset="-2" yoffset="-2" xadvance="11" page="0" chnl="15" />
    <char id="78" x="527" y="0" width="13" height="20" xoffset="-2" yoffset="-2" xadvance="9" page="0" chnl="15" />
    <char id="79" x="405" y="0" width="14" height="20" xoffset="-2" yoffset="-2" xadvance="10" page="0" chnl="15" />
    <char id="80" x="542" y="0" width="13" height="20" xoffset="-2" yoffset="-2" xadvance="9" page="0" chnl="15" />
    <char id="81" x="293" y="0" width="14" height="20" xoffset="-2" yoffset="-2" xadvance="10" page="0" chnl="15" />
    <char id="82" x="557" y="0" width="13" height="20" xoffset="-2" yoffset="-2" xadvance="9" page="0" chnl="15" />
    <char id="83" x="572" y="0" width="13" height="20" xoffset="-2" yoffset="-2" xadvance="9" page="0" chnl="15" />
    <char id="84" x="587" y="0" width="13" height="20" xoffset="-3" yoffset="-2" xadvance="7" page="0" chnl="15" />
    <char id="85" x="602" y="0" width="13" height="20" xoffset="-2" yoffset="-2" xadvance="9" page="0" chnl="15" />
    <char id="86" x="389" y="0" width="14" height="20" xoffset="-3" yoffset="-2" xadvance="9" page="0" chnl="15" />
    <char id="87" x="102" y="0" width="17" height="20" xoffset="-2" yoffset="-2" xadvance="13" page="0" chnl="15" />
    <char id="88" x="617" y="0" width="13" height="20" xoffset="-3" yoffset="-2" xadvance="7" page="0" chnl="15" />
    <char id="89" x="421" y="0" width="14" height="20" xoffset="-3" yoffset="-2" xadvance="9" page="0" chnl="15" />
    <char id="90" x="940" y="0" width="12" height="20" xoffset="-3" yoffset="-2" xadvance="7" page="0" chnl="15" />
    <char id="91" x="540" y="22" width="8" height="20" xoffset="-2" yoffset="-2" xadvance="4" page="0" chnl="15" />
    <char id="92" x="456" y="22" width="9" height="20" xoffset="-2" yoffset="-2" xadvance="4" page="0" chnl="15" />
    <char id="93" x="550" y="22" width="8" height="20" xoffset="-2" yoffset="-2" xadvance="4" page="0" chnl="15" />
    <char id="94" x="434" y="22" width="9" height="20" xoffset="-2" yoffset="-2" xadvance="5" page="0" chnl="15" />
    <char id="95" x="647" y="0" width="13" height="20" xoffset="-3" yoffset="-2" xadvance="7" page="0" chnl="15" />
    <char id="96" x="596" y="22" width="7" height="20" xoffset="-2" yoffset="-2" xadvance="4" page="0" chnl="15" />
    <char id="97" x="273" y="22" width="11" height="20" xoffset="-2" yoffset="-2" xadvance="7" page="0" chnl="15" />
    <char id="98" x="286" y="22" width="11" height="20" xoffset="-2" yoffset="-2" xadvance="7" page="0" chnl="15" />
    <char id="99" x="351" y="22" width="11" height="20" xoffset="-2" yoffset="-2" xadvance="7" page="0" chnl="15" />
    <char id="100" x="1037" y="0" width="11" height="20" xoffset="-2" yoffset="-2" xadvance="7" page="0" chnl="15" />
    <char id="101" x="0" y="22" width="11" height="20" xoffset="-2" yoffset="-2" xadvance="7" page="0" chnl="15" />
    <char id="102" x="389" y="22" width="10" height="20" xoffset="-3" yoffset="-2" xadvance="3" page="0" chnl="15" />
    <char id="103" x="26" y="22" width="11" height="20" xoffset="-2" yoffset="-2" xadvance="7" page="0" chnl="15" />
    <char id="104" x="52" y="22" width="11" height="20" xoffset="-2" yoffset="-2" xadvance="7" page="0" chnl="15" />
    <char id="105" x="605" y="22" width="7" height="20" xoffset="-2" yoffset="-2" xadvance="3" page="0" chnl="15" />
    <char id="106" x="530" y="22" width="8" height="20" xoffset="-3" yoffset="-2" xadvance="3" page="0" chnl="15" />
    <char id="107" x="156" y="22" width="11" height="20" xoffset="-2" yoffset="-2" xadvance="7" page="0" chnl="15" />
    <char id="108" x="578" y="22" width="7" height="20" xoffset="-2" yoffset="-2" xadvance="3" page="0" chnl="15" />
    <char id="109" x="276" y="0" width="15" height="20" xoffset="-2" yoffset="-2" xadvance="11" page="0" chnl="15" />
    <char id="110" x="169" y="22" width="11" height="20" xoffset="-2" yoffset="-2" xadvance="7" page="0" chnl="15" />
    <char id="111" x="182" y="22" width="11" height="20" xoffset="-2" yoffset="-2" xadvance="7" page="0" chnl="15" />
    <char id="112" x="996" y="0" width="12" height="20" xoffset="-2" yoffset="-2" xadvance="7" page="0" chnl="15" />
    <char id="113" x="195" y="22" width="11" height="20" xoffset="-2" yoffset="-2" xadvance="7" page="0" chnl="15" />
    <char id="114" x="467" y="22" width="9" height="20" xoffset="-2" yoffset="-2" xadvance="4" page="0" chnl="15" />
    <char id="115" x="208" y="22" width="11" height="20" xoffset="-2" yoffset="-2" xadvance="7" page="0" chnl="15" />
    <char id="116" x="478" y="22" width="9" height="20" xoffset="-3" yoffset="-2" xadvance="4" page="0" chnl="15" />
    <char id="117" x="221" y="22" width="11" height="20" xoffset="-2" yoffset="-2" xadvance="7" page="0" chnl="15" />
    <char id="118" x="234" y="22" width="11" height="20" xoffset="-3" yoffset="-2" xadvance="5" page="0" chnl="15" />
    <char id="119" x="225" y="0" width="15" height="20" xoffset="-3" yoffset="-2" xadvance="9" page="0" chnl="15" />
    <char id="120" x="247" y="22" width="11" height="20" xoffset="-2" yoffset="-2" xadvance="7" page="0" chnl="15" />
    <char id="121" x="299" y="22" width="11" height="20" xoffset="-2" yoffset="-2" xadvance="7" page="0" chnl="15" />
    <char id="122" x="982" y="0" width="12" height="20" xoffset="-3" yoffset="-2" xadvance="7" page="0" chnl="15" />
    <char id="123" x="423" y="22" width="9" height="20" xoffset="-2" yoffset="-2" xadvance="4" page="0" chnl="15" />
    <char id="124" x="569" y="22" width="7" height="20" xoffset="-2" yoffset="-2" xadvance="3" page="0" chnl="15" />
    <char id="125" x="445" y="22" width="9" height="20" xoffset="-3" yoffset="-2" xadvance="4" page="0" chnl="15" />
    <char id="126" x="870" y="0" width="12" height="20" xoffset="-2" yoffset="-2" xadvance="8" page="0" chnl="15" />
    <char id="8352" x="662" y="0" width="13" height="20" xoffset="-3" yoffset="-2" xadvance="7" page="0" chnl="15" />
    <char id="8353" x="677" y="0" width="13" height="20" xoffset="-2" yoffset="-2" xadvance="9" page="0" chnl="15" />
    <char id="8354" x="692" y="0" width="13" height="20" xoffset="-2" yoffset="-2" xadvance="9" page="0" chnl="15" />
    <char id="8355" x="968" y="0" width="12" height="20" xoffset="-3" yoffset="-2" xadvance="7" page="0" chnl="15" />
    <char id="8356" x="312" y="22" width="11" height="20" xoffset="-2" yoffset="-2" xadvance="7" page="0" chnl="15" />
    <char id="8357" x="208" y="0" width="15" height="20" xoffset="-2" yoffset="-2" xadvance="11" page="0" chnl="15" />
    <char id="8358" x="357" y="0" width="14" height="20" xoffset="-3" yoffset="-2" xadvance="9" page="0" chnl="15" />
    <char id="8359" x="0" y="0" width="19" height="20" xoffset="-2" yoffset="-2" xadvance="15" page="0" chnl="15" />
    <char id="8360" x="42" y="0" width="19" height="20" xoffset="-2" yoffset="-2" xadvance="15" page="0" chnl="15" />
    <char id="8361" x="63" y="0" width="18" height="20" xoffset="-3" yoffset="-2" xadvance="12" page="0" chnl="15" />
    <char id="8362" x="707" y="0" width="13" height="20" xoffset="-2" yoffset="-2" xadvance="9" page="0" chnl="15" />
    <char id="8363" x="364" y="22" width="11" height="20" xoffset="-2" yoffset="-2" xadvance="7" page="0" chnl="15" />
    <char id="8364" x="912" y="0" width="12" height="20" xoffset="-3" yoffset="-2" xadvance="7" page="0" chnl="15" />
    <char id="8365" x="242" y="0" width="15" height="20" xoffset="-3" yoffset="-2" xadvance="9" page="0" chnl="15" />
    <char id="8366" x="722" y="0" width="13" height="20" xoffset="-2" yoffset="-2" xadvance="8" page="0" chnl="15" />
    <char id="8367" x="21" y="0" width="19" height="20" xoffset="-3" yoffset="-2" xadvance="13" page="0" chnl="15" />
    <char id="8368" x="13" y="22" width="11" height="20" xoffset="-2" yoffset="-2" xadvance="7" page="0" chnl="15" />
    <char id="8369" x="174" y="0" width="15" height="20" xoffset="-3" yoffset="-2" xadvance="9" page="0" chnl="15" />
    <char id="8370" x="341" y="0" width="14" height="20" xoffset="-2" yoffset="-2" xadvance="10" page="0" chnl="15" />
    <char id="8371" x="157" y="0" width="15" height="20" xoffset="-3" yoffset="-2" xadvance="9" page="0" chnl="15" />
    <char id="8372" x="737" y="0" width="13" height="20" xoffset="-3" yoffset="-2" xadvance="7" page="0" chnl="15" />
    <char id="8373" x="752" y="0" width="13" height="20" xoffset="-2" yoffset="-2" xadvance="9" page="0" chnl="15" />
    <char id="8374" x="1024" y="0" width="11" height="20" xoffset="-2" yoffset="-2" xadvance="7" page="0" chnl="15" />
    <char id="8375" x="767" y="0" width="13" height="20" xoffset="-2" yoffset="-2" xadvance="9" page="0" chnl="15" />
    <char id="8376" x="926" y="0" width="12" height="20" xoffset="-2" yoffset="-2" xadvance="8" page="0" chnl="15" />
    <char id="8377" x="39" y="22" width="11" height="20" xoffset="-2" yoffset="-2" xadvance="7" page="0" chnl="15" />
    <char id="8378" x="782" y="0" width="13" height="20" xoffset="-3" yoffset="-2" xadvance="7" page="0" chnl="15" />
    <char id="8379" x="121" y="0" width="16" height="20" xoffset="-3" yoffset="-2" xadvance="11" page="0" chnl="15" />
    <char id="8380" x="325" y="0" width="14" height="20" xoffset="-2" yoffset="-2" xadvance="10" page="0" chnl="15" />
    <char id="8381" x="797" y="0" width="13" height="20" xoffset="-3" yoffset="-2" xadvance="7" page="0" chnl="15" />
    <char id="8382" x="309" y="0" width="14" height="20" xoffset="-2" yoffset="-2" xadvance="10" page="0" chnl="15" />
    <char id="8383" x="632" y="0" width="13" height="20" xoffset="-2" yoffset="-2" xadvance="9" page="0" chnl="15" />
  </chars>
  <kernings count="70">
    <kerning first="32" second="65" amount="-1" />
    <kerning first="121" second="46" amount="-1" />
    <kerning first="121" second="44" amount="-1" />
    <kerning first="119" second="46" amount="-1" />
    <kerning first="119" second="44" amount="-1" />
    <kerning first="118" second="46" amount="-1" />
    <kerning first="118" second="44" amount="-1" />
    <kerning first="114" second="46" amount="-1" />
    <kerning first="114" second="44" amount="-1" />
    <kerning first="89" second="118" amount="-1" />
    <kerning first="49" second="49" amount="-1" />
    <kerning first="65" second="32" amount="-1" />
    <kerning first="65" second="84" amount="-1" />
    <kerning first="65" second="86" amount="-1" />
    <kerning first="65" second="87" amount="-1" />
    <kerning first="65" second="89" amount="-1" />
    <kerning first="89" second="117" amount="-1" />
    <kerning first="89" second="113" amount="-1" />
    <kerning first="89" second="112" amount="-1" />
    <kerning first="89" second="111" amount="-1" />
    <kerning first="70" second="44" amount="-2" />
    <kerning first="70" second="46" amount="-2" />
    <kerning first="70" second="65" amount="-1" />
    <kerning first="76" second="32" amount="-1" />
    <kerning first="76" second="84" amount="-1" />
    <kerning first="76" second="86" amount="-1" />
    <kerning first="76" second="87" amount="-1" />
    <kerning first="76" second="89" amount="-1" />
    <kerning first="76" second="121" amount="-1" />
    <kerning first="89" second="105" amount="-1" />
    <kerning first="89" second="101" amount="-1" />
    <kerning first="80" second="44" amount="-2" />
    <kerning first="80" second="46" amount="-2" />
    <kerning first="80" second="65" amount="-1" />
    <kerning first="89" second="97" amount="-1" />
    <kerning first="89" second="65" amount="-1" />
    <kerning first="89" second="58" amount="-1" />
    <kerning first="89" second="46" amount="-2" />
    <kerning first="89" second="45" amount="-1" />
    <kerning first="84" second="44" amount="-2" />
    <kerning first="84" second="45" amount="-1" />
    <kerning first="84" second="46" amount="-2" />
    <kerning first="84" second="58" amount="-2" />
    <kerning first="89" second="44" amount="-2" />
    <kerning first="84" second="65" amount="-1" />
    <kerning first="87" second="97" amount="-1" />
    <kerning first="84" second="97" amount="-2" />
    <kerning first="84" second="99" amount="-2" />
    <kerning first="84" second="101" amount="-2" />
    <kerning first="84" second="105" amount="-1" />
    <kerning first="84" second="111" amount="-2" />
    <kerning first="84" second="114" amount="-1" />
    <kerning first="84" second="115" amount="-2" />
    <kerning first="84" second="117" amount="-1" />
    <kerning first="84" second="119" amount="-1" />
    <kerning first="84" second="121" amount="-1" />
    <kerning first="86" second="44" amount="-1" />
    <kerning first="86" second="45" amount="-1" />
    <kerning first="86" second="46" amount="-1" />
    <kerning first="86" second="58" amount="-1" />
    <kerning first="87" second="65" amount="-1" />
    <kerning first="86" second="65" amount="-1" />
    <kerning first="86" second="97" amount="-1" />
    <kerning first="86" second="101" amount="-1" />
    <kerning first="87" second="46" amount="-1" />
    <kerning first="86" second="111" amount="-1" />
    <kerning first="86" second="114" amount="-1" />
    <kerning first="86" second="117" amount="-1" />
    <kerning first="86" second="121" amount="-1" />
    <kerning first="87" second="44" amount="-1" />
  </kernings>
</font>
