{"frames": {

"Avatar1":
{
	"frame": {"x":551,"y":26,"w":512,"h":512},
	"rotated": false,
	"trimmed": false,
	"spriteSourceSize": {"x":0,"y":0,"w":512,"h":512},
	"sourceSize": {"w":512,"h":512}
},
"Avatar2":
{
	"frame": {"x":3,"y":163,"w":512,"h":512},
	"rotated": false,
	"trimmed": false,
	"spriteSourceSize": {"x":0,"y":0,"w":512,"h":512},
	"sourceSize": {"w":512,"h":512}
},
"Avatar_Rectangle":
{
	"frame": {"x":1067,"y":26,"w":512,"h":512},
	"rotated": false,
	"trimmed": false,
	"spriteSourceSize": {"x":0,"y":0,"w":512,"h":512},
	"sourceSize": {"w":512,"h":512}
},
"Avatar_Rectangle_small":
{
	"frame": {"x":1867,"y":73,"w":42,"h":42},
	"rotated": false,
	"trimmed": false,
	"spriteSourceSize": {"x":0,"y":0,"w":42,"h":42},
	"sourceSize": {"w":42,"h":42}
},
"Avatar_Rectangle_small2":
{
	"frame": {"x":1857,"y":173,"w":36,"h":36},
	"rotated": false,
	"trimmed": false,
	"spriteSourceSize": {"x":0,"y":0,"w":36,"h":36},
	"sourceSize": {"w":36,"h":36}
},
"bale_front":
{
	"frame": {"x":1927,"y":3,"w":116,"h":43},
	"rotated": false,
	"trimmed": false,
	"spriteSourceSize": {"x":0,"y":0,"w":116,"h":43},
	"sourceSize": {"w":116,"h":43}
},
"bale_side_L":
{
	"frame": {"x":1857,"y":119,"w":37,"h":23},
	"rotated": false,
	"trimmed": false,
	"spriteSourceSize": {"x":0,"y":0,"w":37,"h":23},
	"sourceSize": {"w":37,"h":23}
},
"bale_side_R":
{
	"frame": {"x":1857,"y":146,"w":37,"h":23},
	"rotated": false,
	"trimmed": false,
	"spriteSourceSize": {"x":0,"y":0,"w":37,"h":23},
	"sourceSize": {"w":37,"h":23}
},
"ballIndicator_dotBall":
{
	"frame": {"x":519,"y":329,"w":14,"h":14},
	"rotated": false,
	"trimmed": false,
	"spriteSourceSize": {"x":0,"y":0,"w":14,"h":14},
	"sourceSize": {"w":14,"h":14}
},
"batsmanPartnership_Unit":
{
	"frame": {"x":1813,"y":792,"w":220,"h":31},
	"rotated": false,
	"trimmed": false,
	"spriteSourceSize": {"x":0,"y":0,"w":220,"h":31},
	"sourceSize": {"w":220,"h":31}
},
"batsmanStats_Unit":
{
	"frame": {"x":1813,"y":717,"w":228,"h":71},
	"rotated": false,
	"trimmed": false,
	"spriteSourceSize": {"x":0,"y":0,"w":228,"h":71},
	"sourceSize": {"w":228,"h":71}
},
"bowlerStats_Unit":
{
	"frame": {"x":1583,"y":26,"w":280,"h":71},
	"rotated": false,
	"trimmed": false,
	"spriteSourceSize": {"x":0,"y":0,"w":280,"h":71},
	"sourceSize": {"w":280,"h":71}
},
"currentOver_unit":
{
	"frame": {"x":3,"y":26,"w":544,"h":133},
	"rotated": false,
	"trimmed": false,
	"spriteSourceSize": {"x":0,"y":0,"w":544,"h":133},
	"sourceSize": {"w":544,"h":133}
},
"curScore_ballbg":
{
	"frame": {"x":519,"y":209,"w":22,"h":22},
	"rotated": false,
	"trimmed": false,
	"spriteSourceSize": {"x":0,"y":0,"w":22,"h":22},
	"sourceSize": {"w":22,"h":22}
},
"curScore_center_center":
{
	"frame": {"x":1918,"y":50,"w":127,"h":43},
	"rotated": false,
	"trimmed": false,
	"spriteSourceSize": {"x":0,"y":0,"w":127,"h":43},
	"sourceSize": {"w":127,"h":43}
},
"curScore_center_left":
{
	"frame": {"x":519,"y":235,"w":17,"h":43},
	"rotated": false,
	"trimmed": false,
	"spriteSourceSize": {"x":0,"y":0,"w":17,"h":43},
	"sourceSize": {"w":17,"h":43}
},
"curScore_center_right":
{
	"frame": {"x":519,"y":282,"w":17,"h":43},
	"rotated": false,
	"trimmed": false,
	"spriteSourceSize": {"x":0,"y":0,"w":17,"h":43},
	"sourceSize": {"w":17,"h":43}
},
"curScore_left":
{
	"frame": {"x":1961,"y":525,"w":71,"h":42},
	"rotated": false,
	"trimmed": false,
	"spriteSourceSize": {"x":0,"y":0,"w":71,"h":42},
	"sourceSize": {"w":71,"h":42}
},
"curScore_right":
{
	"frame": {"x":1867,"y":26,"w":47,"h":43},
	"rotated": false,
	"trimmed": false,
	"spriteSourceSize": {"x":0,"y":0,"w":47,"h":43},
	"sourceSize": {"w":47,"h":43}
},
"curScore_top":
{
	"frame": {"x":1897,"y":201,"w":133,"h":24},
	"rotated": false,
	"trimmed": false,
	"spriteSourceSize": {"x":0,"y":0,"w":133,"h":24},
	"sourceSize": {"w":133,"h":24}
},
"headerBar":
{
	"frame": {"x":3,"y":3,"w":1920,"h":19},
	"rotated": false,
	"trimmed": false,
	"spriteSourceSize": {"x":0,"y":0,"w":1920,"h":19},
	"sourceSize": {"w":1920,"h":19}
},
"locationIcon":
{
	"frame": {"x":519,"y":163,"w":26,"h":42},
	"rotated": false,
	"trimmed": false,
	"spriteSourceSize": {"x":0,"y":0,"w":26,"h":42},
	"sourceSize": {"w":26,"h":42}
},
"matchball":
{
	"frame": {"x":1913,"y":97,"w":100,"h":100},
	"rotated": false,
	"trimmed": false,
	"spriteSourceSize": {"x":0,"y":0,"w":100,"h":100},
	"sourceSize": {"w":100,"h":100}
},
"outPopup":
{
	"frame": {"x":1035,"y":637,"w":500,"h":251},
	"rotated": false,
	"trimmed": false,
	"spriteSourceSize": {"x":0,"y":0,"w":500,"h":251},
	"sourceSize": {"w":500,"h":251}
},
"p2p_dotballs":
{
	"frame": {"x":1890,"y":333,"w":100,"h":92},
	"rotated": false,
	"trimmed": false,
	"spriteSourceSize": {"x":0,"y":0,"w":100,"h":92},
	"sourceSize": {"w":100,"h":92}
},
"p2p_fours":
{
	"frame": {"x":1890,"y":429,"w":100,"h":92},
	"rotated": false,
	"trimmed": false,
	"spriteSourceSize": {"x":0,"y":0,"w":100,"h":92},
	"sourceSize": {"w":100,"h":92}
},
"p2p_sixes":
{
	"frame": {"x":1857,"y":525,"w":100,"h":92},
	"rotated": false,
	"trimmed": false,
	"spriteSourceSize": {"x":0,"y":0,"w":100,"h":92},
	"sourceSize": {"w":100,"h":92}
},
"p2p_wickets":
{
	"frame": {"x":1857,"y":621,"w":100,"h":92},
	"rotated": false,
	"trimmed": false,
	"spriteSourceSize": {"x":0,"y":0,"w":100,"h":92},
	"sourceSize": {"w":100,"h":92}
},
"p2pScoreBox":
{
	"frame": {"x":1890,"y":229,"w":100,"h":100},
	"rotated": false,
	"trimmed": false,
	"spriteSourceSize": {"x":0,"y":0,"w":100,"h":100},
	"sourceSize": {"w":100,"h":100}
},
"Player_Left_rectangle":
{
	"frame": {"x":3,"y":931,"w":512,"h":244},
	"rotated": false,
	"trimmed": false,
	"spriteSourceSize": {"x":0,"y":0,"w":512,"h":244},
	"sourceSize": {"w":512,"h":244}
},
"Player_Right_rectangle":
{
	"frame": {"x":3,"y":679,"w":512,"h":248},
	"rotated": false,
	"trimmed": false,
	"spriteSourceSize": {"x":0,"y":0,"w":512,"h":248},
	"sourceSize": {"w":512,"h":248}
},
"resultImg_catch":
{
	"frame": {"x":1539,"y":665,"w":270,"h":278},
	"rotated": false,
	"trimmed": false,
	"spriteSourceSize": {"x":0,"y":0,"w":270,"h":278},
	"sourceSize": {"w":270,"h":278}
},
"resultImg_extra":
{
	"frame": {"x":1035,"y":966,"w":270,"h":278},
	"rotated": false,
	"trimmed": false,
	"spriteSourceSize": {"x":0,"y":0,"w":270,"h":278},
	"sourceSize": {"w":270,"h":278}
},
"resultImg_four":
{
	"frame": {"x":519,"y":1058,"w":270,"h":278},
	"rotated": false,
	"trimmed": false,
	"spriteSourceSize": {"x":0,"y":0,"w":270,"h":278},
	"sourceSize": {"w":270,"h":278}
},
"resultImg_Out":
{
	"frame": {"x":1583,"y":101,"w":270,"h":278},
	"rotated": false,
	"trimmed": false,
	"spriteSourceSize": {"x":0,"y":0,"w":270,"h":278},
	"sourceSize": {"w":270,"h":278}
},
"resultImg_run":
{
	"frame": {"x":3,"y":1179,"w":270,"h":278},
	"rotated": false,
	"trimmed": false,
	"spriteSourceSize": {"x":0,"y":0,"w":270,"h":278},
	"sourceSize": {"w":270,"h":278}
},
"resultImg_sixer":
{
	"frame": {"x":1527,"y":947,"w":270,"h":278},
	"rotated": false,
	"trimmed": false,
	"spriteSourceSize": {"x":0,"y":0,"w":270,"h":278},
	"sourceSize": {"w":270,"h":278}
},
"resultImg_Wide":
{
	"frame": {"x":1583,"y":383,"w":270,"h":278},
	"rotated": false,
	"trimmed": false,
	"spriteSourceSize": {"x":0,"y":0,"w":270,"h":278},
	"sourceSize": {"w":270,"h":278}
},
"resultPopup":
{
	"frame": {"x":1527,"y":1229,"w":270,"h":278},
	"rotated": false,
	"trimmed": false,
	"spriteSourceSize": {"x":0,"y":0,"w":270,"h":278},
	"sourceSize": {"w":270,"h":278}
},
"stump":
{
	"frame": {"x":1857,"y":213,"w":29,"h":281},
	"rotated": false,
	"trimmed": false,
	"spriteSourceSize": {"x":0,"y":0,"w":29,"h":281},
	"sourceSize": {"w":29,"h":281}
},
"Vs":
{
	"frame": {"x":1961,"y":571,"w":60,"h":60},
	"rotated": false,
	"trimmed": false,
	"spriteSourceSize": {"x":0,"y":0,"w":60,"h":60},
	"sourceSize": {"w":60,"h":60}
},
"Vs_White":
{
	"frame": {"x":519,"y":542,"w":512,"h":512},
	"rotated": false,
	"trimmed": false,
	"spriteSourceSize": {"x":0,"y":0,"w":512,"h":512},
	"sourceSize": {"w":512,"h":512}
},
"wicketsLeft":
{
	"frame": {"x":1433,"y":892,"w":90,"h":388},
	"rotated": false,
	"trimmed": false,
	"spriteSourceSize": {"x":0,"y":0,"w":90,"h":388},
	"sourceSize": {"w":90,"h":388}
},
"Winvalue":
{
	"frame": {"x":1035,"y":542,"w":512,"h":91},
	"rotated": false,
	"trimmed": false,
	"spriteSourceSize": {"x":0,"y":0,"w":512,"h":91},
	"sourceSize": {"w":512,"h":91}
},
"Winvalue_White":
{
	"frame": {"x":1035,"y":892,"w":394,"h":70},
	"rotated": false,
	"trimmed": false,
	"spriteSourceSize": {"x":0,"y":0,"w":394,"h":70},
	"sourceSize": {"w":394,"h":70}
}},
"animations": {
	"Avatar": ["Avatar1","Avatar2"]
},
"meta": {
	"app": "https://www.codeandweb.com/texturepacker",
	"version": "1.0",
	"image": "ctt_ui.png",
	"format": "RGBA8888",
	"size": {"w":2048,"h":2048},
	"scale": "1",
	"smartupdate": "$TexturePacker:SmartUpdate:bc45ff30c1d2fbea7c8524dcfdddb055:f6825c379b3c1aabe57ff10fcf0a0714:6f35c913a1563544752d1b3931e67bfc$"
}
}
