{
    "howtoplayvcttrules": [{
            "title": "Welcome to VCTT",
            "text": "Virtual Catch The Trend is a fast paced free to play and pay to play game combining all of the excitement of T20 cricket with the opportunity to win big!",
            "img": "assets/images/HTPVCTT_Assets/HTP_1.png"
        },
        {
            "title": "Gameplay",
            "text": "Use your skill and knowledge to predict how many 4's, 6's, Wickets (w's) and dot balls (0's) will occur in any given over of our virtual T20 Matches",
            "img": "assets/images/HTPVCTT_Assets/HTP_2.png"
        },
        {
            "title": "Choosing your selections",
            "text": "Simply click on any of the up/down arrows to increase or decrease the number next to each selection choices and then click on play",
            "img": "assets/images/HTPVCTT_Assets/HTP_3.png"
        },
        {
            "title": "Different Game Types (Pay to Play)",
            "text": "You can decide to play our 1, 3 or 5 over games each of which have different prize payouts and consolation prizes in the 3 and 5 over games.",
            "img": "assets/images/HTPVCTT_Assets/HTP_4.png"
        },
        {
            "title": "Be Quick!",
            "text": "Be sure to enter your selections before an over starts. Overs play out quickly and you run the risk of a bet not being placed. ",
            "img": "assets/images/HTPVCTT_Assets/HTP_5.png"
        },
        {
            "title": "Auto Selections",
            "title2": "(3 and 5 over games)",
            "text": "In 3 and 5 over games. If you fail to make a selection before the over begins you will be automatically assigned the same selections as chosen in the prior over. ",
            "img": "assets/images/HTPVCTT_Assets/HTP_6.png"
        },
        {
            "title": "Odds Table",
            "text": "View 'Odds Table' within the main gameplay screen to view the full details of exactly can be won for each of the respective games.",
            "img": "assets/images/HTPVCTT_Assets/HTP_7.png"
        },
        {
            "title": "Results",
            "text": "As well as your bet history, you can also find a quick recap of how you have performed within a specific game via the Results tab.",
            "img": "assets/images/HTPVCTT_Assets/HTP_8.png"
        },
        {
            "title": "Game Logic",
            "text": "To replicate the outcome of each ball, over and match as accurately as possible, huge amounts of historic data and analysis are used.",
            "img": "assets/images/HTPVCTT_Assets/HTP_9.png"
        },
        {
            "title": "Free to Play Mode",
            "text": "Free play gives players the opportunity to compete against others to accumulate as many points as possible. The more points the higher you will position on the leaderboard and the greater chance to win prizes.",
            "img": "assets/images/HTPVCTT_Assets/HTP_10.png"
        },
        {
            "title": "Free to play How to Score",
            "text": "Points can be gain by correctly predicting selections over the whole of a T20 match (40 Overs). 1 point is gained for getting 1 selection correct in any given over, 3 points for 2, 5 points for 3 and 10 points for 4.",
            "img": "assets/images/HTPVCTT_Assets/HTP_11.png"
        },
        {
            "title": "Free to Play Leaderboard",
            "text": "The more points that you accumulate over the course of the match, the higher you are likely to perform on the leaderboard. The leaderboard updates after each over as the match progresses.",
            "img": "assets/images/HTPVCTT_Assets/HTP_12.png"
        },
        {
            "title": "Free to Play Prizes",
            "text": "There are some great prizes to be won by topping the weekly leaderboards. Please see the leaderboard tab for a list of the prize awards available.",
            "img": "assets/images/HTPVCTT_Assets/HTP_13.png"
        },
        {
            "title": "Get Started",
            "text": "You are now ready to enjoy the fun and excitement of the virtual action. Click on FAQs or TERMS for further info or click the BACK TO GAME button below to get started",
            "img": "assets/images/HTPVCTT_Assets/HTP_14.png"
        }
    ]
}