{"frames": {

"betpanelbg5":
{
	"frame": {"x":3,"y":3,"w":667,"h":580},
	"rotated": false,
	"trimmed": false,
	"spriteSourceSize": {"x":0,"y":0,"w":667,"h":580},
	"sourceSize": {"w":667,"h":580}
},
"bg_day":
{
	"frame": {"x":3,"y":587,"w":667,"h":313},
	"rotated": false,
	"trimmed": false,
	"spriteSourceSize": {"x":0,"y":0,"w":667,"h":313},
	"sourceSize": {"w":667,"h":313}
},
"bg_night":
{
	"frame": {"x":3,"y":904,"w":667,"h":313},
	"rotated": false,
	"trimmed": false,
	"spriteSourceSize": {"x":0,"y":0,"w":667,"h":313},
	"sourceSize": {"w":667,"h":313}
}},
"meta": {
	"app": "https://www.codeandweb.com/texturepacker",
	"version": "1.0",
	"image": "ctt_gamebg.jpg",
	"format": "RGB888",
	"size": {"w":1024,"h":2048},
	"scale": "0.667",
	"smartupdate": "$TexturePacker:SmartUpdate:529228ec0e3a8b350c9f66695aa265f2:0834f1bbe8e613ffef07176c9eb095d5:49f1524b37e298f2db373a5927f4c4f9$"
}
}
