{
  "gameConfig" : {
    "gameProvider" : "Pixentech",
    "isConsoleActive" : false,
    "coreVersion" : "19.03.2022_2226",
    "buildVersion" :  "1.02",
    "commonAssetVersion" : "1.00",
    "gameAssetVersions" : {
      "defender" : "1.00"
    },
    "currencyObject" : {
      "XAF": "XAF",
      "BRL": "BRL"
    },
    "gameLogoOperators": ["playabet", "starbet"],
    "SinglePlayerTeamsList" : [{"name" : "Arsenal", "icon" : "arsenalLogo"}, {"name" : "Aston Villa", "icon" : "astonvillaLogo"},
      {"name" : "Brentford", "icon" : "brentfordLogo"}, {"name" : "Brighton", "icon" : "brighton&Hove_AlbionLogo"},
      {"name" : "Burnley", "icon" : "burnleyLogo"}, {"name" : "Chelsea", "icon" : "chelseaLogo"},
      {"name" : "Crystal", "icon" : "crystalpalaceLogo"}, {"name" : "Everton", "icon" : "evertonLogo"},
      {"name" : "Leeds Utd", "icon" : "leedsutdLogo"}, {"name" : "Lct City", "icon" : "leicestercityLogo"},
      {"name" : "Liverpool", "icon" : "liverpoolLogo"}, {"name" : "Man City", "icon" : "manchestercityLogo"},
      {"name" : "Man Utd", "icon" : "manutdLogo"}, {"name" : "New Castle", "icon" : "newcastleutdLogo"},
      {"name" : "Norwich", "icon" : "norwichLogo"}, {"name" : "Southampton", "icon" : "southamptonLogo"},
      {"name" : "Tottenham", "icon" : "tottenhamhotspurLogo"}, {"name" : "Watford", "icon" : "watfordLogo"},
      {"name" : "West Ham", "icon" : "westhamutdLogo"}, {"name" : "Wolver", "icon" : "wolverhamptonLogo"}
    ],
    "TourneyTeamsList" : [{"name" : "Belgium", "icon" : "belgiumIcon"}, {"name" : "Brazil", "icon" : "brazilIcon"},
      {"name" : "England", "icon" : "englandIcon"}, {"name" : "Spain", "icon" : "spainIcon"},
      {"name" : "Argentina", "icon" : "argentinaIcon"}, {"name" : "Italy", "icon" : "italyIcon"},
      {"name" : "Germany", "icon" : "germanyIcon"}, {"name" : "France", "icon" : "franceIcon"},
      {"name" : "Portugal", "icon" : "portugalIcon"}, {"name" : "Netherlands", "icon" : "netherlandlIcon"},
      {"name" : "Uruguay", "icon" : "uruguayIcon"}, {"name" : "Croatia", "icon" : "croatiaIcon"},
      {"name" : "Columbia", "icon" : "colombiaIcon"}, {"name" : "Turkey", "icon" : "turkyIcon"},
      {"name" : "Czech Republic", "icon" : "czechiaIcon"}, {"name" : "Norway", "icon" : "norwayIcon"},
      {"name" : "Kenya", "icon" : "kenyaIcon"}, {"name" : "Nigeria", "icon" : "nigeriaIcon"},
      {"name" : "Mexico", "icon" : "mexicoIcon"}, {"name" : "Chile", "icon" : "chillieIcon"},
      {"name" : "United States", "icon" : "usIcon"}, {"name" : "Japan", "icon" : "japanIcon"},
      {"name" : "Australia", "icon" : "australiaIcon"}, {"name" : "Ireland", "icon" : "irelandIcon"},
      {"name" : "Jamaica", "icon" : "jamaicaIcon"}, {"name" : "Algeria", "icon" : "algeriaIcon"},
      {"name" : "Ghana", "icon" : "ghanaIcon"}, {"name" : "Greece", "icon" : "greeceIcon"},
      {"name" : "Cameroon", "icon" : "cameroonIcon"}, {"name" : "Uganda", "icon" : "ugandaIcon"},
      {"name" : "South Africa", "icon" : "southafricaIcon"}
    ],
    "TourneyTeamsCategories" : {
      "tier3" : ["Kenya", "Nigeria", "Mexico", "Chile", "United States", "Japan", "Australia", "Ireland", "Jamaica", "Algeria", "Ghana", "Cameroon", "Uganda", "South Africa"],
      "tier2" : ["France", "Portugal", "Netherlands", "Uruguay", "Croatia", "Columbia", "Turkey", "Czech Republic", "Norway", "Greece"],
      "tier1" : ["Belgium", "Brazil", "England", "Spain", "Argentina", "Italy"]
    }

  }
}
