{"frames": {

"splashBG_P":
{
	"frame": {"x":3,"y":3,"w":960,"h":2075},
	"rotated": false,
	"trimmed": false,
	"spriteSourceSize": {"x":0,"y":0,"w":960,"h":2075},
	"sourceSize": {"w":960,"h":2075}
}},
"meta": {
	"app": "https://www.codeandweb.com/texturepacker",
	"version": "1.0",
	"image": "fwp_preloaderbg.jpg",
	"format": "RGB888",
	"size": {"w":1024,"h":4096},
	"scale": "1",
	"smartupdate": "$TexturePacker:SmartUpdate:357981b0bce3fc5d7fc48862be5c8f5b:a0b723c2e1e2fed1c69175efcc09d8b9:dd13b4a8d6f5be9cbf288b542c4db0cd$"
}
}
