{
    "buttonConfig": {
        "playForFree": "JOUER GRATUITEMENT",
        "playForCash": "JOUER",
        "howToPlay": "COMMENT JOUER",
        "results": "RÉSULTATS",
        "termsAndFaqs": "TERMES et FAQ",
        "singlePlayer": "Joueur unique",
        "tournament": "Tournoi",
        "play": "Jouer",
        "back": "Retour",
        "confirm": "Confirmer",
        "yes": "Oui",
        "no": "Non",
        "chooseUsername": "CHOOSE USERNAME",
        "submit": "Soumettre"
    },
    "textConfig": {
        "howManyConsecutivePenalties": "COMBIEN DE PÉNALITÉS CONSÉCUTIVES POUVEZ-VOUS MARQUER?",
        "areYouSureToQuit": "Êtes-vous sûr de vouloir quitter?",
        "currentLeaderboard": "CLASSEMENT ACTUEL",
        "users": "Utilisateurs",
        "pens": "Des stylos",
        "rank": "Rang",
        "firstPrize": "1er prix",
        "secondPrize": "2e prix",
        "thirdPrize": "3e prix",
        "chooseTeam": "CHOISIR L'ÉQUIPE",
        "myPenaltiesScored": "Mes pénalités marquées",
        "myPosition": "Ma position",
        "topOurSingleGame": "Surmontez notre classement de jeu unique pour gagner l'un des superbes prix ci-dessous. Le concours se termine à minuit EAT le dimanche",
        "singleGameLeaderboard": "Classement d'un seul jeu",
        "tournamentLeaderboard": "CLASSEMENT DU TOURNOI",
        "topOurTournament": " Dominez notre classement de tournoi pour gagner l'un des superbes prix ci-dessous. Le concours se termine à minuit EAT le dimanche ",
        "qualifyYourWay": "Qualifiez-vous jusqu'à la finale et marquez autant de pénalités que possible pour être en tête du classement",
        "currentLeader": "Chef actuel",
        "tournamentLastDraw": "Tirage au sort des 16 derniers tournois",
        "quarterFinal": "Quart de finale",
        "semiFinal": "Demi-finale",
        "final": "Final",
        "last16": "16 derniers",
        "totalGoals": "Objectifs totaux",
        "chooseYourBet": "CHOISISSEZ VOTRE PARI",
        "potentialWin": "GAGNANT POTENTIEL",
        "totalOdds": "Cotes totales",
        "stake": "Pieu",
        "exciseTax": "Taxe d'accise",
        "stakeAfterTax": "Mise après impôt",
        "withholdingTax": "La retenue d'impôt",
        "totalReturn": "RETOUR TOTAL",
        "score3From3": "Marquez 3 sur 3 = 6.5x votre mise",
        "score4From4": "Marquez 4 sur 4 = Gagnez 9x votre pari",
        "score3From4": "Marquez 3 sur 4 = Gagnez 1x votre pari",
        "score5From5": "Marquez 5 sur 5 = Gagnez 15x votre pari",
        "score4From5": "Marquez 4 sur 5 = Gagnez 2x votre pari",
        "chooseNumberOfPenalties": "CHOISISSEZ VOTRE NOMBRE DE PÉNALITÉS",
        "bet": "Pari",
        "possibleWin": "Victoire possible",
        "free": "Libre",
        "youArePlaying": "Tu joues ",
        "penalties": "pénalités",
        "activeGameOpen": "Vous avez encore une partie active ouverte. Cliquez sur OK pour terminer ce jeu avant d'en commencer un autre.",
        "score4PenaltiesForFinal": "Marquez 4 pénalités pour passer en finale",
        "score4PenaltiesForSemiFinal": "Marquez 4 pénalités pour passer en demi-finale",
        "score4PenaltiesForQuarterFinal": "Marquez 4 pénalités pour passer en quart de finale",
        "congratsForSemiFinal": "Félicitations, vous avez atteint la demi-finale",
        "congratsForQuarterFinal": "Félicitations, vous avez atteint les quarts de finale",
        "congratsThroughFinal": "Félicitations, vous avez atteint la finale",
        "congratsThroughSemiFinal": "Félicitations, vous avez atteint la demi-finale",
        "congratsThroughQuarterFinal": "Félicitations, vous avez atteint les quarts de finale",

        "youAreJoiningTourney": " Vous rejoignez le tournoi avec ",
        "youWillNeedToHaveBet": "Vous devrez avoir parié ",
        "thisWeekToQualify": "cette semaine afin de se qualifier pour participer au concours de jeu gratuit",
        "maxPossibleStake": "La mise maximale possible pour cette sélection est ",
        "minPossibleStake": "La mise minimale possible pour cette sélection est ",

        "singleGameLeaderboardNote": "Surmontez notre classement de jeu unique pour gagner l'un des superbes prix ci-dessous. Le concours se termine à minuit EAT le dimanche ",
        "tournamentLeaderboardNote": " Dominez notre classement de tournoi pour gagner l'un des superbes prix ci-dessous. Le concours se termine à minuit EAT le dimanche ",
        "pleaseEnterUserName": "S'il vous plaît entrer un nom d'affichage",
        "loading": "Chargement en cours"
    },
    "cashTournamentPlay": {
        "qualifyFromLast16": "Qualifiez-vous des huitièmes de finale jusqu'à la finale en inscrivant au moins 4 pénalités à chaque tour",
        "paytable": "TABLEAU DE PAIEMENT",
        "scoring5GoalsInFinal": "MARQUER 5 BUTS EN FINALE",
        "scoring4GoalsInFinal": "MARQUER 4 BUTS EN FINALE",
        "scoring3GoalsInFinal": "MARQUER 3 BUTS EN FINALE",
        "qualifyingFromSemiFinal": "QUALIFICATION DES SF",
        "qualifyingFromQuarterFinal": "SE QUALIFIER DES QF'S",
        "more": "Suite",
        "less": "Moins",
        "jackpotPrize": "Ce prix jackpot sera partagé entre tous les joueurs qui marquent tous les 20/20 dans un tournoi, chaque semaine civile. Tout pari en espèces de n'importe quel montant de pari est également admissible. Les gagnants seront contactés et informés des gagnants dans les 24 heures suivant la clôture d'une semaine de jeu.",
        "plusScore": "De plus, marquez les 5 buts en 4 tours pour gagner un jackpot allant jusqu'à 1 million de MZN",
        "guaranteedPrizeWon": " Prix garanti gagné",
        "pleaseEnterUsername": "PLEASE ENTER A USERNAME",
        "weeklyFreePlayLeaderboard": "CLASSEMENT HEBDOMADAIRE GRATUIT POUR JOUER",
        "chooseNickname": "Choisissez votre surnom qui sera affiché dans nos classements pour courir la chance de gagner de superbes prix"
    },
    "resultsPageConfig": {
        "note": "Remarque : les résultats du classement du jeu gratuit n'apparaîtront qu'à la fin d'une compétition particulière et seul votre meilleur score dans cette compétition particulière sera affiché.",
        "cashPlay": "Jeu d'argent",
        "freePlay": "Jeu gratuit",
        "search": "chercher",
        "dateTime": "Date/Heure",
        "result": "Résultat",
        "prize": "Prix",
        "noDataAvailableForSpecifiedDate": "Aucune donnée disponible pour la date spécifiée",
        "team": "Équipe",
        "penaltiesTaken": "Sanctions prises",
        "scored": "Marqué",
        "lost": "Perdu",
        "won": "A gagné",
        "from": "De",
        "to": "À"
    }
}