{"frames": {

"Avatar_mask":
{
	"frame": {"x":851,"y":3,"w":84,"h":84},
	"rotated": false,
	"trimmed": false,
	"spriteSourceSize": {"x":0,"y":0,"w":84,"h":84},
	"sourceSize": {"w":84,"h":84}
},
"BallIcon":
{
	"frame": {"x":1025,"y":95,"w":163,"h":163},
	"rotated": false,
	"trimmed": false,
	"spriteSourceSize": {"x":0,"y":0,"w":163,"h":163},
	"sourceSize": {"w":163,"h":163}
},
"ballTrail":
{
	"frame": {"x":623,"y":3,"w":224,"h":55},
	"rotated": false,
	"trimmed": false,
	"spriteSourceSize": {"x":0,"y":0,"w":224,"h":55},
	"sourceSize": {"w":224,"h":55}
},
"Big_Multiplier_line":
{
	"frame": {"x":828,"y":1001,"w":33,"h":3},
	"rotated": false,
	"trimmed": false,
	"spriteSourceSize": {"x":0,"y":0,"w":33,"h":3},
	"sourceSize": {"w":33,"h":3}
},
"cashoutline":
{
	"frame": {"x":1994,"y":45,"w":9,"h":148},
	"rotated": false,
	"trimmed": false,
	"spriteSourceSize": {"x":0,"y":0,"w":9,"h":148},
	"sourceSize": {"w":9,"h":148}
},
"exitBtn":
{
	"frame": {"x":623,"y":62,"w":84,"h":84},
	"rotated": false,
	"trimmed": false,
	"spriteSourceSize": {"x":0,"y":0,"w":84,"h":84},
	"sourceSize": {"w":84,"h":84}
},
"Field_icon":
{
	"frame": {"x":939,"y":3,"w":79,"h":171},
	"rotated": false,
	"trimmed": false,
	"spriteSourceSize": {"x":0,"y":0,"w":79,"h":171},
	"sourceSize": {"w":79,"h":171}
},
"Gradient_white":
{
	"frame": {"x":10,"y":3,"w":225,"h":870},
	"rotated": false,
	"trimmed": false,
	"spriteSourceSize": {"x":0,"y":0,"w":225,"h":870},
	"sourceSize": {"w":225,"h":870}
},
"line6":
{
	"frame": {"x":1227,"y":3,"w":9,"h":157},
	"rotated": false,
	"trimmed": false,
	"spriteSourceSize": {"x":0,"y":0,"w":9,"h":157},
	"sourceSize": {"w":9,"h":157}
},
"maskImg":
{
	"frame": {"x":2036,"y":3,"w":9,"h":157},
	"rotated": false,
	"trimmed": false,
	"spriteSourceSize": {"x":0,"y":0,"w":9,"h":157},
	"sourceSize": {"w":9,"h":157}
},
"matchStartPlayerbg":
{
	"frame": {"x":1240,"y":3,"w":750,"h":250},
	"rotated": false,
	"trimmed": false,
	"spriteSourceSize": {"x":0,"y":0,"w":750,"h":250},
	"sourceSize": {"w":750,"h":250}
},
"Multiplier_indicator":
{
	"frame": {"x":711,"y":62,"w":66,"h":45},
	"rotated": false,
	"trimmed": false,
	"spriteSourceSize": {"x":0,"y":0,"w":66,"h":45},
	"sourceSize": {"w":66,"h":45}
},
"Multiplier_line":
{
	"frame": {"x":10,"y":877,"w":1011,"h":3},
	"rotated": false,
	"trimmed": false,
	"spriteSourceSize": {"x":0,"y":0,"w":1011,"h":3},
	"sourceSize": {"w":1011,"h":3}
},
"Name_fade_1":
{
	"frame": {"x":1025,"y":3,"w":198,"h":42},
	"rotated": false,
	"trimmed": false,
	"spriteSourceSize": {"x":0,"y":0,"w":198,"h":42},
	"sourceSize": {"w":198,"h":42}
},
"Name_fade_2":
{
	"frame": {"x":1025,"y":49,"w":198,"h":42},
	"rotated": false,
	"trimmed": false,
	"spriteSourceSize": {"x":0,"y":0,"w":198,"h":42},
	"sourceSize": {"w":198,"h":42}
},
"Player marker":
{
	"frame": {"x":807,"y":988,"w":17,"h":18},
	"rotated": false,
	"trimmed": false,
	"spriteSourceSize": {"x":0,"y":0,"w":17,"h":18},
	"sourceSize": {"w":17,"h":18}
},
"Players_container":
{
	"frame": {"x":807,"y":884,"w":429,"h":100},
	"rotated": false,
	"trimmed": false,
	"spriteSourceSize": {"x":0,"y":0,"w":429,"h":100},
	"sourceSize": {"w":429,"h":100}
},
"Small_Multipler line":
{
	"frame": {"x":841,"y":988,"w":23,"h":3},
	"rotated": false,
	"trimmed": false,
	"spriteSourceSize": {"x":0,"y":0,"w":23,"h":3},
	"sourceSize": {"w":23,"h":3}
},
"smallball":
{
	"frame": {"x":1994,"y":3,"w":38,"h":38},
	"rotated": false,
	"trimmed": false,
	"spriteSourceSize": {"x":0,"y":0,"w":38,"h":38},
	"sourceSize": {"w":38,"h":38}
},
"smallround":
{
	"frame": {"x":828,"y":988,"w":9,"h":9},
	"rotated": false,
	"trimmed": false,
	"spriteSourceSize": {"x":0,"y":0,"w":9,"h":9},
	"sourceSize": {"w":9,"h":9}
},
"Starting_container":
{
	"frame": {"x":239,"y":262,"w":1125,"h":144},
	"rotated": false,
	"trimmed": false,
	"spriteSourceSize": {"x":0,"y":0,"w":1125,"h":144},
	"sourceSize": {"w":1125,"h":144}
},
"Time_line":
{
	"frame": {"x":3,"y":1013,"w":1125,"h":3},
	"rotated": false,
	"trimmed": false,
	"spriteSourceSize": {"x":0,"y":0,"w":1125,"h":3},
	"sourceSize": {"w":1125,"h":3}
},
"titleFWP":
{
	"frame": {"x":239,"y":3,"w":380,"h":175},
	"rotated": false,
	"trimmed": false,
	"spriteSourceSize": {"x":0,"y":0,"w":380,"h":175},
	"sourceSize": {"w":380,"h":175}
},
"topbarbg":
{
	"frame": {"x":3,"y":889,"w":800,"h":120},
	"rotated": false,
	"trimmed": false,
	"spriteSourceSize": {"x":0,"y":0,"w":800,"h":120},
	"sourceSize": {"w":800,"h":120}
},
"Vertical_time divider":
{
	"frame": {"x":3,"y":3,"w":3,"h":882},
	"rotated": false,
	"trimmed": false,
	"spriteSourceSize": {"x":0,"y":0,"w":3,"h":882},
	"sourceSize": {"w":3,"h":882}
},
"winningMultibg":
{
	"frame": {"x":1132,"y":988,"w":78,"h":32},
	"rotated": false,
	"trimmed": false,
	"spriteSourceSize": {"x":0,"y":0,"w":78,"h":32},
	"sourceSize": {"w":78,"h":32}
}},
"animations": {
	"Name_fade": ["Name_fade_1","Name_fade_2"]
},
"meta": {
	"app": "https://www.codeandweb.com/texturepacker",
	"version": "1.0",
	"image": "fwp_newUI.png",
	"format": "RGBA8888",
	"size": {"w":2048,"h":1024},
	"scale": "1",
	"smartupdate": "$TexturePacker:SmartUpdate:96a62db11f12951ed628bf1d91358691:21a073f94541884b73c03483f606d34e:6a38ddf50dc88a8a1f2f9b72954e1235$"
}
}
