{
  "tournaments" : [
    {"tournamentId" :  "IPL",
      "runProbability": {
        "1": [
          [20,40,10,5,15,10],
          [20,40,10,5,15,10],
          [20,40,10,5,15,10],
          [20,40,10,5,15,10]
        ],
        "2": [
          [25,30,15,5,15,10],
          [25,30,15,5,15,10],
          [25,30,15,5,15,10],
          [25,30,15,5,15,10]
        ],
        "3": [
          [25,35,20,0,10,10],
          [25,35,20,0,10,10],
          [25,35,20,0,10,10],
          [25,35,20,0,10,10]
        ],
        "4": [
          [35,35,15,5,5,5],
          [35,35,15,5,5,5],
          [35,35,15,5,5,5],
          [35,35,15,5,5,5]
        ],
        "5": [
          [15,20,20,5,20,20],
          [15,20,20,5,20,20],
          [15,20,20,5,20,20],
          [15,20,20,5,20,20]
        ],
        "6": [
          [15,15,15,5,30,20],
          [15,15,15,5,30,20],
          [15,15,15,5,30,20],
          [15,15,15,5,30,20]
        ],
        "7": [
          [25,30,20,5,10,10],
          [25,30,20,5,10,10],
          [25,30,20,5,10,10],
          [25,30,20,5,10,10]
        ],
        "8": [
          [30,30,15,5,15,5],
          [30,30,15,5,15,5],
          [30,30,15,5,15,5],
          [30,30,15,5,15,5]
        ]
      },
      "bowlerStrength" : {
        "1" : 40,
        "2" : 30,
        "3" : 25,
        "4" : 20,
        "5" : 10,
        "6" : 5,
        "7" : 0
      },
      "batsmanStrength" :{
        "1" : 20,
        "2" : 25,
        "3" : 30,
        "4" : 35,
        "5" : 40,
        "6" : 45,
        "7" : 50,
        "8" : 55
      },
      "teams": [
        {
          "team": "Chennai Super King",
          "id": "CSK",
          "players": [
            {"name": "F du Plessis", "battingOrder" : "1", "runProbability": "3", "batsmanStrength" : "2","bowlerStrength" : "7", "country": "South Africa"},
            {"name": "R Gaikwad", "battingOrder" : "2", "runProbability": "4","batsmanStrength" : "3","bowlerStrength" : "7", "country": "England"},
            {"name": "S Raina", "battingOrder" : "3", "runProbability": "2", "batsmanStrength" : "2","bowlerStrength" : "7", "country": "India"},
            {"name": "N Jagadeesan", "battingOrder" : "4", "runProbability": "4", "batsmanStrength" : "4","bowlerStrength" : "7", "country": "India"},
            {"name": "MS Dhoni", "battingOrder" : "5", "runProbability": "5", "batsmanStrength" : "2","bowlerStrength" : "7", "country": "India", "captain": true},
            {"name": "A Rayudu", "battingOrder" : "6", "runProbability": "3", "batsmanStrength" : "4","bowlerStrength" : "7", "country": "India"},
            {"name": "R Jadeja", "battingOrder" : "7", "runProbability": "5", "batsmanStrength" : "3","bowlerStrength" : "3", "country": "India"},
            {"name": "Sam Curran", "battingOrder" : "8","runProbability": "7", "batsmanStrength" : "4","bowlerStrength" : "4", "country": "England"},
            {"name": "D Bravo", "battingOrder" : "9", "runProbability": "6", "batsmanStrength" : "4","bowlerStrength" : "3", "country": "West Indies"},
            {"name": "I Tahir", "battingOrder" : "10", "runProbability": "8", "batsmanStrength" : "7","bowlerStrength" : "2", "country": "India"},
            {"name": "L Ngidi", "battingOrder" : "11", "runProbability": "8", "batsmanStrength" : "7","bowlerStrength" : "2", "country": "South Africa"}
          ]
        },
        {
          "team": "Delhi Capitals",
          "id": "DC",
          "players": [
            {"name": "S Dhawan", "battingOrder" : "1", "runProbability": "1", "batsmanStrength" : "2","bowlerStrength" : "7", "country": "India"},
            {"name": "Prithvi Shaw", "battingOrder" : "2", "runProbability": "3", "batsmanStrength" : "3","bowlerStrength" : "7", "country": "India"},
            {"name": "S Iyer", "battingOrder" : "3", "runProbability": "2", "batsmanStrength" : "2","bowlerStrength" : "7", "country": "India", "captain": true},
            {"name": "A Rahane", "battingOrder" : "4", "runProbability": "3", "batsmanStrength" : "3","bowlerStrength" : "7", "country": "India"},
            {"name": "Steve Smith", "battingOrder" : "5", "runProbability": "2", "batsmanStrength" : "2","bowlerStrength" : "7", "country": "Australia"},
            {"name": "M Stoinis", "battingOrder" : "6", "runProbability": "6", "batsmanStrength" : "4","bowlerStrength" : "7", "country": "Australia"},
            {"name": "Axar Patel", "battingOrder" : "7", "runProbability": "7", "batsmanStrength" : "4","bowlerStrength" : "3", "country": "India"},
            {"name": "A Nortje", "battingOrder" : "8", "runProbability": "6", "batsmanStrength" : "4","bowlerStrength" : "3", "country": "South Africa"},
            {"name": "R Ashwin", "battingOrder" : "9", "runProbability": "8", "batsmanStrength" : "6","bowlerStrength" : "2", "country": "India"},
            {"name": "K Rabada", "battingOrder" : "10", "runProbability": "8", "batsmanStrength" : "6","bowlerStrength" : "2", "country": "South Africa"},
            {"name": "Ishant Sharma", "battingOrder" : "11", "runProbability": "8", "batsmanStrength" : "6","bowlerStrength" : "2", "country": "India"}
          ]
        },
        {
          "team": "KOLKATA KNIGHT RIDERS",
          "id": "KKR",
          "players": [
            {"name": "S Gill", "battingOrder" : "1", "runProbability": "3", "batsmanStrength" : "2","bowlerStrength" : "7", "country": "India"},
            {"name": "Nitish Rana", "battingOrder" : "2", "runProbability": "3", "batsmanStrength" : "3","bowlerStrength" : "7", "country": "India"},
            {"name": "R Tripathi", "battingOrder" : "3", "runProbability": "3", "batsmanStrength" : "3","bowlerStrength" : "7", "country": "India"},
            {"name": "D Karthik", "battingOrder" : "4", "runProbability": "3", "batsmanStrength" : "3","bowlerStrength" : "7", "country": "India"},
            {"name": "Eoin Morgan", "battingOrder" : "5", "runProbability": "2", "batsmanStrength" : "2","bowlerStrength" : "7", "country": "England", "captain": true},
            {"name": "A Russel", "battingOrder" : "6", "runProbability": "6", "batsmanStrength" : "4","bowlerStrength" : "3", "country": "West Indies"},
            {"name": "S Narine", "battingOrder" : "7", "runProbability": "6", "batsmanStrength" : "4","bowlerStrength" : "3", "country": "West Indies"},
            {"name": "P Cummins", "battingOrder" : "8", "runProbability": "6", "batsmanStrength" : "4","bowlerStrength" : "3", "country": "Australia"},
            {"name": "K Nagarkoti", "battingOrder" : "9", "runProbability": "8","batsmanStrength" : "5","bowlerStrength" : "5", "country": "India"},
            {"name": "K Yadav", "battingOrder" : "10", "runProbability": "8", "batsmanStrength" : "6","bowlerStrength" : "3", "country": "India"},
            {"name": "V Chakravarthy", "battingOrder" : "11", "runProbability": "8","batsmanStrength" : "6","bowlerStrength" : "5", "country": "India"}
          ]
        },
        {
          "team": "Kings XI Punjab",
          "id": "KXIP",
          "players": [
            {"name": "KL Rahul", "battingOrder" : "1", "runProbability": "2", "batsmanStrength" : "2","bowlerStrength" : "7", "country": "India", "captain": true},
            {"name": "Chris Gayle", "battingOrder" : "2", "runProbability": "6", "batsmanStrength" : "4","bowlerStrength" : "5", "country": "Jamaica"},
            {"name": "D Hooda", "battingOrder" : "3", "runProbability": "6", "batsmanStrength" : "4","bowlerStrength" : "7", "country": "India"},
            {"name": "Mayank Agarwal", "battingOrder" : "4", "runProbability": "4", "batsmanStrength" : "3","bowlerStrength" : "7", "country": "India"},
            {"name": "N Pooran", "battingOrder" : "5", "runProbability": "7", "batsmanStrength" : "5","bowlerStrength" : "7", "country": "West Indies"},
            {"name": "C Jordan", "battingOrder" : "6", "runProbability": "7", "batsmanStrength" : "4","bowlerStrength" : "4", "country": "Barbados"},
            {"name": "M Henriques", "battingOrder" : "7", "runProbability": "6", "batsmanStrength" : "5","bowlerStrength" : "4", "country": "Australia"},
            {"name": "Mandeep Singh", "battingOrder" : "8", "runProbability": "7", "batsmanStrength" : "4","bowlerStrength" : "7", "country": "India"},
            {"name": "M Shami", "battingOrder" : "9", "runProbability": "7", "batsmanStrength" : "6","bowlerStrength" : "2", "country": "India"},
            {"name": "Arshdeep Singh", "battingOrder" : "10", "runProbability": "4", "batsmanStrength" : "4","bowlerStrength" : "4", "country": "India"},
            {"name": "Ravi Bishnoi", "battingOrder" : "11", "runProbability": "8", "batsmanStrength" : "6","bowlerStrength" : "4", "country": "India"}
          ]
        },
        {
          "team": "Mumbai Indians",
          "id": "MI",
          "players": [
            {"name": "Rohith Sharma", "battingOrder" : "1", "runProbability": "1", "batsmanStrength" : "1","bowlerStrength" : "7", "country": "India", "captain": true},
            {"name": "Q de Cock", "battingOrder" : "2", "runProbability": "2", "batsmanStrength" : "2","bowlerStrength" : "7", "country": "South Africa"},
            {"name": "SK Yadav", "battingOrder" : "3", "runProbability": "3", "batsmanStrength" : "2","bowlerStrength" : "7", "country": "India"},
            {"name": "I Kishan", "battingOrder" : "4", "runProbability": "3", "batsmanStrength" : "3","bowlerStrength" : "7", "country": "India"},
            {"name": "C Lynn", "battingOrder" : "5", "runProbability": "6", "batsmanStrength" : "3","bowlerStrength" : "7", "country": "Australia"},
            {"name": "H Pandya", "battingOrder" : "6", "runProbability": "5", "batsmanStrength" : "3","bowlerStrength" : "3", "country": "India"},
            {"name": "K Pollard", "battingOrder" : "7", "runProbability": "6", "batsmanStrength" : "3","bowlerStrength" : "4", "country": "West Indies"},
            {"name": "K Pandya", "battingOrder" : "8", "runProbability": "6", "batsmanStrength" : "3","bowlerStrength" : "4", "country": "India"},
            {"name": "T Boult", "battingOrder" : "9", "runProbability": "7", "batsmanStrength" : "6","bowlerStrength" : "2", "country": "New Zealand"},
            {"name": "J Bumrah", "battingOrder" : "10", "runProbability": "8", "batsmanStrength" : "6","bowlerStrength" : "1", "country": "India"},
            {"name": "R Chahar", "battingOrder" : "11", "runProbability": "7", "batsmanStrength" : "6","bowlerStrength" : "3", "country": "India"}
          ]
        },
        {
          "team": "Rajasthan Royals",
          "id": "RR",
          "players": [
            {"name": "S Samson", "battingOrder" : "1", "runProbability": "5", "batsmanStrength" : "3","bowlerStrength" : "7", "country": "India", "captain": true},
            {"name": "Jos Buttler", "battingOrder" : "2", "runProbability": "5", "batsmanStrength" : "2","bowlerStrength" : "7", "country": "England"},
            {"name": "Ben Stokes", "battingOrder" : "3", "runProbability": "5", "batsmanStrength" : "4","bowlerStrength" : "4", "country": "England"},
            {"name": "D Miller", "battingOrder" : "4", "runProbability": "6", "batsmanStrength" : "3","bowlerStrength" : "7", "country": "South Africa"},
            {"name": "Riyan Parag", "battingOrder" : "5", "runProbability": "4", "batsmanStrength" : "6","bowlerStrength" : "7", "country": "India"},
            {"name": "Chris Morris", "battingOrder" : "6", "runProbability": "6", "batsmanStrength" : "3","bowlerStrength" : "3", "country": "South Africa"},
            {"name": "Andrew Tye", "battingOrder" : "7", "runProbability": "8", "batsmanStrength" : "6","bowlerStrength" : "4", "country": "Australia"},
            {"name": "R Tewatia", "battingOrder" : "8", "runProbability": "4", "batsmanStrength" : "4","bowlerStrength" : "7", "country": "India"},
            {"name": "Anuj Rawat", "battingOrder" : "9", "runProbability": "4", "batsmanStrength" : "5","bowlerStrength" : "7", "country": "India"},
            {"name": "J Archer", "battingOrder" : "10", "runProbability": "6", "batsmanStrength" : "5","bowlerStrength" : "2", "country": "England"},
            {"name": "K Tyagi", "battingOrder" : "11", "runProbability": "8", "batsmanStrength" : "5","bowlerStrength" : "4", "country": "India"}
          ]
        },
        {
          "team": "Royal Challengers Bangalore",
          "id": "RCB",
          "players": [
            {"name": "D Padikkal", "battingOrder" : "1", "runProbability": "2", "batsmanStrength" : "2","bowlerStrength" : "7", "country": "India"},
            {"name": "Virat Kohli", "battingOrder" : "2", "runProbability": "2", "batsmanStrength" : "1","bowlerStrength" : "7", "country": "India", "captain": true},
            {"name": "AB de Villiers", "battingOrder" : "3", "runProbability": "3", "batsmanStrength" : "1","bowlerStrength" : "7", "country": "South Africa"},
            {"name": "G Maxwell", "battingOrder" : "4", "runProbability": "6", "batsmanStrength" : "4","bowlerStrength" : "7", "country": "Australia"},
            {"name": "Finn Allen", "battingOrder" : "5", "runProbability": "6", "batsmanStrength" : "5","bowlerStrength" : "7", "country": "New Zealand"},
            {"name": "W Sundar", "battingOrder" : "6", "runProbability": "4", "batsmanStrength" : "4","bowlerStrength" : "3", "country": "India"},
            {"name": "M Siraj", "battingOrder" : "7", "runProbability": "8", "batsmanStrength" : "6","bowlerStrength" : "3", "country": "India"},
            {"name": "Y Chahal", "battingOrder" : "8", "runProbability": "8", "batsmanStrength" : "6","bowlerStrength" : "3", "country": "India"},
            {"name": "A Zampa", "battingOrder" : "9", "runProbability": "8", "batsmanStrength" : "6","bowlerStrength" : "5", "country": "Australia"},
            {"name": "N Saini", "battingOrder" : "10", "runProbability": "8", "batsmanStrength" : "6","bowlerStrength" : "5", "country": "India"},
            {"name": "Harshal Patel", "battingOrder" : "11", "runProbability": "7", "batsmanStrength" : "5","bowlerStrength" : "5", "country": "India"}
          ]
        },
        {
          "team": "SUNRISERS HYDERABAD",
          "id": "SRH",
          "players": [
            {"name": "D Warner", "battingOrder" : "1", "runProbability": "2", "batsmanStrength" : "2","bowlerStrength" : "7", "country": "Australia","captain": true},
            {"name": "W Saha", "battingOrder" : "2", "runProbability": "3", "batsmanStrength" : "3","bowlerStrength" : "7", "country": "India"},
            {"name": "J Bairstow", "battingOrder" : "3", "runProbability": "2", "batsmanStrength" : "4","bowlerStrength" : "7", "country": "England"},
            {"name": "K Williamson", "battingOrder" : "4", "runProbability": "2", "batsmanStrength" : "2","bowlerStrength" : "7", "country": "New Zealand"},
            {"name": "M Pandey", "battingOrder" : "5", "runProbability": "3", "batsmanStrength" : "4","bowlerStrength" : "7", "country": "India"},
            {"name": "A Samad", "battingOrder" : "6", "runProbability": "7", "batsmanStrength" : "6","bowlerStrength" : "5", "country": "India"},
            {"name": "A Sharma", "battingOrder" : "7", "runProbability": "4", "batsmanStrength" : "4","bowlerStrength" : "7", "country": "India"},
            {"name": "J Holder", "battingOrder" : "8", "runProbability": "4", "batsmanStrength" : "5","bowlerStrength" : "3", "country": "West Indies"},
            {"name": "Rashid Khan", "battingOrder" : "9", "runProbability": "6", "batsmanStrength" : "5","bowlerStrength" : "2", "country": "Afganisthan"},
            {"name": "B Kumar", "battingOrder" : "10", "runProbability": "7", "batsmanStrength" : "5","bowlerStrength" : "3", "country": "India"},
            {"name": "T Natarajan", "battingOrder" : "11", "runProbability": "8", "batsmanStrength" : "5","bowlerStrength" : "5", "country": "India"}
          ]
        }
      ]
    },
    {"tournamentId" :  "T20-WorldCup",
      "runProbability": {
        "1": [
          [20,40,10,5,15,10],
          [20,40,10,5,15,10],
          [20,40,10,5,15,10],
          [20,40,10,5,15,10]
        ],
        "2": [
          [25,30,15,5,15,10],
          [25,30,15,5,15,10],
          [25,30,15,5,15,10],
          [25,30,15,5,15,10]
        ],
        "3": [
          [25,35,20,0,10,10],
          [25,35,20,0,10,10],
          [25,35,20,0,10,10],
          [25,35,20,0,10,10]
        ],
        "4": [
          [35,35,15,5,5,5],
          [35,35,15,5,5,5],
          [35,35,15,5,5,5],
          [35,35,15,5,5,5]
        ],
        "5": [
          [15,20,20,5,20,20],
          [15,20,20,5,20,20],
          [15,20,20,5,20,20],
          [15,20,20,5,20,20]
        ],
        "6": [
          [15,15,15,5,30,20],
          [15,15,15,5,30,20],
          [15,15,15,5,30,20],
          [15,15,15,5,30,20]
        ],
        "7": [
          [25,30,20,5,10,10],
          [25,30,20,5,10,10],
          [25,30,20,5,10,10],
          [25,30,20,5,10,10]
        ],
        "8": [
          [30,30,15,5,15,5],
          [30,30,15,5,15,5],
          [30,30,15,5,15,5],
          [30,30,15,5,15,5]
        ]
      },
      "bowlerStrength" : {
        "1" : 40,
        "2" : 30,
        "3" : 25,
        "4" : 20,
        "5" : 10,
        "6" : 5,
        "7" : 0
      },
      "batsmanStrength" :{
        "1" : 20,
        "2" : 25,
        "3" : 30,
        "4" : 35,
        "5" : 40,
        "6" : 45,
        "7" : 50,
        "8" : 55
      },
      "teams": [
        {
          "team": "INDIA",
          "id": "IND",
          "players": [
            {"name": "KL Rahul", "battingOrder" : "1", "runProbability": "3", "batsmanStrength" : "2","bowlerStrength" : "7", "country": "South Africa"},
            {"name": "Rohith Sharma", "battingOrder" : "2", "runProbability": "4","batsmanStrength" : "3","bowlerStrength" : "7", "country": "England"},
            {"name": "Virat Kohli", "battingOrder" : "3", "runProbability": "2", "batsmanStrength" : "2","bowlerStrength" : "7", "country": "India"},
            {"name": "SK Yadav", "battingOrder" : "4", "runProbability": "5", "batsmanStrength" : "2","bowlerStrength" : "7", "country": "India", "captain": true},
            {"name": "Rishabh Pant", "battingOrder" : "5", "runProbability": "3", "batsmanStrength" : "4","bowlerStrength" : "7", "country": "India"},
            {"name": "H Pandya", "battingOrder" : "6", "runProbability": "5", "batsmanStrength" : "3","bowlerStrength" : "3", "country": "India"},
            {"name": "R Jadeja", "battingOrder" : "7","runProbability": "7", "batsmanStrength" : "4", "bowlerStrength" : "4", "country": "England"},
            {"name": "M Shami", "battingOrder" : "8", "runProbability": "6", "batsmanStrength" : "4","bowlerStrength" : "2", "country": "West Indies"},
            {"name": "B Kumar", "battingOrder" : "9", "runProbability": "8", "batsmanStrength" : "6","bowlerStrength" : "2", "country": "India"},
            {"name": "Y Chahal", "battingOrder" : "10", "runProbability": "4", "batsmanStrength" : "6","bowlerStrength" : "3", "country": "India"},
            {"name": "J Bumrah", "battingOrder" : "11", "runProbability": "8", "batsmanStrength" : "7","bowlerStrength" : "1", "country": "South Africa"}
          ]
        },
        {
          "team": "ENGLAND",
          "id": "ENG",
          "players": [
            {"name": "Jason Roy", "battingOrder" : "1", "runProbability": "1", "batsmanStrength" : "2","bowlerStrength" : "7", "country": "India"},
            {"name": "Livingstone", "battingOrder" : "2", "runProbability": "3", "batsmanStrength" : "3","bowlerStrength" : "7", "country": "India"},
            {"name": "J Bairstow", "battingOrder" : "3", "runProbability": "2", "batsmanStrength" : "2","bowlerStrength" : "7", "country": "India", "captain": true},
            {"name": "David Malan", "battingOrder" : "4", "runProbability": "3", "batsmanStrength" : "3","bowlerStrength" : "7", "country": "India"},
            {"name": "E Morgan", "battingOrder" : "5", "runProbability": "2", "batsmanStrength" : "2","bowlerStrength" : "7", "country": "Australia"},
            {"name": "Jos Buttler", "battingOrder" : "6", "runProbability": "6", "batsmanStrength" : "4","bowlerStrength" : "4", "country": "Australia"},
            {"name": "Mark Wood", "battingOrder" : "7", "runProbability": "7", "batsmanStrength" : "4","bowlerStrength" : "3", "country": "India"},
            {"name": "Sam Curran", "battingOrder" : "8", "runProbability": "6", "batsmanStrength" : "4","bowlerStrength" : "3", "country": "South Africa"},
            {"name": "C Jordan", "battingOrder" : "9", "runProbability": "8", "batsmanStrength" : "6","bowlerStrength" : "2", "country": "India"},
            {"name": "Adil Rashid", "battingOrder" : "10", "runProbability": "8", "batsmanStrength" : "6","bowlerStrength" : "2", "country": "South Africa"},
            {"name": "Moeen Ali", "battingOrder" : "11", "runProbability": "8", "batsmanStrength" : "6","bowlerStrength" : "2", "country": "India"}
          ]
        },
        {
          "team": "AUSTRALIA",
          "id": "AUS",
          "players": [
            {"name": "A Finch", "battingOrder" : "1", "runProbability": "3", "batsmanStrength" : "2","bowlerStrength" : "7", "country": "Australia"},
            {"name": "D Warner", "battingOrder" : "2", "runProbability": "3", "batsmanStrength" : "3","bowlerStrength" : "7", "country": "Australia"},
            {"name": "Steve Smith", "battingOrder" : "3", "runProbability": "3", "batsmanStrength" : "3","bowlerStrength" : "7", "country": "Australia"},
            {"name": "M Stoinis", "battingOrder" : "4", "runProbability": "3", "batsmanStrength" : "3","bowlerStrength" : "7", "country": "Australia"},
            {"name": "M Marsh", "battingOrder" : "5", "runProbability": "2", "batsmanStrength" : "2","bowlerStrength" : "7", "country": "Australia", "captain": true},
            {"name": "G Maxwell", "battingOrder" : "6", "runProbability": "6", "batsmanStrength" : "4","bowlerStrength" : "3", "country": "Australia"},
            {"name": "J Hazelwood", "battingOrder" : "7", "runProbability": "6", "batsmanStrength" : "4","bowlerStrength" : "2", "country": "Australia"},
            {"name": "Pat Cummins", "battingOrder" : "8", "runProbability": "6", "batsmanStrength" : "4","bowlerStrength" : "2", "country": "Australia"},
            {"name": "M Starc", "battingOrder" : "9", "runProbability": "8","batsmanStrength" : "5","bowlerStrength" : "3", "country": "Australia"},
            {"name": "K Richardson", "battingOrder" : "10", "runProbability": "8", "batsmanStrength" : "6","bowlerStrength" : "5", "country": "Australia"},
            {"name": "A Zampa", "battingOrder" : "11", "runProbability": "8","batsmanStrength" : "6","bowlerStrength" : "3", "country": "Australia"}
          ]
        },
        {
          "team": "SOUTH AFRICA",
          "id": "SA",
          "players": [
            {"name": "F du Plessis", "battingOrder" : "1", "runProbability": "2", "batsmanStrength" : "2","bowlerStrength" : "7", "country": "South Africa", "captain": true},
            {"name": "Q de Cock", "battingOrder" : "2", "runProbability": "6", "batsmanStrength" : "4","bowlerStrength" : "5", "country": "South Africa"},
            {"name": "R van der Dussen", "battingOrder" : "3", "runProbability": "6", "batsmanStrength" : "4","bowlerStrength" : "7", "country": "South Africa"},
            {"name": "T Bavuma", "battingOrder" : "4", "runProbability": "4", "batsmanStrength" : "3","bowlerStrength" : "7", "country": "South Africa"},
            {"name": "H Klaasen", "battingOrder" : "5", "runProbability": "7", "batsmanStrength" : "5","bowlerStrength" : "7", "country": "South Africa"},
            {"name": "D Miller", "battingOrder" : "6", "runProbability": "7", "batsmanStrength" : "3","bowlerStrength" : "7", "country": "South Africa"},
            {"name": "K Rabada", "battingOrder" : "7", "runProbability": "6", "batsmanStrength" : "5","bowlerStrength" : "2", "country": "South Africa"},
            {"name": "L Ngidi", "battingOrder" : "8", "runProbability": "7", "batsmanStrength" : "4","bowlerStrength" : "4", "country": "South Africa"},
            {"name": "A Nortje", "battingOrder" : "9", "runProbability": "7", "batsmanStrength" : "6","bowlerStrength" : "2", "country": "South Africa"},
            {"name": "A Phehlukwayo", "battingOrder" : "10", "runProbability": "4", "batsmanStrength" : "4","bowlerStrength" : "3", "country": "South Africa"},
            {"name": "T Shamsi", "battingOrder" : "11", "runProbability": "8", "batsmanStrength" : "6","bowlerStrength" : "5", "country": "South Africa"}
          ]
        },
        {
          "team": "NEW ZEALAND",
          "id": "NZ",
          "players": [
            {"name": "M Guptil", "battingOrder" : "1", "runProbability": "1", "batsmanStrength" : "2","bowlerStrength" : "7", "country": "New Zealand", "captain": true},
            {"name": "G Phillips", "battingOrder" : "2", "runProbability": "2", "batsmanStrength" : "2","bowlerStrength" : "7", "country": "New Zealand"},
            {"name": "K Williamson", "battingOrder" : "3", "runProbability": "3", "batsmanStrength" : "1","bowlerStrength" : "7", "country": "New Zealand"},
            {"name": "D Conway", "battingOrder" : "4", "runProbability": "3", "batsmanStrength" : "3","bowlerStrength" : "7", "country": "New Zealand"},
            {"name": "T Seifert", "battingOrder" : "5", "runProbability": "6", "batsmanStrength" : "3","bowlerStrength" : "7", "country": "New Zealand"},
            {"name": "JimmyNeesham", "battingOrder" : "6", "runProbability": "6", "batsmanStrength" : "3","bowlerStrength" : "4", "country": "New Zealand"},
            {"name": "M Santner", "battingOrder" : "7", "runProbability": "6", "batsmanStrength" : "5","bowlerStrength" : "3", "country": "New Zealand"},
            {"name": "T Boult", "battingOrder" : "8", "runProbability": "5", "batsmanStrength" : "5","bowlerStrength" : "3", "country": "New Zealand"},
            {"name": "T Southee", "battingOrder" : "9", "runProbability": "7", "batsmanStrength" : "6","bowlerStrength" : "2", "country": "New Zealand"},
            {"name": "LockieFerguson", "battingOrder" : "10", "runProbability": "8", "batsmanStrength" : "6","bowlerStrength" : "2", "country": "New Zealand"},
            {"name": "IshSodhi", "battingOrder" : "11", "runProbability": "7", "batsmanStrength" : "6","bowlerStrength" : "3", "country": "New Zealand"}
          ]
        },
        {
          "team": "PAKISTAN",
          "id": "PAK",
          "players": [
            {"name": "Babar Azam", "battingOrder" : "1", "runProbability": "5", "batsmanStrength" : "1","bowlerStrength" : "7", "country": "Pakistan", "captain": true},
            {"name": "Fakhar Zarman", "battingOrder" : "2", "runProbability": "5", "batsmanStrength" : "2","bowlerStrength" : "7", "country": "Pakistan"},
            {"name": "M Rizwan", "battingOrder" : "3", "runProbability": "5", "batsmanStrength" : "4","bowlerStrength" : "7", "country": "Pakistan"},
            {"name": "Shadab Khan", "battingOrder" : "4", "runProbability": "6", "batsmanStrength" : "3","bowlerStrength" : "7", "country": "Pakistan"},
            {"name": "Sohaib Maqsood", "battingOrder" : "5", "runProbability": "4", "batsmanStrength" : "4","bowlerStrength" : "7", "country": "Pakistan"},
            {"name": "M Hafeez", "battingOrder" : "6", "runProbability": "6", "batsmanStrength" : "3","bowlerStrength" : "3", "country": "Pakistan"},
            {"name": "Hasan Ali", "battingOrder" : "7", "runProbability": "8", "batsmanStrength" : "6","bowlerStrength" : "2", "country": "Pakistan"},
            {"name": "Imad Wasim", "battingOrder" : "8", "runProbability": "4", "batsmanStrength" : "5","bowlerStrength" : "3", "country": "Pakistan"},
            {"name": "M Hasnain", "battingOrder" : "9", "runProbability": "4", "batsmanStrength" : "5","bowlerStrength" : "7", "country": "Pakistan"},
            {"name": "Shaheen Afridi", "battingOrder" : "10", "runProbability": "6", "batsmanStrength" : "5","bowlerStrength" : "2", "country": "Pakistan"},
            {"name": "Usman Qadir", "battingOrder" : "11", "runProbability": "8", "batsmanStrength" : "6","bowlerStrength" : "4", "country": "Pakistan"}
          ]
        },
        {
          "team": "SRILANKA",
          "id": "SL",
          "players": [
            {"name": "A Fernando", "battingOrder" : "1", "runProbability": "2", "batsmanStrength" : "2","bowlerStrength" : "7", "country": "Srilanka"},
            {"name": "B Rajapsaka", "battingOrder" : "2", "runProbability": "2", "batsmanStrength" : "2","bowlerStrength" : "7", "country": "Srilanka", "captain": true},
            {"name": "D DeSilva", "battingOrder" : "3", "runProbability": "3", "batsmanStrength" : "1","bowlerStrength" : "7", "country": "Srilanka"},
            {"name": "Dasun Shanaka", "battingOrder" : "4", "runProbability": "6", "batsmanStrength" : "4","bowlerStrength" : "7", "country": "Srilanka"},
            {"name": "Kamindu Mendis", "battingOrder" : "5", "runProbability": "6", "batsmanStrength" : "5","bowlerStrength" : "7", "country": "Srilanka"},
            {"name": "Kusal Mendis", "battingOrder" : "6", "runProbability": "4", "batsmanStrength" : "4","bowlerStrength" : "7", "country": "Srilanka"},
            {"name": "C Karunaratne", "battingOrder" : "7", "runProbability": "8", "batsmanStrength" : "4","bowlerStrength" : "2", "country": "Srilanka"},
            {"name": "D Chameera", "battingOrder" : "8", "runProbability": "8", "batsmanStrength" : "5","bowlerStrength" : "3", "country": "Srilanka"},
            {"name": "L Madushanka", "battingOrder" : "9", "runProbability": "8", "batsmanStrength" : "6","bowlerStrength" : "4", "country": "Srilanka"},
            {"name": "M Theekshana", "battingOrder" : "10", "runProbability": "8", "batsmanStrength" : "6","bowlerStrength" : "5", "country": "Srilanka"},
            {"name": "W Hasaranga", "battingOrder" : "11", "runProbability": "7", "batsmanStrength" : "7","bowlerStrength" : "5", "country": "Srilanka"}
          ]
        },
        {
          "team": "BANGLADESH",
          "id": "BAN",
          "players": [
            {"name": "Liton Das", "battingOrder" : "1", "runProbability": "2", "batsmanStrength" : "3","bowlerStrength" : "7", "country": "Bangladesh","captain": true},
            {"name": "M Naim Sheikh", "battingOrder" : "2", "runProbability": "3", "batsmanStrength" : "3","bowlerStrength" : "7", "country": "Bangladesh"},
            {"name": "Soumya Sarkar", "battingOrder" : "3", "runProbability": "2", "batsmanStrength" : "4","bowlerStrength" : "7", "country": "Bangladesh"},
            {"name": "Nurul Hassan", "battingOrder" : "4", "runProbability": "2", "batsmanStrength" : "3","bowlerStrength" : "7", "country": "Bangladesh"},
            {"name": "Shakib Al hasan", "battingOrder" : "5", "runProbability": "3", "batsmanStrength" : "4","bowlerStrength" : "3", "country": "Bangladesh"},
            {"name": "Mushifiqur Rahim", "battingOrder" : "6", "runProbability": "7", "batsmanStrength" : "6","bowlerStrength" : "7", "country": "Bangladesh"},
            {"name": "Mahmudullah", "battingOrder" : "7", "runProbability": "4", "batsmanStrength" : "4","bowlerStrength" : "7", "country": "Bangladesh"},
            {"name": "Mustafizur Rahman", "battingOrder" : "8", "runProbability": "4", "batsmanStrength" : "5","bowlerStrength" : "2", "country": "Bangladesh"},
            {"name": "Shamim Hossain", "battingOrder" : "9", "runProbability": "6", "batsmanStrength" : "5","bowlerStrength" : "2", "country": "Bangladesh"},
            {"name": "Shoriful Islam", "battingOrder" : "10", "runProbability": "7", "batsmanStrength" : "5","bowlerStrength" : "3", "country": "Bangladesh"},
            {"name": "Taskin Ahmed", "battingOrder" : "11", "runProbability": "8", "batsmanStrength" : "5","bowlerStrength" : "5", "country": "Bangladesh"}
          ]
        },
        {
          "team": "WEST INDIES",
          "id": "WI",
          "players": [
            {"name": "E Lewis", "battingOrder" : "1", "runProbability": "2", "batsmanStrength" : "2","bowlerStrength" : "7", "country": "West Indies","captain": true},
            {"name": "C Gayle", "battingOrder" : "2", "runProbability": "3", "batsmanStrength" : "3","bowlerStrength" : "7", "country": "West Indies"},
            {"name": "L Simmons", "battingOrder" : "3", "runProbability": "2", "batsmanStrength" : "4","bowlerStrength" : "7", "country": "West Indies"},
            {"name": "N Pooran", "battingOrder" : "4", "runProbability": "2", "batsmanStrength" : "2","bowlerStrength" : "7", "country": "West Indies"},
            {"name": "K Pollard", "battingOrder" : "5", "runProbability": "3", "batsmanStrength" : "3","bowlerStrength" : "7", "country": "West Indies"},
            {"name": "A Russel", "battingOrder" : "6", "runProbability": "7", "batsmanStrength" : "4","bowlerStrength" : "5", "country": "West Indies"},
            {"name": "D Bravo", "battingOrder" : "7", "runProbability": "4", "batsmanStrength" : "4","bowlerStrength" : "3", "country": "West Indies"},
            {"name": "S Narine", "battingOrder" : "8", "runProbability": "4", "batsmanStrength" : "5","bowlerStrength" : "3", "country": "West Indies"},
            {"name": "S Cottrell", "battingOrder" : "9", "runProbability": "6", "batsmanStrength" : "5","bowlerStrength" : "2", "country": "West Indies"},
            {"name": "F Allen", "battingOrder" : "10", "runProbability": "7", "batsmanStrength" : "5","bowlerStrength" : "5", "country": "West Indies"},
            {"name": "O Thomas", "battingOrder" : "11", "runProbability": "8", "batsmanStrength" : "5","bowlerStrength" : "5", "country": "West Indies"}
          ]
        },
        {
          "team": "IRELAND",
          "id": "IRE",
          "players": [
            {"name": "Andrew Balbirnie", "battingOrder" : "1", "runProbability": "2", "batsmanStrength" : "3","bowlerStrength" : "7", "country": "Ireland","captain": true},
            {"name": "Andy McBrine", "battingOrder" : "2", "runProbability": "3", "batsmanStrength" : "3","bowlerStrength" : "7", "country": "Ireland"},
            {"name": "Kevin O'Brien", "battingOrder" : "3", "runProbability": "2", "batsmanStrength" : "4","bowlerStrength" : "7", "country": "Ireland"},
            {"name": "Neil Rock", "battingOrder" : "4", "runProbability": "2", "batsmanStrength" : "3","bowlerStrength" : "7", "country": "Ireland"},
            {"name": "Paul Stirling", "battingOrder" : "5", "runProbability": "3", "batsmanStrength" : "4","bowlerStrength" : "7", "country": "Ireland"},
            {"name": "William McClintock", "battingOrder" : "6", "runProbability": "7", "batsmanStrength" : "5","bowlerStrength" : "7", "country": "Ireland"},
            {"name": "Andy McBrine", "battingOrder" : "7", "runProbability": "4", "batsmanStrength" : "4","bowlerStrength" : "3", "country": "Ireland"},
            {"name": "Craig Young", "battingOrder" : "8", "runProbability": "4", "batsmanStrength" : "5","bowlerStrength" : "4", "country": "Ireland"},
            {"name": "Joshua Little", "battingOrder" : "9", "runProbability": "6", "batsmanStrength" : "5","bowlerStrength" : "4", "country": "Ireland"},
            {"name": "Mark Adair", "battingOrder" : "10", "runProbability": "7", "batsmanStrength" : "6","bowlerStrength" : "5", "country": "Ireland"},
            {"name": "Shane Getkate", "battingOrder" : "11", "runProbability": "8", "batsmanStrength" : "6","bowlerStrength" : "5", "country": "Ireland"}
          ]
        },
        {
          "team": "SCOTLAND",
          "id": "SCO",
          "players": [
            {"name": "Calum Macleod", "battingOrder" : "1", "runProbability": "2", "batsmanStrength" : "3","bowlerStrength" : "7", "country": "Scotland","captain": true},
            {"name": "George Munsey", "battingOrder" : "2", "runProbability": "3", "batsmanStrength" : "3","bowlerStrength" : "7", "country": "Scotland"},
            {"name": "Kyle Coetzer", "battingOrder" : "3", "runProbability": "2", "batsmanStrength" : "4","bowlerStrength" : "7", "country": "Scotland"},
            {"name": "Matthew Cross", "battingOrder" : "4", "runProbability": "2", "batsmanStrength" : "3","bowlerStrength" : "7", "country": "Scotland"},
            {"name": "Ollie Hairs", "battingOrder" : "5", "runProbability": "3", "batsmanStrength" : "4","bowlerStrength" : "7", "country": "Scotland"},
            {"name": "Richie Berrington", "battingOrder" : "6", "runProbability": "7", "batsmanStrength" : "5","bowlerStrength" : "7", "country": "Scotland"},
            {"name": "Alasdair Evans", "battingOrder" : "7", "runProbability": "4", "batsmanStrength" : "4","bowlerStrength" : "3", "country": "Scotland"},
            {"name": "Chris Sole", "battingOrder" : "8", "runProbability": "4", "batsmanStrength" : "5","bowlerStrength" : "4", "country": "Scotland"},
            {"name": "Mark Watt", "battingOrder" : "9", "runProbability": "6", "batsmanStrength" : "5","bowlerStrength" : "4", "country": "Scotland"},
            {"name": "Michael Leask", "battingOrder" : "10", "runProbability": "7", "batsmanStrength" : "6","bowlerStrength" : "5", "country": "Scotland"},
            {"name": "Safyaan Sharif", "battingOrder" : "11", "runProbability": "8", "batsmanStrength" : "6","bowlerStrength" : "5", "country": "Scotland"}
          ]
        },
        {
          "team": "AFGANISTAN",
          "id": "AFG",
          "players": [
            {"name": "A Afghan", "battingOrder" : "1", "runProbability": "2", "batsmanStrength" : "3","bowlerStrength" : "7", "country": "Afganistan","captain": true},
            {"name": "Karim Janat", "battingOrder" : "2", "runProbability": "3", "batsmanStrength" : "3","bowlerStrength" : "7", "country": "Afganistan"},
            {"name": "M Nabi", "battingOrder" : "3", "runProbability": "2", "batsmanStrength" : "4","bowlerStrength" : "7", "country": "Afganistan"},
            {"name": "N Zadran", "battingOrder" : "4", "runProbability": "2", "batsmanStrength" : "3","bowlerStrength" : "7", "country": "Afganistan"},
            {"name": "R Gurbaz", "battingOrder" : "5", "runProbability": "3", "batsmanStrength" : "4","bowlerStrength" : "7", "country": "Afganistan"},
            {"name": "Usman Ghani", "battingOrder" : "6", "runProbability": "7", "batsmanStrength" : "5","bowlerStrength" : "7", "country": "Afganistan"},
            {"name": "Rashid Khan", "battingOrder" : "7", "runProbability": "4", "batsmanStrength" : "4","bowlerStrength" : "2", "country": "Afganistan"},
            {"name": "F Farooqi", "battingOrder" : "8", "runProbability": "4", "batsmanStrength" : "5","bowlerStrength" : "4", "country": "Afganistan"},
            {"name": "H Shahidi", "battingOrder" : "9", "runProbability": "6", "batsmanStrength" : "5","bowlerStrength" : "4", "country": "Afganistan"},
            {"name": "Naveen-Ul-Haq", "battingOrder" : "10", "runProbability": "7", "batsmanStrength" : "6","bowlerStrength" : "5", "country": "Afganistan"},
            {"name": "S Ashraf", "battingOrder" : "11", "runProbability": "8", "batsmanStrength" : "6","bowlerStrength" : "5", "country": "Afganistan"}
          ]
        },
        {
          "team": "NETHARLANDS",
          "id": "NED",
          "players": [
            {"name": "Antonius Staal", "battingOrder" : "1", "runProbability": "2", "batsmanStrength" : "3","bowlerStrength" : "7", "country": "Netharlands","captain": true},
            {"name": "Bas De Leede", "battingOrder" : "2", "runProbability": "3", "batsmanStrength" : "3","bowlerStrength" : "7", "country": "Netharlands"},
            {"name": "Ben Cooper", "battingOrder" : "3", "runProbability": "2", "batsmanStrength" : "4","bowlerStrength" : "7", "country": "Netharlands"},
            {"name": "Max O Dowd", "battingOrder" : "4", "runProbability": "2", "batsmanStrength" : "3","bowlerStrength" : "7", "country": "Netharlands"},
            {"name": "Pieter Seelaar", "battingOrder" : "5", "runProbability": "3", "batsmanStrength" : "4","bowlerStrength" : "7", "country": "Netharlands"},
            {"name": "Tobias Visee", "battingOrder" : "6", "runProbability": "7", "batsmanStrength" : "5","bowlerStrength" : "7", "country": "Netharlands"},
            {"name": "Aryan Dutt", "battingOrder" : "7", "runProbability": "4", "batsmanStrength" : "4","bowlerStrength" : "3", "country": "Netharlands"},
            {"name": "Julian De Mey", "battingOrder" : "8", "runProbability": "4", "batsmanStrength" : "5","bowlerStrength" : "4", "country": "Netharlands"},
            {"name": "Paul Van Meekeren", "battingOrder" : "9", "runProbability": "6", "batsmanStrength" : "5","bowlerStrength" : "4", "country": "Netharlands"},
            {"name": "Sebastiaan Braat", "battingOrder" : "10", "runProbability": "7", "batsmanStrength" : "6","bowlerStrength" : "5", "country": "Netharlands"},
            {"name": "Vivian Kingma", "battingOrder" : "11", "runProbability": "8", "batsmanStrength" : "6","bowlerStrength" : "5", "country": "Netharlands"}
          ]
        },
        {
          "team": "NAMIBIA",
          "id": "NAM",
          "players": [
            {"name": "Craig Williams", "battingOrder" : "1", "runProbability": "2", "batsmanStrength" : "3","bowlerStrength" : "7", "country": "Namibia","captain": true},
            {"name": "Gerhard Erasmus", "battingOrder" : "2", "runProbability": "3", "batsmanStrength" : "3","bowlerStrength" : "7", "country": "Namibia"},
            {"name": "Jean Pierre Kotze", "battingOrder" : "3", "runProbability": "2", "batsmanStrength" : "4","bowlerStrength" : "7", "country": "Namibia"},
            {"name": "Michiel Du Preez", "battingOrder" : "4", "runProbability": "2", "batsmanStrength" : "3","bowlerStrength" : "7", "country": "Namibia"},
            {"name": "Nicol Loftie Eaton", "battingOrder" : "5", "runProbability": "3", "batsmanStrength" : "4","bowlerStrength" : "7", "country": "Namibia"},
            {"name": "JJ Smit", "battingOrder" : "6", "runProbability": "7", "batsmanStrength" : "5","bowlerStrength" : "7", "country": "Namibia"},
            {"name": "Ben Shikongo", "battingOrder" : "7", "runProbability": "4", "batsmanStrength" : "4","bowlerStrength" : "3", "country": "Namibia"},
            {"name": "Bernard Scholtz", "battingOrder" : "8", "runProbability": "4", "batsmanStrength" : "5","bowlerStrength" : "4", "country": "Namibia"},
            {"name": "Jan Frylinck", "battingOrder" : "9", "runProbability": "6", "batsmanStrength" : "5","bowlerStrength" : "4", "country": "Namibia"},
            {"name": "Stephan Baard", "battingOrder" : "10", "runProbability": "7", "batsmanStrength" : "6","bowlerStrength" : "5", "country": "Namibia"},
            {"name": "Tangeni Lungameni", "battingOrder" : "11", "runProbability": "8", "batsmanStrength" : "6","bowlerStrength" : "5", "country": "Namibia"}
          ]
        },
        {
          "team": "OMAN",
          "id": "OMN",
          "players": [
            {"name": "Aqib Ilyas", "battingOrder" : "1", "runProbability": "2", "batsmanStrength" : "3","bowlerStrength" : "7", "country": "Oman","captain": true},
            {"name": "Jatinder Singh", "battingOrder" : "2", "runProbability": "3", "batsmanStrength" : "3","bowlerStrength" : "7", "country": "Oman"},
            {"name": "Khawar Ali", "battingOrder" : "3", "runProbability": "2", "batsmanStrength" : "4","bowlerStrength" : "7", "country": "Oman"},
            {"name": "Naseem Khushi", "battingOrder" : "4", "runProbability": "2", "batsmanStrength" : "3","bowlerStrength" : "7", "country": "Oman"},
            {"name": "Sandeep Goud", "battingOrder" : "5", "runProbability": "3", "batsmanStrength" : "4","bowlerStrength" : "7", "country": "Oman"},
            {"name": "Suraj Kumar", "battingOrder" : "6", "runProbability": "7", "batsmanStrength" : "5","bowlerStrength" : "7", "country": "Oman"},
            {"name": "Ayaan Khan", "battingOrder" : "7", "runProbability": "4", "batsmanStrength" : "4","bowlerStrength" : "3", "country": "Oman"},
            {"name": "Bilal Khan", "battingOrder" : "8", "runProbability": "4", "batsmanStrength" : "5","bowlerStrength" : "4", "country": "Oman"},
            {"name": "Kaleemullah", "battingOrder" : "9", "runProbability": "6", "batsmanStrength" : "5","bowlerStrength" : "4", "country": "Oman"},
            {"name": "M Nadeem", "battingOrder" : "10", "runProbability": "7", "batsmanStrength" : "6","bowlerStrength" : "5", "country": "Oman"},
            {"name": "Sufyan Mehmood", "battingOrder" : "11", "runProbability": "8", "batsmanStrength" : "6","bowlerStrength" : "5", "country": "Oman"}
          ]
        },
        {
          "team": "PAPUA NEW GUINEA",
          "id": "PNG",
          "players": [
            {"name": "Assad Vala", "battingOrder" : "1", "runProbability": "2", "batsmanStrength" : "3","bowlerStrength" : "7", "country": "Papua New Guinea","captain": true},
            {"name": "Charles Amini", "battingOrder" : "2", "runProbability": "3", "batsmanStrength" : "3","bowlerStrength" : "7", "country": "Papua New Guinea"},
            {"name": "Kiplin Doriga", "battingOrder" : "3", "runProbability": "2", "batsmanStrength" : "4","bowlerStrength" : "7", "country": "Papua New Guinea"},
            {"name": "Lega Siaka", "battingOrder" : "4", "runProbability": "2", "batsmanStrength" : "3","bowlerStrength" : "7", "country": "Papua New Guinea"},
            {"name": "Sese Bau", "battingOrder" : "5", "runProbability": "3", "batsmanStrength" : "4","bowlerStrength" : "7", "country": "Papua New Guinea"},
            {"name": "Tony Ura", "battingOrder" : "6", "runProbability": "7", "batsmanStrength" : "5","bowlerStrength" : "7", "country": "Papua New Guinea"},
            {"name": "Chad Soper", "battingOrder" : "7", "runProbability": "4", "batsmanStrength" : "4","bowlerStrength" : "3", "country": "Papua New Guinea"},
            {"name": "Damien Ravu", "battingOrder" : "8", "runProbability": "4", "batsmanStrength" : "5","bowlerStrength" : "4", "country": "Papua New Guinea"},
            {"name": "Gaudi Toka", "battingOrder" : "9", "runProbability": "6", "batsmanStrength" : "5","bowlerStrength" : "4", "country": "Papua New Guinea"},
            {"name": "Norman Vanua", "battingOrder" : "10", "runProbability": "7", "batsmanStrength" : "6","bowlerStrength" : "5", "country": "Papua New Guinea"},
            {"name": "Nosaina Pokana", "battingOrder" : "11", "runProbability": "8", "batsmanStrength" : "6","bowlerStrength" : "5", "country": "Papua New Guinea"}
          ]
        }
      ]
    }
  ]
}
