{"frames": {

"argentina_flag":
{
	"frame": {"x":1320,"y":90,"w":90,"h":90},
	"rotated": false,
	"trimmed": false,
	"spriteSourceSize": {"x":0,"y":0,"w":90,"h":90},
	"sourceSize": {"w":90,"h":90}
},
"australia_flag":
{
	"frame": {"x":1414,"y":90,"w":90,"h":90},
	"rotated": false,
	"trimmed": false,
	"spriteSourceSize": {"x":0,"y":0,"w":90,"h":90},
	"sourceSize": {"w":90,"h":90}
},
"Avatar_mask":
{
	"frame": {"x":1747,"y":3,"w":83,"h":83},
	"rotated": false,
	"trimmed": false,
	"spriteSourceSize": {"x":0,"y":0,"w":83,"h":83},
	"sourceSize": {"w":83,"h":83}
},
"back":
{
	"frame": {"x":1747,"y":189,"w":219,"h":78},
	"rotated": false,
	"trimmed": false,
	"spriteSourceSize": {"x":0,"y":0,"w":219,"h":78},
	"sourceSize": {"w":219,"h":78}
},
"ball_b":
{
	"frame": {"x":1711,"y":843,"w":122,"h":122},
	"rotated": false,
	"trimmed": false,
	"spriteSourceSize": {"x":0,"y":0,"w":122,"h":122},
	"sourceSize": {"w":122,"h":122}
},
"belgium_flag":
{
	"frame": {"x":1508,"y":90,"w":90,"h":90},
	"rotated": false,
	"trimmed": false,
	"spriteSourceSize": {"x":0,"y":0,"w":90,"h":90},
	"sourceSize": {"w":90,"h":90}
},
"betPlacementbg":
{
	"frame": {"x":230,"y":577,"w":365,"h":48},
	"rotated": false,
	"trimmed": false,
	"spriteSourceSize": {"x":0,"y":0,"w":365,"h":48},
	"sourceSize": {"w":365,"h":48}
},
"Big_Multiplier_line":
{
	"frame": {"x":21,"y":1011,"w":25,"h":2},
	"rotated": false,
	"trimmed": false,
	"spriteSourceSize": {"x":0,"y":0,"w":25,"h":2},
	"sourceSize": {"w":25,"h":2}
},
"brazil_flag":
{
	"frame": {"x":1602,"y":90,"w":90,"h":90},
	"rotated": false,
	"trimmed": false,
	"spriteSourceSize": {"x":0,"y":0,"w":90,"h":90},
	"sourceSize": {"w":90,"h":90}
},
"cameroon_flag":
{
	"frame": {"x":1696,"y":90,"w":90,"h":90},
	"rotated": false,
	"trimmed": false,
	"spriteSourceSize": {"x":0,"y":0,"w":90,"h":90},
	"sourceSize": {"w":90,"h":90}
},
"canada_flag":
{
	"frame": {"x":1837,"y":271,"w":90,"h":90},
	"rotated": false,
	"trimmed": false,
	"spriteSourceSize": {"x":0,"y":0,"w":90,"h":90},
	"sourceSize": {"w":90,"h":90}
},
"cashoutline":
{
	"frame": {"x":182,"y":3,"w":5,"h":599},
	"rotated": false,
	"trimmed": true,
	"spriteSourceSize": {"x":1,"y":1,"w":5,"h":599},
	"sourceSize": {"w":7,"h":600}
},
"costarica_flag":
{
	"frame": {"x":1931,"y":271,"w":90,"h":90},
	"rotated": false,
	"trimmed": false,
	"spriteSourceSize": {"x":0,"y":0,"w":90,"h":90},
	"sourceSize": {"w":90,"h":90}
},
"countryIcons":
{
	"frame": {"x":1837,"y":365,"w":90,"h":90},
	"rotated": false,
	"trimmed": false,
	"spriteSourceSize": {"x":0,"y":0,"w":90,"h":90},
	"sourceSize": {"w":90,"h":90}
},
"croatia_flag":
{
	"frame": {"x":1931,"y":365,"w":90,"h":90},
	"rotated": false,
	"trimmed": false,
	"spriteSourceSize": {"x":0,"y":0,"w":90,"h":90},
	"sourceSize": {"w":90,"h":90}
},
"denmark_flag":
{
	"frame": {"x":1320,"y":459,"w":90,"h":90},
	"rotated": false,
	"trimmed": false,
	"spriteSourceSize": {"x":0,"y":0,"w":90,"h":90},
	"sourceSize": {"w":90,"h":90}
},
"ecuador_flag":
{
	"frame": {"x":1411,"y":553,"w":90,"h":90},
	"rotated": false,
	"trimmed": false,
	"spriteSourceSize": {"x":0,"y":0,"w":90,"h":90},
	"sourceSize": {"w":90,"h":90}
},
"england_flag":
{
	"frame": {"x":1414,"y":459,"w":90,"h":90},
	"rotated": false,
	"trimmed": false,
	"spriteSourceSize": {"x":0,"y":0,"w":90,"h":90},
	"sourceSize": {"w":90,"h":90}
},
"exitBtn":
{
	"frame": {"x":105,"y":811,"w":22,"h":35},
	"rotated": false,
	"trimmed": true,
	"spriteSourceSize": {"x":18,"y":14,"w":22,"h":35},
	"sourceSize": {"w":63,"h":63}
},
"france_flag":
{
	"frame": {"x":1505,"y":553,"w":90,"h":90},
	"rotated": false,
	"trimmed": false,
	"spriteSourceSize": {"x":0,"y":0,"w":90,"h":90},
	"sourceSize": {"w":90,"h":90}
},
"germany_flag":
{
	"frame": {"x":1508,"y":459,"w":90,"h":90},
	"rotated": false,
	"trimmed": false,
	"spriteSourceSize": {"x":0,"y":0,"w":90,"h":90},
	"sourceSize": {"w":90,"h":90}
},
"ghana_flag":
{
	"frame": {"x":1602,"y":184,"w":90,"h":90},
	"rotated": false,
	"trimmed": false,
	"spriteSourceSize": {"x":0,"y":0,"w":90,"h":90},
	"sourceSize": {"w":90,"h":90}
},
"Gradient_white":
{
	"frame": {"x":9,"y":3,"w":169,"h":649},
	"rotated": false,
	"trimmed": true,
	"spriteSourceSize": {"x":0,"y":4,"w":169,"h":649},
	"sourceSize": {"w":169,"h":653}
},
"H_Anaheim":
{
	"frame": {"x":1837,"y":3,"w":150,"h":95},
	"rotated": false,
	"trimmed": true,
	"spriteSourceSize": {"x":0,"y":29,"w":150,"h":95},
	"sourceSize": {"w":150,"h":150}
},
"H_Boston":
{
	"frame": {"x":105,"y":656,"w":150,"h":151},
	"rotated": false,
	"trimmed": false,
	"spriteSourceSize": {"x":0,"y":0,"w":150,"h":151},
	"sourceSize": {"w":150,"h":151}
},
"H_Carolina":
{
	"frame": {"x":1837,"y":102,"w":150,"h":83},
	"rotated": false,
	"trimmed": true,
	"spriteSourceSize": {"x":0,"y":32,"w":150,"h":83},
	"sourceSize": {"w":150,"h":150}
},
"H_Chicago":
{
	"frame": {"x":1103,"y":577,"w":150,"h":149},
	"rotated": false,
	"trimmed": true,
	"spriteSourceSize": {"x":0,"y":1,"w":150,"h":149},
	"sourceSize": {"w":150,"h":150}
},
"H_Detroit":
{
	"frame": {"x":721,"y":577,"w":131,"h":150},
	"rotated": false,
	"trimmed": true,
	"spriteSourceSize": {"x":9,"y":0,"w":131,"h":150},
	"sourceSize": {"w":150,"h":150}
},
"H_Florida":
{
	"frame": {"x":988,"y":577,"w":111,"h":150},
	"rotated": false,
	"trimmed": true,
	"spriteSourceSize": {"x":20,"y":0,"w":111,"h":150},
	"sourceSize": {"w":150,"h":150}
},
"H_LOSANGELES":
{
	"frame": {"x":856,"y":577,"w":128,"h":150},
	"rotated": false,
	"trimmed": true,
	"spriteSourceSize": {"x":11,"y":0,"w":128,"h":150},
	"sourceSize": {"w":150,"h":150}
},
"H_LOSANGELES1":
{
	"frame": {"x":850,"y":848,"w":118,"h":150},
	"rotated": false,
	"trimmed": true,
	"spriteSourceSize": {"x":17,"y":0,"w":118,"h":150},
	"sourceSize": {"w":150,"h":150}
},
"H_NEWYORK":
{
	"frame": {"x":568,"y":629,"w":149,"h":150},
	"rotated": false,
	"trimmed": true,
	"spriteSourceSize": {"x":1,"y":0,"w":149,"h":150},
	"sourceSize": {"w":150,"h":150}
},
"H_Pittsburgh":
{
	"frame": {"x":414,"y":629,"w":150,"h":150},
	"rotated": false,
	"trimmed": false,
	"spriteSourceSize": {"x":0,"y":0,"w":150,"h":150},
	"sourceSize": {"w":150,"h":150}
},
"H_TamaraBay":
{
	"frame": {"x":1257,"y":577,"w":150,"h":141},
	"rotated": false,
	"trimmed": true,
	"spriteSourceSize": {"x":0,"y":4,"w":150,"h":141},
	"sourceSize": {"w":150,"h":150}
},
"H_Toronto":
{
	"frame": {"x":259,"y":629,"w":151,"h":150},
	"rotated": false,
	"trimmed": false,
	"spriteSourceSize": {"x":0,"y":0,"w":151,"h":150},
	"sourceSize": {"w":151,"h":150}
},
"howtoplayarrow":
{
	"frame": {"x":3,"y":659,"w":98,"h":188},
	"rotated": false,
	"trimmed": false,
	"spriteSourceSize": {"x":0,"y":0,"w":98,"h":188},
	"sourceSize": {"w":98,"h":188}
},
"iran_flag":
{
	"frame": {"x":1696,"y":271,"w":90,"h":90},
	"rotated": false,
	"trimmed": false,
	"spriteSourceSize": {"x":0,"y":0,"w":90,"h":90},
	"sourceSize": {"w":90,"h":90}
},
"japan_flag":
{
	"frame": {"x":1602,"y":278,"w":90,"h":90},
	"rotated": false,
	"trimmed": false,
	"spriteSourceSize": {"x":0,"y":0,"w":90,"h":90},
	"sourceSize": {"w":90,"h":90}
},
"korea_flag":
{
	"frame": {"x":1696,"y":365,"w":90,"h":90},
	"rotated": false,
	"trimmed": false,
	"spriteSourceSize": {"x":0,"y":0,"w":90,"h":90},
	"sourceSize": {"w":90,"h":90}
},
"maskImg":
{
	"frame": {"x":1991,"y":3,"w":7,"h":118},
	"rotated": false,
	"trimmed": false,
	"spriteSourceSize": {"x":0,"y":0,"w":7,"h":118},
	"sourceSize": {"w":7,"h":118}
},
"matchStartPlayerbg":
{
	"frame": {"x":191,"y":3,"w":1125,"h":570},
	"rotated": false,
	"trimmed": false,
	"spriteSourceSize": {"x":0,"y":0,"w":1125,"h":570},
	"sourceSize": {"w":1125,"h":570}
},
"mexico_flag":
{
	"frame": {"x":1602,"y":372,"w":90,"h":90},
	"rotated": false,
	"trimmed": false,
	"spriteSourceSize": {"x":0,"y":0,"w":90,"h":90},
	"sourceSize": {"w":90,"h":90}
},
"morocco_flag":
{
	"frame": {"x":1599,"y":553,"w":90,"h":90},
	"rotated": false,
	"trimmed": false,
	"spriteSourceSize": {"x":0,"y":0,"w":90,"h":90},
	"sourceSize": {"w":90,"h":90}
},
"Name_fade_1":
{
	"frame": {"x":273,"y":783,"w":210,"h":47},
	"rotated": false,
	"trimmed": true,
	"spriteSourceSize": {"x":0,"y":0,"w":210,"h":47},
	"sourceSize": {"w":223,"h":47}
},
"Name_fade_2":
{
	"frame": {"x":487,"y":783,"w":210,"h":47},
	"rotated": false,
	"trimmed": true,
	"spriteSourceSize": {"x":13,"y":0,"w":210,"h":47},
	"sourceSize": {"w":223,"h":47}
},
"netherlands_flag":
{
	"frame": {"x":1837,"y":459,"w":90,"h":90},
	"rotated": false,
	"trimmed": false,
	"spriteSourceSize": {"x":0,"y":0,"w":90,"h":90},
	"sourceSize": {"w":90,"h":90}
},
"nextBtnHTP":
{
	"frame": {"x":131,"y":811,"w":75,"h":30},
	"rotated": false,
	"trimmed": false,
	"spriteSourceSize": {"x":0,"y":0,"w":75,"h":30},
	"sourceSize": {"w":75,"h":30}
},
"Players_container":
{
	"frame": {"x":721,"y":731,"w":174,"h":113},
	"rotated": false,
	"trimmed": true,
	"spriteSourceSize": {"x":0,"y":0,"w":174,"h":113},
	"sourceSize": {"w":555,"h":113}
},
"poland_flag":
{
	"frame": {"x":1931,"y":459,"w":90,"h":90},
	"rotated": false,
	"trimmed": false,
	"spriteSourceSize": {"x":0,"y":0,"w":90,"h":90},
	"sourceSize": {"w":90,"h":90}
},
"portugal_flag":
{
	"frame": {"x":1696,"y":459,"w":90,"h":90},
	"rotated": false,
	"trimmed": false,
	"spriteSourceSize": {"x":0,"y":0,"w":90,"h":90},
	"sourceSize": {"w":90,"h":90}
},
"qatar_flag":
{
	"frame": {"x":1693,"y":553,"w":90,"h":90},
	"rotated": false,
	"trimmed": false,
	"spriteSourceSize": {"x":0,"y":0,"w":90,"h":90},
	"sourceSize": {"w":90,"h":90}
},
"saudiarabia_flag":
{
	"frame": {"x":1747,"y":647,"w":90,"h":90},
	"rotated": false,
	"trimmed": false,
	"spriteSourceSize": {"x":0,"y":0,"w":90,"h":90},
	"sourceSize": {"w":90,"h":90}
},
"senegal_flag":
{
	"frame": {"x":1787,"y":553,"w":90,"h":90},
	"rotated": false,
	"trimmed": false,
	"spriteSourceSize": {"x":0,"y":0,"w":90,"h":90},
	"sourceSize": {"w":90,"h":90}
},
"serbia_flag":
{
	"frame": {"x":1747,"y":741,"w":90,"h":90},
	"rotated": false,
	"trimmed": false,
	"spriteSourceSize": {"x":0,"y":0,"w":90,"h":90},
	"sourceSize": {"w":90,"h":90}
},
"smallball":
{
	"frame": {"x":182,"y":606,"w":44,"h":44},
	"rotated": false,
	"trimmed": false,
	"spriteSourceSize": {"x":0,"y":0,"w":44,"h":44},
	"sourceSize": {"w":44,"h":44}
},
"smallround":
{
	"frame": {"x":3,"y":1011,"w":7,"h":7},
	"rotated": false,
	"trimmed": false,
	"spriteSourceSize": {"x":0,"y":0,"w":7,"h":7},
	"sourceSize": {"w":7,"h":7}
},
"spain_flag":
{
	"frame": {"x":1881,"y":553,"w":90,"h":90},
	"rotated": false,
	"trimmed": false,
	"spriteSourceSize": {"x":0,"y":0,"w":90,"h":90},
	"sourceSize": {"w":90,"h":90}
},
"Starting_container":
{
	"frame": {"x":899,"y":731,"w":844,"h":108},
	"rotated": false,
	"trimmed": false,
	"spriteSourceSize": {"x":0,"y":0,"w":844,"h":108},
	"sourceSize": {"w":844,"h":108}
},
"switzerland_flag":
{
	"frame": {"x":1837,"y":835,"w":90,"h":90},
	"rotated": false,
	"trimmed": false,
	"spriteSourceSize": {"x":0,"y":0,"w":90,"h":90},
	"sourceSize": {"w":90,"h":90}
},
"Time_line":
{
	"frame": {"x":14,"y":1018,"w":844,"h":2},
	"rotated": false,
	"trimmed": false,
	"spriteSourceSize": {"x":0,"y":0,"w":844,"h":2},
	"sourceSize": {"w":844,"h":2}
},
"titleHomerun":
{
	"frame": {"x":972,"y":843,"w":224,"h":137},
	"rotated": false,
	"trimmed": false,
	"spriteSourceSize": {"x":0,"y":0,"w":224,"h":137},
	"sourceSize": {"w":224,"h":137}
},
"topbarbg":
{
	"frame": {"x":3,"y":851,"w":843,"h":156},
	"rotated": false,
	"trimmed": true,
	"spriteSourceSize": {"x":1,"y":0,"w":843,"h":156},
	"sourceSize": {"w":844,"h":156}
},
"topbarbgwhite":
{
	"frame": {"x":1200,"y":843,"w":507,"h":132},
	"rotated": false,
	"trimmed": false,
	"spriteSourceSize": {"x":0,"y":0,"w":507,"h":132},
	"sourceSize": {"w":507,"h":132}
},
"transparentBtn":
{
	"frame": {"x":14,"y":1011,"w":3,"h":3},
	"rotated": false,
	"trimmed": true,
	"spriteSourceSize": {"x":0,"y":0,"w":3,"h":3},
	"sourceSize": {"w":107,"h":43}
},
"tunisia_flag":
{
	"frame": {"x":1837,"y":929,"w":90,"h":90},
	"rotated": false,
	"trimmed": false,
	"spriteSourceSize": {"x":0,"y":0,"w":90,"h":90},
	"sourceSize": {"w":90,"h":90}
},
"uruguya_flag":
{
	"frame": {"x":1931,"y":647,"w":90,"h":90},
	"rotated": false,
	"trimmed": false,
	"spriteSourceSize": {"x":0,"y":0,"w":90,"h":90},
	"sourceSize": {"w":90,"h":90}
},
"usa_flag":
{
	"frame": {"x":1841,"y":741,"w":90,"h":90},
	"rotated": false,
	"trimmed": false,
	"spriteSourceSize": {"x":0,"y":0,"w":90,"h":90},
	"sourceSize": {"w":90,"h":90}
},
"Vertical_time divider":
{
	"frame": {"x":3,"y":3,"w":2,"h":652},
	"rotated": false,
	"trimmed": true,
	"spriteSourceSize": {"x":0,"y":10,"w":2,"h":652},
	"sourceSize": {"w":2,"h":662}
},
"wales_flag":
{
	"frame": {"x":1935,"y":741,"w":90,"h":90},
	"rotated": false,
	"trimmed": false,
	"spriteSourceSize": {"x":0,"y":0,"w":90,"h":90},
	"sourceSize": {"w":90,"h":90}
},
"winningMultibg":
{
	"frame": {"x":210,"y":811,"w":59,"h":24},
	"rotated": false,
	"trimmed": false,
	"spriteSourceSize": {"x":0,"y":0,"w":59,"h":24},
	"sourceSize": {"w":59,"h":24}
}},
"animations": {
	"Name_fade": ["Name_fade_1","Name_fade_2"]
},
"meta": {
	"app": "https://www.codeandweb.com/texturepacker",
	"version": "1.1",
	"image": "homerun_ui.png",
	"format": "RGBA8888",
	"size": {"w":2048,"h":1024},
	"scale": "0.75",
	"smartupdate": "$TexturePacker:SmartUpdate:365d5f19b74325a01650c835a86ba7aa:7fc66ba72b98ab0b20323b6d6ee1efd1:86b43de556f7e1118442a7997e8cc60d$"
}
}
