{"frames": {

"Football_bg1":
{
	"frame": {"x":3,"y":3,"w":1440,"h":3111},
	"rotated": false,
	"trimmed": false,
	"spriteSourceSize": {"x":0,"y":0,"w":1440,"h":3111},
	"sourceSize": {"w":1440,"h":3111}
}},
"meta": {
	"app": "https://www.codeandweb.com/texturepacker",
	"version": "1.0",
	"image": "defender_gamebg.png",
	"format": "RGBA8888",
	"size": {"w":2048,"h":4096},
	"scale": "1",
	"smartupdate": "$TexturePacker:SmartUpdate:f9a52b6c6bcacf93d6827f6f78592521:71e19a7e20ac4380d764b55fd4ae46e0:8e01c626e395c353d4b3c34f6092bd4d$"
}
}
