{"frames": {

"page1_d":
{
	"frame": {"x":3,"y":1107,"w":1001,"h":891},
	"rotated": false,
	"trimmed": false,
	"spriteSourceSize": {"x":0,"y":0,"w":1001,"h":891},
	"sourceSize": {"w":1001,"h":891}
},
"page1_p":
{
	"frame": {"x":507,"y":3,"w":500,"h":1087},
	"rotated": false,
	"trimmed": false,
	"spriteSourceSize": {"x":0,"y":0,"w":500,"h":1087},
	"sourceSize": {"w":500,"h":1087}
},
"page2_d":
{
	"frame": {"x":1011,"y":3,"w":999,"h":887},
	"rotated": false,
	"trimmed": false,
	"spriteSourceSize": {"x":0,"y":0,"w":999,"h":887},
	"sourceSize": {"w":999,"h":887}
},
"page2_p":
{
	"frame": {"x":3,"y":3,"w":500,"h":1100},
	"rotated": false,
	"trimmed": false,
	"spriteSourceSize": {"x":0,"y":0,"w":500,"h":1100},
	"sourceSize": {"w":500,"h":1100}
}},
"meta": {
	"app": "https://www.codeandweb.com/texturepacker",
	"version": "1.0",
	"image": "howtoplayScreens.jpg",
	"format": "RGB888",
	"size": {"w":2048,"h":2048},
	"scale": "1",
	"smartupdate": "$TexturePacker:SmartUpdate:5d181fc0fa86bda11dce176df958f40f:d415266cef87f1dacb1c272ef986c8a2:8e5a157c83445254cc9607f8561ee1cc$"
}
}
