{"frames": {

"argentina_flag":
{
	"frame": {"x":840,"y":1232,"w":90,"h":90},
	"rotated": false,
	"trimmed": false,
	"spriteSourceSize": {"x":0,"y":0,"w":90,"h":90},
	"sourceSize": {"w":90,"h":90}
},
"arsenalLogo":
{
	"frame": {"x":942,"y":1056,"w":78,"h":90},
	"rotated": false,
	"trimmed": true,
	"spriteSourceSize": {"x":6,"y":0,"w":78,"h":90},
	"sourceSize": {"w":90,"h":90}
},
"astonvillaLogo":
{
	"frame": {"x":745,"y":981,"w":68,"h":90},
	"rotated": false,
	"trimmed": true,
	"spriteSourceSize": {"x":11,"y":0,"w":68,"h":90},
	"sourceSize": {"w":90,"h":90}
},
"australia_flag":
{
	"frame": {"x":840,"y":1326,"w":90,"h":90},
	"rotated": false,
	"trimmed": false,
	"spriteSourceSize": {"x":0,"y":0,"w":90,"h":90},
	"sourceSize": {"w":90,"h":90}
},
"Avatar_mask":
{
	"frame": {"x":934,"y":1338,"w":83,"h":83},
	"rotated": false,
	"trimmed": false,
	"spriteSourceSize": {"x":0,"y":0,"w":83,"h":83},
	"sourceSize": {"w":83,"h":83}
},
"belgium_flag":
{
	"frame": {"x":3,"y":680,"w":90,"h":90},
	"rotated": false,
	"trimmed": false,
	"spriteSourceSize": {"x":0,"y":0,"w":90,"h":90},
	"sourceSize": {"w":90,"h":90}
},
"betPlacementbg":
{
	"frame": {"x":3,"y":628,"w":365,"h":48},
	"rotated": false,
	"trimmed": false,
	"spriteSourceSize": {"x":0,"y":0,"w":365,"h":48},
	"sourceSize": {"w":365,"h":48}
},
"Big_Multiplier_line":
{
	"frame": {"x":814,"y":628,"w":25,"h":2},
	"rotated": false,
	"trimmed": false,
	"spriteSourceSize": {"x":0,"y":0,"w":25,"h":2},
	"sourceSize": {"w":25,"h":2}
},
"brazil_flag":
{
	"frame": {"x":97,"y":680,"w":90,"h":90},
	"rotated": false,
	"trimmed": false,
	"spriteSourceSize": {"x":0,"y":0,"w":90,"h":90},
	"sourceSize": {"w":90,"h":90}
},
"brentfordLogo":
{
	"frame": {"x":191,"y":680,"w":90,"h":90},
	"rotated": false,
	"trimmed": false,
	"spriteSourceSize": {"x":0,"y":0,"w":90,"h":90},
	"sourceSize": {"w":90,"h":90}
},
"brighton&Hove_AlbionLogo":
{
	"frame": {"x":371,"y":768,"w":90,"h":90},
	"rotated": false,
	"trimmed": false,
	"spriteSourceSize": {"x":0,"y":0,"w":90,"h":90},
	"sourceSize": {"w":90,"h":90}
},
"burnleyLogo":
{
	"frame": {"x":285,"y":774,"w":80,"h":90},
	"rotated": false,
	"trimmed": true,
	"spriteSourceSize": {"x":5,"y":0,"w":80,"h":90},
	"sourceSize": {"w":90,"h":90}
},
"cameroon_flag":
{
	"frame": {"x":465,"y":768,"w":90,"h":90},
	"rotated": false,
	"trimmed": false,
	"spriteSourceSize": {"x":0,"y":0,"w":90,"h":90},
	"sourceSize": {"w":90,"h":90}
},
"canada_flag":
{
	"frame": {"x":559,"y":853,"w":90,"h":90},
	"rotated": false,
	"trimmed": false,
	"spriteSourceSize": {"x":0,"y":0,"w":90,"h":90},
	"sourceSize": {"w":90,"h":90}
},
"cashoutline":
{
	"frame": {"x":825,"y":673,"w":5,"h":599},
	"rotated": false,
	"trimmed": true,
	"spriteSourceSize": {"x":1,"y":1,"w":5,"h":599},
	"sourceSize": {"w":7,"h":600}
},
"chelseaLogo":
{
	"frame": {"x":653,"y":853,"w":90,"h":90},
	"rotated": false,
	"trimmed": false,
	"spriteSourceSize": {"x":0,"y":0,"w":90,"h":90},
	"sourceSize": {"w":90,"h":90}
},
"costarica_flag":
{
	"frame": {"x":3,"y":774,"w":90,"h":90},
	"rotated": false,
	"trimmed": false,
	"spriteSourceSize": {"x":0,"y":0,"w":90,"h":90},
	"sourceSize": {"w":90,"h":90}
},
"countryIcons":
{
	"frame": {"x":97,"y":774,"w":90,"h":90},
	"rotated": false,
	"trimmed": false,
	"spriteSourceSize": {"x":0,"y":0,"w":90,"h":90},
	"sourceSize": {"w":90,"h":90}
},
"croatia_flag":
{
	"frame": {"x":191,"y":774,"w":90,"h":90},
	"rotated": false,
	"trimmed": false,
	"spriteSourceSize": {"x":0,"y":0,"w":90,"h":90},
	"sourceSize": {"w":90,"h":90}
},
"crystalpalaceLogo":
{
	"frame": {"x":747,"y":853,"w":74,"h":90},
	"rotated": false,
	"trimmed": true,
	"spriteSourceSize": {"x":8,"y":0,"w":74,"h":90},
	"sourceSize": {"w":90,"h":90}
},
"denmark_flag":
{
	"frame": {"x":369,"y":862,"w":90,"h":90},
	"rotated": false,
	"trimmed": false,
	"spriteSourceSize": {"x":0,"y":0,"w":90,"h":90},
	"sourceSize": {"w":90,"h":90}
},
"ecuador_flag":
{
	"frame": {"x":463,"y":862,"w":90,"h":90},
	"rotated": false,
	"trimmed": false,
	"spriteSourceSize": {"x":0,"y":0,"w":90,"h":90},
	"sourceSize": {"w":90,"h":90}
},
"england_flag":
{
	"frame": {"x":557,"y":947,"w":90,"h":90},
	"rotated": false,
	"trimmed": false,
	"spriteSourceSize": {"x":0,"y":0,"w":90,"h":90},
	"sourceSize": {"w":90,"h":90}
},
"evertonLogo":
{
	"frame": {"x":651,"y":947,"w":90,"h":90},
	"rotated": false,
	"trimmed": false,
	"spriteSourceSize": {"x":0,"y":0,"w":90,"h":90},
	"sourceSize": {"w":90,"h":90}
},
"exitBtn":
{
	"frame": {"x":814,"y":634,"w":22,"h":35},
	"rotated": false,
	"trimmed": true,
	"spriteSourceSize": {"x":18,"y":14,"w":22,"h":35},
	"sourceSize": {"w":63,"h":63}
},
"f_ball":
{
	"frame": {"x":840,"y":914,"w":122,"h":122},
	"rotated": false,
	"trimmed": false,
	"spriteSourceSize": {"x":0,"y":0,"w":122,"h":122},
	"sourceSize": {"w":122,"h":122}
},
"france_flag":
{
	"frame": {"x":3,"y":868,"w":90,"h":90},
	"rotated": false,
	"trimmed": false,
	"spriteSourceSize": {"x":0,"y":0,"w":90,"h":90},
	"sourceSize": {"w":90,"h":90}
},
"germany_flag":
{
	"frame": {"x":97,"y":868,"w":90,"h":90},
	"rotated": false,
	"trimmed": false,
	"spriteSourceSize": {"x":0,"y":0,"w":90,"h":90},
	"sourceSize": {"w":90,"h":90}
},
"ghana_flag":
{
	"frame": {"x":191,"y":868,"w":90,"h":90},
	"rotated": false,
	"trimmed": false,
	"spriteSourceSize": {"x":0,"y":0,"w":90,"h":90},
	"sourceSize": {"w":90,"h":90}
},
"Gradient_white":
{
	"frame": {"x":851,"y":144,"w":169,"h":649},
	"rotated": false,
	"trimmed": true,
	"spriteSourceSize": {"x":0,"y":4,"w":169,"h":649},
	"sourceSize": {"w":169,"h":653}
},
"howtoplayarrow":
{
	"frame": {"x":840,"y":1040,"w":98,"h":188},
	"rotated": false,
	"trimmed": false,
	"spriteSourceSize": {"x":0,"y":0,"w":98,"h":188},
	"sourceSize": {"w":98,"h":188}
},
"iran_flag":
{
	"frame": {"x":285,"y":956,"w":90,"h":90},
	"rotated": false,
	"trimmed": false,
	"spriteSourceSize": {"x":0,"y":0,"w":90,"h":90},
	"sourceSize": {"w":90,"h":90}
},
"japan_flag":
{
	"frame": {"x":379,"y":956,"w":90,"h":90},
	"rotated": false,
	"trimmed": false,
	"spriteSourceSize": {"x":0,"y":0,"w":90,"h":90},
	"sourceSize": {"w":90,"h":90}
},
"korea_flag":
{
	"frame": {"x":473,"y":1041,"w":90,"h":90},
	"rotated": false,
	"trimmed": false,
	"spriteSourceSize": {"x":0,"y":0,"w":90,"h":90},
	"sourceSize": {"w":90,"h":90}
},
"leedsutdLogo":
{
	"frame": {"x":942,"y":1150,"w":78,"h":90},
	"rotated": false,
	"trimmed": true,
	"spriteSourceSize": {"x":7,"y":0,"w":78,"h":90},
	"sourceSize": {"w":90,"h":90}
},
"leicestercityLogo":
{
	"frame": {"x":567,"y":1041,"w":90,"h":90},
	"rotated": false,
	"trimmed": false,
	"spriteSourceSize": {"x":0,"y":0,"w":90,"h":90},
	"sourceSize": {"w":90,"h":90}
},
"liverpoolLogo":
{
	"frame": {"x":661,"y":1075,"w":90,"h":90},
	"rotated": false,
	"trimmed": false,
	"spriteSourceSize": {"x":0,"y":0,"w":90,"h":90},
	"sourceSize": {"w":90,"h":90}
},
"manchestercityLogo":
{
	"frame": {"x":3,"y":962,"w":90,"h":90},
	"rotated": false,
	"trimmed": false,
	"spriteSourceSize": {"x":0,"y":0,"w":90,"h":90},
	"sourceSize": {"w":90,"h":90}
},
"manutdLogo":
{
	"frame": {"x":191,"y":1240,"w":88,"h":90},
	"rotated": false,
	"trimmed": true,
	"spriteSourceSize": {"x":1,"y":0,"w":88,"h":90},
	"sourceSize": {"w":90,"h":90}
},
"maskImg":
{
	"frame": {"x":840,"y":635,"w":7,"h":118},
	"rotated": false,
	"trimmed": false,
	"spriteSourceSize": {"x":0,"y":0,"w":7,"h":118},
	"sourceSize": {"w":7,"h":118}
},
"matchStartPlayerbg":
{
	"frame": {"x":3,"y":3,"w":844,"h":364},
	"rotated": false,
	"trimmed": false,
	"spriteSourceSize": {"x":0,"y":0,"w":844,"h":364},
	"sourceSize": {"w":844,"h":364}
},
"mexico_flag":
{
	"frame": {"x":97,"y":962,"w":90,"h":90},
	"rotated": false,
	"trimmed": false,
	"spriteSourceSize": {"x":0,"y":0,"w":90,"h":90},
	"sourceSize": {"w":90,"h":90}
},
"morocco_flag":
{
	"frame": {"x":191,"y":962,"w":90,"h":90},
	"rotated": false,
	"trimmed": false,
	"spriteSourceSize": {"x":0,"y":0,"w":90,"h":90},
	"sourceSize": {"w":90,"h":90}
},
"Name_fade_1":
{
	"frame": {"x":600,"y":628,"w":210,"h":47},
	"rotated": false,
	"trimmed": true,
	"spriteSourceSize": {"x":0,"y":0,"w":210,"h":47},
	"sourceSize": {"w":223,"h":47}
},
"Name_fade_2":
{
	"frame": {"x":600,"y":679,"w":210,"h":47},
	"rotated": false,
	"trimmed": true,
	"spriteSourceSize": {"x":13,"y":0,"w":210,"h":47},
	"sourceSize": {"w":223,"h":47}
},
"netherlands_flag":
{
	"frame": {"x":285,"y":1050,"w":90,"h":90},
	"rotated": false,
	"trimmed": false,
	"spriteSourceSize": {"x":0,"y":0,"w":90,"h":90},
	"sourceSize": {"w":90,"h":90}
},
"newcastleutdLogo":
{
	"frame": {"x":191,"y":1150,"w":90,"h":86},
	"rotated": false,
	"trimmed": true,
	"spriteSourceSize": {"x":0,"y":2,"w":90,"h":86},
	"sourceSize": {"w":90,"h":90}
},
"nextBtnHTP":
{
	"frame": {"x":745,"y":947,"w":75,"h":30},
	"rotated": false,
	"trimmed": false,
	"spriteSourceSize": {"x":0,"y":0,"w":75,"h":30},
	"sourceSize": {"w":75,"h":30}
},
"norwichLogo":
{
	"frame": {"x":285,"y":680,"w":82,"h":90},
	"rotated": false,
	"trimmed": true,
	"spriteSourceSize": {"x":4,"y":0,"w":82,"h":90},
	"sourceSize": {"w":90,"h":90}
},
"playabettitleDefender":
{
	"frame": {"x":372,"y":628,"w":224,"h":136},
	"rotated": false,
	"trimmed": true,
	"spriteSourceSize": {"x":0,"y":0,"w":224,"h":136},
	"sourceSize": {"w":224,"h":137}
},
"Players_container":
{
	"frame": {"x":840,"y":797,"w":174,"h":113},
	"rotated": false,
	"trimmed": true,
	"spriteSourceSize": {"x":0,"y":0,"w":174,"h":113},
	"sourceSize": {"w":555,"h":113}
},
"poland_flag":
{
	"frame": {"x":379,"y":1050,"w":90,"h":90},
	"rotated": false,
	"trimmed": false,
	"spriteSourceSize": {"x":0,"y":0,"w":90,"h":90},
	"sourceSize": {"w":90,"h":90}
},
"portugal_flag":
{
	"frame": {"x":473,"y":1135,"w":90,"h":90},
	"rotated": false,
	"trimmed": false,
	"spriteSourceSize": {"x":0,"y":0,"w":90,"h":90},
	"sourceSize": {"w":90,"h":90}
},
"qatar_flag":
{
	"frame": {"x":567,"y":1135,"w":90,"h":90},
	"rotated": false,
	"trimmed": false,
	"spriteSourceSize": {"x":0,"y":0,"w":90,"h":90},
	"sourceSize": {"w":90,"h":90}
},
"saudiarabia_flag":
{
	"frame": {"x":661,"y":1169,"w":90,"h":90},
	"rotated": false,
	"trimmed": false,
	"spriteSourceSize": {"x":0,"y":0,"w":90,"h":90},
	"sourceSize": {"w":90,"h":90}
},
"senegal_flag":
{
	"frame": {"x":3,"y":1056,"w":90,"h":90},
	"rotated": false,
	"trimmed": false,
	"spriteSourceSize": {"x":0,"y":0,"w":90,"h":90},
	"sourceSize": {"w":90,"h":90}
},
"serbia_flag":
{
	"frame": {"x":97,"y":1056,"w":90,"h":90},
	"rotated": false,
	"trimmed": false,
	"spriteSourceSize": {"x":0,"y":0,"w":90,"h":90},
	"sourceSize": {"w":90,"h":90}
},
"smallball":
{
	"frame": {"x":966,"y":1008,"w":44,"h":44},
	"rotated": false,
	"trimmed": false,
	"spriteSourceSize": {"x":0,"y":0,"w":44,"h":44},
	"sourceSize": {"w":44,"h":44}
},
"smallround":
{
	"frame": {"x":814,"y":673,"w":7,"h":7},
	"rotated": false,
	"trimmed": false,
	"spriteSourceSize": {"x":0,"y":0,"w":7,"h":7},
	"sourceSize": {"w":7,"h":7}
},
"southamptonLogo":
{
	"frame": {"x":191,"y":1056,"w":90,"h":90},
	"rotated": false,
	"trimmed": false,
	"spriteSourceSize": {"x":0,"y":0,"w":90,"h":90},
	"sourceSize": {"w":90,"h":90}
},
"spain_flag":
{
	"frame": {"x":285,"y":1144,"w":90,"h":90},
	"rotated": false,
	"trimmed": false,
	"spriteSourceSize": {"x":0,"y":0,"w":90,"h":90},
	"sourceSize": {"w":90,"h":90}
},
"starbettitleDefender":
{
	"frame": {"x":851,"y":3,"w":170,"h":137},
	"rotated": false,
	"trimmed": true,
	"spriteSourceSize": {"x":26,"y":0,"w":170,"h":137},
	"sourceSize": {"w":224,"h":137}
},
"Starting_container":
{
	"frame": {"x":3,"y":510,"w":844,"h":108},
	"rotated": false,
	"trimmed": false,
	"spriteSourceSize": {"x":0,"y":0,"w":844,"h":108},
	"sourceSize": {"w":844,"h":108}
},
"switzerland_flag":
{
	"frame": {"x":379,"y":1144,"w":90,"h":90},
	"rotated": false,
	"trimmed": false,
	"spriteSourceSize": {"x":0,"y":0,"w":90,"h":90},
	"sourceSize": {"w":90,"h":90}
},
"Time_line":
{
	"frame": {"x":3,"y":622,"w":844,"h":2},
	"rotated": false,
	"trimmed": false,
	"spriteSourceSize": {"x":0,"y":0,"w":844,"h":2},
	"sourceSize": {"w":844,"h":2}
},
"titleDefender":
{
	"frame": {"x":600,"y":730,"w":209,"h":119},
	"rotated": false,
	"trimmed": true,
	"spriteSourceSize": {"x":4,"y":11,"w":209,"h":119},
	"sourceSize": {"w":224,"h":137}
},
"topbarbg":
{
	"frame": {"x":3,"y":371,"w":844,"h":135},
	"rotated": false,
	"trimmed": false,
	"spriteSourceSize": {"x":0,"y":0,"w":844,"h":135},
	"sourceSize": {"w":844,"h":135}
},
"tottenhamhotspurLogo":
{
	"frame": {"x":966,"y":914,"w":51,"h":90},
	"rotated": false,
	"trimmed": true,
	"spriteSourceSize": {"x":19,"y":0,"w":51,"h":90},
	"sourceSize": {"w":90,"h":90}
},
"transparentBtn":
{
	"frame": {"x":843,"y":628,"w":3,"h":3},
	"rotated": false,
	"trimmed": true,
	"spriteSourceSize": {"x":0,"y":0,"w":3,"h":3},
	"sourceSize": {"w":107,"h":43}
},
"tunisia_flag":
{
	"frame": {"x":473,"y":1229,"w":90,"h":90},
	"rotated": false,
	"trimmed": false,
	"spriteSourceSize": {"x":0,"y":0,"w":90,"h":90},
	"sourceSize": {"w":90,"h":90}
},
"uruguya_flag":
{
	"frame": {"x":567,"y":1229,"w":90,"h":90},
	"rotated": false,
	"trimmed": false,
	"spriteSourceSize": {"x":0,"y":0,"w":90,"h":90},
	"sourceSize": {"w":90,"h":90}
},
"usa_flag":
{
	"frame": {"x":661,"y":1263,"w":90,"h":90},
	"rotated": false,
	"trimmed": false,
	"spriteSourceSize": {"x":0,"y":0,"w":90,"h":90},
	"sourceSize": {"w":90,"h":90}
},
"Vertical_time divider":
{
	"frame": {"x":834,"y":673,"w":2,"h":652},
	"rotated": false,
	"trimmed": true,
	"spriteSourceSize": {"x":0,"y":10,"w":2,"h":652},
	"sourceSize": {"w":2,"h":662}
},
"wales_flag":
{
	"frame": {"x":3,"y":1150,"w":90,"h":90},
	"rotated": false,
	"trimmed": false,
	"spriteSourceSize": {"x":0,"y":0,"w":90,"h":90},
	"sourceSize": {"w":90,"h":90}
},
"watfordLogo":
{
	"frame": {"x":97,"y":1150,"w":90,"h":89},
	"rotated": false,
	"trimmed": true,
	"spriteSourceSize": {"x":0,"y":0,"w":90,"h":89},
	"sourceSize": {"w":90,"h":90}
},
"westhamutdLogo":
{
	"frame": {"x":934,"y":1244,"w":84,"h":90},
	"rotated": false,
	"trimmed": true,
	"spriteSourceSize": {"x":3,"y":0,"w":84,"h":90},
	"sourceSize": {"w":90,"h":90}
},
"winningMultibg":
{
	"frame": {"x":285,"y":868,"w":59,"h":24},
	"rotated": false,
	"trimmed": false,
	"spriteSourceSize": {"x":0,"y":0,"w":59,"h":24},
	"sourceSize": {"w":59,"h":24}
},
"wolverhamptonLogo":
{
	"frame": {"x":285,"y":1238,"w":90,"h":81},
	"rotated": false,
	"trimmed": true,
	"spriteSourceSize": {"x":0,"y":5,"w":90,"h":81},
	"sourceSize": {"w":90,"h":90}
}},
"animations": {
	"Name_fade": ["Name_fade_1","Name_fade_2"]
},
"meta": {
	"app": "https://www.codeandweb.com/texturepacker",
	"version": "1.1",
	"image": "defender_ui.png",
	"format": "RGBA8888",
	"size": {"w":1024,"h":2048},
	"scale": "0.75",
	"smartupdate": "$TexturePacker:SmartUpdate:0a8b7febde795a884ec29c3d0bd8a7ca:3011b31d8295ab65769d9723bd1a47e1:43c443b2c10ce469cebfb23831cc5f88$"
}
}
