{
    "howtoplaydefenderrules": [
        {
            "title": "Welcome to",
            "title2": "Defender!",
            "text": "Defender is an interactive fast paced game where you simply have to choose when and what value multiplier to cash out before the first goal.",
            "img" : "assets/images/HTPDEFENDER_Assets/HTP_1.png"
        },
        {
            "title": "How to Play",
            "text": "Choose your stake before the game starts, then click on 'cash out' before the goal. If you do so you will win a prize of \"stake x multiple\" at the time of cash out.",
            "img" : "assets/images/HTPDEFENDER_Assets/HTP_2.png"
        },
        {
            "title": "Cash Out to Cash In!",
            "text": "The amount that you win is dependent upon the multiplier at the time of cashing out. If you stake UGX.100 and cash out at a multiple 2.46, your game returns will be UGX.246.00",
            "img" : "assets/images/HTPDEFENDER_Assets/HTP_3_Paribet.png"
        },
        {
            "title": "How the Goal is Decided",
            "text": "The outcome of any game is determined by our unique Random Number Generator and not determined by any other factor.",
            "img" : "assets/images/HTPDEFENDER_Assets/HTP_4.png"
        },
        {
            "title": "Avoiding The Goal!",
            "text": "How Much Nerve do you have? \n Be wary of cashing out before the goal is taken. If you haven’t cashed out before the goal you will lose your game stake.",
            "img" : "assets/images/HTPDEFENDER_Assets/HTP_5.png"
        },
        {
            "title": "Auto Cash Out",
            "text": "You can choose a cash out amount automatically rather than manually. Providing the cash out amount is of a lower multiplier than when the goal is taken you’re winnings will be cashed.",
            "img" : "assets/images/HTPDEFENDER_Assets/HTP_6_Paribet.png"
        },
        {
            "title": "Autoplay",
            "text": "If you would like to play a number of consecutive games automatically then you can do so in autoplay mode. You can choose the stake, the cash out multiple and set win/loss limits.",
            "img" : "assets/images/HTPDEFENDER_Assets/HTP_7_Paribet.png"
        },
        {
            "title": "Interactive Play",
            "text": "Play along with others. All of our online players will play the same game at the same time with the results displayed for a totally interactive gameplay experience.",
            "img" : "assets/images/HTPDEFENDER_Assets/HTP_8_Paribet.png"
        },
        {
            "title": "Community Chat",
            "text": "You can also communicate with friends and fellow players and discuss strategy or luck throughout each game via our chat faciity.",
            "img" : "assets/images/HTPDEFENDER_Assets/HTP_9.png"
        },
        {
            "title": "Favourite Players / Teams",
            "text": "Different opening partnerships will appear for each match should you put more faith in certain openers to score highly!",
            "img" : "assets/images/HTPDEFENDER_Assets/HTP_10_Betyetu.png"
        },
        {
            "title": "Get Started",
            "text": "That's all from our quick how to play guide. For full details check our rules section within settings. Alternatively click on close below to get started and to jump straight into the action!",
            "img" : "assets/images/HTPDEFENDER_Assets/HTP_11.png"
        }
    ],

    "defenderTerms": [
        {
            "heading": "Introduction",
            "text": [
                "Defender is a real money multi player game of risk where a player has the ability to choose at which point, they would like to cash out a multiple of their designated bet stake against a multiplier that may be 'crash' at any given time.",
                "The games begins and the multiplier starts at 1.00 and goes up in increments to 2 decimal points (i.e 1.01 and onwards).",
                "As the multiplier climbs, players have the opportunity to cash out at any given multiple amount until the time upon the randomly generated number is arrived at (and for the purpose of this game, being that it is based upon a football theme, at the time at which the ‘first goal is taken).",
                "The cash out value will be their unit stake multiplied by the cash out value.",
                "For example: If a player wagers Ksh.50 and the multiplier cashed out at 5.40 then the player will be returned 5.40 x their wager value, therefore Ksh.50 x 5.40 = Ksh.270 return.",
                "Our certified random number generator shall decide what the multiple value point of the goal will be (this will be deemed game closure) as the game starts and players will attempt to cash out before this taXAF place.",
                "In the event that players have not cashed out prior to the randomly generated number being arrived at, then they will have foregone their opportunity to cash out and the bet will be deemed a losing one."
            ]
        },

        {
            "heading": "Game Rules",
            "text": [
                "Before the game starts, a player has 5 seconds in which to place their bet. After the game starts, the multiplier may start to climb and get higher and higher starting at a position of 1.00",
                "A player can click on 'Cash Out' at any time to lock in the current multiplier, and their returns will be their bets times the multiplier value at the time of cashing out.",
                "The longer a player stays in the game, the higher payoff they will get. Please be noted, however, that the goal may be taken at any moment. If they fail to cash out before the crash, they will lose all of their bet stake",
                "The multiplier is displayed in a graphical format and the lowest possible outcome for the graph is 1.00 with the highest possible outcome of the graph being 200.00. The chance of the goal will be greater the higher that the multiplier number gets."
            ]
        },
        {
            "heading": "Disconnections",
            "text": [
                "All your entered bets will be counted and fully executed by the system, even if you disconnect after entering the bet. Please always enter automated cash-out, especially if you are playing the game with a bad connection. Bets which were started cannot be refunded, disregarding if you were present or not present during the bet.",
                "You acknowledge any bet started on Defender cannot be refunded by the company or its third-party partners. You are solely responsible for the outcome of every bet made from your account.",
                "Defender shall accept no liability for any damages or losses which are deemed or alleged to have arisen out of or in connection with Website or its content, including without limitation, delays or interruptions in operation or transmission, loss or corruption of data, communication or lines failure, any person's misuse of the Website or its content or any errors or omissions in content.",
                "In the event of a casino system malfunction, all wagers are void.",
                "In the event a Game is started but miscarried because of a failure of the system, Defender shall refund the amount wagered in the Game to you by crediting it to your Account or, if an Account no longer exists, by paying it to you in an approved manner; and if you have an accrued credit at the time the Game miscarried"
            ]
        },
        {
            "heading": "Automated Play",
            "text": [
                "Instead of choosing when to cash out when the game is in-play, the user can instead automate their cash out amount for one or more games. In this instance the player will automatically have their bet cashed out at the designated multiplier amount chosen.",
                "If a player has chosen to auto play a number of games, the stake will be deducted from their account and the bet wagered on the same multiple until i) The number of automated games played has elapsed ii) The player decides to cancel the bet automation iii) The players account has insufficient funds.",
                "You have the options to raise, lower, repeat, or stop a bet with every loss, or win."
            ]
        },
        {
            "heading": "Minimum / Maximum Bets Stake",
            "text": [
                "The minimum bet that is allowed to be placed on a single Defender game is Kshs 10.",
                "The maximum bet that is allowed to be placed on a single Defender game is Kshs 1000.00"
            ]
        },
        {
            "heading": "Minimum / Maximum Returns",
            "text": [
                "The minimum Returns that a player will receive from a bet wagered is Kshs 10. Please be aware that in the instance of a bet not being divisible up to at least 1 cent (Kshs 0.01) then the returns will be rounded down to the nearest cent. For example, if a player wagers a bet of Kshs 10 and cashes out to a multiplier of 2.57 then the returns will be rounded down to Kshs 0.25 as the site and account balances do not facilitate any increments to 3 decimal points.",
                "The maximum returns that a player can enjoy during any single game on Defender is Kshs 200,000. In the event that the stake x Multiplier calculation is in excess of this amount only Kshs 200,000 shall be credited to a players account.",
                "The maximum returns that a player can enjoy during any single calendar day on Defender is Kshs 200,000.",
                "The maximum multiplier that the random number can generate for Defender is 200.00. Therefore, a player is unable to win more than 200 x their stake for any given bet or round."
            ]
        },
        {
            "heading": "Chat Rules",
            "text": [
                "As part of your use of the Website and as part of the community multiplayer aspect of Defender, you will be provided with a chat facility, which is moderated by us and subject to controls. We reserve the right to review the chat and to keep a record of all statements made on such a facility. Your use of the chat facility should be for recreational and socialising purposes and is subject to the following rules.",
                "You shall not make any statements that are sexually explicit or grossly offensive, including expressions of bigotry, racism, hatred, or profanity.",
                "You shall not make statements that are abusive, defamatory, or harassing or insulting to the and player, to the website or to Defender.",
                "You shall not make statements that advertise, promote, or otherwise relate to any other online entities.",
                "You shall not make statements about Defender, the Website, or any other Internet site(s) connected to Defender that are untrue and/or malicious and/or damaging to Defender.",
                "You shall not make statements about Defender, the Website, or any other Internet site(s) connected to Defender that are untrue and/or malicious and/or damaging to Defender.",
                "You shall not collude through the chat rooms or separate chat. Any suspicious chats will be reported to the relevant regulatory or law enforcement authority.",
                "In the event if you breach any of the above provisions relating to the chat facility, Defender shall have the right to remove the chat room or immediately terminate your Account. Upon such termination, Defender shall refund to you any funds which may be in your Account over and above any amount which may be owing to us at such time (if any)."
            ]
        },
        {
            "heading": "Additional Terms",
            "text": [
                "In playing the game, you acknowledge that you are fully responsible for every bet you make via the auto bet function on Defender. The company and its third-party partners cannot be held liable for any financial losses which occur during your auto bet session. You are solely responsible for all results of all bets made from your account, disregarding if you, the auto bet system, or another person made the bets from your account.",
                "You acknowledge you are responsible for all losses which might occur when you forget to turn off the auto bet function. Please make sure you turn it off if you wish to stop betting on Defender",
                "You acknowledge you are responsible for all results and losses which might occur when you enter your automatic bet in a different way than intended. The company and its third-party partners cannot be held liable for any losses which might occur to your failure to enter your intended bet; there is no refund option for a wrongly entered bet. Please review your settings before starting to bet automatically.",
                "In the event that any collusion or multi accounting should be found, Defender reserve the right to close the associated accounts with immediate effect and recover any funds won.",
                "We do not allow any third-party automated betting scripts on the website. Any usage of third-party automated betting scripts or bots is a breach of terms. If we find you in breach of these terms, we reserve the right to withhold any winnings that may have been accrued and will close your account with immediate effect."
            ]
        }
    ],
    "headings": {
        "howToPlay": "How to Play",
        "termsAndConditions": "Terms and Conditions"
    }
}