{
  "howtoplaypsrules": [
    {
      "title": "Welcome to Virtual Penalty Shootout!",
      "text": "An exciting game of skill and luck. Choose how many penalties to shoot and score to win. ",
      "img": "assets/images/HTP_Assets/splashTitle.png"
    },
    {
      "title": "How to Shoot",
      "text": "Press down on the target. \n Move it to where you want to aim. \n Release to shoot! \n Careful: With resistance against your aim, shooting where you want to is trickier than it first seems.",
      "img": "assets/images/HTP_Assets/HTP_2.png"
    },
    {
      "title": "How to Play",
      "text": "Hone your skills in free play, try to win prizes via leaderboards and when you are confident enough, try cash play mode for the chance to win big cash prizes.",
      "img": "assets/images/HTP_Assets/HTP_4.png",
      "freePlayFlag": true
    },
    {
      "title": "Goalkeeper Levels",
      "text": "You can compete against 4 different goalkeepers all with differing levels of skill. Playing against lower ranking EPL and International teams will mean greater chances of scoring.",
      "img": "assets/images/HTP_Assets/HTP_5.png"
    },
    {
      "title": "Choose Your Game",
      "text": "Select your number of penalties (3,4 or 5). Score them all and win up to 15 times your bet. Consolation prizes offered in the 4 and 5 penalties games.",
      "img": "assets/images/HTP_Assets/HTP_9_Paribet.png"
    },
    {
      "title": "Get Started",
      "text": "That’s all from our quick how to play guide. For more thorough details check our FAQs section. Now click on play in the menu to enjoy all the fun and excitement of virtual penalty shootout. ",
      "text2": "That’s all from our quick how to play guide. For more thorough details check our FAQs section. Enjoy all the fun and excitement of Virtual Penalty Shootout!",
      "img": "assets/images/HTP_Assets/HTP_13.png"
    }
  ],
    "faqpsrules": [
      {
        "title": "What is Virtual Penalty Shootout?",
        "text": "Virtual Penalty Shootout is a virtual game combining skill and luck, it is based on Random Number generated results. All that is required, is to score as many penalties as possible. The skill element: the closer you aim towards the corners of the goal, the greater the chance of the penalty being successful. The luck element: there is an inbuilt Random Number Generator factor which takes the position of the shot and the skill level of the goalkeeper in the goal area into consideration. Please note that the skill level of a goalkeeper is determined by the color of their jersey. Tier 1 (top level) Goalkeepers will wear either a Yellow or a White jersey, Tier 2 Goalkeepers will wear a red jersey and Tier 3 Goalkeepers will wear a blue jersey."
      },
      {
        "title": "How does Cash Play work?",
        "text": "Cash Play allows you to place cash bets on scoring a specific amount of penalties in single play. If you are successful, then you will win multiple times of the amount wagered depending on what game you have chosen. This can be as high as 200 x your bet if you score all 5 penalties in the final."
      },
      {
        "title": "How often can I play?",
        "text": "You can play both the single game competition 1 time each in a calendar week. This is providing you have placed a bet in any given week."
      },
      {
        "title": "What is single game mode?",
        "text": "Single game mode is a shorter variation of the game, where you will need to score as many penalties as possible taking 3 ,4 or 5 penalties. In single mode you can win up to 15 x your bet if you manage 5 out of 5 successful penalties. Note that there are also consolation prizes if you play the 4 or 5 penalty game."
      },
      {
        "title": "What Prizes can be won in single game mode?",
        "text": "If you play Single Player mode, then you can win up to 15x your bet (by scoring all 5 penalties in the 5-penalty game). The full payout list is as follows: \n\n 3 Penalty game: \n Score all 3 = 6x your bet \n\n 4 Penalty game: \n Score 4 from 4 = 8x your bet \n Score 3 from 4 =Stakes Returned. \n\n 5 Penalty game: \n Score 5 from 5 = 15x your bet \n Score 4 from 5 = 2x your bet. \n\n In free play mode. The payout can vary but will always be highlighted for that specific game on the free play single game page and in more depth on the single player, free play, leaderboard."
      },
      {
        "title": "How does RNG work?",
        "text": "The success of the shot (whether the goalkeeper saves the shot or not) is determined by the positioning of the shot and whether that segment of the goal is equal to a 'save' based on the Random Number Generator. The goal area is split into 30 segments and depending on the skill level of the goalkeeper will determine the random outcome of the game at hand."
      }
    ],
    "termsAndConditions": {
      "title": "TERMS and CONDITIONS",
      "newTerms": [
        {
          "heading": "1. These Terms and Conditions ('Terms and Conditions') will apply:",
          "terms": [
            "1. in conjunction with any specific terms and conditions of any applicable promotion. Where any specific terms and conditions conflict with these Terms and Conditions, the specific terms of the applicable promotion shall apply; and",
            "2. You will be deemed to have accepted these Terms and Conditions and agreed to be bound by them when entering either the free to play and pay to play variants of the game.",
            "3. For the purposes of these Terms and Conditions, any reference to 'you', 'entrant(s)' or 'player(s)' are to persons who have entered the game in accordance with the terms set out at Clauses 4 and 5 (How to Enter)."
          ]
        },
        {
          "heading": "2. Eligibility",
          "terms": [
            "2.1 This game is only open to persons aged 18 years or over resident in Kenya, except for:",
            "2.1.1 Employees of shabiki and/or each of their associated companies.",
            "2.1.2 Employees of agents and/or suppliers of Shabiki and/or its associated companies who are professionally connected with the Competition and/or its administration; or",
            "2.1.3 Members of the immediate families or households of those specified in clauses 2.1.1 or 2.1.2 above.",
            "2.2 Where entrants do not meet the criteria set out in clause 3.1, their entry will not be valid, and they will not be eligible to win.",
            "2.3 Shabiki may require entrants to provide proof of age, residence, and identity."
          ]
        },
        {
          "heading": "3. General Terms and Conditions ",
          "terms": [
            "1. In order to enter any paid or free-to-play games customers will be deemed to have accepted our general terms and conditions as well as the Penalty Shootout specific terms and conditions outlined below.",
            "2. Penalty Shootout bets once placed cannot be cancelled, amended, or refunded.",
            "3. Should Shabiki experience any technical issues whatsoever, we reserve the right to cancel and void any or all bets on the affected Jackpot and shall inform Customers.",
            "4. We reserve the right to void any match of a Jackpot or the Jackpot in its entirety if there are obvious errors, if there has been a change to the format or if we believe that any Bet has been placed in contravention of its Terms and Conditions.",
            "5. We reserve the right to pay customers who win a significant jackpot prize of KSH 200,000 by bank transfer and this may take up to one week to remit into the customer's bank.",
            "6. Should a winning customer not provide all reasonable requested information within 10 working days of the request then we reserve the right to consider the prize forfeited.",
            "7. We reserve the right to void all winnings if we consider that any fraud or breach of these Terms and Conditions occurred.",
            "8. Shabiki’s decisions and rulings are final.",
            "9. Shabiki reserves the right to amend the terms and conditions application to Jackpots at any time, for any reason without notice."
          ]
        },
        {
          "heading": "4. How to Enter - Pay to Play",
          "terms": [
            "1. There are two different modes when playing Penalty Shoot Out pay to play., Single Player Mode and Tournament Mode.",
            "2. Both Modes in pay to play require a cash buy in.",
            "3. The Minimum Stake in order to play either game is Ksh 10.",
            "4. The Maximum Stake in tournament mode is Ksh 10,000 and the maximum stake in single game mode is Ksh 10,000.",
            "5. To play single game mode, the player needs to select the number of penalties they would like to stake (there are 3, 4 or 5 penalty game options, each with different payout odds). They will then choose a team and their stake value.",
            "6. To play Tournament mode, the player will choose the team they would like to play with, choose their stake and play."
          ]
        },
        {
          "heading": "5. How to Enter - Free to Play",
          "terms": [
            "1. In order to play our free to play games and qualify for any prizes, you will first create an account by registering at Shabiki.com (the \"Website\") or its related mobile apps (the \"Mobile Apps\")in your one name.",
            "2. Any player found to be registered in the name of any other person will be disqualified.",
            "3. Only one account is permitted to be registered per player.",
            "4. There are two different modes available when playing Penalty Shoot Out free to play i.e. Single Player Mode and Tournament Mode.",
            "5. To play either mode, a player will need to choose their team and then click on play.",
            "6. If a player is playing “free to play” for the first time, they are required to create a username. This username will be their fixed username for all future tournaments. Please be aware that any username that may be deemed offensive will result in a player foregoing any potential prize win and we also reserve the right to ban the user from playing any future free to play games.",
            "7. Note that we may impose limitations as to how many free to play entries that a player can enjoy over a period of time (e.g. once weekly) and we may impose qualifying requirements as to if a player qualifies to play “free to play” games at all. Visit www.shabiki.com for further details and any qualifying criteria that may apply."
          ],
          "freePlayFlag": true
        },
        {
          "heading": "6. How to Play - Pay to Play.",
          "terms": [
            "1. In single game mode a player will choose the number of penalties that they would like to take. The options to choose from range from 3, 4 or 5",
            "2. The player is required to score all 3 penalties in the 3-game option in order to win a prize, in the 4-penalty option there will be a consolation for scoring 3 penalties and in the 5-penalty option there will be a consolation for scoring 4 penalties. See Clause 8 Pay to Play Odds for full details of prizes that can be won.",
            "3. The player then will then have a target which they will have to manoeuvre to determine the direction of where the shot will be placed.",
            "4. Once the shot direction is determined (which is based upon the place that the player takes their finger off the target on mobile/tablet and when the player clicks off the target on desktop) the shot takes place.",
            "5. The success of the shot (whether the goalkeeper saves the shot) is determined by where the shot is positioned and whether that segment of the goal is equal to a ‘save’ based upon the Random Number Generator.",
            "6. In the event of the shot/target missing the goal completely then the outcome will always be a missed penalty.",
            "7. There are 4 rounds in total in tournament mode each comprising 5 penalties. In tournament mode the player begins in round of 16 and is required to score at least 4 of 5 penalties in each round in order to qualify through to the next round. The more you qualify through the rounds, the greater the multiple of your stake that you can win.",
            "8. In the event of a player scoring all 5 penalties in each round (20 in total) they shall also qualify to receive the jackpot prize (see Tournament Jackpot Prize details below)"
          ]
        },
        {
          "heading": "7. How to Play - Free to Play",
          "terms": [
            "1. Only players who have placed a sportsbook bet of at least Ksh 100 in that week will be eligible to play in this mode.",
            "2. In single game mode free to play rather than choosing the number of penalties to take, the player will instead go straight to the game and needs to try to score as many consecutive as possible.",
            "3. As soon as a penalty is missed, the game will be over.",
            "4. The higher the amount of consecutive penalties scored, the greater the likelihood of climbing the leaderboard and winning one of the advertised cash prizes.",
            "5. The single game leaderboard will run periodically as advertised within the game. When the periodic game ends the winners will be notified and receive the advertised prize and the leaderboard shall be reset.",
            "6. In the event of players tying on a specific number of penalties scored in both the single game and tournament free to play modes, the player that has scored that number of penalties first will be deemed to be in the higher position on the leaderboard, any subsequent players will need to beat the target number of penalties already set.",
            "7. In free to play tournament mode, the player will start in the round of 16 and will be required to score at least 4 of the 5 penalties taken in each round in order to qualify through to the next round.",
            "8. The free to play tournament is also based upon a leaderboard. The goal being to score as many goals as possible over the course of the 4 rounds",
            "9. By scoring at least 4 of the 5 penalties in each round leading up to the final, the player has the opportunity to take more penalties and the possibility to score more and to climb the leaderboard."
          ],
          "freePlayFlag": true
        },
        {
          "heading": "9. Pay to Play Odds",
          "terms": [
            "1. Pay to play pay-outs are all dependent upon stake and are a multiple of the stake wagered (known as ‘Odds’) The odds for both games are as follows;",
            "2. Single Game Odds: \n 2.1 3 Penalty Game = 3 Penalties scored: Odds of 6.00",
            "2.2 4 Penalty Game =\n 2.2.1 3 Penalties scored: Odds of 1.00 (bet Returned). \n 2.2.2 4 Penalties scored: Odds of 8.00",
            "2.3 5 Penalty Game =\n 2.3.1 4 Penalties scored: Odds of 2.00.\n 2.3.2 5 Penalties scored: Odds of 15:00",
            "3. Tournament Game Odds",
            "3.1 Guaranteed Odds for qualifying through from Quarter Finals to Semi Finals: 2.00 ",
            "3.2 Guaranteed Odds for qualifying through from Semi Finals to Final: 4.00",
            "3.3 Guaranteed Prize for scoring 3 goals in the Final: 10.00",
            "3.4 Guaranteed Prize for scoring 4 goals in the Final: 50.00",
            "3.5 Prize for scoring 5 goals in the Final: 200.00"
          ]
        },
        {
          "heading": "10. Free to play Prizes",
          "terms": [
            "1. Free to play competitions take place every week",
            "2. There are separate leaderboards for each Single Game and Tournament Modes.",
            "3. The Prize for finishing top of the free to play single leaderboard (unless otherwise advertised) is a freebet worth Ksh 500.",
            "4. The consolation prizes for finishing 2nd and 3rd in the single game leaderboard (unless otherwise stated) are a freebet worth Ksh 300 and Ksh 200 respectively",
            "5. The Prize for finishing top of the free to play tournament leaderboard (unless otherwise advertised) is a freebet worth Ksh 500",
            "6. The consolation prizes for finishing 2nd and 3rd in the Tournament leaderboard (unless otherwise stated) are a freebet worth Ksh 300 and Ksh 200 respectively.",
            "7. As per clause 7.5 In the event of players tying on a specific number of penalties scored in both the single game and tournament free to play modes, the player that has scored that number of penalties first will be deemed to be in the higher position on the leaderboard, any subsequent players will need to beat the target number of penalties already set."
          ],
          "freePlayFlag": true
        },
        {
          "heading": "11. Tournament Jackpot Prize",
          "terms": [
            "1. There is an additional jackpot prize for scoring all 5 goals in each of the 4 rounds in Tournament mode both for free to play and pay to play.",
            "2. In pay to play the jackpot is a separate prize and will not affect any winnings already accrued as a consequence of the odds pay out amounts above.",
            "3. This is a weekly jackpot and in the event of multiple winners of that jackpot, the jackpot amount shall be shared equally amongst the winners.",
            "4. The pooling of jackpot prizes will only apply to “Pay to Play”",
            "5. The Weekly Prize (unless otherwise advertised) for winning the jackpot in Pay to Play is Ksh 200,000",
            "6. For Pay to Play the stake amount has no reflection on how much can be won within the jackpot pool. This Jackpot prize will be the same value for all cash game players"
          ]
        },
        {
          "heading": "12. Jackpot Prize Winners and Entrants Verification",
          "terms": [
            "1. Winners (as determined in accordance with the terms set out in Clause 10 (Tournament Jackpot Prize) will be notified by email or telephone number registered on their account on the day on which the relevant round is completed, or on the following Business Day (a \"Business Day\" being a day other than a Saturday, Sunday or public holiday).",
            "2. It is each player's sole responsibility to ensure that their contact details are up to date on their account.",
            "3. Winners may be required to verify (with evidence satisfactory to the Shabiki) their: age, identity, residence and any other verification information requested by Shabiki, to the satisfaction of Shabiki before they are eligible to receive their Prize",
            "4. If any winner is not able, for whatever reason: i. to accept a Prize. ii. verify their registration information to the satisfaction of Shabiki. iii. has been found to have breached these Terms and Conditions; or iv. cannot be contacted within five Business Days, Shabiki reserves the right to disqualify that winner (and their eligibility to receive any Prizes under the Competition) and award the applicable Prize to another participant, if applicable.",
            "5. Winners should allow up to thirty days for payment and delivery of the applicable Prize.",
            "6. Shabiki's decision is final and legally binding on all entrants in relation to all aspects of the Competition including (without limitation), allocation of the Prizes and no correspondence will be entered into.",
            "7. Entries that do not comply in full with these Terms and Conditions will be disqualified and will not be eligible to receive a jackpot prize."
          ]
        },
        {
          "heading": "13. Publicity and Personal Information",
          "terms": [
            "1. Shabiki may use each winner's and each entrant's personal details for the purpose of administering this Competition.",
            "2. By opting in to receive offers and communications you agree that Shabiki and each of their group companies, businesses and business partners may use the details you give us to contact you about products and services that may be of interest to you",
            "3. You agree that Shabiki may use the details you give us to contact you and provide targeted marketing tailored to the products and services that may be of interest to you",
            "4. Entry and participation in the Competition constitutes permission for Shabiki and/or its associated, affiliated, and subsidiary companies to use the usernames, predictions and user photographs of participants for publishing purposes, including but not limited to, leader boards and other display within our Jackpot Website or related applications.",
            "5. With the winner's consent, the winner's details will be included in such publicity as the Promotor reasonably requires"
          ]
        },
        {
          "heading": "14. Limitation of Liability",
          "terms": [
            "1. Except in the case of death or personal injury arising from its negligence or in respect of fraud, and so far, as is permitted by law, Shabiki and each of its associated companies and agents exclude responsibility and all liabilities arising from i. any technical failures or unavailability of the Virtual Penalty Shootout Website, Mobile Apps or other related platforms. ii. obvious errors or omissions relating to the awarding of Prizes; or iii. any act or default of any third-party supplier including without limitation errors relating to fixtures and scoring data.",
            "2. The terms and conditions of any third-party supplier will apply to the Prize where applicable.",
            "3. If any provision or part-provision of these Terms and Conditions are or becomes invalid, illegal, or unenforceable, it shall be deemed modified to the minimum extent necessary to make it valid, legal and enforceable. If such modification is not possible, the relevant provision or part-provision shall be deemed deleted. Any modification to or deletion of a provision or part-provision under this clause shall not affect the validity and enforceability of the rest of these terms and conditions",
            "4. We do not allow any third-party automated betting scripts on the website. Any usage of third-party automated betting scripts or bots is a breach of terms. If we find you in breach of these terms, we reserve the right to withhold any winnings that may have been accrued and will close your account with immediate effect.",
            "5. In the event of a games system malfunction, we reserve the right to void any/all bets and where applicable to recover any associated game winnings."
          ]
        }
      ]
    },
    "psTips": [
      "Keep an eye out for different keepers, some are better than others.",
      "To take a shot...touch the target, aim where you want to shoot, and then release!",
      "Score at least 4 from 5 penalties to progress through each tournament round.",
      "The closer you aim to the corners, the greater your chance of scoring.",
      "Once you have honed your skills, you can win cash prizes in our cash game mode.",
      "Free to play mode is a great way to practice your penalty kick skills.",
      "In tournaments, the stronger your opposing team, the better the goalkeeper!",
      "Full leaderboard details can be found by clicking on the [CUP ICON] Icon."
    ],
    "freePlayPsTipsIndex": [5, 7],
    "potentialWinInfoText": {
      "title": "CHOOSE YOUR NUMBER OF PENALTIES",
      "3": "Score 3 from 3 = 6x Your Bet",
      "4": "Score 4 from 4 = Win 8x Your Bet",
      "4_1": "Score 3 from 4 = Win 1x Your Bet",
      "5": "Score 5 from 5 = Win 15x Your Bet",
      "5_1": "Score 4 from 5 = Win 2x Your Bet"
    },
    "tournamentPayTable": {
      "0": "SCORING 5 GOALS IN THE FINAL",
      "1": "SCORING 4 GOALS IN THE FINAL",
      "2": "SCORING 3 GOALS IN THE FINAL",
      "3": "QUALIFYING FROM THE SF'S",
      "4": "QUALIFYING FROM THE QF'S",
      "curr": ""
    },
    "readFullTerms": "Read full terms and conditions",
    "howToPlay": "How to Play",
    "faqsTitle": "Terms conditions and Faqs"
  }
  