{
    "buttonConfig": {
        "manual": "MANUAL",
        "auto": "AUTO BETS",
        "startAutoplay": "START AUTOPLAY",
        "bet": "BET",
        "allBet": "ALL BETS",
        "betHistory": "BET HISTORY",
        "bigWin": "BIG WINS",
        "players": "PLAYERS",
        "cashout": "CASH OUT",
        "cashedOut": "CASHED OUT",
        "placed": "PLACED",
        "betPlacedFor": " BET PLACED FOR NEXT ROUND",
        "nextRound": " FOR NEXT ROUND"
    },
    "textConfig": {
        "user": "USER",
        "multiplier": "MULTIPLIER",
        "win": "WIN",
        "betPlacedSuccessfully": "Bet Placed Successfully!",
        "cashedOutSuccessfully": "Cashed Out Successfully!",
        "cashOutAmount": "Cashout Amount",
        "pleaseWait": "Please wait until the current game finishes",
        "gameId": "GAME ID",
        "dateTime": "DATE/TIME",
        "returns": "RETURNS",
        "cashOutValue": "CASHOUT VALUE",
        "team": "TEAM",
        "goalScored": "Goal Scored",
        "exciseTax": "Excise Tax: ",
        "stakeAfterTax": "Stake After Tax: ",
        "withholdingTax": "Withholding Tax: ",
        "loading": "Loading",
        "enterValidAmountUnder": "Enter a valid amount under",
        "minimumBetAmount": "Minimum bet amount value is ",
        "ngbToolTipInfo1": "Input a multiplier amount if you would prefer to auto cash out rather than doing so manually",
        "toolTipTextAuto": "Input a profit amount that would stop the autoplay once reached",
        "enterCashoutValueText": "Please enter a cashout value of 1.01 or more",
        "enterValidStakeAmountText": "Please enter a valid stake amount value",
        "betsRemaining": " Bets Remaining",
        "pleaseEnter": "Please enter a valid ",
        "stopOnProfitPerc": "stop on profit percent",
        "stopOnLossPerc": "stop on loss percent"
    },
    "inputConfig": {
        "betAmount": "Bet Amount",
        "autoCashout": "Auto Cashout",
        "totalBets": "Total Rounds",
        "stopOnProfit": "Stop on Profit",
        "stopOnLoss": "Stop on Loss"
    },
    "htpScreensImagesPath": [
        "assets/images/HTPDEFENDER_Assets/HTP_SCREENS/in/en/HTP1.jpg",
        "assets/images/HTPDEFENDER_Assets/HTP_SCREENS/in/en/HTP2.jpg",
        "assets/images/HTPDEFENDER_Assets/HTP_SCREENS/in/en/HTP3.jpg",
        "assets/images/HTPDEFENDER_Assets/HTP_SCREENS/in/en/HTP4.jpg",
        "assets/images/HTPDEFENDER_Assets/HTP_SCREENS/in/en/HTP5.jpg",
        "assets/images/HTPDEFENDER_Assets/HTP_SCREENS/in/en/HTP6.jpg"
    ]
}