{"frames": {

"Cricket_bg_fin":
{
	"frame": {"x":2,"y":2,"w":1440,"h":3111},
	"rotated": false,
	"trimmed": false,
	"spriteSourceSize": {"x":0,"y":0,"w":1440,"h":3111},
	"sourceSize": {"w":1440,"h":3111}
}},
"meta": {
	"app": "https://www.codeandweb.com/texturepacker",
	"version": "1.0",
	"image": "fwp_gamebg.jpg",
	"format": "RGB888",
	"size": {"w":2048,"h":4096},
	"scale": "1",
	"smartupdate": "$TexturePacker:SmartUpdate:8069eeb74846390ffc832c06508ec953:9abb96ea11ea2f25e73ebd9b42310dea:bd144566de0444bdc23029ce2963415a$"
}
}
