{"frames": {

"football_loop2fx_00":
{
	"frame": {"x":3,"y":3,"w":116,"h":192},
	"rotated": false,
	"trimmed": false,
	"spriteSourceSize": {"x":0,"y":0,"w":116,"h":192},
	"sourceSize": {"w":116,"h":192}
},
"football_loop2fx_01":
{
	"frame": {"x":3,"y":199,"w":116,"h":192},
	"rotated": false,
	"trimmed": false,
	"spriteSourceSize": {"x":0,"y":0,"w":116,"h":192},
	"sourceSize": {"w":116,"h":192}
},
"football_loop2fx_02":
{
	"frame": {"x":3,"y":395,"w":116,"h":192},
	"rotated": false,
	"trimmed": false,
	"spriteSourceSize": {"x":0,"y":0,"w":116,"h":192},
	"sourceSize": {"w":116,"h":192}
},
"football_loop2fx_03":
{
	"frame": {"x":3,"y":591,"w":116,"h":192},
	"rotated": false,
	"trimmed": false,
	"spriteSourceSize": {"x":0,"y":0,"w":116,"h":192},
	"sourceSize": {"w":116,"h":192}
},
"football_loop2fx_04":
{
	"frame": {"x":3,"y":787,"w":116,"h":192},
	"rotated": false,
	"trimmed": false,
	"spriteSourceSize": {"x":0,"y":0,"w":116,"h":192},
	"sourceSize": {"w":116,"h":192}
},
"football_loop2fx_05":
{
	"frame": {"x":3,"y":983,"w":116,"h":192},
	"rotated": false,
	"trimmed": false,
	"spriteSourceSize": {"x":0,"y":0,"w":116,"h":192},
	"sourceSize": {"w":116,"h":192}
},
"football_loop2fx_06":
{
	"frame": {"x":3,"y":1179,"w":116,"h":192},
	"rotated": false,
	"trimmed": false,
	"spriteSourceSize": {"x":0,"y":0,"w":116,"h":192},
	"sourceSize": {"w":116,"h":192}
},
"football_loop2fx_07":
{
	"frame": {"x":3,"y":1375,"w":116,"h":192},
	"rotated": false,
	"trimmed": false,
	"spriteSourceSize": {"x":0,"y":0,"w":116,"h":192},
	"sourceSize": {"w":116,"h":192}
},
"football_loop2fx_08":
{
	"frame": {"x":3,"y":1571,"w":116,"h":192},
	"rotated": false,
	"trimmed": false,
	"spriteSourceSize": {"x":0,"y":0,"w":116,"h":192},
	"sourceSize": {"w":116,"h":192}
},
"football_loop2fx_09":
{
	"frame": {"x":3,"y":1767,"w":116,"h":192},
	"rotated": false,
	"trimmed": false,
	"spriteSourceSize": {"x":0,"y":0,"w":116,"h":192},
	"sourceSize": {"w":116,"h":192}
},
"football_loop2fx_10":
{
	"frame": {"x":123,"y":189,"w":116,"h":192},
	"rotated": false,
	"trimmed": false,
	"spriteSourceSize": {"x":0,"y":0,"w":116,"h":192},
	"sourceSize": {"w":116,"h":192}
},
"football_loop2fx_11":
{
	"frame": {"x":123,"y":385,"w":116,"h":192},
	"rotated": false,
	"trimmed": false,
	"spriteSourceSize": {"x":0,"y":0,"w":116,"h":192},
	"sourceSize": {"w":116,"h":192}
},
"football_loop2fx_12":
{
	"frame": {"x":123,"y":581,"w":116,"h":192},
	"rotated": false,
	"trimmed": false,
	"spriteSourceSize": {"x":0,"y":0,"w":116,"h":192},
	"sourceSize": {"w":116,"h":192}
},
"football_loop2fx_13":
{
	"frame": {"x":123,"y":777,"w":116,"h":192},
	"rotated": false,
	"trimmed": false,
	"spriteSourceSize": {"x":0,"y":0,"w":116,"h":192},
	"sourceSize": {"w":116,"h":192}
},
"football_loop2fx_14":
{
	"frame": {"x":123,"y":973,"w":116,"h":192},
	"rotated": false,
	"trimmed": false,
	"spriteSourceSize": {"x":0,"y":0,"w":116,"h":192},
	"sourceSize": {"w":116,"h":192}
},
"football_loop2fx_15":
{
	"frame": {"x":123,"y":1169,"w":116,"h":192},
	"rotated": false,
	"trimmed": false,
	"spriteSourceSize": {"x":0,"y":0,"w":116,"h":192},
	"sourceSize": {"w":116,"h":192}
},
"football_loop2fx_16":
{
	"frame": {"x":123,"y":1365,"w":116,"h":192},
	"rotated": false,
	"trimmed": false,
	"spriteSourceSize": {"x":0,"y":0,"w":116,"h":192},
	"sourceSize": {"w":116,"h":192}
},
"football_loop2fx_17":
{
	"frame": {"x":123,"y":1561,"w":116,"h":192},
	"rotated": false,
	"trimmed": false,
	"spriteSourceSize": {"x":0,"y":0,"w":116,"h":192},
	"sourceSize": {"w":116,"h":192}
},
"football_loop2fx_18":
{
	"frame": {"x":123,"y":1757,"w":116,"h":192},
	"rotated": false,
	"trimmed": false,
	"spriteSourceSize": {"x":0,"y":0,"w":116,"h":192},
	"sourceSize": {"w":116,"h":192}
},
"football_loop2fx_19":
{
	"frame": {"x":1881,"y":189,"w":116,"h":192},
	"rotated": false,
	"trimmed": false,
	"spriteSourceSize": {"x":0,"y":0,"w":116,"h":192},
	"sourceSize": {"w":116,"h":192}
},
"football_loop2fx_20":
{
	"frame": {"x":1881,"y":385,"w":116,"h":192},
	"rotated": false,
	"trimmed": false,
	"spriteSourceSize": {"x":0,"y":0,"w":116,"h":192},
	"sourceSize": {"w":116,"h":192}
},
"football_loop2fx_21":
{
	"frame": {"x":243,"y":581,"w":116,"h":192},
	"rotated": false,
	"trimmed": false,
	"spriteSourceSize": {"x":0,"y":0,"w":116,"h":192},
	"sourceSize": {"w":116,"h":192}
},
"football_loop3_fx_00":
{
	"frame": {"x":909,"y":561,"w":165,"h":182},
	"rotated": false,
	"trimmed": false,
	"spriteSourceSize": {"x":0,"y":0,"w":165,"h":182},
	"sourceSize": {"w":165,"h":182}
},
"football_loop3_fx_01":
{
	"frame": {"x":1078,"y":561,"w":165,"h":182},
	"rotated": false,
	"trimmed": false,
	"spriteSourceSize": {"x":0,"y":0,"w":165,"h":182},
	"sourceSize": {"w":165,"h":182}
},
"football_loop3_fx_02":
{
	"frame": {"x":1247,"y":561,"w":165,"h":182},
	"rotated": false,
	"trimmed": false,
	"spriteSourceSize": {"x":0,"y":0,"w":165,"h":182},
	"sourceSize": {"w":165,"h":182}
},
"football_loop3_fx_03":
{
	"frame": {"x":1416,"y":561,"w":165,"h":182},
	"rotated": false,
	"trimmed": false,
	"spriteSourceSize": {"x":0,"y":0,"w":165,"h":182},
	"sourceSize": {"w":165,"h":182}
},
"football_loop3_fx_04":
{
	"frame": {"x":1585,"y":561,"w":165,"h":182},
	"rotated": false,
	"trimmed": false,
	"spriteSourceSize": {"x":0,"y":0,"w":165,"h":182},
	"sourceSize": {"w":165,"h":182}
},
"football_loop3_fx_05":
{
	"frame": {"x":1754,"y":581,"w":165,"h":182},
	"rotated": false,
	"trimmed": false,
	"spriteSourceSize": {"x":0,"y":0,"w":165,"h":182},
	"sourceSize": {"w":165,"h":182}
},
"football_loop3_fx_06":
{
	"frame": {"x":727,"y":747,"w":165,"h":182},
	"rotated": false,
	"trimmed": false,
	"spriteSourceSize": {"x":0,"y":0,"w":165,"h":182},
	"sourceSize": {"w":165,"h":182}
},
"football_loop3_fx_07":
{
	"frame": {"x":896,"y":747,"w":165,"h":182},
	"rotated": false,
	"trimmed": false,
	"spriteSourceSize": {"x":0,"y":0,"w":165,"h":182},
	"sourceSize": {"w":165,"h":182}
},
"football_loop3_fx_08":
{
	"frame": {"x":1065,"y":747,"w":165,"h":182},
	"rotated": false,
	"trimmed": false,
	"spriteSourceSize": {"x":0,"y":0,"w":165,"h":182},
	"sourceSize": {"w":165,"h":182}
},
"football_loop3_fx_09":
{
	"frame": {"x":1234,"y":747,"w":165,"h":182},
	"rotated": false,
	"trimmed": false,
	"spriteSourceSize": {"x":0,"y":0,"w":165,"h":182},
	"sourceSize": {"w":165,"h":182}
},
"football_loop3_fx_10":
{
	"frame": {"x":1403,"y":747,"w":165,"h":182},
	"rotated": false,
	"trimmed": false,
	"spriteSourceSize": {"x":0,"y":0,"w":165,"h":182},
	"sourceSize": {"w":165,"h":182}
},
"football_loop3_fx_11":
{
	"frame": {"x":1572,"y":747,"w":165,"h":182},
	"rotated": false,
	"trimmed": false,
	"spriteSourceSize": {"x":0,"y":0,"w":165,"h":182},
	"sourceSize": {"w":165,"h":182}
},
"football_loop3_fx_12":
{
	"frame": {"x":1741,"y":767,"w":165,"h":182},
	"rotated": false,
	"trimmed": false,
	"spriteSourceSize": {"x":0,"y":0,"w":165,"h":182},
	"sourceSize": {"w":165,"h":182}
},
"football_loop3_fx_13":
{
	"frame": {"x":607,"y":953,"w":165,"h":182},
	"rotated": false,
	"trimmed": false,
	"spriteSourceSize": {"x":0,"y":0,"w":165,"h":182},
	"sourceSize": {"w":165,"h":182}
},
"football_loop3_fx_14":
{
	"frame": {"x":607,"y":1139,"w":165,"h":182},
	"rotated": false,
	"trimmed": false,
	"spriteSourceSize": {"x":0,"y":0,"w":165,"h":182},
	"sourceSize": {"w":165,"h":182}
},
"football_loop3_fx_15":
{
	"frame": {"x":607,"y":1325,"w":165,"h":182},
	"rotated": false,
	"trimmed": false,
	"spriteSourceSize": {"x":0,"y":0,"w":165,"h":182},
	"sourceSize": {"w":165,"h":182}
},
"football_loop3_fx_16":
{
	"frame": {"x":607,"y":1511,"w":165,"h":182},
	"rotated": false,
	"trimmed": false,
	"spriteSourceSize": {"x":0,"y":0,"w":165,"h":182},
	"sourceSize": {"w":165,"h":182}
},
"football_loop3_fx_17":
{
	"frame": {"x":607,"y":1697,"w":165,"h":182},
	"rotated": false,
	"trimmed": false,
	"spriteSourceSize": {"x":0,"y":0,"w":165,"h":182},
	"sourceSize": {"w":165,"h":182}
},
"football_loop3_fx_18":
{
	"frame": {"x":776,"y":933,"w":165,"h":182},
	"rotated": false,
	"trimmed": false,
	"spriteSourceSize": {"x":0,"y":0,"w":165,"h":182},
	"sourceSize": {"w":165,"h":182}
},
"football_loop3_fx_19":
{
	"frame": {"x":945,"y":933,"w":165,"h":182},
	"rotated": false,
	"trimmed": false,
	"spriteSourceSize": {"x":0,"y":0,"w":165,"h":182},
	"sourceSize": {"w":165,"h":182}
},
"football_loop3_fx_20":
{
	"frame": {"x":1114,"y":933,"w":165,"h":182},
	"rotated": false,
	"trimmed": false,
	"spriteSourceSize": {"x":0,"y":0,"w":165,"h":182},
	"sourceSize": {"w":165,"h":182}
},
"football_loop3_fx_21":
{
	"frame": {"x":1283,"y":933,"w":165,"h":182},
	"rotated": false,
	"trimmed": false,
	"spriteSourceSize": {"x":0,"y":0,"w":165,"h":182},
	"sourceSize": {"w":165,"h":182}
},
"football_loop4_fx_00":
{
	"frame": {"x":123,"y":3,"w":178,"h":182},
	"rotated": false,
	"trimmed": false,
	"spriteSourceSize": {"x":0,"y":0,"w":178,"h":182},
	"sourceSize": {"w":178,"h":182}
},
"football_loop4_fx_01":
{
	"frame": {"x":305,"y":3,"w":178,"h":182},
	"rotated": false,
	"trimmed": false,
	"spriteSourceSize": {"x":0,"y":0,"w":178,"h":182},
	"sourceSize": {"w":178,"h":182}
},
"football_loop4_fx_02":
{
	"frame": {"x":487,"y":3,"w":178,"h":182},
	"rotated": false,
	"trimmed": false,
	"spriteSourceSize": {"x":0,"y":0,"w":178,"h":182},
	"sourceSize": {"w":178,"h":182}
},
"football_loop4_fx_03":
{
	"frame": {"x":669,"y":3,"w":178,"h":182},
	"rotated": false,
	"trimmed": false,
	"spriteSourceSize": {"x":0,"y":0,"w":178,"h":182},
	"sourceSize": {"w":178,"h":182}
},
"football_loop4_fx_04":
{
	"frame": {"x":851,"y":3,"w":178,"h":182},
	"rotated": false,
	"trimmed": false,
	"spriteSourceSize": {"x":0,"y":0,"w":178,"h":182},
	"sourceSize": {"w":178,"h":182}
},
"football_loop4_fx_05":
{
	"frame": {"x":1033,"y":3,"w":178,"h":182},
	"rotated": false,
	"trimmed": false,
	"spriteSourceSize": {"x":0,"y":0,"w":178,"h":182},
	"sourceSize": {"w":178,"h":182}
},
"football_loop4_fx_06":
{
	"frame": {"x":1215,"y":3,"w":178,"h":182},
	"rotated": false,
	"trimmed": false,
	"spriteSourceSize": {"x":0,"y":0,"w":178,"h":182},
	"sourceSize": {"w":178,"h":182}
},
"football_loop4_fx_07":
{
	"frame": {"x":1397,"y":3,"w":178,"h":182},
	"rotated": false,
	"trimmed": false,
	"spriteSourceSize": {"x":0,"y":0,"w":178,"h":182},
	"sourceSize": {"w":178,"h":182}
},
"football_loop4_fx_08":
{
	"frame": {"x":1579,"y":3,"w":178,"h":182},
	"rotated": false,
	"trimmed": false,
	"spriteSourceSize": {"x":0,"y":0,"w":178,"h":182},
	"sourceSize": {"w":178,"h":182}
},
"football_loop4_fx_09":
{
	"frame": {"x":1761,"y":3,"w":178,"h":182},
	"rotated": false,
	"trimmed": false,
	"spriteSourceSize": {"x":0,"y":0,"w":178,"h":182},
	"sourceSize": {"w":178,"h":182}
},
"football_loop4_fx_10":
{
	"frame": {"x":243,"y":189,"w":178,"h":182},
	"rotated": false,
	"trimmed": false,
	"spriteSourceSize": {"x":0,"y":0,"w":178,"h":182},
	"sourceSize": {"w":178,"h":182}
},
"football_loop4_fx_11":
{
	"frame": {"x":425,"y":189,"w":178,"h":182},
	"rotated": false,
	"trimmed": false,
	"spriteSourceSize": {"x":0,"y":0,"w":178,"h":182},
	"sourceSize": {"w":178,"h":182}
},
"football_loop4_fx_12":
{
	"frame": {"x":607,"y":189,"w":178,"h":182},
	"rotated": false,
	"trimmed": false,
	"spriteSourceSize": {"x":0,"y":0,"w":178,"h":182},
	"sourceSize": {"w":178,"h":182}
},
"football_loop4_fx_13":
{
	"frame": {"x":789,"y":189,"w":178,"h":182},
	"rotated": false,
	"trimmed": false,
	"spriteSourceSize": {"x":0,"y":0,"w":178,"h":182},
	"sourceSize": {"w":178,"h":182}
},
"football_loop4_fx_14":
{
	"frame": {"x":971,"y":189,"w":178,"h":182},
	"rotated": false,
	"trimmed": false,
	"spriteSourceSize": {"x":0,"y":0,"w":178,"h":182},
	"sourceSize": {"w":178,"h":182}
},
"football_loop4_fx_15":
{
	"frame": {"x":1153,"y":189,"w":178,"h":182},
	"rotated": false,
	"trimmed": false,
	"spriteSourceSize": {"x":0,"y":0,"w":178,"h":182},
	"sourceSize": {"w":178,"h":182}
},
"football_loop4_fx_16":
{
	"frame": {"x":1335,"y":189,"w":178,"h":182},
	"rotated": false,
	"trimmed": false,
	"spriteSourceSize": {"x":0,"y":0,"w":178,"h":182},
	"sourceSize": {"w":178,"h":182}
},
"football_loop4_fx_17":
{
	"frame": {"x":1517,"y":189,"w":178,"h":182},
	"rotated": false,
	"trimmed": false,
	"spriteSourceSize": {"x":0,"y":0,"w":178,"h":182},
	"sourceSize": {"w":178,"h":182}
},
"football_loop4_fx_18":
{
	"frame": {"x":1699,"y":189,"w":178,"h":182},
	"rotated": false,
	"trimmed": false,
	"spriteSourceSize": {"x":0,"y":0,"w":178,"h":182},
	"sourceSize": {"w":178,"h":182}
},
"football_loop4_fx_19":
{
	"frame": {"x":243,"y":375,"w":178,"h":182},
	"rotated": false,
	"trimmed": false,
	"spriteSourceSize": {"x":0,"y":0,"w":178,"h":182},
	"sourceSize": {"w":178,"h":182}
},
"football_loop4_fx_20":
{
	"frame": {"x":425,"y":375,"w":178,"h":182},
	"rotated": false,
	"trimmed": false,
	"spriteSourceSize": {"x":0,"y":0,"w":178,"h":182},
	"sourceSize": {"w":178,"h":182}
},
"football_loop4_fx_21":
{
	"frame": {"x":607,"y":375,"w":178,"h":182},
	"rotated": false,
	"trimmed": false,
	"spriteSourceSize": {"x":0,"y":0,"w":178,"h":182},
	"sourceSize": {"w":178,"h":182}
},
"football_loop4_fx_22":
{
	"frame": {"x":789,"y":375,"w":178,"h":182},
	"rotated": false,
	"trimmed": false,
	"spriteSourceSize": {"x":0,"y":0,"w":178,"h":182},
	"sourceSize": {"w":178,"h":182}
},
"football_loop4_fx_23":
{
	"frame": {"x":971,"y":375,"w":178,"h":182},
	"rotated": false,
	"trimmed": false,
	"spriteSourceSize": {"x":0,"y":0,"w":178,"h":182},
	"sourceSize": {"w":178,"h":182}
},
"football_loop4_fx_24":
{
	"frame": {"x":1153,"y":375,"w":178,"h":182},
	"rotated": false,
	"trimmed": false,
	"spriteSourceSize": {"x":0,"y":0,"w":178,"h":182},
	"sourceSize": {"w":178,"h":182}
},
"football_loop4_fx_25":
{
	"frame": {"x":1335,"y":375,"w":178,"h":182},
	"rotated": false,
	"trimmed": false,
	"spriteSourceSize": {"x":0,"y":0,"w":178,"h":182},
	"sourceSize": {"w":178,"h":182}
},
"football_loop4_fx_26":
{
	"frame": {"x":1517,"y":375,"w":178,"h":182},
	"rotated": false,
	"trimmed": false,
	"spriteSourceSize": {"x":0,"y":0,"w":178,"h":182},
	"sourceSize": {"w":178,"h":182}
},
"football_loop4_fx_27":
{
	"frame": {"x":1699,"y":375,"w":178,"h":182},
	"rotated": false,
	"trimmed": false,
	"spriteSourceSize": {"x":0,"y":0,"w":178,"h":182},
	"sourceSize": {"w":178,"h":182}
},
"football_loop4_fx_28":
{
	"frame": {"x":243,"y":777,"w":178,"h":182},
	"rotated": false,
	"trimmed": false,
	"spriteSourceSize": {"x":0,"y":0,"w":178,"h":182},
	"sourceSize": {"w":178,"h":182}
},
"football_loop4_fx_29":
{
	"frame": {"x":363,"y":581,"w":178,"h":182},
	"rotated": false,
	"trimmed": false,
	"spriteSourceSize": {"x":0,"y":0,"w":178,"h":182},
	"sourceSize": {"w":178,"h":182}
},
"football_loop4_fx_30":
{
	"frame": {"x":243,"y":963,"w":178,"h":182},
	"rotated": false,
	"trimmed": false,
	"spriteSourceSize": {"x":0,"y":0,"w":178,"h":182},
	"sourceSize": {"w":178,"h":182}
},
"football_loop4_fx_31":
{
	"frame": {"x":243,"y":1149,"w":178,"h":182},
	"rotated": false,
	"trimmed": false,
	"spriteSourceSize": {"x":0,"y":0,"w":178,"h":182},
	"sourceSize": {"w":178,"h":182}
},
"football_loop4_fx_32":
{
	"frame": {"x":243,"y":1335,"w":178,"h":182},
	"rotated": false,
	"trimmed": false,
	"spriteSourceSize": {"x":0,"y":0,"w":178,"h":182},
	"sourceSize": {"w":178,"h":182}
},
"football_loop4_fx_33":
{
	"frame": {"x":243,"y":1521,"w":178,"h":182},
	"rotated": false,
	"trimmed": false,
	"spriteSourceSize": {"x":0,"y":0,"w":178,"h":182},
	"sourceSize": {"w":178,"h":182}
},
"football_loop4_fx_34":
{
	"frame": {"x":243,"y":1707,"w":178,"h":182},
	"rotated": false,
	"trimmed": false,
	"spriteSourceSize": {"x":0,"y":0,"w":178,"h":182},
	"sourceSize": {"w":178,"h":182}
},
"football_loop4_fx_35":
{
	"frame": {"x":425,"y":767,"w":178,"h":182},
	"rotated": false,
	"trimmed": false,
	"spriteSourceSize": {"x":0,"y":0,"w":178,"h":182},
	"sourceSize": {"w":178,"h":182}
},
"football_loop4_fx_36":
{
	"frame": {"x":545,"y":581,"w":178,"h":182},
	"rotated": false,
	"trimmed": false,
	"spriteSourceSize": {"x":0,"y":0,"w":178,"h":182},
	"sourceSize": {"w":178,"h":182}
},
"football_loop4_fx_37":
{
	"frame": {"x":425,"y":953,"w":178,"h":182},
	"rotated": false,
	"trimmed": false,
	"spriteSourceSize": {"x":0,"y":0,"w":178,"h":182},
	"sourceSize": {"w":178,"h":182}
},
"football_loop4_fx_38":
{
	"frame": {"x":425,"y":1139,"w":178,"h":182},
	"rotated": false,
	"trimmed": false,
	"spriteSourceSize": {"x":0,"y":0,"w":178,"h":182},
	"sourceSize": {"w":178,"h":182}
},
"football_loop4_fx_39":
{
	"frame": {"x":425,"y":1325,"w":178,"h":182},
	"rotated": false,
	"trimmed": false,
	"spriteSourceSize": {"x":0,"y":0,"w":178,"h":182},
	"sourceSize": {"w":178,"h":182}
},
"football_loop4_fx_40":
{
	"frame": {"x":425,"y":1511,"w":178,"h":182},
	"rotated": false,
	"trimmed": false,
	"spriteSourceSize": {"x":0,"y":0,"w":178,"h":182},
	"sourceSize": {"w":178,"h":182}
},
"football_loop4_fx_41":
{
	"frame": {"x":425,"y":1697,"w":178,"h":182},
	"rotated": false,
	"trimmed": false,
	"spriteSourceSize": {"x":0,"y":0,"w":178,"h":182},
	"sourceSize": {"w":178,"h":182}
},
"football_loop4_fx_42":
{
	"frame": {"x":727,"y":561,"w":178,"h":182},
	"rotated": false,
	"trimmed": false,
	"spriteSourceSize": {"x":0,"y":0,"w":178,"h":182},
	"sourceSize": {"w":178,"h":182}
},
"glow_loop2_00":
{
	"frame": {"x":351,"y":1893,"w":104,"h":104},
	"rotated": false,
	"trimmed": false,
	"spriteSourceSize": {"x":0,"y":0,"w":104,"h":104},
	"sourceSize": {"w":104,"h":104}
},
"glow_loop3_00":
{
	"frame": {"x":459,"y":1883,"w":104,"h":104},
	"rotated": false,
	"trimmed": false,
	"spriteSourceSize": {"x":0,"y":0,"w":104,"h":104},
	"sourceSize": {"w":104,"h":104}
},
"glow_loop4_00":
{
	"frame": {"x":243,"y":1893,"w":104,"h":105},
	"rotated": false,
	"trimmed": false,
	"spriteSourceSize": {"x":0,"y":0,"w":104,"h":105},
	"sourceSize": {"w":104,"h":105}
}},
"animations": {
	"football_loop2fx": ["football_loop2fx_00","football_loop2fx_01","football_loop2fx_02","football_loop2fx_03","football_loop2fx_04","football_loop2fx_05","football_loop2fx_06","football_loop2fx_07","football_loop2fx_08","football_loop2fx_09","football_loop2fx_10","football_loop2fx_11","football_loop2fx_12","football_loop2fx_13","football_loop2fx_14","football_loop2fx_15","football_loop2fx_16","football_loop2fx_17","football_loop2fx_18","football_loop2fx_19","football_loop2fx_20","football_loop2fx_21"],
	"football_loop3_fx": ["football_loop3_fx_00","football_loop3_fx_01","football_loop3_fx_02","football_loop3_fx_03","football_loop3_fx_04","football_loop3_fx_05","football_loop3_fx_06","football_loop3_fx_07","football_loop3_fx_08","football_loop3_fx_09","football_loop3_fx_10","football_loop3_fx_11","football_loop3_fx_12","football_loop3_fx_13","football_loop3_fx_14","football_loop3_fx_15","football_loop3_fx_16","football_loop3_fx_17","football_loop3_fx_18","football_loop3_fx_19","football_loop3_fx_20","football_loop3_fx_21"],
	"football_loop4_fx": ["football_loop4_fx_00","football_loop4_fx_01","football_loop4_fx_02","football_loop4_fx_03","football_loop4_fx_04","football_loop4_fx_05","football_loop4_fx_06","football_loop4_fx_07","football_loop4_fx_08","football_loop4_fx_09","football_loop4_fx_10","football_loop4_fx_11","football_loop4_fx_12","football_loop4_fx_13","football_loop4_fx_14","football_loop4_fx_15","football_loop4_fx_16","football_loop4_fx_17","football_loop4_fx_18","football_loop4_fx_19","football_loop4_fx_20","football_loop4_fx_21","football_loop4_fx_22","football_loop4_fx_23","football_loop4_fx_24","football_loop4_fx_25","football_loop4_fx_26","football_loop4_fx_27","football_loop4_fx_28","football_loop4_fx_29","football_loop4_fx_30","football_loop4_fx_31","football_loop4_fx_32","football_loop4_fx_33","football_loop4_fx_34","football_loop4_fx_35","football_loop4_fx_36","football_loop4_fx_37","football_loop4_fx_38","football_loop4_fx_39","football_loop4_fx_40","football_loop4_fx_41","football_loop4_fx_42"]
},
"meta": {
	"app": "https://www.codeandweb.com/texturepacker",
	"version": "1.0",
	"image": "defender_ballAnims.png",
	"format": "RGBA8888",
	"size": {"w":2048,"h":2048},
	"scale": "0.75",
	"smartupdate": "$TexturePacker:SmartUpdate:47d85fb93940ca24c2740b5ddea8e9dc:5f323a1fb2ccdb9bd15500af3a2ef452:2cd83570e59301f246cc4be16a297f21$"
}
}
