{
    "primaryDark" : "0x2c3850",
    "primaryLight" : "0x3466c7",
    "primaryLight2" : "0x526792",
    "secondaryLight" : "0xf1d205",
    "tertiaryLight" : "0x6bb231",
    "tertiaryDark" : "0x447621",
    "tertiaryDark2" : "0x304a08",
    "black" : "0x000000",

    "textBlack" : "0x000000",
    "textRed" : "0xff0000",
    "textLight" : "0xffffff",
    "textDark" : "0x2b3950",
    "textGrey" : "0xaeafae",

    "tourney list configs" : "",

    "tourneyQTRPanel" : "0x657188",
    "tourneySEMIPanel" : "0xb0bcd3",
    "tourneyPipes" : "0x526893",

    "vsColor1" : "0x4b525f",
    "vsColor2" : "0x2c384f",
    "vsColor3" : "0xffffff",
    "vsColor4" : "0xffff00"

}
