{"frames": {

"CTTlogo":
{
	"frame": {"x":274,"y":3,"w":667,"h":125},
	"rotated": false,
	"trimmed": false,
	"spriteSourceSize": {"x":0,"y":0,"w":667,"h":125},
	"sourceSize": {"w":667,"h":125}
},
"splashImage_VCTT":
{
	"frame": {"x":3,"y":3,"w":267,"h":175},
	"rotated": false,
	"trimmed": false,
	"spriteSourceSize": {"x":0,"y":0,"w":267,"h":175},
	"sourceSize": {"w":267,"h":175}
},
"title_CTT":
{
	"frame": {"x":3,"y":182,"w":267,"h":62},
	"rotated": false,
	"trimmed": false,
	"spriteSourceSize": {"x":0,"y":0,"w":267,"h":62},
	"sourceSize": {"w":267,"h":62}
},
"title_VCTT":
{
	"frame": {"x":274,"y":132,"w":267,"h":62},
	"rotated": false,
	"trimmed": false,
	"spriteSourceSize": {"x":0,"y":0,"w":267,"h":62},
	"sourceSize": {"w":267,"h":62}
}},
"meta": {
	"app": "https://www.codeandweb.com/texturepacker",
	"version": "1.0",
	"image": "ctt_preloaderAssets.png",
	"format": "RGBA8888",
	"size": {"w":1024,"h":256},
	"scale": "1",
	"smartupdate": "$TexturePacker:SmartUpdate:9a132443ee2021449d480a6d48996e2c:54fcc0a900c8d3dc604113559703eced:6c2d1052a13ac61d0681b7e3a72aace4$"
}
}
