{"frames": {

"preloaderMainbg":
{
	"frame": {"x":3,"y":3,"w":720,"h":1281},
	"rotated": false,
	"trimmed": false,
	"spriteSourceSize": {"x":0,"y":0,"w":720,"h":1281},
	"sourceSize": {"w":720,"h":1281}
}},
"meta": {
	"app": "https://www.codeandweb.com/texturepacker",
	"version": "1.0",
	"image": "ctt_preloaderbg.jpg",
	"format": "RGB888",
	"size": {"w":1024,"h":2048},
	"scale": "1",
	"smartupdate": "$TexturePacker:SmartUpdate:623050ba7f8e97750e272be811c8ad98:0fd7b018437c45989477210b0145b1ab:4f0adb831bc3b516db6f098c1184222c$"
}
}
