{"frames": {

"ball_fx_loop2_00":
{
	"frame": {"x":3,"y":1345,"w":65,"h":97},
	"rotated": false,
	"trimmed": false,
	"spriteSourceSize": {"x":0,"y":0,"w":65,"h":97},
	"sourceSize": {"w":65,"h":97}
},
"ball_fx_loop2_01":
{
	"frame": {"x":3,"y":1446,"w":65,"h":97},
	"rotated": false,
	"trimmed": false,
	"spriteSourceSize": {"x":0,"y":0,"w":65,"h":97},
	"sourceSize": {"w":65,"h":97}
},
"ball_fx_loop2_02":
{
	"frame": {"x":3,"y":1547,"w":65,"h":97},
	"rotated": false,
	"trimmed": false,
	"spriteSourceSize": {"x":0,"y":0,"w":65,"h":97},
	"sourceSize": {"w":65,"h":97}
},
"ball_fx_loop2_03":
{
	"frame": {"x":3,"y":1648,"w":65,"h":97},
	"rotated": false,
	"trimmed": false,
	"spriteSourceSize": {"x":0,"y":0,"w":65,"h":97},
	"sourceSize": {"w":65,"h":97}
},
"ball_fx_loop2_04":
{
	"frame": {"x":3,"y":1749,"w":65,"h":97},
	"rotated": false,
	"trimmed": false,
	"spriteSourceSize": {"x":0,"y":0,"w":65,"h":97},
	"sourceSize": {"w":65,"h":97}
},
"ball_fx_loop2_05":
{
	"frame": {"x":3,"y":1850,"w":65,"h":97},
	"rotated": false,
	"trimmed": false,
	"spriteSourceSize": {"x":0,"y":0,"w":65,"h":97},
	"sourceSize": {"w":65,"h":97}
},
"ball_fx_loop2_06":
{
	"frame": {"x":72,"y":1345,"w":65,"h":97},
	"rotated": false,
	"trimmed": false,
	"spriteSourceSize": {"x":0,"y":0,"w":65,"h":97},
	"sourceSize": {"w":65,"h":97}
},
"ball_fx_loop2_07":
{
	"frame": {"x":72,"y":1446,"w":65,"h":97},
	"rotated": false,
	"trimmed": false,
	"spriteSourceSize": {"x":0,"y":0,"w":65,"h":97},
	"sourceSize": {"w":65,"h":97}
},
"ball_fx_loop2_08":
{
	"frame": {"x":72,"y":1547,"w":65,"h":97},
	"rotated": false,
	"trimmed": false,
	"spriteSourceSize": {"x":0,"y":0,"w":65,"h":97},
	"sourceSize": {"w":65,"h":97}
},
"ball_fx_loop2_09":
{
	"frame": {"x":72,"y":1648,"w":65,"h":97},
	"rotated": false,
	"trimmed": false,
	"spriteSourceSize": {"x":0,"y":0,"w":65,"h":97},
	"sourceSize": {"w":65,"h":97}
},
"ball_fx_loop2_10":
{
	"frame": {"x":72,"y":1749,"w":65,"h":97},
	"rotated": false,
	"trimmed": false,
	"spriteSourceSize": {"x":0,"y":0,"w":65,"h":97},
	"sourceSize": {"w":65,"h":97}
},
"ball_fx_loop2_11":
{
	"frame": {"x":72,"y":1850,"w":65,"h":97},
	"rotated": false,
	"trimmed": false,
	"spriteSourceSize": {"x":0,"y":0,"w":65,"h":97},
	"sourceSize": {"w":65,"h":97}
},
"ball_fx_loop2_12":
{
	"frame": {"x":141,"y":1339,"w":65,"h":97},
	"rotated": false,
	"trimmed": false,
	"spriteSourceSize": {"x":0,"y":0,"w":65,"h":97},
	"sourceSize": {"w":65,"h":97}
},
"ball_fx_loop2_13":
{
	"frame": {"x":141,"y":1440,"w":65,"h":97},
	"rotated": false,
	"trimmed": false,
	"spriteSourceSize": {"x":0,"y":0,"w":65,"h":97},
	"sourceSize": {"w":65,"h":97}
},
"ball_fx_loop2_14":
{
	"frame": {"x":141,"y":1541,"w":65,"h":97},
	"rotated": false,
	"trimmed": false,
	"spriteSourceSize": {"x":0,"y":0,"w":65,"h":97},
	"sourceSize": {"w":65,"h":97}
},
"ball_fx_loop2_15":
{
	"frame": {"x":141,"y":1642,"w":65,"h":97},
	"rotated": false,
	"trimmed": false,
	"spriteSourceSize": {"x":0,"y":0,"w":65,"h":97},
	"sourceSize": {"w":65,"h":97}
},
"ball_fx_loop2_16":
{
	"frame": {"x":141,"y":1743,"w":65,"h":97},
	"rotated": false,
	"trimmed": false,
	"spriteSourceSize": {"x":0,"y":0,"w":65,"h":97},
	"sourceSize": {"w":65,"h":97}
},
"ball_fx_loop2_17":
{
	"frame": {"x":141,"y":1844,"w":65,"h":97},
	"rotated": false,
	"trimmed": false,
	"spriteSourceSize": {"x":0,"y":0,"w":65,"h":97},
	"sourceSize": {"w":65,"h":97}
},
"ball_fx_loop2_18":
{
	"frame": {"x":151,"y":1945,"w":65,"h":97},
	"rotated": false,
	"trimmed": false,
	"spriteSourceSize": {"x":0,"y":0,"w":65,"h":97},
	"sourceSize": {"w":65,"h":97}
},
"ball_fx_loop2_19":
{
	"frame": {"x":210,"y":1339,"w":65,"h":97},
	"rotated": false,
	"trimmed": false,
	"spriteSourceSize": {"x":0,"y":0,"w":65,"h":97},
	"sourceSize": {"w":65,"h":97}
},
"ball_fx_loop2_20":
{
	"frame": {"x":210,"y":1440,"w":65,"h":97},
	"rotated": false,
	"trimmed": false,
	"spriteSourceSize": {"x":0,"y":0,"w":65,"h":97},
	"sourceSize": {"w":65,"h":97}
},
"ball_fx_loop2_21":
{
	"frame": {"x":210,"y":1541,"w":65,"h":97},
	"rotated": false,
	"trimmed": false,
	"spriteSourceSize": {"x":0,"y":0,"w":65,"h":97},
	"sourceSize": {"w":65,"h":97}
},
"ball_fx_loop3_00":
{
	"frame": {"x":891,"y":463,"w":93,"h":105},
	"rotated": false,
	"trimmed": false,
	"spriteSourceSize": {"x":0,"y":0,"w":93,"h":105},
	"sourceSize": {"w":93,"h":105}
},
"ball_fx_loop3_01":
{
	"frame": {"x":891,"y":572,"w":93,"h":105},
	"rotated": false,
	"trimmed": false,
	"spriteSourceSize": {"x":0,"y":0,"w":93,"h":105},
	"sourceSize": {"w":93,"h":105}
},
"ball_fx_loop3_02":
{
	"frame": {"x":3,"y":578,"w":93,"h":105},
	"rotated": false,
	"trimmed": false,
	"spriteSourceSize": {"x":0,"y":0,"w":93,"h":105},
	"sourceSize": {"w":93,"h":105}
},
"ball_fx_loop3_03":
{
	"frame": {"x":100,"y":578,"w":93,"h":105},
	"rotated": false,
	"trimmed": false,
	"spriteSourceSize": {"x":0,"y":0,"w":93,"h":105},
	"sourceSize": {"w":93,"h":105}
},
"ball_fx_loop3_04":
{
	"frame": {"x":197,"y":578,"w":93,"h":105},
	"rotated": false,
	"trimmed": false,
	"spriteSourceSize": {"x":0,"y":0,"w":93,"h":105},
	"sourceSize": {"w":93,"h":105}
},
"ball_fx_loop3_05":
{
	"frame": {"x":294,"y":578,"w":93,"h":105},
	"rotated": false,
	"trimmed": false,
	"spriteSourceSize": {"x":0,"y":0,"w":93,"h":105},
	"sourceSize": {"w":93,"h":105}
},
"ball_fx_loop3_06":
{
	"frame": {"x":391,"y":578,"w":93,"h":105},
	"rotated": false,
	"trimmed": false,
	"spriteSourceSize": {"x":0,"y":0,"w":93,"h":105},
	"sourceSize": {"w":93,"h":105}
},
"ball_fx_loop3_07":
{
	"frame": {"x":488,"y":578,"w":93,"h":105},
	"rotated": false,
	"trimmed": false,
	"spriteSourceSize": {"x":0,"y":0,"w":93,"h":105},
	"sourceSize": {"w":93,"h":105}
},
"ball_fx_loop3_08":
{
	"frame": {"x":585,"y":578,"w":93,"h":105},
	"rotated": false,
	"trimmed": false,
	"spriteSourceSize": {"x":0,"y":0,"w":93,"h":105},
	"sourceSize": {"w":93,"h":105}
},
"ball_fx_loop3_09":
{
	"frame": {"x":682,"y":578,"w":93,"h":105},
	"rotated": false,
	"trimmed": false,
	"spriteSourceSize": {"x":0,"y":0,"w":93,"h":105},
	"sourceSize": {"w":93,"h":105}
},
"ball_fx_loop3_10":
{
	"frame": {"x":779,"y":578,"w":93,"h":105},
	"rotated": false,
	"trimmed": false,
	"spriteSourceSize": {"x":0,"y":0,"w":93,"h":105},
	"sourceSize": {"w":93,"h":105}
},
"ball_fx_loop3_11":
{
	"frame": {"x":876,"y":681,"w":93,"h":105},
	"rotated": false,
	"trimmed": false,
	"spriteSourceSize": {"x":0,"y":0,"w":93,"h":105},
	"sourceSize": {"w":93,"h":105}
},
"ball_fx_loop3_12":
{
	"frame": {"x":3,"y":687,"w":93,"h":105},
	"rotated": false,
	"trimmed": false,
	"spriteSourceSize": {"x":0,"y":0,"w":93,"h":105},
	"sourceSize": {"w":93,"h":105}
},
"ball_fx_loop3_13":
{
	"frame": {"x":100,"y":687,"w":93,"h":105},
	"rotated": false,
	"trimmed": false,
	"spriteSourceSize": {"x":0,"y":0,"w":93,"h":105},
	"sourceSize": {"w":93,"h":105}
},
"ball_fx_loop3_14":
{
	"frame": {"x":197,"y":687,"w":93,"h":105},
	"rotated": false,
	"trimmed": false,
	"spriteSourceSize": {"x":0,"y":0,"w":93,"h":105},
	"sourceSize": {"w":93,"h":105}
},
"ball_fx_loop3_15":
{
	"frame": {"x":294,"y":687,"w":93,"h":105},
	"rotated": false,
	"trimmed": false,
	"spriteSourceSize": {"x":0,"y":0,"w":93,"h":105},
	"sourceSize": {"w":93,"h":105}
},
"ball_fx_loop3_16":
{
	"frame": {"x":391,"y":687,"w":93,"h":105},
	"rotated": false,
	"trimmed": false,
	"spriteSourceSize": {"x":0,"y":0,"w":93,"h":105},
	"sourceSize": {"w":93,"h":105}
},
"ball_fx_loop3_17":
{
	"frame": {"x":488,"y":687,"w":93,"h":105},
	"rotated": false,
	"trimmed": false,
	"spriteSourceSize": {"x":0,"y":0,"w":93,"h":105},
	"sourceSize": {"w":93,"h":105}
},
"ball_fx_loop3_18":
{
	"frame": {"x":585,"y":687,"w":93,"h":105},
	"rotated": false,
	"trimmed": false,
	"spriteSourceSize": {"x":0,"y":0,"w":93,"h":105},
	"sourceSize": {"w":93,"h":105}
},
"ball_fx_loop3_19":
{
	"frame": {"x":682,"y":687,"w":93,"h":105},
	"rotated": false,
	"trimmed": false,
	"spriteSourceSize": {"x":0,"y":0,"w":93,"h":105},
	"sourceSize": {"w":93,"h":105}
},
"ball_fx_loop3_20":
{
	"frame": {"x":779,"y":687,"w":93,"h":105},
	"rotated": false,
	"trimmed": false,
	"spriteSourceSize": {"x":0,"y":0,"w":93,"h":105},
	"sourceSize": {"w":93,"h":105}
},
"ball_fx_loop3_21":
{
	"frame": {"x":876,"y":790,"w":93,"h":105},
	"rotated": false,
	"trimmed": false,
	"spriteSourceSize": {"x":0,"y":0,"w":93,"h":105},
	"sourceSize": {"w":93,"h":105}
},
"ball_fx_loop3_22":
{
	"frame": {"x":3,"y":796,"w":93,"h":105},
	"rotated": false,
	"trimmed": false,
	"spriteSourceSize": {"x":0,"y":0,"w":93,"h":105},
	"sourceSize": {"w":93,"h":105}
},
"ball_fx_loop3_23":
{
	"frame": {"x":100,"y":796,"w":93,"h":105},
	"rotated": false,
	"trimmed": false,
	"spriteSourceSize": {"x":0,"y":0,"w":93,"h":105},
	"sourceSize": {"w":93,"h":105}
},
"ball_fx_loop3_24":
{
	"frame": {"x":197,"y":796,"w":93,"h":105},
	"rotated": false,
	"trimmed": false,
	"spriteSourceSize": {"x":0,"y":0,"w":93,"h":105},
	"sourceSize": {"w":93,"h":105}
},
"ball_fx_loop3_25":
{
	"frame": {"x":294,"y":796,"w":93,"h":105},
	"rotated": false,
	"trimmed": false,
	"spriteSourceSize": {"x":0,"y":0,"w":93,"h":105},
	"sourceSize": {"w":93,"h":105}
},
"ball_fx_loop3_26":
{
	"frame": {"x":391,"y":796,"w":93,"h":105},
	"rotated": false,
	"trimmed": false,
	"spriteSourceSize": {"x":0,"y":0,"w":93,"h":105},
	"sourceSize": {"w":93,"h":105}
},
"ball_fx_loop3_27":
{
	"frame": {"x":488,"y":796,"w":93,"h":105},
	"rotated": false,
	"trimmed": false,
	"spriteSourceSize": {"x":0,"y":0,"w":93,"h":105},
	"sourceSize": {"w":93,"h":105}
},
"ball_fx_loop3_28":
{
	"frame": {"x":585,"y":796,"w":93,"h":105},
	"rotated": false,
	"trimmed": false,
	"spriteSourceSize": {"x":0,"y":0,"w":93,"h":105},
	"sourceSize": {"w":93,"h":105}
},
"ball_fx_loop3_29":
{
	"frame": {"x":682,"y":796,"w":93,"h":105},
	"rotated": false,
	"trimmed": false,
	"spriteSourceSize": {"x":0,"y":0,"w":93,"h":105},
	"sourceSize": {"w":93,"h":105}
},
"ball_fx_loop3_30":
{
	"frame": {"x":779,"y":796,"w":93,"h":105},
	"rotated": false,
	"trimmed": false,
	"spriteSourceSize": {"x":0,"y":0,"w":93,"h":105},
	"sourceSize": {"w":93,"h":105}
},
"ball_fx_loop3_31":
{
	"frame": {"x":876,"y":899,"w":93,"h":105},
	"rotated": false,
	"trimmed": false,
	"spriteSourceSize": {"x":0,"y":0,"w":93,"h":105},
	"sourceSize": {"w":93,"h":105}
},
"ball_fx_loop3_32":
{
	"frame": {"x":3,"y":905,"w":93,"h":105},
	"rotated": false,
	"trimmed": false,
	"spriteSourceSize": {"x":0,"y":0,"w":93,"h":105},
	"sourceSize": {"w":93,"h":105}
},
"ball_fx_loop3_33":
{
	"frame": {"x":100,"y":905,"w":93,"h":105},
	"rotated": false,
	"trimmed": false,
	"spriteSourceSize": {"x":0,"y":0,"w":93,"h":105},
	"sourceSize": {"w":93,"h":105}
},
"ball_fx_loop3_34":
{
	"frame": {"x":197,"y":905,"w":93,"h":105},
	"rotated": false,
	"trimmed": false,
	"spriteSourceSize": {"x":0,"y":0,"w":93,"h":105},
	"sourceSize": {"w":93,"h":105}
},
"ball_fx_loop3_35":
{
	"frame": {"x":294,"y":905,"w":93,"h":105},
	"rotated": false,
	"trimmed": false,
	"spriteSourceSize": {"x":0,"y":0,"w":93,"h":105},
	"sourceSize": {"w":93,"h":105}
},
"ball_fx_loop3_36":
{
	"frame": {"x":391,"y":905,"w":93,"h":105},
	"rotated": false,
	"trimmed": false,
	"spriteSourceSize": {"x":0,"y":0,"w":93,"h":105},
	"sourceSize": {"w":93,"h":105}
},
"ball_fx_loop3_37":
{
	"frame": {"x":488,"y":905,"w":93,"h":105},
	"rotated": false,
	"trimmed": false,
	"spriteSourceSize": {"x":0,"y":0,"w":93,"h":105},
	"sourceSize": {"w":93,"h":105}
},
"ball_fx_loop3_38":
{
	"frame": {"x":585,"y":905,"w":93,"h":105},
	"rotated": false,
	"trimmed": false,
	"spriteSourceSize": {"x":0,"y":0,"w":93,"h":105},
	"sourceSize": {"w":93,"h":105}
},
"ball_fx_loop3_39":
{
	"frame": {"x":682,"y":905,"w":93,"h":105},
	"rotated": false,
	"trimmed": false,
	"spriteSourceSize": {"x":0,"y":0,"w":93,"h":105},
	"sourceSize": {"w":93,"h":105}
},
"ball_fx_loop3_40":
{
	"frame": {"x":779,"y":905,"w":93,"h":105},
	"rotated": false,
	"trimmed": false,
	"spriteSourceSize": {"x":0,"y":0,"w":93,"h":105},
	"sourceSize": {"w":93,"h":105}
},
"ball_fx_loop3_41":
{
	"frame": {"x":876,"y":1008,"w":93,"h":105},
	"rotated": false,
	"trimmed": false,
	"spriteSourceSize": {"x":0,"y":0,"w":93,"h":105},
	"sourceSize": {"w":93,"h":105}
},
"ball_fx_loop3_42":
{
	"frame": {"x":3,"y":1014,"w":93,"h":105},
	"rotated": false,
	"trimmed": false,
	"spriteSourceSize": {"x":0,"y":0,"w":93,"h":105},
	"sourceSize": {"w":93,"h":105}
},
"ball_fx_loop4_00":
{
	"frame": {"x":3,"y":3,"w":107,"h":111},
	"rotated": false,
	"trimmed": false,
	"spriteSourceSize": {"x":0,"y":0,"w":107,"h":111},
	"sourceSize": {"w":107,"h":111}
},
"ball_fx_loop4_01":
{
	"frame": {"x":114,"y":3,"w":107,"h":111},
	"rotated": false,
	"trimmed": false,
	"spriteSourceSize": {"x":0,"y":0,"w":107,"h":111},
	"sourceSize": {"w":107,"h":111}
},
"ball_fx_loop4_02":
{
	"frame": {"x":225,"y":3,"w":107,"h":111},
	"rotated": false,
	"trimmed": false,
	"spriteSourceSize": {"x":0,"y":0,"w":107,"h":111},
	"sourceSize": {"w":107,"h":111}
},
"ball_fx_loop4_03":
{
	"frame": {"x":336,"y":3,"w":107,"h":111},
	"rotated": false,
	"trimmed": false,
	"spriteSourceSize": {"x":0,"y":0,"w":107,"h":111},
	"sourceSize": {"w":107,"h":111}
},
"ball_fx_loop4_04":
{
	"frame": {"x":447,"y":3,"w":107,"h":111},
	"rotated": false,
	"trimmed": false,
	"spriteSourceSize": {"x":0,"y":0,"w":107,"h":111},
	"sourceSize": {"w":107,"h":111}
},
"ball_fx_loop4_05":
{
	"frame": {"x":558,"y":3,"w":107,"h":111},
	"rotated": false,
	"trimmed": false,
	"spriteSourceSize": {"x":0,"y":0,"w":107,"h":111},
	"sourceSize": {"w":107,"h":111}
},
"ball_fx_loop4_06":
{
	"frame": {"x":669,"y":3,"w":107,"h":111},
	"rotated": false,
	"trimmed": false,
	"spriteSourceSize": {"x":0,"y":0,"w":107,"h":111},
	"sourceSize": {"w":107,"h":111}
},
"ball_fx_loop4_07":
{
	"frame": {"x":780,"y":3,"w":107,"h":111},
	"rotated": false,
	"trimmed": false,
	"spriteSourceSize": {"x":0,"y":0,"w":107,"h":111},
	"sourceSize": {"w":107,"h":111}
},
"ball_fx_loop4_08":
{
	"frame": {"x":891,"y":3,"w":107,"h":111},
	"rotated": false,
	"trimmed": false,
	"spriteSourceSize": {"x":0,"y":0,"w":107,"h":111},
	"sourceSize": {"w":107,"h":111}
},
"ball_fx_loop4_09":
{
	"frame": {"x":3,"y":118,"w":107,"h":111},
	"rotated": false,
	"trimmed": false,
	"spriteSourceSize": {"x":0,"y":0,"w":107,"h":111},
	"sourceSize": {"w":107,"h":111}
},
"ball_fx_loop4_10":
{
	"frame": {"x":114,"y":118,"w":107,"h":111},
	"rotated": false,
	"trimmed": false,
	"spriteSourceSize": {"x":0,"y":0,"w":107,"h":111},
	"sourceSize": {"w":107,"h":111}
},
"ball_fx_loop4_11":
{
	"frame": {"x":225,"y":118,"w":107,"h":111},
	"rotated": false,
	"trimmed": false,
	"spriteSourceSize": {"x":0,"y":0,"w":107,"h":111},
	"sourceSize": {"w":107,"h":111}
},
"ball_fx_loop4_12":
{
	"frame": {"x":336,"y":118,"w":107,"h":111},
	"rotated": false,
	"trimmed": false,
	"spriteSourceSize": {"x":0,"y":0,"w":107,"h":111},
	"sourceSize": {"w":107,"h":111}
},
"ball_fx_loop4_13":
{
	"frame": {"x":447,"y":118,"w":107,"h":111},
	"rotated": false,
	"trimmed": false,
	"spriteSourceSize": {"x":0,"y":0,"w":107,"h":111},
	"sourceSize": {"w":107,"h":111}
},
"ball_fx_loop4_14":
{
	"frame": {"x":558,"y":118,"w":107,"h":111},
	"rotated": false,
	"trimmed": false,
	"spriteSourceSize": {"x":0,"y":0,"w":107,"h":111},
	"sourceSize": {"w":107,"h":111}
},
"ball_fx_loop4_15":
{
	"frame": {"x":669,"y":118,"w":107,"h":111},
	"rotated": false,
	"trimmed": false,
	"spriteSourceSize": {"x":0,"y":0,"w":107,"h":111},
	"sourceSize": {"w":107,"h":111}
},
"ball_fx_loop4_16":
{
	"frame": {"x":780,"y":118,"w":107,"h":111},
	"rotated": false,
	"trimmed": false,
	"spriteSourceSize": {"x":0,"y":0,"w":107,"h":111},
	"sourceSize": {"w":107,"h":111}
},
"ball_fx_loop4_17":
{
	"frame": {"x":891,"y":118,"w":107,"h":111},
	"rotated": false,
	"trimmed": false,
	"spriteSourceSize": {"x":0,"y":0,"w":107,"h":111},
	"sourceSize": {"w":107,"h":111}
},
"ball_fx_loop4_18":
{
	"frame": {"x":3,"y":233,"w":107,"h":111},
	"rotated": false,
	"trimmed": false,
	"spriteSourceSize": {"x":0,"y":0,"w":107,"h":111},
	"sourceSize": {"w":107,"h":111}
},
"ball_fx_loop4_19":
{
	"frame": {"x":114,"y":233,"w":107,"h":111},
	"rotated": false,
	"trimmed": false,
	"spriteSourceSize": {"x":0,"y":0,"w":107,"h":111},
	"sourceSize": {"w":107,"h":111}
},
"ball_fx_loop4_20":
{
	"frame": {"x":225,"y":233,"w":107,"h":111},
	"rotated": false,
	"trimmed": false,
	"spriteSourceSize": {"x":0,"y":0,"w":107,"h":111},
	"sourceSize": {"w":107,"h":111}
},
"ball_fx_loop4_21":
{
	"frame": {"x":336,"y":233,"w":107,"h":111},
	"rotated": false,
	"trimmed": false,
	"spriteSourceSize": {"x":0,"y":0,"w":107,"h":111},
	"sourceSize": {"w":107,"h":111}
},
"ball_fx_loop4_22":
{
	"frame": {"x":447,"y":233,"w":107,"h":111},
	"rotated": false,
	"trimmed": false,
	"spriteSourceSize": {"x":0,"y":0,"w":107,"h":111},
	"sourceSize": {"w":107,"h":111}
},
"ball_fx_loop4_23":
{
	"frame": {"x":558,"y":233,"w":107,"h":111},
	"rotated": false,
	"trimmed": false,
	"spriteSourceSize": {"x":0,"y":0,"w":107,"h":111},
	"sourceSize": {"w":107,"h":111}
},
"ball_fx_loop4_24":
{
	"frame": {"x":669,"y":233,"w":107,"h":111},
	"rotated": false,
	"trimmed": false,
	"spriteSourceSize": {"x":0,"y":0,"w":107,"h":111},
	"sourceSize": {"w":107,"h":111}
},
"ball_fx_loop4_25":
{
	"frame": {"x":780,"y":233,"w":107,"h":111},
	"rotated": false,
	"trimmed": false,
	"spriteSourceSize": {"x":0,"y":0,"w":107,"h":111},
	"sourceSize": {"w":107,"h":111}
},
"ball_fx_loop4_26":
{
	"frame": {"x":891,"y":233,"w":107,"h":111},
	"rotated": false,
	"trimmed": false,
	"spriteSourceSize": {"x":0,"y":0,"w":107,"h":111},
	"sourceSize": {"w":107,"h":111}
},
"ball_fx_loop4_27":
{
	"frame": {"x":3,"y":348,"w":107,"h":111},
	"rotated": false,
	"trimmed": false,
	"spriteSourceSize": {"x":0,"y":0,"w":107,"h":111},
	"sourceSize": {"w":107,"h":111}
},
"ball_fx_loop4_28":
{
	"frame": {"x":114,"y":348,"w":107,"h":111},
	"rotated": false,
	"trimmed": false,
	"spriteSourceSize": {"x":0,"y":0,"w":107,"h":111},
	"sourceSize": {"w":107,"h":111}
},
"ball_fx_loop4_29":
{
	"frame": {"x":225,"y":348,"w":107,"h":111},
	"rotated": false,
	"trimmed": false,
	"spriteSourceSize": {"x":0,"y":0,"w":107,"h":111},
	"sourceSize": {"w":107,"h":111}
},
"ball_fx_loop4_30":
{
	"frame": {"x":336,"y":348,"w":107,"h":111},
	"rotated": false,
	"trimmed": false,
	"spriteSourceSize": {"x":0,"y":0,"w":107,"h":111},
	"sourceSize": {"w":107,"h":111}
},
"ball_fx_loop4_31":
{
	"frame": {"x":447,"y":348,"w":107,"h":111},
	"rotated": false,
	"trimmed": false,
	"spriteSourceSize": {"x":0,"y":0,"w":107,"h":111},
	"sourceSize": {"w":107,"h":111}
},
"ball_fx_loop4_32":
{
	"frame": {"x":558,"y":348,"w":107,"h":111},
	"rotated": false,
	"trimmed": false,
	"spriteSourceSize": {"x":0,"y":0,"w":107,"h":111},
	"sourceSize": {"w":107,"h":111}
},
"ball_fx_loop4_33":
{
	"frame": {"x":669,"y":348,"w":107,"h":111},
	"rotated": false,
	"trimmed": false,
	"spriteSourceSize": {"x":0,"y":0,"w":107,"h":111},
	"sourceSize": {"w":107,"h":111}
},
"ball_fx_loop4_34":
{
	"frame": {"x":780,"y":348,"w":107,"h":111},
	"rotated": false,
	"trimmed": false,
	"spriteSourceSize": {"x":0,"y":0,"w":107,"h":111},
	"sourceSize": {"w":107,"h":111}
},
"ball_fx_loop4_35":
{
	"frame": {"x":891,"y":348,"w":107,"h":111},
	"rotated": false,
	"trimmed": false,
	"spriteSourceSize": {"x":0,"y":0,"w":107,"h":111},
	"sourceSize": {"w":107,"h":111}
},
"ball_fx_loop4_36":
{
	"frame": {"x":3,"y":463,"w":107,"h":111},
	"rotated": false,
	"trimmed": false,
	"spriteSourceSize": {"x":0,"y":0,"w":107,"h":111},
	"sourceSize": {"w":107,"h":111}
},
"ball_fx_loop4_37":
{
	"frame": {"x":114,"y":463,"w":107,"h":111},
	"rotated": false,
	"trimmed": false,
	"spriteSourceSize": {"x":0,"y":0,"w":107,"h":111},
	"sourceSize": {"w":107,"h":111}
},
"ball_fx_loop4_38":
{
	"frame": {"x":225,"y":463,"w":107,"h":111},
	"rotated": false,
	"trimmed": false,
	"spriteSourceSize": {"x":0,"y":0,"w":107,"h":111},
	"sourceSize": {"w":107,"h":111}
},
"ball_fx_loop4_39":
{
	"frame": {"x":336,"y":463,"w":107,"h":111},
	"rotated": false,
	"trimmed": false,
	"spriteSourceSize": {"x":0,"y":0,"w":107,"h":111},
	"sourceSize": {"w":107,"h":111}
},
"ball_fx_loop4_40":
{
	"frame": {"x":447,"y":463,"w":107,"h":111},
	"rotated": false,
	"trimmed": false,
	"spriteSourceSize": {"x":0,"y":0,"w":107,"h":111},
	"sourceSize": {"w":107,"h":111}
},
"ball_fx_loop4_41":
{
	"frame": {"x":558,"y":463,"w":107,"h":111},
	"rotated": false,
	"trimmed": false,
	"spriteSourceSize": {"x":0,"y":0,"w":107,"h":111},
	"sourceSize": {"w":107,"h":111}
},
"ball_fx_loop4_42":
{
	"frame": {"x":669,"y":463,"w":107,"h":111},
	"rotated": false,
	"trimmed": false,
	"spriteSourceSize": {"x":0,"y":0,"w":107,"h":111},
	"sourceSize": {"w":107,"h":111}
},
"ball_fx_loop4_43":
{
	"frame": {"x":780,"y":463,"w":107,"h":111},
	"rotated": false,
	"trimmed": false,
	"spriteSourceSize": {"x":0,"y":0,"w":107,"h":111},
	"sourceSize": {"w":107,"h":111}
},
"glow_loop2_00":
{
	"frame": {"x":100,"y":1014,"w":70,"h":70},
	"rotated": false,
	"trimmed": false,
	"spriteSourceSize": {"x":0,"y":0,"w":70,"h":70},
	"sourceSize": {"w":70,"h":70}
},
"glow_loop2_01":
{
	"frame": {"x":174,"y":1014,"w":70,"h":70},
	"rotated": false,
	"trimmed": false,
	"spriteSourceSize": {"x":0,"y":0,"w":70,"h":70},
	"sourceSize": {"w":70,"h":70}
},
"glow_loop2_02":
{
	"frame": {"x":248,"y":1014,"w":70,"h":70},
	"rotated": false,
	"trimmed": false,
	"spriteSourceSize": {"x":0,"y":0,"w":70,"h":70},
	"sourceSize": {"w":70,"h":70}
},
"glow_loop2_03":
{
	"frame": {"x":322,"y":1014,"w":70,"h":70},
	"rotated": false,
	"trimmed": false,
	"spriteSourceSize": {"x":0,"y":0,"w":70,"h":70},
	"sourceSize": {"w":70,"h":70}
},
"glow_loop2_04":
{
	"frame": {"x":396,"y":1014,"w":70,"h":70},
	"rotated": false,
	"trimmed": false,
	"spriteSourceSize": {"x":0,"y":0,"w":70,"h":70},
	"sourceSize": {"w":70,"h":70}
},
"glow_loop2_05":
{
	"frame": {"x":470,"y":1014,"w":70,"h":70},
	"rotated": false,
	"trimmed": false,
	"spriteSourceSize": {"x":0,"y":0,"w":70,"h":70},
	"sourceSize": {"w":70,"h":70}
},
"glow_loop2_06":
{
	"frame": {"x":544,"y":1014,"w":70,"h":70},
	"rotated": false,
	"trimmed": false,
	"spriteSourceSize": {"x":0,"y":0,"w":70,"h":70},
	"sourceSize": {"w":70,"h":70}
},
"glow_loop2_07":
{
	"frame": {"x":618,"y":1014,"w":70,"h":70},
	"rotated": false,
	"trimmed": false,
	"spriteSourceSize": {"x":0,"y":0,"w":70,"h":70},
	"sourceSize": {"w":70,"h":70}
},
"glow_loop2_08":
{
	"frame": {"x":692,"y":1014,"w":70,"h":70},
	"rotated": false,
	"trimmed": false,
	"spriteSourceSize": {"x":0,"y":0,"w":70,"h":70},
	"sourceSize": {"w":70,"h":70}
},
"glow_loop2_09":
{
	"frame": {"x":766,"y":1014,"w":70,"h":70},
	"rotated": false,
	"trimmed": false,
	"spriteSourceSize": {"x":0,"y":0,"w":70,"h":70},
	"sourceSize": {"w":70,"h":70}
},
"glow_loop2_10":
{
	"frame": {"x":100,"y":1088,"w":70,"h":70},
	"rotated": false,
	"trimmed": false,
	"spriteSourceSize": {"x":0,"y":0,"w":70,"h":70},
	"sourceSize": {"w":70,"h":70}
},
"glow_loop2_11":
{
	"frame": {"x":3,"y":1123,"w":70,"h":70},
	"rotated": false,
	"trimmed": false,
	"spriteSourceSize": {"x":0,"y":0,"w":70,"h":70},
	"sourceSize": {"w":70,"h":70}
},
"glow_loop2_12":
{
	"frame": {"x":174,"y":1088,"w":70,"h":70},
	"rotated": false,
	"trimmed": false,
	"spriteSourceSize": {"x":0,"y":0,"w":70,"h":70},
	"sourceSize": {"w":70,"h":70}
},
"glow_loop2_13":
{
	"frame": {"x":248,"y":1088,"w":70,"h":70},
	"rotated": false,
	"trimmed": false,
	"spriteSourceSize": {"x":0,"y":0,"w":70,"h":70},
	"sourceSize": {"w":70,"h":70}
},
"glow_loop2_14":
{
	"frame": {"x":322,"y":1088,"w":70,"h":70},
	"rotated": false,
	"trimmed": false,
	"spriteSourceSize": {"x":0,"y":0,"w":70,"h":70},
	"sourceSize": {"w":70,"h":70}
},
"glow_loop2_15":
{
	"frame": {"x":396,"y":1088,"w":70,"h":70},
	"rotated": false,
	"trimmed": false,
	"spriteSourceSize": {"x":0,"y":0,"w":70,"h":70},
	"sourceSize": {"w":70,"h":70}
},
"glow_loop2_16":
{
	"frame": {"x":470,"y":1088,"w":70,"h":70},
	"rotated": false,
	"trimmed": false,
	"spriteSourceSize": {"x":0,"y":0,"w":70,"h":70},
	"sourceSize": {"w":70,"h":70}
},
"glow_loop2_17":
{
	"frame": {"x":544,"y":1088,"w":70,"h":70},
	"rotated": false,
	"trimmed": false,
	"spriteSourceSize": {"x":0,"y":0,"w":70,"h":70},
	"sourceSize": {"w":70,"h":70}
},
"glow_loop2_18":
{
	"frame": {"x":618,"y":1088,"w":70,"h":70},
	"rotated": false,
	"trimmed": false,
	"spriteSourceSize": {"x":0,"y":0,"w":70,"h":70},
	"sourceSize": {"w":70,"h":70}
},
"glow_loop2_19":
{
	"frame": {"x":692,"y":1088,"w":70,"h":70},
	"rotated": false,
	"trimmed": false,
	"spriteSourceSize": {"x":0,"y":0,"w":70,"h":70},
	"sourceSize": {"w":70,"h":70}
},
"glow_loop2_20":
{
	"frame": {"x":766,"y":1088,"w":70,"h":70},
	"rotated": false,
	"trimmed": false,
	"spriteSourceSize": {"x":0,"y":0,"w":70,"h":70},
	"sourceSize": {"w":70,"h":70}
},
"glow_loop2_21":
{
	"frame": {"x":840,"y":1117,"w":70,"h":70},
	"rotated": false,
	"trimmed": false,
	"spriteSourceSize": {"x":0,"y":0,"w":70,"h":70},
	"sourceSize": {"w":70,"h":70}
},
"glow_loop2_22":
{
	"frame": {"x":914,"y":1117,"w":70,"h":70},
	"rotated": false,
	"trimmed": false,
	"spriteSourceSize": {"x":0,"y":0,"w":70,"h":70},
	"sourceSize": {"w":70,"h":70}
},
"glow_loop2_23":
{
	"frame": {"x":77,"y":1162,"w":70,"h":70},
	"rotated": false,
	"trimmed": false,
	"spriteSourceSize": {"x":0,"y":0,"w":70,"h":70},
	"sourceSize": {"w":70,"h":70}
},
"glow_loop2_24":
{
	"frame": {"x":3,"y":1197,"w":70,"h":70},
	"rotated": false,
	"trimmed": false,
	"spriteSourceSize": {"x":0,"y":0,"w":70,"h":70},
	"sourceSize": {"w":70,"h":70}
},
"glow_loop2_25":
{
	"frame": {"x":151,"y":1162,"w":70,"h":70},
	"rotated": false,
	"trimmed": false,
	"spriteSourceSize": {"x":0,"y":0,"w":70,"h":70},
	"sourceSize": {"w":70,"h":70}
},
"glow_loop2_26":
{
	"frame": {"x":225,"y":1162,"w":70,"h":70},
	"rotated": false,
	"trimmed": false,
	"spriteSourceSize": {"x":0,"y":0,"w":70,"h":70},
	"sourceSize": {"w":70,"h":70}
},
"glow_loop2_27":
{
	"frame": {"x":299,"y":1162,"w":70,"h":70},
	"rotated": false,
	"trimmed": false,
	"spriteSourceSize": {"x":0,"y":0,"w":70,"h":70},
	"sourceSize": {"w":70,"h":70}
},
"glow_loop2_28":
{
	"frame": {"x":373,"y":1162,"w":70,"h":70},
	"rotated": false,
	"trimmed": false,
	"spriteSourceSize": {"x":0,"y":0,"w":70,"h":70},
	"sourceSize": {"w":70,"h":70}
},
"glow_loop2_29":
{
	"frame": {"x":447,"y":1162,"w":70,"h":70},
	"rotated": false,
	"trimmed": false,
	"spriteSourceSize": {"x":0,"y":0,"w":70,"h":70},
	"sourceSize": {"w":70,"h":70}
},
"glow_loop2_30":
{
	"frame": {"x":521,"y":1162,"w":70,"h":70},
	"rotated": false,
	"trimmed": false,
	"spriteSourceSize": {"x":0,"y":0,"w":70,"h":70},
	"sourceSize": {"w":70,"h":70}
},
"glow_loop2_31":
{
	"frame": {"x":595,"y":1162,"w":70,"h":70},
	"rotated": false,
	"trimmed": false,
	"spriteSourceSize": {"x":0,"y":0,"w":70,"h":70},
	"sourceSize": {"w":70,"h":70}
},
"glow_loop2_32":
{
	"frame": {"x":669,"y":1162,"w":70,"h":70},
	"rotated": false,
	"trimmed": false,
	"spriteSourceSize": {"x":0,"y":0,"w":70,"h":70},
	"sourceSize": {"w":70,"h":70}
},
"glow_loop2_33":
{
	"frame": {"x":743,"y":1162,"w":70,"h":70},
	"rotated": false,
	"trimmed": false,
	"spriteSourceSize": {"x":0,"y":0,"w":70,"h":70},
	"sourceSize": {"w":70,"h":70}
},
"glow_loop2_34":
{
	"frame": {"x":817,"y":1191,"w":70,"h":70},
	"rotated": false,
	"trimmed": false,
	"spriteSourceSize": {"x":0,"y":0,"w":70,"h":70},
	"sourceSize": {"w":70,"h":70}
},
"glow_loop2_35":
{
	"frame": {"x":891,"y":1191,"w":70,"h":70},
	"rotated": false,
	"trimmed": false,
	"spriteSourceSize": {"x":0,"y":0,"w":70,"h":70},
	"sourceSize": {"w":70,"h":70}
},
"glow_loop2_36":
{
	"frame": {"x":77,"y":1236,"w":70,"h":70},
	"rotated": false,
	"trimmed": false,
	"spriteSourceSize": {"x":0,"y":0,"w":70,"h":70},
	"sourceSize": {"w":70,"h":70}
},
"glow_loop2_37":
{
	"frame": {"x":3,"y":1271,"w":70,"h":70},
	"rotated": false,
	"trimmed": false,
	"spriteSourceSize": {"x":0,"y":0,"w":70,"h":70},
	"sourceSize": {"w":70,"h":70}
},
"glow_loop2_38":
{
	"frame": {"x":151,"y":1236,"w":70,"h":70},
	"rotated": false,
	"trimmed": false,
	"spriteSourceSize": {"x":0,"y":0,"w":70,"h":70},
	"sourceSize": {"w":70,"h":70}
},
"glow_loop2_39":
{
	"frame": {"x":225,"y":1236,"w":70,"h":70},
	"rotated": false,
	"trimmed": false,
	"spriteSourceSize": {"x":0,"y":0,"w":70,"h":70},
	"sourceSize": {"w":70,"h":70}
},
"glow_loop2_40":
{
	"frame": {"x":299,"y":1236,"w":70,"h":70},
	"rotated": false,
	"trimmed": false,
	"spriteSourceSize": {"x":0,"y":0,"w":70,"h":70},
	"sourceSize": {"w":70,"h":70}
},
"glow_loop2_41":
{
	"frame": {"x":373,"y":1236,"w":70,"h":70},
	"rotated": false,
	"trimmed": false,
	"spriteSourceSize": {"x":0,"y":0,"w":70,"h":70},
	"sourceSize": {"w":70,"h":70}
},
"glow_loop2_42":
{
	"frame": {"x":447,"y":1236,"w":70,"h":70},
	"rotated": false,
	"trimmed": false,
	"spriteSourceSize": {"x":0,"y":0,"w":70,"h":70},
	"sourceSize": {"w":70,"h":70}
},
"glow_loop2_43":
{
	"frame": {"x":521,"y":1236,"w":70,"h":70},
	"rotated": false,
	"trimmed": false,
	"spriteSourceSize": {"x":0,"y":0,"w":70,"h":70},
	"sourceSize": {"w":70,"h":70}
},
"glow_loop3_00":
{
	"frame": {"x":595,"y":1236,"w":70,"h":70},
	"rotated": false,
	"trimmed": false,
	"spriteSourceSize": {"x":0,"y":0,"w":70,"h":70},
	"sourceSize": {"w":70,"h":70}
},
"glow_loop3_01":
{
	"frame": {"x":669,"y":1236,"w":70,"h":70},
	"rotated": false,
	"trimmed": false,
	"spriteSourceSize": {"x":0,"y":0,"w":70,"h":70},
	"sourceSize": {"w":70,"h":70}
},
"glow_loop3_02":
{
	"frame": {"x":743,"y":1236,"w":70,"h":70},
	"rotated": false,
	"trimmed": false,
	"spriteSourceSize": {"x":0,"y":0,"w":70,"h":70},
	"sourceSize": {"w":70,"h":70}
},
"glow_loop3_03":
{
	"frame": {"x":817,"y":1265,"w":70,"h":70},
	"rotated": false,
	"trimmed": false,
	"spriteSourceSize": {"x":0,"y":0,"w":70,"h":70},
	"sourceSize": {"w":70,"h":70}
},
"glow_loop3_04":
{
	"frame": {"x":891,"y":1265,"w":70,"h":70},
	"rotated": false,
	"trimmed": false,
	"spriteSourceSize": {"x":0,"y":0,"w":70,"h":70},
	"sourceSize": {"w":70,"h":70}
},
"glow_loop3_05":
{
	"frame": {"x":3,"y":1951,"w":70,"h":70},
	"rotated": false,
	"trimmed": false,
	"spriteSourceSize": {"x":0,"y":0,"w":70,"h":70},
	"sourceSize": {"w":70,"h":70}
},
"glow_loop3_06":
{
	"frame": {"x":77,"y":1951,"w":70,"h":70},
	"rotated": false,
	"trimmed": false,
	"spriteSourceSize": {"x":0,"y":0,"w":70,"h":70},
	"sourceSize": {"w":70,"h":70}
},
"glow_loop3_07":
{
	"frame": {"x":210,"y":1642,"w":70,"h":70},
	"rotated": false,
	"trimmed": false,
	"spriteSourceSize": {"x":0,"y":0,"w":70,"h":70},
	"sourceSize": {"w":70,"h":70}
},
"glow_loop3_08":
{
	"frame": {"x":210,"y":1716,"w":70,"h":70},
	"rotated": false,
	"trimmed": false,
	"spriteSourceSize": {"x":0,"y":0,"w":70,"h":70},
	"sourceSize": {"w":70,"h":70}
},
"glow_loop3_09":
{
	"frame": {"x":210,"y":1790,"w":70,"h":70},
	"rotated": false,
	"trimmed": false,
	"spriteSourceSize": {"x":0,"y":0,"w":70,"h":70},
	"sourceSize": {"w":70,"h":70}
},
"glow_loop3_10":
{
	"frame": {"x":210,"y":1864,"w":70,"h":70},
	"rotated": false,
	"trimmed": false,
	"spriteSourceSize": {"x":0,"y":0,"w":70,"h":70},
	"sourceSize": {"w":70,"h":70}
},
"glow_loop3_11":
{
	"frame": {"x":220,"y":1938,"w":70,"h":70},
	"rotated": false,
	"trimmed": false,
	"spriteSourceSize": {"x":0,"y":0,"w":70,"h":70},
	"sourceSize": {"w":70,"h":70}
},
"glow_loop3_12":
{
	"frame": {"x":279,"y":1339,"w":70,"h":70},
	"rotated": false,
	"trimmed": false,
	"spriteSourceSize": {"x":0,"y":0,"w":70,"h":70},
	"sourceSize": {"w":70,"h":70}
},
"glow_loop3_13":
{
	"frame": {"x":279,"y":1413,"w":70,"h":70},
	"rotated": false,
	"trimmed": false,
	"spriteSourceSize": {"x":0,"y":0,"w":70,"h":70},
	"sourceSize": {"w":70,"h":70}
},
"glow_loop3_14":
{
	"frame": {"x":279,"y":1487,"w":70,"h":70},
	"rotated": false,
	"trimmed": false,
	"spriteSourceSize": {"x":0,"y":0,"w":70,"h":70},
	"sourceSize": {"w":70,"h":70}
},
"glow_loop3_15":
{
	"frame": {"x":279,"y":1561,"w":70,"h":70},
	"rotated": false,
	"trimmed": false,
	"spriteSourceSize": {"x":0,"y":0,"w":70,"h":70},
	"sourceSize": {"w":70,"h":70}
},
"glow_loop3_16":
{
	"frame": {"x":284,"y":1635,"w":70,"h":70},
	"rotated": false,
	"trimmed": false,
	"spriteSourceSize": {"x":0,"y":0,"w":70,"h":70},
	"sourceSize": {"w":70,"h":70}
},
"glow_loop3_17":
{
	"frame": {"x":284,"y":1709,"w":70,"h":70},
	"rotated": false,
	"trimmed": false,
	"spriteSourceSize": {"x":0,"y":0,"w":70,"h":70},
	"sourceSize": {"w":70,"h":70}
},
"glow_loop3_18":
{
	"frame": {"x":284,"y":1783,"w":70,"h":70},
	"rotated": false,
	"trimmed": false,
	"spriteSourceSize": {"x":0,"y":0,"w":70,"h":70},
	"sourceSize": {"w":70,"h":70}
},
"glow_loop3_19":
{
	"frame": {"x":284,"y":1857,"w":70,"h":70},
	"rotated": false,
	"trimmed": false,
	"spriteSourceSize": {"x":0,"y":0,"w":70,"h":70},
	"sourceSize": {"w":70,"h":70}
},
"glow_loop3_20":
{
	"frame": {"x":294,"y":1931,"w":70,"h":70},
	"rotated": false,
	"trimmed": false,
	"spriteSourceSize": {"x":0,"y":0,"w":70,"h":70},
	"sourceSize": {"w":70,"h":70}
},
"glow_loop3_21":
{
	"frame": {"x":353,"y":1339,"w":70,"h":70},
	"rotated": false,
	"trimmed": false,
	"spriteSourceSize": {"x":0,"y":0,"w":70,"h":70},
	"sourceSize": {"w":70,"h":70}
},
"glow_loop3_22":
{
	"frame": {"x":353,"y":1413,"w":70,"h":70},
	"rotated": false,
	"trimmed": false,
	"spriteSourceSize": {"x":0,"y":0,"w":70,"h":70},
	"sourceSize": {"w":70,"h":70}
},
"glow_loop3_23":
{
	"frame": {"x":353,"y":1487,"w":70,"h":70},
	"rotated": false,
	"trimmed": false,
	"spriteSourceSize": {"x":0,"y":0,"w":70,"h":70},
	"sourceSize": {"w":70,"h":70}
},
"glow_loop3_24":
{
	"frame": {"x":353,"y":1561,"w":70,"h":70},
	"rotated": false,
	"trimmed": false,
	"spriteSourceSize": {"x":0,"y":0,"w":70,"h":70},
	"sourceSize": {"w":70,"h":70}
},
"glow_loop3_25":
{
	"frame": {"x":358,"y":1635,"w":70,"h":70},
	"rotated": false,
	"trimmed": false,
	"spriteSourceSize": {"x":0,"y":0,"w":70,"h":70},
	"sourceSize": {"w":70,"h":70}
},
"glow_loop3_26":
{
	"frame": {"x":358,"y":1709,"w":70,"h":70},
	"rotated": false,
	"trimmed": false,
	"spriteSourceSize": {"x":0,"y":0,"w":70,"h":70},
	"sourceSize": {"w":70,"h":70}
},
"glow_loop3_27":
{
	"frame": {"x":358,"y":1783,"w":70,"h":70},
	"rotated": false,
	"trimmed": false,
	"spriteSourceSize": {"x":0,"y":0,"w":70,"h":70},
	"sourceSize": {"w":70,"h":70}
},
"glow_loop3_28":
{
	"frame": {"x":358,"y":1857,"w":70,"h":70},
	"rotated": false,
	"trimmed": false,
	"spriteSourceSize": {"x":0,"y":0,"w":70,"h":70},
	"sourceSize": {"w":70,"h":70}
},
"glow_loop3_29":
{
	"frame": {"x":368,"y":1931,"w":70,"h":70},
	"rotated": false,
	"trimmed": false,
	"spriteSourceSize": {"x":0,"y":0,"w":70,"h":70},
	"sourceSize": {"w":70,"h":70}
},
"glow_loop3_30":
{
	"frame": {"x":427,"y":1339,"w":70,"h":70},
	"rotated": false,
	"trimmed": false,
	"spriteSourceSize": {"x":0,"y":0,"w":70,"h":70},
	"sourceSize": {"w":70,"h":70}
},
"glow_loop3_31":
{
	"frame": {"x":427,"y":1413,"w":70,"h":70},
	"rotated": false,
	"trimmed": false,
	"spriteSourceSize": {"x":0,"y":0,"w":70,"h":70},
	"sourceSize": {"w":70,"h":70}
},
"glow_loop3_32":
{
	"frame": {"x":427,"y":1487,"w":70,"h":70},
	"rotated": false,
	"trimmed": false,
	"spriteSourceSize": {"x":0,"y":0,"w":70,"h":70},
	"sourceSize": {"w":70,"h":70}
},
"glow_loop3_33":
{
	"frame": {"x":427,"y":1561,"w":70,"h":70},
	"rotated": false,
	"trimmed": false,
	"spriteSourceSize": {"x":0,"y":0,"w":70,"h":70},
	"sourceSize": {"w":70,"h":70}
},
"glow_loop3_34":
{
	"frame": {"x":432,"y":1635,"w":70,"h":70},
	"rotated": false,
	"trimmed": false,
	"spriteSourceSize": {"x":0,"y":0,"w":70,"h":70},
	"sourceSize": {"w":70,"h":70}
},
"glow_loop3_35":
{
	"frame": {"x":432,"y":1709,"w":70,"h":70},
	"rotated": false,
	"trimmed": false,
	"spriteSourceSize": {"x":0,"y":0,"w":70,"h":70},
	"sourceSize": {"w":70,"h":70}
},
"glow_loop3_36":
{
	"frame": {"x":432,"y":1783,"w":70,"h":70},
	"rotated": false,
	"trimmed": false,
	"spriteSourceSize": {"x":0,"y":0,"w":70,"h":70},
	"sourceSize": {"w":70,"h":70}
},
"glow_loop3_37":
{
	"frame": {"x":432,"y":1857,"w":70,"h":70},
	"rotated": false,
	"trimmed": false,
	"spriteSourceSize": {"x":0,"y":0,"w":70,"h":70},
	"sourceSize": {"w":70,"h":70}
},
"glow_loop3_38":
{
	"frame": {"x":442,"y":1931,"w":70,"h":70},
	"rotated": false,
	"trimmed": false,
	"spriteSourceSize": {"x":0,"y":0,"w":70,"h":70},
	"sourceSize": {"w":70,"h":70}
},
"glow_loop3_39":
{
	"frame": {"x":501,"y":1339,"w":70,"h":70},
	"rotated": false,
	"trimmed": false,
	"spriteSourceSize": {"x":0,"y":0,"w":70,"h":70},
	"sourceSize": {"w":70,"h":70}
},
"glow_loop3_40":
{
	"frame": {"x":501,"y":1413,"w":70,"h":70},
	"rotated": false,
	"trimmed": false,
	"spriteSourceSize": {"x":0,"y":0,"w":70,"h":70},
	"sourceSize": {"w":70,"h":70}
},
"glow_loop3_41":
{
	"frame": {"x":501,"y":1487,"w":70,"h":70},
	"rotated": false,
	"trimmed": false,
	"spriteSourceSize": {"x":0,"y":0,"w":70,"h":70},
	"sourceSize": {"w":70,"h":70}
},
"glow_loop3_42":
{
	"frame": {"x":501,"y":1561,"w":70,"h":70},
	"rotated": false,
	"trimmed": false,
	"spriteSourceSize": {"x":0,"y":0,"w":70,"h":70},
	"sourceSize": {"w":70,"h":70}
},
"glow_loop3_43":
{
	"frame": {"x":575,"y":1310,"w":70,"h":70},
	"rotated": false,
	"trimmed": false,
	"spriteSourceSize": {"x":0,"y":0,"w":70,"h":70},
	"sourceSize": {"w":70,"h":70}
},
"glow_loop4_00":
{
	"frame": {"x":649,"y":1310,"w":70,"h":70},
	"rotated": false,
	"trimmed": false,
	"spriteSourceSize": {"x":0,"y":0,"w":70,"h":70},
	"sourceSize": {"w":70,"h":70}
},
"glow_loop4_01":
{
	"frame": {"x":723,"y":1310,"w":70,"h":70},
	"rotated": false,
	"trimmed": false,
	"spriteSourceSize": {"x":0,"y":0,"w":70,"h":70},
	"sourceSize": {"w":70,"h":70}
},
"glow_loop4_02":
{
	"frame": {"x":797,"y":1339,"w":70,"h":70},
	"rotated": false,
	"trimmed": false,
	"spriteSourceSize": {"x":0,"y":0,"w":70,"h":70},
	"sourceSize": {"w":70,"h":70}
},
"glow_loop4_03":
{
	"frame": {"x":871,"y":1339,"w":70,"h":70},
	"rotated": false,
	"trimmed": false,
	"spriteSourceSize": {"x":0,"y":0,"w":70,"h":70},
	"sourceSize": {"w":70,"h":70}
},
"glow_loop4_04":
{
	"frame": {"x":945,"y":1339,"w":70,"h":70},
	"rotated": false,
	"trimmed": false,
	"spriteSourceSize": {"x":0,"y":0,"w":70,"h":70},
	"sourceSize": {"w":70,"h":70}
},
"glow_loop4_05":
{
	"frame": {"x":575,"y":1384,"w":70,"h":70},
	"rotated": false,
	"trimmed": false,
	"spriteSourceSize": {"x":0,"y":0,"w":70,"h":70},
	"sourceSize": {"w":70,"h":70}
},
"glow_loop4_06":
{
	"frame": {"x":649,"y":1384,"w":70,"h":70},
	"rotated": false,
	"trimmed": false,
	"spriteSourceSize": {"x":0,"y":0,"w":70,"h":70},
	"sourceSize": {"w":70,"h":70}
},
"glow_loop4_07":
{
	"frame": {"x":723,"y":1384,"w":70,"h":70},
	"rotated": false,
	"trimmed": false,
	"spriteSourceSize": {"x":0,"y":0,"w":70,"h":70},
	"sourceSize": {"w":70,"h":70}
},
"glow_loop4_08":
{
	"frame": {"x":797,"y":1413,"w":70,"h":70},
	"rotated": false,
	"trimmed": false,
	"spriteSourceSize": {"x":0,"y":0,"w":70,"h":70},
	"sourceSize": {"w":70,"h":70}
},
"glow_loop4_09":
{
	"frame": {"x":871,"y":1413,"w":70,"h":70},
	"rotated": false,
	"trimmed": false,
	"spriteSourceSize": {"x":0,"y":0,"w":70,"h":70},
	"sourceSize": {"w":70,"h":70}
},
"glow_loop4_10":
{
	"frame": {"x":945,"y":1413,"w":70,"h":70},
	"rotated": false,
	"trimmed": false,
	"spriteSourceSize": {"x":0,"y":0,"w":70,"h":70},
	"sourceSize": {"w":70,"h":70}
},
"glow_loop4_11":
{
	"frame": {"x":575,"y":1458,"w":70,"h":70},
	"rotated": false,
	"trimmed": false,
	"spriteSourceSize": {"x":0,"y":0,"w":70,"h":70},
	"sourceSize": {"w":70,"h":70}
},
"glow_loop4_12":
{
	"frame": {"x":649,"y":1458,"w":70,"h":70},
	"rotated": false,
	"trimmed": false,
	"spriteSourceSize": {"x":0,"y":0,"w":70,"h":70},
	"sourceSize": {"w":70,"h":70}
},
"glow_loop4_13":
{
	"frame": {"x":723,"y":1458,"w":70,"h":70},
	"rotated": false,
	"trimmed": false,
	"spriteSourceSize": {"x":0,"y":0,"w":70,"h":70},
	"sourceSize": {"w":70,"h":70}
},
"glow_loop4_14":
{
	"frame": {"x":797,"y":1487,"w":70,"h":70},
	"rotated": false,
	"trimmed": false,
	"spriteSourceSize": {"x":0,"y":0,"w":70,"h":70},
	"sourceSize": {"w":70,"h":70}
},
"glow_loop4_15":
{
	"frame": {"x":871,"y":1487,"w":70,"h":70},
	"rotated": false,
	"trimmed": false,
	"spriteSourceSize": {"x":0,"y":0,"w":70,"h":70},
	"sourceSize": {"w":70,"h":70}
},
"glow_loop4_16":
{
	"frame": {"x":945,"y":1487,"w":70,"h":70},
	"rotated": false,
	"trimmed": false,
	"spriteSourceSize": {"x":0,"y":0,"w":70,"h":70},
	"sourceSize": {"w":70,"h":70}
},
"glow_loop4_17":
{
	"frame": {"x":575,"y":1532,"w":70,"h":70},
	"rotated": false,
	"trimmed": false,
	"spriteSourceSize": {"x":0,"y":0,"w":70,"h":70},
	"sourceSize": {"w":70,"h":70}
},
"glow_loop4_18":
{
	"frame": {"x":649,"y":1532,"w":70,"h":70},
	"rotated": false,
	"trimmed": false,
	"spriteSourceSize": {"x":0,"y":0,"w":70,"h":70},
	"sourceSize": {"w":70,"h":70}
},
"glow_loop4_19":
{
	"frame": {"x":723,"y":1532,"w":70,"h":70},
	"rotated": false,
	"trimmed": false,
	"spriteSourceSize": {"x":0,"y":0,"w":70,"h":70},
	"sourceSize": {"w":70,"h":70}
},
"glow_loop4_20":
{
	"frame": {"x":797,"y":1561,"w":70,"h":70},
	"rotated": false,
	"trimmed": false,
	"spriteSourceSize": {"x":0,"y":0,"w":70,"h":70},
	"sourceSize": {"w":70,"h":70}
},
"glow_loop4_21":
{
	"frame": {"x":871,"y":1561,"w":70,"h":70},
	"rotated": false,
	"trimmed": false,
	"spriteSourceSize": {"x":0,"y":0,"w":70,"h":70},
	"sourceSize": {"w":70,"h":70}
},
"glow_loop4_22":
{
	"frame": {"x":945,"y":1561,"w":70,"h":70},
	"rotated": false,
	"trimmed": false,
	"spriteSourceSize": {"x":0,"y":0,"w":70,"h":70},
	"sourceSize": {"w":70,"h":70}
},
"glow_loop4_23":
{
	"frame": {"x":575,"y":1606,"w":70,"h":70},
	"rotated": false,
	"trimmed": false,
	"spriteSourceSize": {"x":0,"y":0,"w":70,"h":70},
	"sourceSize": {"w":70,"h":70}
},
"glow_loop4_24":
{
	"frame": {"x":649,"y":1606,"w":70,"h":70},
	"rotated": false,
	"trimmed": false,
	"spriteSourceSize": {"x":0,"y":0,"w":70,"h":70},
	"sourceSize": {"w":70,"h":70}
},
"glow_loop4_25":
{
	"frame": {"x":723,"y":1606,"w":70,"h":70},
	"rotated": false,
	"trimmed": false,
	"spriteSourceSize": {"x":0,"y":0,"w":70,"h":70},
	"sourceSize": {"w":70,"h":70}
},
"glow_loop4_26":
{
	"frame": {"x":797,"y":1635,"w":70,"h":70},
	"rotated": false,
	"trimmed": false,
	"spriteSourceSize": {"x":0,"y":0,"w":70,"h":70},
	"sourceSize": {"w":70,"h":70}
},
"glow_loop4_27":
{
	"frame": {"x":871,"y":1635,"w":70,"h":70},
	"rotated": false,
	"trimmed": false,
	"spriteSourceSize": {"x":0,"y":0,"w":70,"h":70},
	"sourceSize": {"w":70,"h":70}
},
"glow_loop4_28":
{
	"frame": {"x":945,"y":1635,"w":70,"h":70},
	"rotated": false,
	"trimmed": false,
	"spriteSourceSize": {"x":0,"y":0,"w":70,"h":70},
	"sourceSize": {"w":70,"h":70}
},
"glow_loop4_29":
{
	"frame": {"x":506,"y":1709,"w":70,"h":70},
	"rotated": false,
	"trimmed": false,
	"spriteSourceSize": {"x":0,"y":0,"w":70,"h":70},
	"sourceSize": {"w":70,"h":70}
},
"glow_loop4_30":
{
	"frame": {"x":506,"y":1783,"w":70,"h":70},
	"rotated": false,
	"trimmed": false,
	"spriteSourceSize": {"x":0,"y":0,"w":70,"h":70},
	"sourceSize": {"w":70,"h":70}
},
"glow_loop4_31":
{
	"frame": {"x":506,"y":1857,"w":70,"h":70},
	"rotated": false,
	"trimmed": false,
	"spriteSourceSize": {"x":0,"y":0,"w":70,"h":70},
	"sourceSize": {"w":70,"h":70}
},
"glow_loop4_32":
{
	"frame": {"x":516,"y":1931,"w":70,"h":70},
	"rotated": false,
	"trimmed": false,
	"spriteSourceSize": {"x":0,"y":0,"w":70,"h":70},
	"sourceSize": {"w":70,"h":70}
},
"glow_loop4_33":
{
	"frame": {"x":590,"y":1680,"w":70,"h":70},
	"rotated": false,
	"trimmed": false,
	"spriteSourceSize": {"x":0,"y":0,"w":70,"h":70},
	"sourceSize": {"w":70,"h":70}
},
"glow_loop4_34":
{
	"frame": {"x":664,"y":1680,"w":70,"h":70},
	"rotated": false,
	"trimmed": false,
	"spriteSourceSize": {"x":0,"y":0,"w":70,"h":70},
	"sourceSize": {"w":70,"h":70}
},
"glow_loop4_35":
{
	"frame": {"x":580,"y":1754,"w":70,"h":70},
	"rotated": false,
	"trimmed": false,
	"spriteSourceSize": {"x":0,"y":0,"w":70,"h":70},
	"sourceSize": {"w":70,"h":70}
},
"glow_loop4_36":
{
	"frame": {"x":580,"y":1828,"w":70,"h":70},
	"rotated": false,
	"trimmed": false,
	"spriteSourceSize": {"x":0,"y":0,"w":70,"h":70},
	"sourceSize": {"w":70,"h":70}
},
"glow_loop4_37":
{
	"frame": {"x":590,"y":1902,"w":70,"h":70},
	"rotated": false,
	"trimmed": false,
	"spriteSourceSize": {"x":0,"y":0,"w":70,"h":70},
	"sourceSize": {"w":70,"h":70}
},
"glow_loop4_38":
{
	"frame": {"x":654,"y":1754,"w":70,"h":70},
	"rotated": false,
	"trimmed": false,
	"spriteSourceSize": {"x":0,"y":0,"w":70,"h":70},
	"sourceSize": {"w":70,"h":70}
},
"glow_loop4_39":
{
	"frame": {"x":654,"y":1828,"w":70,"h":70},
	"rotated": false,
	"trimmed": false,
	"spriteSourceSize": {"x":0,"y":0,"w":70,"h":70},
	"sourceSize": {"w":70,"h":70}
},
"glow_loop4_40":
{
	"frame": {"x":664,"y":1902,"w":70,"h":70},
	"rotated": false,
	"trimmed": false,
	"spriteSourceSize": {"x":0,"y":0,"w":70,"h":70},
	"sourceSize": {"w":70,"h":70}
},
"glow_loop4_41":
{
	"frame": {"x":728,"y":1754,"w":70,"h":70},
	"rotated": false,
	"trimmed": false,
	"spriteSourceSize": {"x":0,"y":0,"w":70,"h":70},
	"sourceSize": {"w":70,"h":70}
},
"glow_loop4_42":
{
	"frame": {"x":728,"y":1828,"w":70,"h":70},
	"rotated": false,
	"trimmed": false,
	"spriteSourceSize": {"x":0,"y":0,"w":70,"h":70},
	"sourceSize": {"w":70,"h":70}
},
"glow_loop4_43":
{
	"frame": {"x":738,"y":1902,"w":70,"h":70},
	"rotated": false,
	"trimmed": false,
	"spriteSourceSize": {"x":0,"y":0,"w":70,"h":70},
	"sourceSize": {"w":70,"h":70}
}},
"animations": {
	"ball_fx_loop2": ["ball_fx_loop2_00","ball_fx_loop2_01","ball_fx_loop2_02","ball_fx_loop2_03","ball_fx_loop2_04","ball_fx_loop2_05","ball_fx_loop2_06","ball_fx_loop2_07","ball_fx_loop2_08","ball_fx_loop2_09","ball_fx_loop2_10","ball_fx_loop2_11","ball_fx_loop2_12","ball_fx_loop2_13","ball_fx_loop2_14","ball_fx_loop2_15","ball_fx_loop2_16","ball_fx_loop2_17","ball_fx_loop2_18","ball_fx_loop2_19","ball_fx_loop2_20","ball_fx_loop2_21"],
	"ball_fx_loop3": ["ball_fx_loop3_00","ball_fx_loop3_01","ball_fx_loop3_02","ball_fx_loop3_03","ball_fx_loop3_04","ball_fx_loop3_05","ball_fx_loop3_06","ball_fx_loop3_07","ball_fx_loop3_08","ball_fx_loop3_09","ball_fx_loop3_10","ball_fx_loop3_11","ball_fx_loop3_12","ball_fx_loop3_13","ball_fx_loop3_14","ball_fx_loop3_15","ball_fx_loop3_16","ball_fx_loop3_17","ball_fx_loop3_18","ball_fx_loop3_19","ball_fx_loop3_20","ball_fx_loop3_21","ball_fx_loop3_22","ball_fx_loop3_23","ball_fx_loop3_24","ball_fx_loop3_25","ball_fx_loop3_26","ball_fx_loop3_27","ball_fx_loop3_28","ball_fx_loop3_29","ball_fx_loop3_30","ball_fx_loop3_31","ball_fx_loop3_32","ball_fx_loop3_33","ball_fx_loop3_34","ball_fx_loop3_35","ball_fx_loop3_36","ball_fx_loop3_37","ball_fx_loop3_38","ball_fx_loop3_39","ball_fx_loop3_40","ball_fx_loop3_41","ball_fx_loop3_42"],
	"ball_fx_loop4": ["ball_fx_loop4_00","ball_fx_loop4_01","ball_fx_loop4_02","ball_fx_loop4_03","ball_fx_loop4_04","ball_fx_loop4_05","ball_fx_loop4_06","ball_fx_loop4_07","ball_fx_loop4_08","ball_fx_loop4_09","ball_fx_loop4_10","ball_fx_loop4_11","ball_fx_loop4_12","ball_fx_loop4_13","ball_fx_loop4_14","ball_fx_loop4_15","ball_fx_loop4_16","ball_fx_loop4_17","ball_fx_loop4_18","ball_fx_loop4_19","ball_fx_loop4_20","ball_fx_loop4_21","ball_fx_loop4_22","ball_fx_loop4_23","ball_fx_loop4_24","ball_fx_loop4_25","ball_fx_loop4_26","ball_fx_loop4_27","ball_fx_loop4_28","ball_fx_loop4_29","ball_fx_loop4_30","ball_fx_loop4_31","ball_fx_loop4_32","ball_fx_loop4_33","ball_fx_loop4_34","ball_fx_loop4_35","ball_fx_loop4_36","ball_fx_loop4_37","ball_fx_loop4_38","ball_fx_loop4_39","ball_fx_loop4_40","ball_fx_loop4_41","ball_fx_loop4_42","ball_fx_loop4_43"],
	"glow_loop2": ["glow_loop2_00","glow_loop2_01","glow_loop2_02","glow_loop2_03","glow_loop2_04","glow_loop2_05","glow_loop2_06","glow_loop2_07","glow_loop2_08","glow_loop2_09","glow_loop2_10","glow_loop2_11","glow_loop2_12","glow_loop2_13","glow_loop2_14","glow_loop2_15","glow_loop2_16","glow_loop2_17","glow_loop2_18","glow_loop2_19","glow_loop2_20","glow_loop2_21","glow_loop2_22","glow_loop2_23","glow_loop2_24","glow_loop2_25","glow_loop2_26","glow_loop2_27","glow_loop2_28","glow_loop2_29","glow_loop2_30","glow_loop2_31","glow_loop2_32","glow_loop2_33","glow_loop2_34","glow_loop2_35","glow_loop2_36","glow_loop2_37","glow_loop2_38","glow_loop2_39","glow_loop2_40","glow_loop2_41","glow_loop2_42","glow_loop2_43"],
	"glow_loop3": ["glow_loop3_00","glow_loop3_01","glow_loop3_02","glow_loop3_03","glow_loop3_04","glow_loop3_05","glow_loop3_06","glow_loop3_07","glow_loop3_08","glow_loop3_09","glow_loop3_10","glow_loop3_11","glow_loop3_12","glow_loop3_13","glow_loop3_14","glow_loop3_15","glow_loop3_16","glow_loop3_17","glow_loop3_18","glow_loop3_19","glow_loop3_20","glow_loop3_21","glow_loop3_22","glow_loop3_23","glow_loop3_24","glow_loop3_25","glow_loop3_26","glow_loop3_27","glow_loop3_28","glow_loop3_29","glow_loop3_30","glow_loop3_31","glow_loop3_32","glow_loop3_33","glow_loop3_34","glow_loop3_35","glow_loop3_36","glow_loop3_37","glow_loop3_38","glow_loop3_39","glow_loop3_40","glow_loop3_41","glow_loop3_42","glow_loop3_43"],
	"glow_loop4": ["glow_loop4_00","glow_loop4_01","glow_loop4_02","glow_loop4_03","glow_loop4_04","glow_loop4_05","glow_loop4_06","glow_loop4_07","glow_loop4_08","glow_loop4_09","glow_loop4_10","glow_loop4_11","glow_loop4_12","glow_loop4_13","glow_loop4_14","glow_loop4_15","glow_loop4_16","glow_loop4_17","glow_loop4_18","glow_loop4_19","glow_loop4_20","glow_loop4_21","glow_loop4_22","glow_loop4_23","glow_loop4_24","glow_loop4_25","glow_loop4_26","glow_loop4_27","glow_loop4_28","glow_loop4_29","glow_loop4_30","glow_loop4_31","glow_loop4_32","glow_loop4_33","glow_loop4_34","glow_loop4_35","glow_loop4_36","glow_loop4_37","glow_loop4_38","glow_loop4_39","glow_loop4_40","glow_loop4_41","glow_loop4_42","glow_loop4_43"]
},
"meta": {
	"app": "https://www.codeandweb.com/texturepacker",
	"version": "1.0",
	"image": "fwp_ballAnims.png",
	"format": "RGBA8888",
	"size": {"w":1024,"h":2048},
	"scale": "0.5",
	"smartupdate": "$TexturePacker:SmartUpdate:2a794bc4772c7b2e9d5f5f0a2c088c70:3b6e9f26d4400be85637517f81945ba7:46c2e62b049094e712c70a2c4ba92ad6$"
}
}
