{"frames": {

"ball_fx_loop2_00":
{
	"frame": {"x":1766,"y":2191,"w":130,"h":193},
	"rotated": false,
	"trimmed": false,
	"spriteSourceSize": {"x":0,"y":0,"w":130,"h":193},
	"sourceSize": {"w":130,"h":193}
},
"ball_fx_loop2_01":
{
	"frame": {"x":3,"y":2622,"w":130,"h":193},
	"rotated": false,
	"trimmed": false,
	"spriteSourceSize": {"x":0,"y":0,"w":130,"h":193},
	"sourceSize": {"w":130,"h":193}
},
"ball_fx_loop2_02":
{
	"frame": {"x":3,"y":2819,"w":130,"h":193},
	"rotated": false,
	"trimmed": false,
	"spriteSourceSize": {"x":0,"y":0,"w":130,"h":193},
	"sourceSize": {"w":130,"h":193}
},
"ball_fx_loop2_03":
{
	"frame": {"x":3,"y":3016,"w":130,"h":193},
	"rotated": false,
	"trimmed": false,
	"spriteSourceSize": {"x":0,"y":0,"w":130,"h":193},
	"sourceSize": {"w":130,"h":193}
},
"ball_fx_loop2_04":
{
	"frame": {"x":3,"y":3213,"w":130,"h":193},
	"rotated": false,
	"trimmed": false,
	"spriteSourceSize": {"x":0,"y":0,"w":130,"h":193},
	"sourceSize": {"w":130,"h":193}
},
"ball_fx_loop2_05":
{
	"frame": {"x":3,"y":3410,"w":130,"h":193},
	"rotated": false,
	"trimmed": false,
	"spriteSourceSize": {"x":0,"y":0,"w":130,"h":193},
	"sourceSize": {"w":130,"h":193}
},
"ball_fx_loop2_06":
{
	"frame": {"x":3,"y":3607,"w":130,"h":193},
	"rotated": false,
	"trimmed": false,
	"spriteSourceSize": {"x":0,"y":0,"w":130,"h":193},
	"sourceSize": {"w":130,"h":193}
},
"ball_fx_loop2_07":
{
	"frame": {"x":3,"y":3804,"w":130,"h":193},
	"rotated": false,
	"trimmed": false,
	"spriteSourceSize": {"x":0,"y":0,"w":130,"h":193},
	"sourceSize": {"w":130,"h":193}
},
"ball_fx_loop2_08":
{
	"frame": {"x":137,"y":2622,"w":130,"h":193},
	"rotated": false,
	"trimmed": false,
	"spriteSourceSize": {"x":0,"y":0,"w":130,"h":193},
	"sourceSize": {"w":130,"h":193}
},
"ball_fx_loop2_09":
{
	"frame": {"x":137,"y":2819,"w":130,"h":193},
	"rotated": false,
	"trimmed": false,
	"spriteSourceSize": {"x":0,"y":0,"w":130,"h":193},
	"sourceSize": {"w":130,"h":193}
},
"ball_fx_loop2_10":
{
	"frame": {"x":137,"y":3016,"w":130,"h":193},
	"rotated": false,
	"trimmed": false,
	"spriteSourceSize": {"x":0,"y":0,"w":130,"h":193},
	"sourceSize": {"w":130,"h":193}
},
"ball_fx_loop2_11":
{
	"frame": {"x":137,"y":3213,"w":130,"h":193},
	"rotated": false,
	"trimmed": false,
	"spriteSourceSize": {"x":0,"y":0,"w":130,"h":193},
	"sourceSize": {"w":130,"h":193}
},
"ball_fx_loop2_12":
{
	"frame": {"x":137,"y":3410,"w":130,"h":193},
	"rotated": false,
	"trimmed": false,
	"spriteSourceSize": {"x":0,"y":0,"w":130,"h":193},
	"sourceSize": {"w":130,"h":193}
},
"ball_fx_loop2_13":
{
	"frame": {"x":137,"y":3607,"w":130,"h":193},
	"rotated": false,
	"trimmed": false,
	"spriteSourceSize": {"x":0,"y":0,"w":130,"h":193},
	"sourceSize": {"w":130,"h":193}
},
"ball_fx_loop2_14":
{
	"frame": {"x":137,"y":3804,"w":130,"h":193},
	"rotated": false,
	"trimmed": false,
	"spriteSourceSize": {"x":0,"y":0,"w":130,"h":193},
	"sourceSize": {"w":130,"h":193}
},
"ball_fx_loop2_15":
{
	"frame": {"x":271,"y":2765,"w":130,"h":193},
	"rotated": false,
	"trimmed": false,
	"spriteSourceSize": {"x":0,"y":0,"w":130,"h":193},
	"sourceSize": {"w":130,"h":193}
},
"ball_fx_loop2_16":
{
	"frame": {"x":271,"y":2962,"w":130,"h":193},
	"rotated": false,
	"trimmed": false,
	"spriteSourceSize": {"x":0,"y":0,"w":130,"h":193},
	"sourceSize": {"w":130,"h":193}
},
"ball_fx_loop2_17":
{
	"frame": {"x":271,"y":3159,"w":130,"h":193},
	"rotated": false,
	"trimmed": false,
	"spriteSourceSize": {"x":0,"y":0,"w":130,"h":193},
	"sourceSize": {"w":130,"h":193}
},
"ball_fx_loop2_18":
{
	"frame": {"x":271,"y":3356,"w":130,"h":193},
	"rotated": false,
	"trimmed": false,
	"spriteSourceSize": {"x":0,"y":0,"w":130,"h":193},
	"sourceSize": {"w":130,"h":193}
},
"ball_fx_loop2_19":
{
	"frame": {"x":271,"y":3553,"w":130,"h":193},
	"rotated": false,
	"trimmed": false,
	"spriteSourceSize": {"x":0,"y":0,"w":130,"h":193},
	"sourceSize": {"w":130,"h":193}
},
"ball_fx_loop2_20":
{
	"frame": {"x":271,"y":3750,"w":130,"h":193},
	"rotated": false,
	"trimmed": false,
	"spriteSourceSize": {"x":0,"y":0,"w":130,"h":193},
	"sourceSize": {"w":130,"h":193}
},
"ball_fx_loop2_21":
{
	"frame": {"x":405,"y":2765,"w":130,"h":193},
	"rotated": false,
	"trimmed": false,
	"spriteSourceSize": {"x":0,"y":0,"w":130,"h":193},
	"sourceSize": {"w":130,"h":193}
},
"ball_fx_loop3_00":
{
	"frame": {"x":1739,"y":907,"w":186,"h":210},
	"rotated": false,
	"trimmed": false,
	"spriteSourceSize": {"x":0,"y":0,"w":186,"h":210},
	"sourceSize": {"w":186,"h":210}
},
"ball_fx_loop3_01":
{
	"frame": {"x":1739,"y":1121,"w":186,"h":210},
	"rotated": false,
	"trimmed": false,
	"spriteSourceSize": {"x":0,"y":0,"w":186,"h":210},
	"sourceSize": {"w":186,"h":210}
},
"ball_fx_loop3_02":
{
	"frame": {"x":3,"y":1133,"w":186,"h":210},
	"rotated": false,
	"trimmed": false,
	"spriteSourceSize": {"x":0,"y":0,"w":186,"h":210},
	"sourceSize": {"w":186,"h":210}
},
"ball_fx_loop3_03":
{
	"frame": {"x":193,"y":1133,"w":186,"h":210},
	"rotated": false,
	"trimmed": false,
	"spriteSourceSize": {"x":0,"y":0,"w":186,"h":210},
	"sourceSize": {"w":186,"h":210}
},
"ball_fx_loop3_04":
{
	"frame": {"x":383,"y":1133,"w":186,"h":210},
	"rotated": false,
	"trimmed": false,
	"spriteSourceSize": {"x":0,"y":0,"w":186,"h":210},
	"sourceSize": {"w":186,"h":210}
},
"ball_fx_loop3_05":
{
	"frame": {"x":573,"y":1133,"w":186,"h":210},
	"rotated": false,
	"trimmed": false,
	"spriteSourceSize": {"x":0,"y":0,"w":186,"h":210},
	"sourceSize": {"w":186,"h":210}
},
"ball_fx_loop3_06":
{
	"frame": {"x":763,"y":1133,"w":186,"h":210},
	"rotated": false,
	"trimmed": false,
	"spriteSourceSize": {"x":0,"y":0,"w":186,"h":210},
	"sourceSize": {"w":186,"h":210}
},
"ball_fx_loop3_07":
{
	"frame": {"x":953,"y":1133,"w":186,"h":210},
	"rotated": false,
	"trimmed": false,
	"spriteSourceSize": {"x":0,"y":0,"w":186,"h":210},
	"sourceSize": {"w":186,"h":210}
},
"ball_fx_loop3_08":
{
	"frame": {"x":1143,"y":1133,"w":186,"h":210},
	"rotated": false,
	"trimmed": false,
	"spriteSourceSize": {"x":0,"y":0,"w":186,"h":210},
	"sourceSize": {"w":186,"h":210}
},
"ball_fx_loop3_09":
{
	"frame": {"x":1333,"y":1133,"w":186,"h":210},
	"rotated": false,
	"trimmed": false,
	"spriteSourceSize": {"x":0,"y":0,"w":186,"h":210},
	"sourceSize": {"w":186,"h":210}
},
"ball_fx_loop3_10":
{
	"frame": {"x":1523,"y":1133,"w":186,"h":210},
	"rotated": false,
	"trimmed": false,
	"spriteSourceSize": {"x":0,"y":0,"w":186,"h":210},
	"sourceSize": {"w":186,"h":210}
},
"ball_fx_loop3_11":
{
	"frame": {"x":1713,"y":1335,"w":186,"h":210},
	"rotated": false,
	"trimmed": false,
	"spriteSourceSize": {"x":0,"y":0,"w":186,"h":210},
	"sourceSize": {"w":186,"h":210}
},
"ball_fx_loop3_12":
{
	"frame": {"x":3,"y":1347,"w":186,"h":210},
	"rotated": false,
	"trimmed": false,
	"spriteSourceSize": {"x":0,"y":0,"w":186,"h":210},
	"sourceSize": {"w":186,"h":210}
},
"ball_fx_loop3_13":
{
	"frame": {"x":193,"y":1347,"w":186,"h":210},
	"rotated": false,
	"trimmed": false,
	"spriteSourceSize": {"x":0,"y":0,"w":186,"h":210},
	"sourceSize": {"w":186,"h":210}
},
"ball_fx_loop3_14":
{
	"frame": {"x":383,"y":1347,"w":186,"h":210},
	"rotated": false,
	"trimmed": false,
	"spriteSourceSize": {"x":0,"y":0,"w":186,"h":210},
	"sourceSize": {"w":186,"h":210}
},
"ball_fx_loop3_15":
{
	"frame": {"x":573,"y":1347,"w":186,"h":210},
	"rotated": false,
	"trimmed": false,
	"spriteSourceSize": {"x":0,"y":0,"w":186,"h":210},
	"sourceSize": {"w":186,"h":210}
},
"ball_fx_loop3_16":
{
	"frame": {"x":763,"y":1347,"w":186,"h":210},
	"rotated": false,
	"trimmed": false,
	"spriteSourceSize": {"x":0,"y":0,"w":186,"h":210},
	"sourceSize": {"w":186,"h":210}
},
"ball_fx_loop3_17":
{
	"frame": {"x":953,"y":1347,"w":186,"h":210},
	"rotated": false,
	"trimmed": false,
	"spriteSourceSize": {"x":0,"y":0,"w":186,"h":210},
	"sourceSize": {"w":186,"h":210}
},
"ball_fx_loop3_18":
{
	"frame": {"x":1143,"y":1347,"w":186,"h":210},
	"rotated": false,
	"trimmed": false,
	"spriteSourceSize": {"x":0,"y":0,"w":186,"h":210},
	"sourceSize": {"w":186,"h":210}
},
"ball_fx_loop3_19":
{
	"frame": {"x":1333,"y":1347,"w":186,"h":210},
	"rotated": false,
	"trimmed": false,
	"spriteSourceSize": {"x":0,"y":0,"w":186,"h":210},
	"sourceSize": {"w":186,"h":210}
},
"ball_fx_loop3_20":
{
	"frame": {"x":1523,"y":1347,"w":186,"h":210},
	"rotated": false,
	"trimmed": false,
	"spriteSourceSize": {"x":0,"y":0,"w":186,"h":210},
	"sourceSize": {"w":186,"h":210}
},
"ball_fx_loop3_21":
{
	"frame": {"x":1713,"y":1549,"w":186,"h":210},
	"rotated": false,
	"trimmed": false,
	"spriteSourceSize": {"x":0,"y":0,"w":186,"h":210},
	"sourceSize": {"w":186,"h":210}
},
"ball_fx_loop3_22":
{
	"frame": {"x":3,"y":1561,"w":186,"h":210},
	"rotated": false,
	"trimmed": false,
	"spriteSourceSize": {"x":0,"y":0,"w":186,"h":210},
	"sourceSize": {"w":186,"h":210}
},
"ball_fx_loop3_23":
{
	"frame": {"x":193,"y":1561,"w":186,"h":210},
	"rotated": false,
	"trimmed": false,
	"spriteSourceSize": {"x":0,"y":0,"w":186,"h":210},
	"sourceSize": {"w":186,"h":210}
},
"ball_fx_loop3_24":
{
	"frame": {"x":383,"y":1561,"w":186,"h":210},
	"rotated": false,
	"trimmed": false,
	"spriteSourceSize": {"x":0,"y":0,"w":186,"h":210},
	"sourceSize": {"w":186,"h":210}
},
"ball_fx_loop3_25":
{
	"frame": {"x":573,"y":1561,"w":186,"h":210},
	"rotated": false,
	"trimmed": false,
	"spriteSourceSize": {"x":0,"y":0,"w":186,"h":210},
	"sourceSize": {"w":186,"h":210}
},
"ball_fx_loop3_26":
{
	"frame": {"x":763,"y":1561,"w":186,"h":210},
	"rotated": false,
	"trimmed": false,
	"spriteSourceSize": {"x":0,"y":0,"w":186,"h":210},
	"sourceSize": {"w":186,"h":210}
},
"ball_fx_loop3_27":
{
	"frame": {"x":953,"y":1561,"w":186,"h":210},
	"rotated": false,
	"trimmed": false,
	"spriteSourceSize": {"x":0,"y":0,"w":186,"h":210},
	"sourceSize": {"w":186,"h":210}
},
"ball_fx_loop3_28":
{
	"frame": {"x":1143,"y":1561,"w":186,"h":210},
	"rotated": false,
	"trimmed": false,
	"spriteSourceSize": {"x":0,"y":0,"w":186,"h":210},
	"sourceSize": {"w":186,"h":210}
},
"ball_fx_loop3_29":
{
	"frame": {"x":1333,"y":1561,"w":186,"h":210},
	"rotated": false,
	"trimmed": false,
	"spriteSourceSize": {"x":0,"y":0,"w":186,"h":210},
	"sourceSize": {"w":186,"h":210}
},
"ball_fx_loop3_30":
{
	"frame": {"x":1523,"y":1561,"w":186,"h":210},
	"rotated": false,
	"trimmed": false,
	"spriteSourceSize": {"x":0,"y":0,"w":186,"h":210},
	"sourceSize": {"w":186,"h":210}
},
"ball_fx_loop3_31":
{
	"frame": {"x":1713,"y":1763,"w":186,"h":210},
	"rotated": false,
	"trimmed": false,
	"spriteSourceSize": {"x":0,"y":0,"w":186,"h":210},
	"sourceSize": {"w":186,"h":210}
},
"ball_fx_loop3_32":
{
	"frame": {"x":3,"y":1775,"w":186,"h":210},
	"rotated": false,
	"trimmed": false,
	"spriteSourceSize": {"x":0,"y":0,"w":186,"h":210},
	"sourceSize": {"w":186,"h":210}
},
"ball_fx_loop3_33":
{
	"frame": {"x":193,"y":1775,"w":186,"h":210},
	"rotated": false,
	"trimmed": false,
	"spriteSourceSize": {"x":0,"y":0,"w":186,"h":210},
	"sourceSize": {"w":186,"h":210}
},
"ball_fx_loop3_34":
{
	"frame": {"x":383,"y":1775,"w":186,"h":210},
	"rotated": false,
	"trimmed": false,
	"spriteSourceSize": {"x":0,"y":0,"w":186,"h":210},
	"sourceSize": {"w":186,"h":210}
},
"ball_fx_loop3_35":
{
	"frame": {"x":573,"y":1775,"w":186,"h":210},
	"rotated": false,
	"trimmed": false,
	"spriteSourceSize": {"x":0,"y":0,"w":186,"h":210},
	"sourceSize": {"w":186,"h":210}
},
"ball_fx_loop3_36":
{
	"frame": {"x":763,"y":1775,"w":186,"h":210},
	"rotated": false,
	"trimmed": false,
	"spriteSourceSize": {"x":0,"y":0,"w":186,"h":210},
	"sourceSize": {"w":186,"h":210}
},
"ball_fx_loop3_37":
{
	"frame": {"x":953,"y":1775,"w":186,"h":210},
	"rotated": false,
	"trimmed": false,
	"spriteSourceSize": {"x":0,"y":0,"w":186,"h":210},
	"sourceSize": {"w":186,"h":210}
},
"ball_fx_loop3_38":
{
	"frame": {"x":1143,"y":1775,"w":186,"h":210},
	"rotated": false,
	"trimmed": false,
	"spriteSourceSize": {"x":0,"y":0,"w":186,"h":210},
	"sourceSize": {"w":186,"h":210}
},
"ball_fx_loop3_39":
{
	"frame": {"x":1333,"y":1775,"w":186,"h":210},
	"rotated": false,
	"trimmed": false,
	"spriteSourceSize": {"x":0,"y":0,"w":186,"h":210},
	"sourceSize": {"w":186,"h":210}
},
"ball_fx_loop3_40":
{
	"frame": {"x":1523,"y":1775,"w":186,"h":210},
	"rotated": false,
	"trimmed": false,
	"spriteSourceSize": {"x":0,"y":0,"w":186,"h":210},
	"sourceSize": {"w":186,"h":210}
},
"ball_fx_loop3_41":
{
	"frame": {"x":1713,"y":1977,"w":186,"h":210},
	"rotated": false,
	"trimmed": false,
	"spriteSourceSize": {"x":0,"y":0,"w":186,"h":210},
	"sourceSize": {"w":186,"h":210}
},
"ball_fx_loop3_42":
{
	"frame": {"x":3,"y":1989,"w":186,"h":210},
	"rotated": false,
	"trimmed": false,
	"spriteSourceSize": {"x":0,"y":0,"w":186,"h":210},
	"sourceSize": {"w":186,"h":210}
},
"ball_fx_loop4_00":
{
	"frame": {"x":3,"y":3,"w":213,"h":222},
	"rotated": false,
	"trimmed": false,
	"spriteSourceSize": {"x":0,"y":0,"w":213,"h":222},
	"sourceSize": {"w":213,"h":222}
},
"ball_fx_loop4_01":
{
	"frame": {"x":220,"y":3,"w":213,"h":222},
	"rotated": false,
	"trimmed": false,
	"spriteSourceSize": {"x":0,"y":0,"w":213,"h":222},
	"sourceSize": {"w":213,"h":222}
},
"ball_fx_loop4_02":
{
	"frame": {"x":437,"y":3,"w":213,"h":222},
	"rotated": false,
	"trimmed": false,
	"spriteSourceSize": {"x":0,"y":0,"w":213,"h":222},
	"sourceSize": {"w":213,"h":222}
},
"ball_fx_loop4_03":
{
	"frame": {"x":654,"y":3,"w":213,"h":222},
	"rotated": false,
	"trimmed": false,
	"spriteSourceSize": {"x":0,"y":0,"w":213,"h":222},
	"sourceSize": {"w":213,"h":222}
},
"ball_fx_loop4_04":
{
	"frame": {"x":871,"y":3,"w":213,"h":222},
	"rotated": false,
	"trimmed": false,
	"spriteSourceSize": {"x":0,"y":0,"w":213,"h":222},
	"sourceSize": {"w":213,"h":222}
},
"ball_fx_loop4_05":
{
	"frame": {"x":1088,"y":3,"w":213,"h":222},
	"rotated": false,
	"trimmed": false,
	"spriteSourceSize": {"x":0,"y":0,"w":213,"h":222},
	"sourceSize": {"w":213,"h":222}
},
"ball_fx_loop4_06":
{
	"frame": {"x":1305,"y":3,"w":213,"h":222},
	"rotated": false,
	"trimmed": false,
	"spriteSourceSize": {"x":0,"y":0,"w":213,"h":222},
	"sourceSize": {"w":213,"h":222}
},
"ball_fx_loop4_07":
{
	"frame": {"x":1522,"y":3,"w":213,"h":222},
	"rotated": false,
	"trimmed": false,
	"spriteSourceSize": {"x":0,"y":0,"w":213,"h":222},
	"sourceSize": {"w":213,"h":222}
},
"ball_fx_loop4_08":
{
	"frame": {"x":1739,"y":3,"w":213,"h":222},
	"rotated": false,
	"trimmed": false,
	"spriteSourceSize": {"x":0,"y":0,"w":213,"h":222},
	"sourceSize": {"w":213,"h":222}
},
"ball_fx_loop4_09":
{
	"frame": {"x":3,"y":229,"w":213,"h":222},
	"rotated": false,
	"trimmed": false,
	"spriteSourceSize": {"x":0,"y":0,"w":213,"h":222},
	"sourceSize": {"w":213,"h":222}
},
"ball_fx_loop4_10":
{
	"frame": {"x":220,"y":229,"w":213,"h":222},
	"rotated": false,
	"trimmed": false,
	"spriteSourceSize": {"x":0,"y":0,"w":213,"h":222},
	"sourceSize": {"w":213,"h":222}
},
"ball_fx_loop4_11":
{
	"frame": {"x":437,"y":229,"w":213,"h":222},
	"rotated": false,
	"trimmed": false,
	"spriteSourceSize": {"x":0,"y":0,"w":213,"h":222},
	"sourceSize": {"w":213,"h":222}
},
"ball_fx_loop4_12":
{
	"frame": {"x":654,"y":229,"w":213,"h":222},
	"rotated": false,
	"trimmed": false,
	"spriteSourceSize": {"x":0,"y":0,"w":213,"h":222},
	"sourceSize": {"w":213,"h":222}
},
"ball_fx_loop4_13":
{
	"frame": {"x":871,"y":229,"w":213,"h":222},
	"rotated": false,
	"trimmed": false,
	"spriteSourceSize": {"x":0,"y":0,"w":213,"h":222},
	"sourceSize": {"w":213,"h":222}
},
"ball_fx_loop4_14":
{
	"frame": {"x":1088,"y":229,"w":213,"h":222},
	"rotated": false,
	"trimmed": false,
	"spriteSourceSize": {"x":0,"y":0,"w":213,"h":222},
	"sourceSize": {"w":213,"h":222}
},
"ball_fx_loop4_15":
{
	"frame": {"x":1305,"y":229,"w":213,"h":222},
	"rotated": false,
	"trimmed": false,
	"spriteSourceSize": {"x":0,"y":0,"w":213,"h":222},
	"sourceSize": {"w":213,"h":222}
},
"ball_fx_loop4_16":
{
	"frame": {"x":1522,"y":229,"w":213,"h":222},
	"rotated": false,
	"trimmed": false,
	"spriteSourceSize": {"x":0,"y":0,"w":213,"h":222},
	"sourceSize": {"w":213,"h":222}
},
"ball_fx_loop4_17":
{
	"frame": {"x":1739,"y":229,"w":213,"h":222},
	"rotated": false,
	"trimmed": false,
	"spriteSourceSize": {"x":0,"y":0,"w":213,"h":222},
	"sourceSize": {"w":213,"h":222}
},
"ball_fx_loop4_18":
{
	"frame": {"x":3,"y":455,"w":213,"h":222},
	"rotated": false,
	"trimmed": false,
	"spriteSourceSize": {"x":0,"y":0,"w":213,"h":222},
	"sourceSize": {"w":213,"h":222}
},
"ball_fx_loop4_19":
{
	"frame": {"x":220,"y":455,"w":213,"h":222},
	"rotated": false,
	"trimmed": false,
	"spriteSourceSize": {"x":0,"y":0,"w":213,"h":222},
	"sourceSize": {"w":213,"h":222}
},
"ball_fx_loop4_20":
{
	"frame": {"x":437,"y":455,"w":213,"h":222},
	"rotated": false,
	"trimmed": false,
	"spriteSourceSize": {"x":0,"y":0,"w":213,"h":222},
	"sourceSize": {"w":213,"h":222}
},
"ball_fx_loop4_21":
{
	"frame": {"x":654,"y":455,"w":213,"h":222},
	"rotated": false,
	"trimmed": false,
	"spriteSourceSize": {"x":0,"y":0,"w":213,"h":222},
	"sourceSize": {"w":213,"h":222}
},
"ball_fx_loop4_22":
{
	"frame": {"x":871,"y":455,"w":213,"h":222},
	"rotated": false,
	"trimmed": false,
	"spriteSourceSize": {"x":0,"y":0,"w":213,"h":222},
	"sourceSize": {"w":213,"h":222}
},
"ball_fx_loop4_23":
{
	"frame": {"x":1088,"y":455,"w":213,"h":222},
	"rotated": false,
	"trimmed": false,
	"spriteSourceSize": {"x":0,"y":0,"w":213,"h":222},
	"sourceSize": {"w":213,"h":222}
},
"ball_fx_loop4_24":
{
	"frame": {"x":1305,"y":455,"w":213,"h":222},
	"rotated": false,
	"trimmed": false,
	"spriteSourceSize": {"x":0,"y":0,"w":213,"h":222},
	"sourceSize": {"w":213,"h":222}
},
"ball_fx_loop4_25":
{
	"frame": {"x":1522,"y":455,"w":213,"h":222},
	"rotated": false,
	"trimmed": false,
	"spriteSourceSize": {"x":0,"y":0,"w":213,"h":222},
	"sourceSize": {"w":213,"h":222}
},
"ball_fx_loop4_26":
{
	"frame": {"x":1739,"y":455,"w":213,"h":222},
	"rotated": false,
	"trimmed": false,
	"spriteSourceSize": {"x":0,"y":0,"w":213,"h":222},
	"sourceSize": {"w":213,"h":222}
},
"ball_fx_loop4_27":
{
	"frame": {"x":3,"y":681,"w":213,"h":222},
	"rotated": false,
	"trimmed": false,
	"spriteSourceSize": {"x":0,"y":0,"w":213,"h":222},
	"sourceSize": {"w":213,"h":222}
},
"ball_fx_loop4_28":
{
	"frame": {"x":220,"y":681,"w":213,"h":222},
	"rotated": false,
	"trimmed": false,
	"spriteSourceSize": {"x":0,"y":0,"w":213,"h":222},
	"sourceSize": {"w":213,"h":222}
},
"ball_fx_loop4_29":
{
	"frame": {"x":437,"y":681,"w":213,"h":222},
	"rotated": false,
	"trimmed": false,
	"spriteSourceSize": {"x":0,"y":0,"w":213,"h":222},
	"sourceSize": {"w":213,"h":222}
},
"ball_fx_loop4_30":
{
	"frame": {"x":654,"y":681,"w":213,"h":222},
	"rotated": false,
	"trimmed": false,
	"spriteSourceSize": {"x":0,"y":0,"w":213,"h":222},
	"sourceSize": {"w":213,"h":222}
},
"ball_fx_loop4_31":
{
	"frame": {"x":871,"y":681,"w":213,"h":222},
	"rotated": false,
	"trimmed": false,
	"spriteSourceSize": {"x":0,"y":0,"w":213,"h":222},
	"sourceSize": {"w":213,"h":222}
},
"ball_fx_loop4_32":
{
	"frame": {"x":1088,"y":681,"w":213,"h":222},
	"rotated": false,
	"trimmed": false,
	"spriteSourceSize": {"x":0,"y":0,"w":213,"h":222},
	"sourceSize": {"w":213,"h":222}
},
"ball_fx_loop4_33":
{
	"frame": {"x":1305,"y":681,"w":213,"h":222},
	"rotated": false,
	"trimmed": false,
	"spriteSourceSize": {"x":0,"y":0,"w":213,"h":222},
	"sourceSize": {"w":213,"h":222}
},
"ball_fx_loop4_34":
{
	"frame": {"x":1522,"y":681,"w":213,"h":222},
	"rotated": false,
	"trimmed": false,
	"spriteSourceSize": {"x":0,"y":0,"w":213,"h":222},
	"sourceSize": {"w":213,"h":222}
},
"ball_fx_loop4_35":
{
	"frame": {"x":1739,"y":681,"w":213,"h":222},
	"rotated": false,
	"trimmed": false,
	"spriteSourceSize": {"x":0,"y":0,"w":213,"h":222},
	"sourceSize": {"w":213,"h":222}
},
"ball_fx_loop4_36":
{
	"frame": {"x":3,"y":907,"w":213,"h":222},
	"rotated": false,
	"trimmed": false,
	"spriteSourceSize": {"x":0,"y":0,"w":213,"h":222},
	"sourceSize": {"w":213,"h":222}
},
"ball_fx_loop4_37":
{
	"frame": {"x":220,"y":907,"w":213,"h":222},
	"rotated": false,
	"trimmed": false,
	"spriteSourceSize": {"x":0,"y":0,"w":213,"h":222},
	"sourceSize": {"w":213,"h":222}
},
"ball_fx_loop4_38":
{
	"frame": {"x":437,"y":907,"w":213,"h":222},
	"rotated": false,
	"trimmed": false,
	"spriteSourceSize": {"x":0,"y":0,"w":213,"h":222},
	"sourceSize": {"w":213,"h":222}
},
"ball_fx_loop4_39":
{
	"frame": {"x":654,"y":907,"w":213,"h":222},
	"rotated": false,
	"trimmed": false,
	"spriteSourceSize": {"x":0,"y":0,"w":213,"h":222},
	"sourceSize": {"w":213,"h":222}
},
"ball_fx_loop4_40":
{
	"frame": {"x":871,"y":907,"w":213,"h":222},
	"rotated": false,
	"trimmed": false,
	"spriteSourceSize": {"x":0,"y":0,"w":213,"h":222},
	"sourceSize": {"w":213,"h":222}
},
"ball_fx_loop4_41":
{
	"frame": {"x":1088,"y":907,"w":213,"h":222},
	"rotated": false,
	"trimmed": false,
	"spriteSourceSize": {"x":0,"y":0,"w":213,"h":222},
	"sourceSize": {"w":213,"h":222}
},
"ball_fx_loop4_42":
{
	"frame": {"x":1305,"y":907,"w":213,"h":222},
	"rotated": false,
	"trimmed": false,
	"spriteSourceSize": {"x":0,"y":0,"w":213,"h":222},
	"sourceSize": {"w":213,"h":222}
},
"ball_fx_loop4_43":
{
	"frame": {"x":1522,"y":907,"w":213,"h":222},
	"rotated": false,
	"trimmed": false,
	"spriteSourceSize": {"x":0,"y":0,"w":213,"h":222},
	"sourceSize": {"w":213,"h":222}
},
"glow_loop2_00":
{
	"frame": {"x":1903,"y":1335,"w":139,"h":139},
	"rotated": false,
	"trimmed": false,
	"spriteSourceSize": {"x":0,"y":0,"w":139,"h":139},
	"sourceSize": {"w":139,"h":139}
},
"glow_loop2_01":
{
	"frame": {"x":1903,"y":1478,"w":139,"h":139},
	"rotated": false,
	"trimmed": false,
	"spriteSourceSize": {"x":0,"y":0,"w":139,"h":139},
	"sourceSize": {"w":139,"h":139}
},
"glow_loop2_02":
{
	"frame": {"x":1903,"y":1621,"w":139,"h":139},
	"rotated": false,
	"trimmed": false,
	"spriteSourceSize": {"x":0,"y":0,"w":139,"h":139},
	"sourceSize": {"w":139,"h":139}
},
"glow_loop2_03":
{
	"frame": {"x":1903,"y":1764,"w":139,"h":139},
	"rotated": false,
	"trimmed": false,
	"spriteSourceSize": {"x":0,"y":0,"w":139,"h":139},
	"sourceSize": {"w":139,"h":139}
},
"glow_loop2_04":
{
	"frame": {"x":1903,"y":1907,"w":139,"h":139},
	"rotated": false,
	"trimmed": false,
	"spriteSourceSize": {"x":0,"y":0,"w":139,"h":139},
	"sourceSize": {"w":139,"h":139}
},
"glow_loop2_05":
{
	"frame": {"x":1903,"y":2050,"w":139,"h":139},
	"rotated": false,
	"trimmed": false,
	"spriteSourceSize": {"x":0,"y":0,"w":139,"h":139},
	"sourceSize": {"w":139,"h":139}
},
"glow_loop2_06":
{
	"frame": {"x":193,"y":1989,"w":139,"h":139},
	"rotated": false,
	"trimmed": false,
	"spriteSourceSize": {"x":0,"y":0,"w":139,"h":139},
	"sourceSize": {"w":139,"h":139}
},
"glow_loop2_07":
{
	"frame": {"x":336,"y":1989,"w":139,"h":139},
	"rotated": false,
	"trimmed": false,
	"spriteSourceSize": {"x":0,"y":0,"w":139,"h":139},
	"sourceSize": {"w":139,"h":139}
},
"glow_loop2_08":
{
	"frame": {"x":479,"y":1989,"w":139,"h":139},
	"rotated": false,
	"trimmed": false,
	"spriteSourceSize": {"x":0,"y":0,"w":139,"h":139},
	"sourceSize": {"w":139,"h":139}
},
"glow_loop2_09":
{
	"frame": {"x":622,"y":1989,"w":139,"h":139},
	"rotated": false,
	"trimmed": false,
	"spriteSourceSize": {"x":0,"y":0,"w":139,"h":139},
	"sourceSize": {"w":139,"h":139}
},
"glow_loop2_10":
{
	"frame": {"x":765,"y":1989,"w":139,"h":139},
	"rotated": false,
	"trimmed": false,
	"spriteSourceSize": {"x":0,"y":0,"w":139,"h":139},
	"sourceSize": {"w":139,"h":139}
},
"glow_loop2_11":
{
	"frame": {"x":908,"y":1989,"w":139,"h":139},
	"rotated": false,
	"trimmed": false,
	"spriteSourceSize": {"x":0,"y":0,"w":139,"h":139},
	"sourceSize": {"w":139,"h":139}
},
"glow_loop2_12":
{
	"frame": {"x":1051,"y":1989,"w":139,"h":139},
	"rotated": false,
	"trimmed": false,
	"spriteSourceSize": {"x":0,"y":0,"w":139,"h":139},
	"sourceSize": {"w":139,"h":139}
},
"glow_loop2_13":
{
	"frame": {"x":1194,"y":1989,"w":139,"h":139},
	"rotated": false,
	"trimmed": false,
	"spriteSourceSize": {"x":0,"y":0,"w":139,"h":139},
	"sourceSize": {"w":139,"h":139}
},
"glow_loop2_14":
{
	"frame": {"x":1337,"y":1989,"w":139,"h":139},
	"rotated": false,
	"trimmed": false,
	"spriteSourceSize": {"x":0,"y":0,"w":139,"h":139},
	"sourceSize": {"w":139,"h":139}
},
"glow_loop2_15":
{
	"frame": {"x":1480,"y":1989,"w":139,"h":139},
	"rotated": false,
	"trimmed": false,
	"spriteSourceSize": {"x":0,"y":0,"w":139,"h":139},
	"sourceSize": {"w":139,"h":139}
},
"glow_loop2_16":
{
	"frame": {"x":193,"y":2132,"w":139,"h":139},
	"rotated": false,
	"trimmed": false,
	"spriteSourceSize": {"x":0,"y":0,"w":139,"h":139},
	"sourceSize": {"w":139,"h":139}
},
"glow_loop2_17":
{
	"frame": {"x":3,"y":2203,"w":139,"h":139},
	"rotated": false,
	"trimmed": false,
	"spriteSourceSize": {"x":0,"y":0,"w":139,"h":139},
	"sourceSize": {"w":139,"h":139}
},
"glow_loop2_18":
{
	"frame": {"x":336,"y":2132,"w":139,"h":139},
	"rotated": false,
	"trimmed": false,
	"spriteSourceSize": {"x":0,"y":0,"w":139,"h":139},
	"sourceSize": {"w":139,"h":139}
},
"glow_loop2_19":
{
	"frame": {"x":479,"y":2132,"w":139,"h":139},
	"rotated": false,
	"trimmed": false,
	"spriteSourceSize": {"x":0,"y":0,"w":139,"h":139},
	"sourceSize": {"w":139,"h":139}
},
"glow_loop2_20":
{
	"frame": {"x":622,"y":2132,"w":139,"h":139},
	"rotated": false,
	"trimmed": false,
	"spriteSourceSize": {"x":0,"y":0,"w":139,"h":139},
	"sourceSize": {"w":139,"h":139}
},
"glow_loop2_21":
{
	"frame": {"x":765,"y":2132,"w":139,"h":139},
	"rotated": false,
	"trimmed": false,
	"spriteSourceSize": {"x":0,"y":0,"w":139,"h":139},
	"sourceSize": {"w":139,"h":139}
},
"glow_loop2_22":
{
	"frame": {"x":908,"y":2132,"w":139,"h":139},
	"rotated": false,
	"trimmed": false,
	"spriteSourceSize": {"x":0,"y":0,"w":139,"h":139},
	"sourceSize": {"w":139,"h":139}
},
"glow_loop2_23":
{
	"frame": {"x":1051,"y":2132,"w":139,"h":139},
	"rotated": false,
	"trimmed": false,
	"spriteSourceSize": {"x":0,"y":0,"w":139,"h":139},
	"sourceSize": {"w":139,"h":139}
},
"glow_loop2_24":
{
	"frame": {"x":1194,"y":2132,"w":139,"h":139},
	"rotated": false,
	"trimmed": false,
	"spriteSourceSize": {"x":0,"y":0,"w":139,"h":139},
	"sourceSize": {"w":139,"h":139}
},
"glow_loop2_25":
{
	"frame": {"x":1337,"y":2132,"w":139,"h":139},
	"rotated": false,
	"trimmed": false,
	"spriteSourceSize": {"x":0,"y":0,"w":139,"h":139},
	"sourceSize": {"w":139,"h":139}
},
"glow_loop2_26":
{
	"frame": {"x":1480,"y":2132,"w":139,"h":139},
	"rotated": false,
	"trimmed": false,
	"spriteSourceSize": {"x":0,"y":0,"w":139,"h":139},
	"sourceSize": {"w":139,"h":139}
},
"glow_loop2_27":
{
	"frame": {"x":1623,"y":2191,"w":139,"h":139},
	"rotated": false,
	"trimmed": false,
	"spriteSourceSize": {"x":0,"y":0,"w":139,"h":139},
	"sourceSize": {"w":139,"h":139}
},
"glow_loop2_28":
{
	"frame": {"x":1900,"y":2193,"w":139,"h":139},
	"rotated": false,
	"trimmed": false,
	"spriteSourceSize": {"x":0,"y":0,"w":139,"h":139},
	"sourceSize": {"w":139,"h":139}
},
"glow_loop2_29":
{
	"frame": {"x":1900,"y":2336,"w":139,"h":139},
	"rotated": false,
	"trimmed": false,
	"spriteSourceSize": {"x":0,"y":0,"w":139,"h":139},
	"sourceSize": {"w":139,"h":139}
},
"glow_loop2_30":
{
	"frame": {"x":146,"y":2275,"w":139,"h":139},
	"rotated": false,
	"trimmed": false,
	"spriteSourceSize": {"x":0,"y":0,"w":139,"h":139},
	"sourceSize": {"w":139,"h":139}
},
"glow_loop2_31":
{
	"frame": {"x":3,"y":2346,"w":139,"h":139},
	"rotated": false,
	"trimmed": false,
	"spriteSourceSize": {"x":0,"y":0,"w":139,"h":139},
	"sourceSize": {"w":139,"h":139}
},
"glow_loop2_32":
{
	"frame": {"x":289,"y":2275,"w":139,"h":139},
	"rotated": false,
	"trimmed": false,
	"spriteSourceSize": {"x":0,"y":0,"w":139,"h":139},
	"sourceSize": {"w":139,"h":139}
},
"glow_loop2_33":
{
	"frame": {"x":432,"y":2275,"w":139,"h":139},
	"rotated": false,
	"trimmed": false,
	"spriteSourceSize": {"x":0,"y":0,"w":139,"h":139},
	"sourceSize": {"w":139,"h":139}
},
"glow_loop2_34":
{
	"frame": {"x":575,"y":2275,"w":139,"h":139},
	"rotated": false,
	"trimmed": false,
	"spriteSourceSize": {"x":0,"y":0,"w":139,"h":139},
	"sourceSize": {"w":139,"h":139}
},
"glow_loop2_35":
{
	"frame": {"x":718,"y":2275,"w":139,"h":139},
	"rotated": false,
	"trimmed": false,
	"spriteSourceSize": {"x":0,"y":0,"w":139,"h":139},
	"sourceSize": {"w":139,"h":139}
},
"glow_loop2_36":
{
	"frame": {"x":861,"y":2275,"w":139,"h":139},
	"rotated": false,
	"trimmed": false,
	"spriteSourceSize": {"x":0,"y":0,"w":139,"h":139},
	"sourceSize": {"w":139,"h":139}
},
"glow_loop2_37":
{
	"frame": {"x":1004,"y":2275,"w":139,"h":139},
	"rotated": false,
	"trimmed": false,
	"spriteSourceSize": {"x":0,"y":0,"w":139,"h":139},
	"sourceSize": {"w":139,"h":139}
},
"glow_loop2_38":
{
	"frame": {"x":1147,"y":2275,"w":139,"h":139},
	"rotated": false,
	"trimmed": false,
	"spriteSourceSize": {"x":0,"y":0,"w":139,"h":139},
	"sourceSize": {"w":139,"h":139}
},
"glow_loop2_39":
{
	"frame": {"x":1290,"y":2275,"w":139,"h":139},
	"rotated": false,
	"trimmed": false,
	"spriteSourceSize": {"x":0,"y":0,"w":139,"h":139},
	"sourceSize": {"w":139,"h":139}
},
"glow_loop2_40":
{
	"frame": {"x":1433,"y":2275,"w":139,"h":139},
	"rotated": false,
	"trimmed": false,
	"spriteSourceSize": {"x":0,"y":0,"w":139,"h":139},
	"sourceSize": {"w":139,"h":139}
},
"glow_loop2_41":
{
	"frame": {"x":1576,"y":2334,"w":139,"h":139},
	"rotated": false,
	"trimmed": false,
	"spriteSourceSize": {"x":0,"y":0,"w":139,"h":139},
	"sourceSize": {"w":139,"h":139}
},
"glow_loop2_42":
{
	"frame": {"x":1719,"y":2388,"w":139,"h":139},
	"rotated": false,
	"trimmed": false,
	"spriteSourceSize": {"x":0,"y":0,"w":139,"h":139},
	"sourceSize": {"w":139,"h":139}
},
"glow_loop2_43":
{
	"frame": {"x":1862,"y":2479,"w":139,"h":139},
	"rotated": false,
	"trimmed": false,
	"spriteSourceSize": {"x":0,"y":0,"w":139,"h":139},
	"sourceSize": {"w":139,"h":139}
},
"glow_loop3_00":
{
	"frame": {"x":146,"y":2477,"w":139,"h":139},
	"rotated": false,
	"trimmed": false,
	"spriteSourceSize": {"x":0,"y":0,"w":139,"h":139},
	"sourceSize": {"w":139,"h":139}
},
"glow_loop3_01":
{
	"frame": {"x":289,"y":2418,"w":139,"h":139},
	"rotated": false,
	"trimmed": false,
	"spriteSourceSize": {"x":0,"y":0,"w":139,"h":139},
	"sourceSize": {"w":139,"h":139}
},
"glow_loop3_02":
{
	"frame": {"x":432,"y":2418,"w":139,"h":139},
	"rotated": false,
	"trimmed": false,
	"spriteSourceSize": {"x":0,"y":0,"w":139,"h":139},
	"sourceSize": {"w":139,"h":139}
},
"glow_loop3_03":
{
	"frame": {"x":575,"y":2418,"w":139,"h":139},
	"rotated": false,
	"trimmed": false,
	"spriteSourceSize": {"x":0,"y":0,"w":139,"h":139},
	"sourceSize": {"w":139,"h":139}
},
"glow_loop3_04":
{
	"frame": {"x":718,"y":2418,"w":139,"h":139},
	"rotated": false,
	"trimmed": false,
	"spriteSourceSize": {"x":0,"y":0,"w":139,"h":139},
	"sourceSize": {"w":139,"h":139}
},
"glow_loop3_05":
{
	"frame": {"x":861,"y":2418,"w":139,"h":139},
	"rotated": false,
	"trimmed": false,
	"spriteSourceSize": {"x":0,"y":0,"w":139,"h":139},
	"sourceSize": {"w":139,"h":139}
},
"glow_loop3_06":
{
	"frame": {"x":1004,"y":2418,"w":139,"h":139},
	"rotated": false,
	"trimmed": false,
	"spriteSourceSize": {"x":0,"y":0,"w":139,"h":139},
	"sourceSize": {"w":139,"h":139}
},
"glow_loop3_07":
{
	"frame": {"x":1147,"y":2418,"w":139,"h":139},
	"rotated": false,
	"trimmed": false,
	"spriteSourceSize": {"x":0,"y":0,"w":139,"h":139},
	"sourceSize": {"w":139,"h":139}
},
"glow_loop3_08":
{
	"frame": {"x":1290,"y":2418,"w":139,"h":139},
	"rotated": false,
	"trimmed": false,
	"spriteSourceSize": {"x":0,"y":0,"w":139,"h":139},
	"sourceSize": {"w":139,"h":139}
},
"glow_loop3_09":
{
	"frame": {"x":1433,"y":2418,"w":139,"h":139},
	"rotated": false,
	"trimmed": false,
	"spriteSourceSize": {"x":0,"y":0,"w":139,"h":139},
	"sourceSize": {"w":139,"h":139}
},
"glow_loop3_10":
{
	"frame": {"x":1576,"y":2477,"w":139,"h":139},
	"rotated": false,
	"trimmed": false,
	"spriteSourceSize": {"x":0,"y":0,"w":139,"h":139},
	"sourceSize": {"w":139,"h":139}
},
"glow_loop3_11":
{
	"frame": {"x":1719,"y":2531,"w":139,"h":139},
	"rotated": false,
	"trimmed": false,
	"spriteSourceSize": {"x":0,"y":0,"w":139,"h":139},
	"sourceSize": {"w":139,"h":139}
},
"glow_loop3_12":
{
	"frame": {"x":1862,"y":2622,"w":139,"h":139},
	"rotated": false,
	"trimmed": false,
	"spriteSourceSize": {"x":0,"y":0,"w":139,"h":139},
	"sourceSize": {"w":139,"h":139}
},
"glow_loop3_13":
{
	"frame": {"x":271,"y":2620,"w":139,"h":139},
	"rotated": false,
	"trimmed": false,
	"spriteSourceSize": {"x":0,"y":0,"w":139,"h":139},
	"sourceSize": {"w":139,"h":139}
},
"glow_loop3_14":
{
	"frame": {"x":271,"y":3947,"w":139,"h":139},
	"rotated": false,
	"trimmed": false,
	"spriteSourceSize": {"x":0,"y":0,"w":139,"h":139},
	"sourceSize": {"w":139,"h":139}
},
"glow_loop3_15":
{
	"frame": {"x":414,"y":2620,"w":139,"h":139},
	"rotated": false,
	"trimmed": false,
	"spriteSourceSize": {"x":0,"y":0,"w":139,"h":139},
	"sourceSize": {"w":139,"h":139}
},
"glow_loop3_16":
{
	"frame": {"x":405,"y":2962,"w":139,"h":139},
	"rotated": false,
	"trimmed": false,
	"spriteSourceSize": {"x":0,"y":0,"w":139,"h":139},
	"sourceSize": {"w":139,"h":139}
},
"glow_loop3_17":
{
	"frame": {"x":539,"y":2765,"w":139,"h":139},
	"rotated": false,
	"trimmed": false,
	"spriteSourceSize": {"x":0,"y":0,"w":139,"h":139},
	"sourceSize": {"w":139,"h":139}
},
"glow_loop3_18":
{
	"frame": {"x":557,"y":2620,"w":139,"h":139},
	"rotated": false,
	"trimmed": false,
	"spriteSourceSize": {"x":0,"y":0,"w":139,"h":139},
	"sourceSize": {"w":139,"h":139}
},
"glow_loop3_19":
{
	"frame": {"x":405,"y":3105,"w":139,"h":139},
	"rotated": false,
	"trimmed": false,
	"spriteSourceSize": {"x":0,"y":0,"w":139,"h":139},
	"sourceSize": {"w":139,"h":139}
},
"glow_loop3_20":
{
	"frame": {"x":405,"y":3248,"w":139,"h":139},
	"rotated": false,
	"trimmed": false,
	"spriteSourceSize": {"x":0,"y":0,"w":139,"h":139},
	"sourceSize": {"w":139,"h":139}
},
"glow_loop3_21":
{
	"frame": {"x":405,"y":3391,"w":139,"h":139},
	"rotated": false,
	"trimmed": false,
	"spriteSourceSize": {"x":0,"y":0,"w":139,"h":139},
	"sourceSize": {"w":139,"h":139}
},
"glow_loop3_22":
{
	"frame": {"x":405,"y":3534,"w":139,"h":139},
	"rotated": false,
	"trimmed": false,
	"spriteSourceSize": {"x":0,"y":0,"w":139,"h":139},
	"sourceSize": {"w":139,"h":139}
},
"glow_loop3_23":
{
	"frame": {"x":405,"y":3677,"w":139,"h":139},
	"rotated": false,
	"trimmed": false,
	"spriteSourceSize": {"x":0,"y":0,"w":139,"h":139},
	"sourceSize": {"w":139,"h":139}
},
"glow_loop3_24":
{
	"frame": {"x":414,"y":3820,"w":139,"h":139},
	"rotated": false,
	"trimmed": false,
	"spriteSourceSize": {"x":0,"y":0,"w":139,"h":139},
	"sourceSize": {"w":139,"h":139}
},
"glow_loop3_25":
{
	"frame": {"x":700,"y":2561,"w":139,"h":139},
	"rotated": false,
	"trimmed": false,
	"spriteSourceSize": {"x":0,"y":0,"w":139,"h":139},
	"sourceSize": {"w":139,"h":139}
},
"glow_loop3_26":
{
	"frame": {"x":843,"y":2561,"w":139,"h":139},
	"rotated": false,
	"trimmed": false,
	"spriteSourceSize": {"x":0,"y":0,"w":139,"h":139},
	"sourceSize": {"w":139,"h":139}
},
"glow_loop3_27":
{
	"frame": {"x":986,"y":2561,"w":139,"h":139},
	"rotated": false,
	"trimmed": false,
	"spriteSourceSize": {"x":0,"y":0,"w":139,"h":139},
	"sourceSize": {"w":139,"h":139}
},
"glow_loop3_28":
{
	"frame": {"x":1129,"y":2561,"w":139,"h":139},
	"rotated": false,
	"trimmed": false,
	"spriteSourceSize": {"x":0,"y":0,"w":139,"h":139},
	"sourceSize": {"w":139,"h":139}
},
"glow_loop3_29":
{
	"frame": {"x":1272,"y":2561,"w":139,"h":139},
	"rotated": false,
	"trimmed": false,
	"spriteSourceSize": {"x":0,"y":0,"w":139,"h":139},
	"sourceSize": {"w":139,"h":139}
},
"glow_loop3_30":
{
	"frame": {"x":1415,"y":2561,"w":139,"h":139},
	"rotated": false,
	"trimmed": false,
	"spriteSourceSize": {"x":0,"y":0,"w":139,"h":139},
	"sourceSize": {"w":139,"h":139}
},
"glow_loop3_31":
{
	"frame": {"x":1558,"y":2620,"w":139,"h":139},
	"rotated": false,
	"trimmed": false,
	"spriteSourceSize": {"x":0,"y":0,"w":139,"h":139},
	"sourceSize": {"w":139,"h":139}
},
"glow_loop3_32":
{
	"frame": {"x":1701,"y":2674,"w":139,"h":139},
	"rotated": false,
	"trimmed": false,
	"spriteSourceSize": {"x":0,"y":0,"w":139,"h":139},
	"sourceSize": {"w":139,"h":139}
},
"glow_loop3_33":
{
	"frame": {"x":1844,"y":2765,"w":139,"h":139},
	"rotated": false,
	"trimmed": false,
	"spriteSourceSize": {"x":0,"y":0,"w":139,"h":139},
	"sourceSize": {"w":139,"h":139}
},
"glow_loop3_34":
{
	"frame": {"x":700,"y":2704,"w":139,"h":139},
	"rotated": false,
	"trimmed": false,
	"spriteSourceSize": {"x":0,"y":0,"w":139,"h":139},
	"sourceSize": {"w":139,"h":139}
},
"glow_loop3_35":
{
	"frame": {"x":843,"y":2704,"w":139,"h":139},
	"rotated": false,
	"trimmed": false,
	"spriteSourceSize": {"x":0,"y":0,"w":139,"h":139},
	"sourceSize": {"w":139,"h":139}
},
"glow_loop3_36":
{
	"frame": {"x":986,"y":2704,"w":139,"h":139},
	"rotated": false,
	"trimmed": false,
	"spriteSourceSize": {"x":0,"y":0,"w":139,"h":139},
	"sourceSize": {"w":139,"h":139}
},
"glow_loop3_37":
{
	"frame": {"x":1129,"y":2704,"w":139,"h":139},
	"rotated": false,
	"trimmed": false,
	"spriteSourceSize": {"x":0,"y":0,"w":139,"h":139},
	"sourceSize": {"w":139,"h":139}
},
"glow_loop3_38":
{
	"frame": {"x":1272,"y":2704,"w":139,"h":139},
	"rotated": false,
	"trimmed": false,
	"spriteSourceSize": {"x":0,"y":0,"w":139,"h":139},
	"sourceSize": {"w":139,"h":139}
},
"glow_loop3_39":
{
	"frame": {"x":1415,"y":2704,"w":139,"h":139},
	"rotated": false,
	"trimmed": false,
	"spriteSourceSize": {"x":0,"y":0,"w":139,"h":139},
	"sourceSize": {"w":139,"h":139}
},
"glow_loop3_40":
{
	"frame": {"x":1558,"y":2763,"w":139,"h":139},
	"rotated": false,
	"trimmed": false,
	"spriteSourceSize": {"x":0,"y":0,"w":139,"h":139},
	"sourceSize": {"w":139,"h":139}
},
"glow_loop3_41":
{
	"frame": {"x":1701,"y":2817,"w":139,"h":139},
	"rotated": false,
	"trimmed": false,
	"spriteSourceSize": {"x":0,"y":0,"w":139,"h":139},
	"sourceSize": {"w":139,"h":139}
},
"glow_loop3_42":
{
	"frame": {"x":1844,"y":2908,"w":139,"h":139},
	"rotated": false,
	"trimmed": false,
	"spriteSourceSize": {"x":0,"y":0,"w":139,"h":139},
	"sourceSize": {"w":139,"h":139}
},
"glow_loop3_43":
{
	"frame": {"x":548,"y":3051,"w":139,"h":139},
	"rotated": false,
	"trimmed": false,
	"spriteSourceSize": {"x":0,"y":0,"w":139,"h":139},
	"sourceSize": {"w":139,"h":139}
},
"glow_loop4_00":
{
	"frame": {"x":548,"y":2908,"w":139,"h":139},
	"rotated": false,
	"trimmed": false,
	"spriteSourceSize": {"x":0,"y":0,"w":139,"h":139},
	"sourceSize": {"w":139,"h":139}
},
"glow_loop4_01":
{
	"frame": {"x":548,"y":3194,"w":139,"h":139},
	"rotated": false,
	"trimmed": false,
	"spriteSourceSize": {"x":0,"y":0,"w":139,"h":139},
	"sourceSize": {"w":139,"h":139}
},
"glow_loop4_02":
{
	"frame": {"x":548,"y":3337,"w":139,"h":139},
	"rotated": false,
	"trimmed": false,
	"spriteSourceSize": {"x":0,"y":0,"w":139,"h":139},
	"sourceSize": {"w":139,"h":139}
},
"glow_loop4_03":
{
	"frame": {"x":548,"y":3480,"w":139,"h":139},
	"rotated": false,
	"trimmed": false,
	"spriteSourceSize": {"x":0,"y":0,"w":139,"h":139},
	"sourceSize": {"w":139,"h":139}
},
"glow_loop4_04":
{
	"frame": {"x":548,"y":3623,"w":139,"h":139},
	"rotated": false,
	"trimmed": false,
	"spriteSourceSize": {"x":0,"y":0,"w":139,"h":139},
	"sourceSize": {"w":139,"h":139}
},
"glow_loop4_05":
{
	"frame": {"x":557,"y":3766,"w":139,"h":139},
	"rotated": false,
	"trimmed": false,
	"spriteSourceSize": {"x":0,"y":0,"w":139,"h":139},
	"sourceSize": {"w":139,"h":139}
},
"glow_loop4_06":
{
	"frame": {"x":557,"y":3909,"w":139,"h":139},
	"rotated": false,
	"trimmed": false,
	"spriteSourceSize": {"x":0,"y":0,"w":139,"h":139},
	"sourceSize": {"w":139,"h":139}
},
"glow_loop4_07":
{
	"frame": {"x":691,"y":3051,"w":139,"h":139},
	"rotated": false,
	"trimmed": false,
	"spriteSourceSize": {"x":0,"y":0,"w":139,"h":139},
	"sourceSize": {"w":139,"h":139}
},
"glow_loop4_08":
{
	"frame": {"x":691,"y":2906,"w":139,"h":139},
	"rotated": false,
	"trimmed": false,
	"spriteSourceSize": {"x":0,"y":0,"w":139,"h":139},
	"sourceSize": {"w":139,"h":139}
},
"glow_loop4_09":
{
	"frame": {"x":691,"y":3194,"w":139,"h":139},
	"rotated": false,
	"trimmed": false,
	"spriteSourceSize": {"x":0,"y":0,"w":139,"h":139},
	"sourceSize": {"w":139,"h":139}
},
"glow_loop4_10":
{
	"frame": {"x":691,"y":3337,"w":139,"h":139},
	"rotated": false,
	"trimmed": false,
	"spriteSourceSize": {"x":0,"y":0,"w":139,"h":139},
	"sourceSize": {"w":139,"h":139}
},
"glow_loop4_11":
{
	"frame": {"x":691,"y":3480,"w":139,"h":139},
	"rotated": false,
	"trimmed": false,
	"spriteSourceSize": {"x":0,"y":0,"w":139,"h":139},
	"sourceSize": {"w":139,"h":139}
},
"glow_loop4_12":
{
	"frame": {"x":691,"y":3623,"w":139,"h":139},
	"rotated": false,
	"trimmed": false,
	"spriteSourceSize": {"x":0,"y":0,"w":139,"h":139},
	"sourceSize": {"w":139,"h":139}
},
"glow_loop4_13":
{
	"frame": {"x":700,"y":3766,"w":139,"h":139},
	"rotated": false,
	"trimmed": false,
	"spriteSourceSize": {"x":0,"y":0,"w":139,"h":139},
	"sourceSize": {"w":139,"h":139}
},
"glow_loop4_14":
{
	"frame": {"x":700,"y":3909,"w":139,"h":139},
	"rotated": false,
	"trimmed": false,
	"spriteSourceSize": {"x":0,"y":0,"w":139,"h":139},
	"sourceSize": {"w":139,"h":139}
},
"glow_loop4_15":
{
	"frame": {"x":834,"y":3051,"w":139,"h":139},
	"rotated": false,
	"trimmed": false,
	"spriteSourceSize": {"x":0,"y":0,"w":139,"h":139},
	"sourceSize": {"w":139,"h":139}
},
"glow_loop4_16":
{
	"frame": {"x":834,"y":2906,"w":139,"h":139},
	"rotated": false,
	"trimmed": false,
	"spriteSourceSize": {"x":0,"y":0,"w":139,"h":139},
	"sourceSize": {"w":139,"h":139}
},
"glow_loop4_17":
{
	"frame": {"x":834,"y":3194,"w":139,"h":139},
	"rotated": false,
	"trimmed": false,
	"spriteSourceSize": {"x":0,"y":0,"w":139,"h":139},
	"sourceSize": {"w":139,"h":139}
},
"glow_loop4_18":
{
	"frame": {"x":834,"y":3337,"w":139,"h":139},
	"rotated": false,
	"trimmed": false,
	"spriteSourceSize": {"x":0,"y":0,"w":139,"h":139},
	"sourceSize": {"w":139,"h":139}
},
"glow_loop4_19":
{
	"frame": {"x":834,"y":3480,"w":139,"h":139},
	"rotated": false,
	"trimmed": false,
	"spriteSourceSize": {"x":0,"y":0,"w":139,"h":139},
	"sourceSize": {"w":139,"h":139}
},
"glow_loop4_20":
{
	"frame": {"x":834,"y":3623,"w":139,"h":139},
	"rotated": false,
	"trimmed": false,
	"spriteSourceSize": {"x":0,"y":0,"w":139,"h":139},
	"sourceSize": {"w":139,"h":139}
},
"glow_loop4_21":
{
	"frame": {"x":843,"y":3766,"w":139,"h":139},
	"rotated": false,
	"trimmed": false,
	"spriteSourceSize": {"x":0,"y":0,"w":139,"h":139},
	"sourceSize": {"w":139,"h":139}
},
"glow_loop4_22":
{
	"frame": {"x":843,"y":3909,"w":139,"h":139},
	"rotated": false,
	"trimmed": false,
	"spriteSourceSize": {"x":0,"y":0,"w":139,"h":139},
	"sourceSize": {"w":139,"h":139}
},
"glow_loop4_23":
{
	"frame": {"x":986,"y":2847,"w":139,"h":139},
	"rotated": false,
	"trimmed": false,
	"spriteSourceSize": {"x":0,"y":0,"w":139,"h":139},
	"sourceSize": {"w":139,"h":139}
},
"glow_loop4_24":
{
	"frame": {"x":1129,"y":2847,"w":139,"h":139},
	"rotated": false,
	"trimmed": false,
	"spriteSourceSize": {"x":0,"y":0,"w":139,"h":139},
	"sourceSize": {"w":139,"h":139}
},
"glow_loop4_25":
{
	"frame": {"x":1272,"y":2847,"w":139,"h":139},
	"rotated": false,
	"trimmed": false,
	"spriteSourceSize": {"x":0,"y":0,"w":139,"h":139},
	"sourceSize": {"w":139,"h":139}
},
"glow_loop4_26":
{
	"frame": {"x":1415,"y":2847,"w":139,"h":139},
	"rotated": false,
	"trimmed": false,
	"spriteSourceSize": {"x":0,"y":0,"w":139,"h":139},
	"sourceSize": {"w":139,"h":139}
},
"glow_loop4_27":
{
	"frame": {"x":1558,"y":2906,"w":139,"h":139},
	"rotated": false,
	"trimmed": false,
	"spriteSourceSize": {"x":0,"y":0,"w":139,"h":139},
	"sourceSize": {"w":139,"h":139}
},
"glow_loop4_28":
{
	"frame": {"x":1701,"y":2960,"w":139,"h":139},
	"rotated": false,
	"trimmed": false,
	"spriteSourceSize": {"x":0,"y":0,"w":139,"h":139},
	"sourceSize": {"w":139,"h":139}
},
"glow_loop4_29":
{
	"frame": {"x":1844,"y":3051,"w":139,"h":139},
	"rotated": false,
	"trimmed": false,
	"spriteSourceSize": {"x":0,"y":0,"w":139,"h":139},
	"sourceSize": {"w":139,"h":139}
},
"glow_loop4_30":
{
	"frame": {"x":977,"y":3194,"w":139,"h":139},
	"rotated": false,
	"trimmed": false,
	"spriteSourceSize": {"x":0,"y":0,"w":139,"h":139},
	"sourceSize": {"w":139,"h":139}
},
"glow_loop4_31":
{
	"frame": {"x":977,"y":3049,"w":139,"h":139},
	"rotated": false,
	"trimmed": false,
	"spriteSourceSize": {"x":0,"y":0,"w":139,"h":139},
	"sourceSize": {"w":139,"h":139}
},
"glow_loop4_32":
{
	"frame": {"x":977,"y":3337,"w":139,"h":139},
	"rotated": false,
	"trimmed": false,
	"spriteSourceSize": {"x":0,"y":0,"w":139,"h":139},
	"sourceSize": {"w":139,"h":139}
},
"glow_loop4_33":
{
	"frame": {"x":977,"y":3480,"w":139,"h":139},
	"rotated": false,
	"trimmed": false,
	"spriteSourceSize": {"x":0,"y":0,"w":139,"h":139},
	"sourceSize": {"w":139,"h":139}
},
"glow_loop4_34":
{
	"frame": {"x":977,"y":3623,"w":139,"h":139},
	"rotated": false,
	"trimmed": false,
	"spriteSourceSize": {"x":0,"y":0,"w":139,"h":139},
	"sourceSize": {"w":139,"h":139}
},
"glow_loop4_35":
{
	"frame": {"x":986,"y":3766,"w":139,"h":139},
	"rotated": false,
	"trimmed": false,
	"spriteSourceSize": {"x":0,"y":0,"w":139,"h":139},
	"sourceSize": {"w":139,"h":139}
},
"glow_loop4_36":
{
	"frame": {"x":986,"y":3909,"w":139,"h":139},
	"rotated": false,
	"trimmed": false,
	"spriteSourceSize": {"x":0,"y":0,"w":139,"h":139},
	"sourceSize": {"w":139,"h":139}
},
"glow_loop4_37":
{
	"frame": {"x":1129,"y":2990,"w":139,"h":139},
	"rotated": false,
	"trimmed": false,
	"spriteSourceSize": {"x":0,"y":0,"w":139,"h":139},
	"sourceSize": {"w":139,"h":139}
},
"glow_loop4_38":
{
	"frame": {"x":1272,"y":2990,"w":139,"h":139},
	"rotated": false,
	"trimmed": false,
	"spriteSourceSize": {"x":0,"y":0,"w":139,"h":139},
	"sourceSize": {"w":139,"h":139}
},
"glow_loop4_39":
{
	"frame": {"x":1415,"y":2990,"w":139,"h":139},
	"rotated": false,
	"trimmed": false,
	"spriteSourceSize": {"x":0,"y":0,"w":139,"h":139},
	"sourceSize": {"w":139,"h":139}
},
"glow_loop4_40":
{
	"frame": {"x":1558,"y":3049,"w":139,"h":139},
	"rotated": false,
	"trimmed": false,
	"spriteSourceSize": {"x":0,"y":0,"w":139,"h":139},
	"sourceSize": {"w":139,"h":139}
},
"glow_loop4_41":
{
	"frame": {"x":1701,"y":3103,"w":139,"h":139},
	"rotated": false,
	"trimmed": false,
	"spriteSourceSize": {"x":0,"y":0,"w":139,"h":139},
	"sourceSize": {"w":139,"h":139}
},
"glow_loop4_42":
{
	"frame": {"x":1844,"y":3194,"w":139,"h":139},
	"rotated": false,
	"trimmed": false,
	"spriteSourceSize": {"x":0,"y":0,"w":139,"h":139},
	"sourceSize": {"w":139,"h":139}
},
"glow_loop4_43":
{
	"frame": {"x":1120,"y":3337,"w":139,"h":139},
	"rotated": false,
	"trimmed": false,
	"spriteSourceSize": {"x":0,"y":0,"w":139,"h":139},
	"sourceSize": {"w":139,"h":139}
}},
"animations": {
	"ball_fx_loop2": ["ball_fx_loop2_00","ball_fx_loop2_01","ball_fx_loop2_02","ball_fx_loop2_03","ball_fx_loop2_04","ball_fx_loop2_05","ball_fx_loop2_06","ball_fx_loop2_07","ball_fx_loop2_08","ball_fx_loop2_09","ball_fx_loop2_10","ball_fx_loop2_11","ball_fx_loop2_12","ball_fx_loop2_13","ball_fx_loop2_14","ball_fx_loop2_15","ball_fx_loop2_16","ball_fx_loop2_17","ball_fx_loop2_18","ball_fx_loop2_19","ball_fx_loop2_20","ball_fx_loop2_21"],
	"ball_fx_loop3": ["ball_fx_loop3_00","ball_fx_loop3_01","ball_fx_loop3_02","ball_fx_loop3_03","ball_fx_loop3_04","ball_fx_loop3_05","ball_fx_loop3_06","ball_fx_loop3_07","ball_fx_loop3_08","ball_fx_loop3_09","ball_fx_loop3_10","ball_fx_loop3_11","ball_fx_loop3_12","ball_fx_loop3_13","ball_fx_loop3_14","ball_fx_loop3_15","ball_fx_loop3_16","ball_fx_loop3_17","ball_fx_loop3_18","ball_fx_loop3_19","ball_fx_loop3_20","ball_fx_loop3_21","ball_fx_loop3_22","ball_fx_loop3_23","ball_fx_loop3_24","ball_fx_loop3_25","ball_fx_loop3_26","ball_fx_loop3_27","ball_fx_loop3_28","ball_fx_loop3_29","ball_fx_loop3_30","ball_fx_loop3_31","ball_fx_loop3_32","ball_fx_loop3_33","ball_fx_loop3_34","ball_fx_loop3_35","ball_fx_loop3_36","ball_fx_loop3_37","ball_fx_loop3_38","ball_fx_loop3_39","ball_fx_loop3_40","ball_fx_loop3_41","ball_fx_loop3_42"],
	"ball_fx_loop4": ["ball_fx_loop4_00","ball_fx_loop4_01","ball_fx_loop4_02","ball_fx_loop4_03","ball_fx_loop4_04","ball_fx_loop4_05","ball_fx_loop4_06","ball_fx_loop4_07","ball_fx_loop4_08","ball_fx_loop4_09","ball_fx_loop4_10","ball_fx_loop4_11","ball_fx_loop4_12","ball_fx_loop4_13","ball_fx_loop4_14","ball_fx_loop4_15","ball_fx_loop4_16","ball_fx_loop4_17","ball_fx_loop4_18","ball_fx_loop4_19","ball_fx_loop4_20","ball_fx_loop4_21","ball_fx_loop4_22","ball_fx_loop4_23","ball_fx_loop4_24","ball_fx_loop4_25","ball_fx_loop4_26","ball_fx_loop4_27","ball_fx_loop4_28","ball_fx_loop4_29","ball_fx_loop4_30","ball_fx_loop4_31","ball_fx_loop4_32","ball_fx_loop4_33","ball_fx_loop4_34","ball_fx_loop4_35","ball_fx_loop4_36","ball_fx_loop4_37","ball_fx_loop4_38","ball_fx_loop4_39","ball_fx_loop4_40","ball_fx_loop4_41","ball_fx_loop4_42","ball_fx_loop4_43"],
	"glow_loop2": ["glow_loop2_00","glow_loop2_01","glow_loop2_02","glow_loop2_03","glow_loop2_04","glow_loop2_05","glow_loop2_06","glow_loop2_07","glow_loop2_08","glow_loop2_09","glow_loop2_10","glow_loop2_11","glow_loop2_12","glow_loop2_13","glow_loop2_14","glow_loop2_15","glow_loop2_16","glow_loop2_17","glow_loop2_18","glow_loop2_19","glow_loop2_20","glow_loop2_21","glow_loop2_22","glow_loop2_23","glow_loop2_24","glow_loop2_25","glow_loop2_26","glow_loop2_27","glow_loop2_28","glow_loop2_29","glow_loop2_30","glow_loop2_31","glow_loop2_32","glow_loop2_33","glow_loop2_34","glow_loop2_35","glow_loop2_36","glow_loop2_37","glow_loop2_38","glow_loop2_39","glow_loop2_40","glow_loop2_41","glow_loop2_42","glow_loop2_43"],
	"glow_loop3": ["glow_loop3_00","glow_loop3_01","glow_loop3_02","glow_loop3_03","glow_loop3_04","glow_loop3_05","glow_loop3_06","glow_loop3_07","glow_loop3_08","glow_loop3_09","glow_loop3_10","glow_loop3_11","glow_loop3_12","glow_loop3_13","glow_loop3_14","glow_loop3_15","glow_loop3_16","glow_loop3_17","glow_loop3_18","glow_loop3_19","glow_loop3_20","glow_loop3_21","glow_loop3_22","glow_loop3_23","glow_loop3_24","glow_loop3_25","glow_loop3_26","glow_loop3_27","glow_loop3_28","glow_loop3_29","glow_loop3_30","glow_loop3_31","glow_loop3_32","glow_loop3_33","glow_loop3_34","glow_loop3_35","glow_loop3_36","glow_loop3_37","glow_loop3_38","glow_loop3_39","glow_loop3_40","glow_loop3_41","glow_loop3_42","glow_loop3_43"],
	"glow_loop4": ["glow_loop4_00","glow_loop4_01","glow_loop4_02","glow_loop4_03","glow_loop4_04","glow_loop4_05","glow_loop4_06","glow_loop4_07","glow_loop4_08","glow_loop4_09","glow_loop4_10","glow_loop4_11","glow_loop4_12","glow_loop4_13","glow_loop4_14","glow_loop4_15","glow_loop4_16","glow_loop4_17","glow_loop4_18","glow_loop4_19","glow_loop4_20","glow_loop4_21","glow_loop4_22","glow_loop4_23","glow_loop4_24","glow_loop4_25","glow_loop4_26","glow_loop4_27","glow_loop4_28","glow_loop4_29","glow_loop4_30","glow_loop4_31","glow_loop4_32","glow_loop4_33","glow_loop4_34","glow_loop4_35","glow_loop4_36","glow_loop4_37","glow_loop4_38","glow_loop4_39","glow_loop4_40","glow_loop4_41","glow_loop4_42","glow_loop4_43"]
},
"meta": {
	"app": "https://www.codeandweb.com/texturepacker",
	"version": "1.0",
	"image": "fwp_ballAnims.png",
	"format": "RGBA8888",
	"size": {"w":2048,"h":4096},
	"scale": "1",
	"smartupdate": "$TexturePacker:SmartUpdate:f85064f11273acd8465404beb76f6824:3b6e9f26d4400be85637517f81945ba7:a8c2884cce1f8e5653a3d5e89e6ae698$"
}
}
